<?xml version="1.0" encoding="utf-8"?>
<!-- Generator: Adobe Illustrator 21.1.0, SVG Export Plug-In . SVG Version: 6.00 Build 0)  -->
<svg version="1.1" id="Calque_1" xmlns="http://www.w3.org/2000/svg" xmlns:xlink="http://www.w3.org/1999/xlink" x="0px" y="0px"
	 viewBox="0 0 432 432" style="enable-background:new 0 0 432 432;" xml:space="preserve">
<style type="text/css">
	.st0{fill:#FBB03B;}
	.st1{fill:#AC5247;}
	.st2{fill:#F5967C;}
	.st3{fill:#962942;}
	.st4{fill:#E2896B;}
	.st5{fill:#D5ACAA;}
	.st6{fill:#DDCCC4;}
	.st7{fill:#F7C0AE;}
	.st8{fill:#1A1A1A;}
	.st9{fill:#0071BC;}
	.st10{fill:#7490A5;}
	.st11{fill:#D0876F;}
	.st12{fill:#E2AE74;}
	.st13{fill:#D14758;}
	.st14{fill:#D88460;}
	.st15{fill:#84422C;}
	.st16{fill:#3B4F84;}
	.st17{fill:#3F5584;}
	.st18{fill:#5796B4;}
	.st19{fill:#333333;}
	.st20{fill:#EB8390;}
	.st21{fill:#8A8DB4;}
	.st22{fill:#C4D0F0;}
	.st23{fill:#009245;}
	.st24{fill:#F7931E;}
	.st25{fill:#534741;}
	.st26{fill:#BF8271;}
	.st27{fill:#202749;}
	.st28{fill:#57678A;}
	.st29{fill:#F3A186;}
	.st30{fill:#C6966D;}
	.st31{fill:#516184;}
	.st32{fill:#5B8451;}
	.st33{fill:#C6836D;}
	.st34{fill:#C69C6D;}
	.st35{fill:#9B849C;}
	.st36{fill:#8CA562;}
	.st37{fill:#F5957C;}
	.st38{fill:#BC9688;}
	.st39{fill:#6E8DAF;}
	.st40{fill:#E28F74;}
	.st41{fill:#AF735E;}
	.st42{fill:#8193BB;}
	.st43{fill:#6F9147;}
	.st44{fill:#DD9F4E;}
	.st45{fill:#4F5F82;}
	.st46{fill:#52874F;}
	.st47{fill:#7A5D41;}
	.st48{fill:#808080;}
	.st49{fill:#98B58B;}
	.st50{fill:#E07F65;}
	.st51{fill:#736357;}
	.st52{fill:#E29774;}
	.st53{fill:#95543E;}
	.st54{fill:#66853E;}
	.st55{fill:#6B6871;}
	.st56{fill:#689B62;}
	.st57{fill:#A1BDBE;}
	.st58{fill:#999999;}
	.st59{fill:#A67C52;}
	.st60{fill:#E0D2BE;}
	.st61{fill:#A9B792;}
	.st62{fill:#7E8D66;}
	.st63{fill:#394587;}
	.st64{fill:#3E6D55;}
	.st65{fill:#3A735C;}
	.st66{fill:#C66B4C;}
	.st67{fill:#456C8C;}
	.st68{fill:#BF8E71;}
	.st69{fill:#6D9B65;}
	.st70{fill:#BF987D;}
	.st71{fill:#8F95B2;}
	.st72{fill:#5799A0;}
	.st73{fill:#857A71;}
	.st74{fill:#84686F;}
	.st75{fill:#E2B4A3;}
	.st76{fill:#718E9F;}
	.st77{fill:#B5748A;}
	.st78{fill:#A8766C;}
	.st79{fill:#9B657D;}
	.st80{fill:#9F6754;}
	.st81{fill:#11937F;}
	.st82{fill:#9A4B5E;}
	.st83{fill:#9AB580;}
	.st84{fill:#BD8579;}
	.st85{fill:#86A4B7;}
	.st86{fill:#6F9FB2;}
	.st87{fill:#B57E83;}
	.st88{fill:#B28C78;}
	.st89{fill:#254165;}
	.st90{fill:#79412E;}
	.st91{fill:#BA5A61;}
	.st92{fill:#4D4D4D;}
	.st93{fill:#96AF86;}
	.st94{fill:#EAAE60;}
	.st95{fill:#684033;}
	.st96{fill:#B57C6A;}
	.st97{fill:#C1272D;}
	.st98{fill:#447F7A;}
	.st99{fill:#7CBEB8;}
	.st100{fill:#76A3A1;}
	.st101{fill:#ECD580;}
	.st102{fill:#EB423D;}
	.st103{fill:#EE7A32;}
	.st104{fill:#9E8065;}
	.st105{fill:#231F20;}
	.st106{fill:#725740;}
	.st107{fill:#504657;}
	.st108{fill:#6A5B75;}
	.st109{fill:#BC842C;}
	.st110{fill:#673E46;}
	.st111{fill:#BB808C;}
	.st112{fill:#8E2C40;}
	.st113{fill:#75967E;}
	.st114{fill:#B9AA85;}
	.st115{fill:#9898AF;}
	.st116{fill:#9EC7C8;}
	.st117{fill:#BBBDBF;}
	.st118{fill:#CEACB4;}
	.st119{fill:#DC986F;}
	.st120{fill:#B01E69;}
	.st121{fill:#FFFFFF;}
	.st122{fill:#C19CAF;}
	.st123{fill:#B59736;}
	.st124{fill:#1E8C92;}
	.st125{fill:#9F4868;}
	.st126{fill:#A9B0CF;}
	.st127{fill:#B7768E;}
	.st128{fill:#617C68;}
	.st129{fill:#BB5666;}
	.st130{fill:#C3AEB5;}
</style>
<g>
	<g>
		<g>
			<g>
				<g>
					<g>
						<path class="st123" d="M160.5,178.8l-1.3,6.9l-5.9-0.1c-0.4-2.7-0.9-5.5-1.4-8.2c-0.5-2.8-1.2-5.5-1.9-8.2
							c-0.7-2.7-1.5-5.3-2.4-7.8c-0.9-2.5-1.8-4.9-2.9-7.1l6.3,0c0.5,3.6,1.1,6.7,1.6,9.4c0.6,2.7,1.1,4.9,1.6,6.8
							c0.5,1.9,0.9,3.4,1.3,4.5s0.7,1.9,0.9,2.4c0.4-0.8,0.7-1.7,1.1-2.5c0.3-0.8,0.7-1.6,1-2.4c0.3-0.8,0.6-1.7,1-2.5
							c0.3-0.9,0.7-1.8,1-2.8c0.4,1,0.7,1.9,1,2.8c0.3,0.9,0.6,1.7,1,2.5c0.3,0.8,0.6,1.6,1,2.4c0.3,0.8,0.7,1.6,1.1,2.5
							c0.2-0.4,0.5-1.2,0.8-2.3c0.4-1.1,0.8-2.6,1.3-4.4c0.5-1.9,1-4.2,1.6-6.9c0.6-2.7,1.1-5.9,1.7-9.6l6.1,0
							c-2,4.1-3.5,8-4.6,11.7c-1.1,3.7-1.9,7.1-2.5,10c-0.7,3.4-1.1,6.6-1.3,9.6l-5.9,0.1L160.5,178.8z"/>
						<path class="st123" d="M187.9,154.3c0.1,0.4,0.2,1.4,0.6,3.2c0.3,1.7,0.9,4,1.6,6.7c0.8,2.8,1.8,6,3.1,9.6
							c1.3,3.7,3,7.6,5,11.9h-6.6c-0.2-1.1-0.4-2.1-0.5-3c-0.2-0.9-0.3-1.7-0.5-2.4c-0.2-0.7-0.3-1.5-0.5-2.2
							c-0.2-0.7-0.4-1.4-0.6-2.2h-9.1c-0.2,0.8-0.4,1.5-0.6,2.2s-0.3,1.4-0.4,2.2c-0.1,0.7-0.3,1.6-0.4,2.4c-0.1,0.9-0.3,1.9-0.4,3
							h-6.3c1.1-2.3,2.2-4.8,3.2-7.5c1-2.7,2-5.4,2.8-8.1c0.9-2.8,1.6-5.5,2.2-8.2c0.6-2.7,1.1-5.2,1.5-7.6H187.9z M188.5,172.2
							c-0.3-1-0.6-2-0.9-3c-0.3-1-0.6-1.9-0.9-2.8s-0.6-1.7-0.9-2.5c-0.3-0.8-0.5-1.4-0.8-2c-0.2,0.6-0.5,1.2-0.8,2
							c-0.3,0.8-0.6,1.6-0.9,2.5s-0.6,1.8-0.9,2.8c-0.3,1-0.6,2-0.9,3H188.5z"/>
						<path class="st123" d="M207.9,154.3c-0.7,5-1.1,10.2-1.2,15.4c0,5.3,0.4,10.6,1.2,16h-6.2c0.8-5.3,1.2-10.6,1.2-15.9
							c0-5.3-0.4-10.5-1.2-15.6H207.9z"/>
						<path class="st123" d="M213.4,154.6c0.9,0.1,2,0.1,3.2,0.1c1.2,0,2.4,0,3.7,0c1.3,0,2.5,0,3.7,0c1.2,0,2.2-0.1,3.2-0.1
							c0.9-0.1,1.6-0.1,2.1-0.2v5.2c-2.2-0.5-4.3-0.8-6.3-0.9c-0.5,4.4-0.7,8.8-0.7,13.3c0,4.4,0.4,9,1.1,13.8h-6.2
							c0.7-4.8,1.1-9.4,1.1-13.8c0.1-4.5-0.2-8.9-0.7-13.2c-2,0.1-4.1,0.4-6.3,0.9v-5.2C211.8,154.4,212.4,154.5,213.4,154.6z"/>
					</g>
					<g>
						<path class="st123" d="M237.5,154.4c0.9,0.1,1.9,0.1,3,0.2c1.1,0.1,2.3,0.1,3.5,0.1c1.3,0,2.6,0,3.9,0c1.3,0,2.7-0.1,4-0.3
							v5.1c-1.6-0.3-3.2-0.5-4.6-0.6c-1.5-0.1-2.9-0.2-4.2-0.3c-0.1,1.1-0.3,2.2-0.4,3.3c-0.1,1.1-0.2,2.1-0.2,3.3
							c-0.1,1.1-0.1,2.2-0.1,3.4c0,1.2,0,2.5,0,3.8c0.9-0.1,1.8-0.2,2.7-0.3c0.9-0.1,1.9-0.3,2.9-0.6v5.2c-1-0.3-1.9-0.5-2.8-0.6
							c-0.9-0.1-1.8-0.2-2.6-0.3c0.1,1.6,0.2,3.1,0.3,4.7c0.2,1.6,0.4,3.3,0.6,5.2h-6.2c0.8-5.3,1.2-10.6,1.2-15.8
							C238.6,164.7,238.2,159.5,237.5,154.4z"/>
						<path class="st123" d="M253.4,170c0-3.5,0.5-6.4,1.5-8.8c1-2.3,2.2-4.1,3.7-5.3c1.5-1.2,3.1-1.7,4.8-1.7s3.3,0.6,4.8,1.7
							c1.5,1.2,2.7,2.9,3.7,5.3c1,2.3,1.5,5.3,1.5,8.8c0,1.1-0.1,2.3-0.2,3.5c-0.1,1.2-0.3,2.5-0.6,3.7s-0.7,2.4-1.3,3.5
							c-0.5,1.1-1.2,2.1-2.1,2.9c-0.8,0.8-1.7,1.4-2.8,1.7c-1,0.4-2.1,0.6-3.2,0.6c-1.1,0-2.2-0.2-3.2-0.6c-1-0.4-2-0.9-2.8-1.7
							c-0.8-0.8-1.5-1.8-2-2.9s-0.9-2.3-1.2-3.5c-0.3-1.2-0.5-2.5-0.6-3.7C253.4,172.3,253.4,171.1,253.4,170z M263.4,181.1
							c1.3,0,2.4-0.4,3.3-1.2c0.8-0.8,1.5-1.7,1.9-2.8s0.7-2.3,0.9-3.5c0.1-1.2,0.2-2.2,0.2-3c0-2.5-0.2-4.6-0.7-6.1
							c-0.4-1.5-1-2.7-1.7-3.5s-1.3-1.3-2.1-1.5c-0.7-0.2-1.3-0.4-1.9-0.4c-0.5,0-1.1,0.1-1.9,0.4c-0.7,0.2-1.4,0.8-2.1,1.6
							c-0.6,0.8-1.2,2-1.7,3.5c-0.5,1.5-0.7,3.6-0.6,6.1c0,0.5,0,1.2,0.1,1.9c0.1,0.7,0.2,1.5,0.3,2.3s0.4,1.5,0.7,2.3
							c0.3,0.7,0.7,1.4,1.1,2c0.5,0.6,1,1.1,1.7,1.4C261.7,180.9,262.5,181.1,263.4,181.1z"/>
						<path class="st123" d="M287.7,172.2c1.1,1.8,2.1,3.8,3,6.1c0.9,2.3,1.5,4.8,1.8,7.4h-6.2c0.3-2.2,0.3-4.2-0.1-6.3
							c-0.4-2-1.1-3.9-2.2-5.7c-0.4,0.1-0.8,0.2-1.3,0.3c-0.4,0.1-0.9,0.1-1.3,0.2c0.1,1.9,0.2,3.7,0.3,5.5s0.4,3.8,0.7,6h-6.2
							c0.8-5.2,1.2-10.5,1.2-15.7s-0.4-10.4-1.2-15.5c1,0,2-0.1,3.1-0.1c1-0.1,2.1,0,3.2,0.1c1.1,0.1,2.1,0.4,3.2,0.8
							c1.1,0.4,2.2,1.1,3.3,2c1.2,1,2.1,2.2,2.6,3.5c0.6,1.3,0.8,2.7,0.6,4.1c-0.1,1.4-0.6,2.7-1.4,4
							C290.2,170.2,289.1,171.3,287.7,172.2z M282.1,158.2c-0.2,1.9-0.4,3.9-0.5,5.9c-0.1,2-0.2,4.1-0.2,6.4
							c1.6-0.2,2.9-0.6,3.9-1.3c1-0.6,1.9-1.4,2.4-2.2c0.6-0.8,0.9-1.7,0.9-2.6c0-0.9-0.2-1.8-0.6-2.7c-0.5-0.8-1.2-1.6-2.2-2.2
							S283.6,158.5,282.1,158.2z"/>
					</g>
				</g>
				<g>
					<path class="st123" d="M106.7,210.9c0-3.5,0.5-6.4,1.5-8.8c1-2.3,2.2-4.1,3.7-5.3c1.5-1.2,3.1-1.7,4.8-1.7
						c1.7,0,3.3,0.6,4.8,1.7c1.5,1.2,2.7,2.9,3.7,5.3c1,2.3,1.5,5.3,1.5,8.8c0,1.1-0.1,2.3-0.2,3.5c-0.1,1.2-0.3,2.5-0.6,3.7
						c-0.3,1.2-0.7,2.4-1.3,3.5c-0.5,1.1-1.2,2.1-2.1,2.9c-0.8,0.8-1.7,1.4-2.8,1.7c-1,0.4-2.1,0.6-3.2,0.6c-1.1,0-2.2-0.2-3.2-0.6
						c-1-0.4-2-0.9-2.8-1.7c-0.8-0.8-1.5-1.8-2-2.9c-0.5-1.1-0.9-2.3-1.2-3.5c-0.3-1.2-0.5-2.5-0.6-3.7
						C106.7,213.2,106.7,212,106.7,210.9z M116.7,222c1.3,0,2.4-0.4,3.3-1.2c0.8-0.8,1.5-1.7,1.9-2.8s0.7-2.3,0.9-3.5
						c0.1-1.2,0.2-2.2,0.2-3c0-2.5-0.2-4.6-0.7-6.1c-0.4-1.5-1-2.7-1.7-3.5c-0.7-0.8-1.3-1.3-2.1-1.5c-0.7-0.2-1.3-0.4-1.9-0.4
						c-0.5,0-1.1,0.1-1.9,0.4c-0.7,0.2-1.4,0.8-2.1,1.6c-0.6,0.8-1.2,2-1.7,3.5c-0.5,1.5-0.7,3.6-0.6,6.1c0,0.5,0,1.2,0.1,1.9
						c0.1,0.7,0.2,1.5,0.3,2.3s0.4,1.5,0.7,2.3c0.3,0.7,0.7,1.4,1.1,2c0.5,0.6,1,1.1,1.7,1.4C115,221.8,115.8,222,116.7,222z"/>
					<path class="st123" d="M143.1,198.1c1,0.9,1.8,1.9,2.4,3c0.6,1.1,0.9,2.3,0.9,3.5c0,1.2-0.2,2.4-0.6,3.5
						c-0.4,1.2-1.1,2.2-2,3.2c-0.9,1-2.1,1.8-3.5,2.4c-1.4,0.7-3,1.1-4.8,1.3c0.1,1.9,0.2,3.7,0.3,5.6c0.2,1.8,0.4,3.8,0.7,6h-6.2
						c0.7-4.9,1.1-10,1.2-15.3s-0.4-10.6-1.2-16c1,0,2,0,3-0.1c1-0.1,2.1,0,3.2,0.1c1.1,0.1,2.2,0.4,3.3,0.8
						C140.9,196.5,142,197.2,143.1,198.1z M135.4,211.3c1.6-0.2,2.9-0.6,3.9-1.3c1-0.6,1.9-1.4,2.4-2.2c0.6-0.8,0.9-1.7,0.9-2.6
						s-0.2-1.8-0.6-2.7c-0.5-0.8-1.2-1.6-2.2-2.2c-1-0.6-2.2-1.1-3.8-1.3c-0.2,1.9-0.4,3.9-0.5,5.9
						C135.4,206.9,135.4,209.1,135.4,211.3z"/>
					<path class="st123" d="M162.8,198.1c1,0.9,1.8,1.9,2.4,3c0.6,1.1,0.9,2.3,0.9,3.5c0,1.2-0.2,2.4-0.6,3.5
						c-0.4,1.2-1.1,2.2-2,3.2c-0.9,1-2.1,1.8-3.5,2.4c-1.4,0.7-3,1.1-4.8,1.3c0.1,1.9,0.2,3.7,0.3,5.6c0.2,1.8,0.4,3.8,0.7,6h-6.2
						c0.7-4.9,1.1-10,1.2-15.3s-0.4-10.6-1.2-16c1,0,2,0,3-0.1c1-0.1,2.1,0,3.2,0.1c1.1,0.1,2.2,0.4,3.3,0.8
						C160.7,196.5,161.8,197.2,162.8,198.1z M155.1,211.3c1.6-0.2,2.9-0.6,3.9-1.3c1-0.6,1.9-1.4,2.4-2.2c0.6-0.8,0.9-1.7,0.9-2.6
						s-0.2-1.8-0.6-2.7c-0.5-0.8-1.2-1.6-2.2-2.2c-1-0.6-2.2-1.1-3.8-1.3c-0.2,1.9-0.4,3.9-0.5,5.9
						C155.2,206.9,155.1,209.1,155.1,211.3z"/>
					<path class="st123" d="M168.5,210.9c0-3.5,0.5-6.4,1.5-8.8c1-2.3,2.2-4.1,3.7-5.3c1.5-1.2,3.1-1.7,4.8-1.7s3.3,0.6,4.8,1.7
						c1.5,1.2,2.7,2.9,3.7,5.3c1,2.3,1.5,5.3,1.5,8.8c0,1.1-0.1,2.3-0.2,3.5c-0.1,1.2-0.3,2.5-0.6,3.7c-0.3,1.2-0.7,2.4-1.3,3.5
						c-0.5,1.1-1.2,2.1-2.1,2.9c-0.8,0.8-1.7,1.4-2.8,1.7c-1,0.4-2.1,0.6-3.2,0.6c-1.1,0-2.2-0.2-3.2-0.6c-1-0.4-2-0.9-2.8-1.7
						c-0.8-0.8-1.5-1.8-2-2.9s-0.9-2.3-1.2-3.5c-0.3-1.2-0.5-2.5-0.6-3.7C168.6,213.2,168.5,212,168.5,210.9z M178.6,222
						c1.3,0,2.4-0.4,3.3-1.2c0.8-0.8,1.5-1.7,1.9-2.8c0.4-1.1,0.7-2.3,0.9-3.5c0.1-1.2,0.2-2.2,0.2-3c0-2.5-0.2-4.6-0.7-6.1
						c-0.4-1.5-1-2.7-1.7-3.5c-0.7-0.8-1.3-1.3-2.1-1.5c-0.7-0.2-1.3-0.4-1.9-0.4c-0.5,0-1.1,0.1-1.9,0.4c-0.7,0.2-1.4,0.8-2.1,1.6
						c-0.6,0.8-1.2,2-1.7,3.5c-0.5,1.5-0.7,3.6-0.6,6.1c0,0.5,0,1.2,0.1,1.9c0.1,0.7,0.2,1.5,0.3,2.3s0.4,1.5,0.7,2.3
						c0.3,0.7,0.7,1.4,1.1,2c0.5,0.6,1,1.1,1.7,1.4C176.9,221.8,177.7,222,178.6,222z"/>
					<path class="st123" d="M202.8,213.1c1.1,1.8,2.1,3.8,3,6.1s1.5,4.8,1.8,7.4h-6.2c0.3-2.2,0.3-4.2-0.1-6.3
						c-0.4-2-1.1-3.9-2.2-5.7c-0.4,0.1-0.8,0.2-1.3,0.3c-0.4,0.1-0.9,0.1-1.3,0.2c0.1,1.9,0.2,3.7,0.3,5.5c0.2,1.8,0.4,3.8,0.7,6
						h-6.2c0.8-5.2,1.2-10.5,1.2-15.7c0-5.3-0.4-10.4-1.2-15.5c1,0,2-0.1,3.1-0.1c1-0.1,2.1,0,3.2,0.1c1.1,0.1,2.1,0.4,3.2,0.8
						c1.1,0.4,2.2,1.1,3.3,2c1.2,1,2.1,2.2,2.6,3.5c0.6,1.3,0.8,2.7,0.6,4.1c-0.1,1.4-0.6,2.7-1.4,4
						C205.4,211.1,204.3,212.2,202.8,213.1z M197.2,199.1c-0.2,1.9-0.4,3.9-0.5,5.9c-0.1,2-0.2,4.1-0.2,6.4c1.6-0.2,2.9-0.6,3.9-1.3
						c1-0.6,1.9-1.4,2.4-2.2c0.6-0.8,0.9-1.7,0.9-2.6c0-0.9-0.2-1.8-0.6-2.7c-0.5-0.8-1.2-1.6-2.2-2.2
						C200,199.8,198.8,199.4,197.2,199.1z"/>
					<path class="st123" d="M211.8,195.5c0.9,0.1,2,0.1,3.2,0.1c1.2,0,2.4,0,3.7,0s2.5,0,3.7,0c1.2,0,2.2-0.1,3.2-0.1
						c0.9-0.1,1.6-0.1,2.1-0.2v5.2c-2.2-0.5-4.3-0.8-6.3-0.9c-0.5,4.4-0.7,8.8-0.7,13.3c0,4.4,0.4,9,1.1,13.8h-6.2
						c0.7-4.8,1.1-9.4,1.1-13.8c0.1-4.5-0.2-8.9-0.7-13.2c-2,0.1-4.1,0.4-6.3,0.9v-5.2C210.2,195.4,210.8,195.4,211.8,195.5z"/>
					<path class="st123" d="M251.2,195.3c-0.3,2-0.5,4.2-0.7,6.6c-0.2,2.4-0.3,4.7-0.5,7c-0.2,2.3-0.4,4.6-0.8,6.7
						c-0.3,2.2-0.8,4.1-1.5,5.7c-0.6,1.6-1.5,3-2.6,3.9c-1.1,1-2.4,1.4-4.1,1.4c-1.9-0.1-3.3-0.7-4.5-1.6c-1.1-1-2-2.2-2.6-3.8
						c-0.6-1.6-1.1-3.4-1.4-5.5c-0.3-2.1-0.5-4.2-0.6-6.5c-0.1-2.3-0.3-4.6-0.4-7c-0.1-2.4-0.3-4.7-0.7-6.9h6.2
						c-0.2,1.4-0.4,3-0.6,4.9c-0.2,1.9-0.3,3.9-0.4,5.9c-0.1,2,0,4,0.1,6c0.1,2,0.3,3.8,0.7,5.3c0.4,1.6,0.9,2.8,1.5,3.8
						c0.7,1,1.5,1.5,2.6,1.5c0.7,0,1.4-0.3,1.9-0.9s1-1.4,1.3-2.5c0.3-1,0.6-2.3,0.8-3.7c0.2-1.4,0.4-2.8,0.4-4.4
						c0.1-1.5,0.1-3.1,0.1-4.7c0-1.6-0.1-3.1-0.2-4.6c-0.1-1.4-0.2-2.8-0.3-4c-0.1-1.2-0.2-2.2-0.3-2.9H251.2z"/>
					<path class="st123" d="M261.5,195.2c0.6,2,1.3,3.9,2,5.8c0.7,1.9,1.5,3.7,2.3,5.5c0.8,1.8,1.7,3.6,2.6,5.4s1.9,3.6,2.9,5.4
						c0.2-4.1,0.3-8,0.1-11.6c-0.2-3.6-0.5-7.1-1.1-10.6h6.2c-0.8,5.4-1.2,10.7-1.3,16c-0.1,5.3,0.2,10.4,1,15.5h-5.6
						c-0.6-2-1.3-3.9-2.1-5.8c-0.8-1.9-1.6-3.7-2.5-5.5c-0.9-1.8-1.8-3.6-2.8-5.4c-1-1.8-2-3.6-3-5.4c-0.2,4.2-0.3,8.1-0.1,11.7
						c0.2,3.6,0.5,7.1,1.1,10.5h-6.2c0.8-5.4,1.2-10.7,1.1-15.9c0-5.3-0.4-10.4-1.1-15.5H261.5z"/>
					<path class="st123" d="M288,195.2c-0.7,5-1.1,10.2-1.2,15.4c0,5.3,0.4,10.6,1.2,16h-6.2c0.8-5.3,1.2-10.6,1.2-15.9
						c0-5.3-0.4-10.5-1.2-15.6H288z"/>
					<path class="st123" d="M293.5,195.5c0.9,0.1,2,0.1,3.2,0.1c1.2,0,2.4,0,3.7,0s2.5,0,3.7,0c1.2,0,2.2-0.1,3.2-0.1
						c0.9-0.1,1.6-0.1,2.1-0.2v5.2c-2.2-0.5-4.3-0.8-6.3-0.9c-0.5,4.4-0.7,8.8-0.7,13.3c0,4.4,0.4,9,1.1,13.8h-6.2
						c0.7-4.8,1.1-9.4,1.1-13.8c0.1-4.5-0.2-8.9-0.7-13.2c-2,0.1-4.1,0.4-6.3,0.9v-5.2C291.9,195.4,292.6,195.4,293.5,195.5z"/>
					<path class="st123" d="M338.5,195.2c-2.8,4-5,7.6-6.7,10.7c-1.7,3.1-2.9,5.8-3.6,8.3c-0.7,2.5-1.1,4.7-1,6.7
						c0,2,0.4,3.9,0.9,5.8h-6.2c0.6-1.9,0.9-3.8,0.9-5.9c0-2-0.3-4.3-1.1-6.7c-0.7-2.5-1.9-5.2-3.6-8.3c-1.6-3-3.9-6.6-6.6-10.6
						l6.9,0c0.7,2,1.4,4,2.1,5.8c0.8,1.9,1.5,3.5,2.1,4.9c0.7,1.4,1.4,2.9,2.3,4.6c1-2.1,1.9-3.9,2.6-5.3c0.7-1.4,1.2-2.7,1.7-3.8
						s0.8-2.1,1.2-3.1s0.7-2,1.1-3.1L338.5,195.2z"/>
				</g>
			</g>
		</g>
		<g>
			<g>
				<path class="st124" d="M268.6,129.2c-0.3-0.1-0.8-0.1-1.1,0.1c-0.3,0.1-0.5,0.5-0.8,0.7c-1.2,1.4-2.3,2.8-3.4,4.2
					c-0.9,1.1-1.9,2.2-2.8,3.2c-0.6,0.6-1.2,1.1-2.1,1.2c-0.6-0.9-0.8-1.3-0.8-2.4c-0.1-1.7-0.1-3.4,0-5.1
					c0.4-6.3,0.6-12.6,0.4-18.9c-0.1-2.4-0.5-4.8-1.6-7c-2.5-5-7.7-5.9-11.6-2c-1,1-1.8,2.1-2.5,3.3c-2.5,4.1-4.7,8.3-6.4,12.7
					c-1.6,3.9-3.1,7.8-4.7,11.7c-0.1,0.4-0.3,0.7-0.5,1.1c-0.2-0.5-0.2-0.9-0.2-1.3c0.3-6.6,0.6-13.1,0.8-19.7
					c0.1-1.6,0-3.2-0.2-4.7c-0.1-0.9-0.4-1.9-0.7-2.7c-0.3-0.9-1-1.5-1.9-1.9c-1.4-0.5-2.9-0.1-4,1.1c-0.9,1-1.4,2.1-1.7,3.4
					c-0.4,1.7-0.7,3.5-0.9,5.3c-0.1,0.6-0.3,0.9-0.8,1.2c-1.3,0.9-2.6,1.9-4,2.8c-0.2,0.1-0.5,0.2-0.7,0.3c0-0.3-0.1-0.5-0.1-0.7
					c-0.8-5.3-2.6-10.2-5.8-14.5c-2.4-3.3-5.4-5.8-9.3-7.1c-2.9-1-5.9-1.5-9-0.8c-3.9,0.9-6.8,3.2-9,6.5c-2.1,3.3-3.1,7-2.9,11
					c0.2,4.2,1.6,8,4.6,11c0.5,0.5,0.6,0.9,0.5,1.6c-0.1,1.5-0.1,2.9-0.1,4.4c0,0.4-0.1,0.9-0.2,1.3c-1.1,2.5-2.3,5-3.5,7.4
					c-0.7,1.4-1.7,2.8-2.6,4.1c-0.7,1-1.7,1.7-2.8,2.1c-1.1,0.4-2.2,0.3-3.1-0.6c-0.8-0.8-1.6-1.7-2.2-2.7c-1.4-2.2-2.2-4.6-2.9-7.1
					c-1.3-4.8-1.4-9.7-1.5-14.6c0-0.5,0.3-0.8,0.6-1.1c4.5-4.5,8.3-9.6,11.4-15.1c4.2-7.5,6.7-15.5,6.4-24.3
					c-0.1-1.9-0.3-3.7-0.8-5.5c-0.5-1.6-1.1-3.1-2.3-4.4c-1.5-1.5-3.3-2.1-5.4-1.6c-1.7,0.4-3.1,1.3-4.4,2.3
					c-2.1,1.8-3.9,3.9-5.4,6.1c-2.8,4.1-4.7,8.7-6.1,13.5c-2.2,7.5-3.2,15.2-3.4,23.1c0,0.5,0,0.9-0.1,1.6c-0.3-0.3-0.4-0.5-0.5-0.6
					c-1.9-2.7-4.5-4.3-7.5-5.3c-1.9-0.7-3.9-0.6-5.8,0c-3.2,1-5.4,3.2-6.9,6.2c-3.1,6.2-3.5,12.7-2.1,19.3c0.7,3.6,2.1,6.9,4.6,9.6
					c1.6,1.8,3.5,3.2,5.8,4c3.4,1.1,6.4,0.4,9-2c1.2-1.1,2.1-2.4,2.7-3.9c0.9-2.2,1.8-4.5,2.6-6.7c0.1-0.3,0.2-0.6,0.4-1
					c0.2,0.6,0.4,1,0.6,1.5c0.9,2.6,2.1,5.1,3.8,7.4c1.7,2.3,3.7,4.2,6.3,5.4c3.1,1.4,6,1.1,8.5-1.1c0.8-0.7,1.6-1.5,2.2-2.4
					c0.8-1.2,1.5-2.4,2.2-3.7c0.9-1.9,1.8-3.8,2.7-5.7c0.1-0.3,0.3-0.5,0.4-0.8c0.1,0.1,0.1,0.1,0.2,0.1c0.1,0.3,0.3,0.7,0.4,1
					c1.5,3.6,3.9,6.4,7.2,8.5c5.3,3.3,11.3,2.4,15.5-2.1c1.5-1.7,2.8-3.6,3.7-5.6c2-4.4,3.2-9,3.4-13.9c0-0.7,0.3-1.1,0.8-1.5
					c1.1-0.8,2.3-1.7,3.4-2.6c0.2-0.2,0.4-0.3,0.8-0.5c0,0.3,0,0.5,0,0.7c-0.1,1.9-0.2,3.8-0.3,5.7c-0.2,4-0.2,8.1,0.4,12.1
					c0.3,2,0.9,3.8,2,5.5c0.6,1,1.5,1.8,2.6,2.2c1.6,0.7,3.3,0.3,4.4-1.1c0.4-0.5,0.7-1.1,0.9-1.6c0.4-0.9,0.7-1.8,1-2.8
					c1.5-4.2,2.8-8.5,4.4-12.7c1.5-4.1,3.5-8,6.1-11.6c0.8-1.1,1.8-2,2.7-3c0.5-0.5,1-0.8,1.8-0.9c0.1,0.4,0.3,0.8,0.4,1.1
					c0.2,1.3,0.4,2.6,0.4,3.9c0,3.6-0.1,7.3-0.1,10.9c0,2.7-0.1,5.3,0.4,7.9c0.5,2.5,1.1,5,2.3,7.3c0.7,1.4,1.6,2.6,2.8,3.5
					c2,1.5,4.1,1.6,6.2,0.3c0.7-0.5,1.4-1.1,2-1.7c2.7-2.9,4.6-6.3,6.7-9.6c0.2-0.3,0.3-0.6,0.4-1
					C269.2,129.8,269,129.4,268.6,129.2z M167,105.5c0.6-7.5,1.9-14.9,4.1-22.1c1.1-3.7,2.6-7.3,4.7-10.6c0.6-1,1.3-1.9,2.1-2.7
					c0.8-0.8,1.3-0.8,1.9,0.2c0.6,0.8,1.1,1.8,1.3,2.8c0.4,1.5,0.6,3,0.7,4.6c0.3,6.8-1.4,13.1-4.3,19.2
					c-2.6,5.6-6.2,10.6-10.2,15.2c-0.1,0.1-0.2,0.2-0.3,0.3c-0.1,0-0.2-0.1-0.2-0.1C166.8,110,166.9,107.8,167,105.5z M158,126.4
					c-0.9,2.5-1.8,5-2.8,7.4c-0.4,1.1-1,2-1.6,3c-0.4,0.6-0.8,1.2-1.4,1.6c-2,1.9-3.9,1.8-5.7-0.2c-1.5-1.6-2.5-3.6-3.2-5.6
					c-1.9-5.7-2.2-11.5-1-17.3c0.3-1.3,0.7-2.5,1.3-3.7c0.9-1.8,2.3-2.8,4.7-2.7c2.7,0.3,5.1,1.6,6.8,4.1c1.4,2.1,2.4,4.4,2.5,7
					c0.1,1.7,0.4,3.4,0.6,5.1C158.1,125.6,158.1,126.1,158,126.4z M212.6,125.4c-0.7,2.7-1.7,5.2-3.2,7.5c-0.9,1.3-1.9,2.5-3.2,3.5
					c-0.8,0.6-1.8,1.1-2.8,1.3c-1.1,0.2-2.1,0.1-3.1-0.5c-1.3-0.8-2.4-1.8-3.1-3.2c-1.2-2.2-2-4.6-2.2-7.2c0-0.3,0-0.5,0-1
					c6.6,0.7,12.6-1,18.2-4.6c0.1,0.1,0.2,0.1,0.3,0.2C213.2,122.6,213,124,212.6,125.4z M213.1,118.1c-5.3,3.2-10.8,4.2-16.7,1.9
					c-0.1-0.1-0.3-0.1-0.5-0.3c0.1-0.4,0.2-0.8,0.3-1.2c0.4-1.7,0.9-3.4,1.2-5.2c0.3-2-0.9-3.6-2.7-3.8c-0.7-0.1-1.5,0.1-2.2,0.4
					c-0.9,0.5-1.8,1.3-2.6,2c-0.3,0.2-0.5,0.6-0.8,0.9c-1-2.1-1.4-4.3-1.4-6.5c0-2.6,0.7-5,2.3-7.1c1.6-2.2,3.9-3.3,6.6-3.3
					c4.2-0.1,7.5,1.5,10.3,4.6c3.2,3.6,5,7.8,6.1,12.5c0.3,1.4,0.4,2.8,0.6,4.2C213.6,117.5,213.5,117.8,213.1,118.1z"/>
				<path class="st124" d="M327.7,87.5c-1-0.8-2.3-0.6-3.4,0.6c-1.2,1.4-2.7,2.2-4.4,2.9c-3.9,1.5-8,1.7-12.2,1.3
					c-6-0.6-11.8-1.9-17.4-3.9c-0.5-0.2-1-0.4-1.5-0.6c0.1-0.4,0.1-0.6,0.1-0.9c0.7-3,1.4-6,2-9c0.2-1.2,0.4-2.4,0.4-3.5
					c0-1.8-1.2-3.3-2.7-3.8c-1.7-0.5-3.2,0-4.4,1.4c-0.6,0.7-1.1,1.6-1.5,2.4c-0.7,1.9-1.3,3.9-1.9,5.9c-0.4,1.5-0.8,3-1.1,4.5
					c-0.3,0-0.5,0-0.8-0.1c-1.7-0.2-3.5-0.4-5.2-0.1c-2.5,0.4-4.8,1.2-6.6,2.9c-0.6,0.5-1.1,1.2-1.4,1.9c-0.4,0.7-0.4,1.5,0.2,2.2
					c0.6,0.6,1.3,0.7,2.1,0.5c0.5-0.1,1-0.4,1.4-0.6c2.9-1.4,5.9-1.1,8.9-0.1c0,0.4,0,0.7,0,1c-0.5,4.2-1.1,8.4-1.6,12.6
					c-0.6,5.5-1.2,11-1,16.6c0.2,4.3,0.6,8.5,1.8,12.7c0.7,2.4,1.7,4.7,3.4,6.6c2.5,2.6,5.4,3.3,8.8,2.1c2.8-1,5.1-2.8,6.9-5.1
					c2-2.7,4-5.4,5.9-8.2c0.2-0.3,0.4-0.7,0.6-1c0.2-0.5,0.1-0.9-0.2-1.3c-0.4-0.4-0.9-0.5-1.3-0.3c-0.4,0.2-0.8,0.5-1.2,0.8
					c-0.7,0.7-1.4,1.5-2.1,2.3c-1.7,1.9-3.3,3.8-5,5.7c-1,1.1-2.2,2-3.6,2.4c-2.3,0.7-3.3,0.2-3.9-2.1c-0.5-1.9-0.8-3.9-0.9-5.8
					c-0.5-6.5,0.1-12.9,0.7-19.3c0.5-4.8,1.1-9.6,1.7-14.4c0.1-0.5,0.2-1,0.3-1.5c4.4,1.3,8.6,2.5,13,3.3c4.4,0.8,8.9,1.3,13.3,0.7
					c3.4-0.4,6.6-1.5,9.5-3.4c1.8-1.2,3.5-2.6,4.6-4.5C328.8,89.6,328.6,88.3,327.7,87.5z"/>
				<path class="st124" d="M257.4,88.6c0.1,0.9,0.1,1.7,0.2,2.6c0.1,1,0.5,1.7,1.3,1.9c0.8,0.3,1.7,0,2.2-0.9c0.4-0.7,0.8-1.5,1-2.3
					c0.3-1.5,0.5-3.1,0.7-4.7c-0.1,0-0.1,0-0.2,0c0-0.5,0-1,0-1.4c-0.1-1.9-0.4-3.7-1.5-5.3c-0.5-0.8-1.2-1.6-2.1-2
					c-2.4-1.1-5,0.6-5,3.2c0,1.2,0.6,2.2,1.3,3.1C256.6,84.6,257.2,86.6,257.4,88.6z"/>
			</g>
			<g>
				<path class="st124" d="M286.6,241.7c-0.4-0.7-1-0.9-1.7-0.8c-0.4,0.1-0.9,0.2-1.2,0.4c-0.8,0.4-1.6,0.9-2.4,1.3
					c-1.5,0.8-2.9,1.7-4.4,2.3c-4.7,1.9-9.5,2.1-14.5,1.6c-6.7-0.7-13.3-1.8-19.9-3.4c-1.6-0.4-3.3-0.8-5-1.2
					c0.1-0.8,0.2-1.6,0.3-2.3c0.1-1,0.3-2,0.2-3c-0.1-1.2-0.2-2.5-0.6-3.6c-0.8-2.6-3.6-3.1-5.3-1c-0.6,0.7-1.2,1.5-1.6,2.4
					c-0.6,1.4-1.1,2.8-1.6,4.2c-0.1,0.4-0.3,0.8-0.4,1.2c-0.3,0-0.6-0.1-0.8-0.1c-3.2-0.4-6.4-0.6-9.6,0.1c-2.6,0.6-5,1.7-6.8,3.9
					c-0.4,0.5-0.8,1.1-1,1.7c-0.4,1,0.3,1.9,1.4,1.8c0.5-0.1,1.1-0.3,1.6-0.5c1.5-0.7,3.1-1.2,4.8-1.3c2.5-0.2,4.9,0.2,7.3,0.4
					c0.5,0.1,1.1,0.2,1.7,0.3c-0.3,1.5-0.5,2.9-0.7,4.3c-0.7,5.3-1.5,10.7-2.1,16c-0.4,4-0.5,8.1-0.7,12.1c0,0.5-0.2,1-0.5,1.4
					c-2.1,2.9-4.2,5.9-6.3,8.8c-0.8,1.1-1.7,2.2-2.6,3.3c-0.4,0.5-0.9,1-1.4,1.4c-1.2,0.9-1.8,0.9-2.8-0.3c-0.9-1.1-1.3-2.3-1.7-3.6
					c-0.7-2.7-0.7-5.5-0.6-8.3c0.2-4.9,0.8-9.7,1.9-14.5c0.3-1.4,0.4-2.8,0.1-4.2c-0.6-2.7-2.9-3.7-5.4-2.3
					c-1.3,0.7-2.2,1.9-2.9,3.2c-0.2,0.3-0.4,0.7-0.6,1.1c-0.2-0.3-0.4-0.5-0.5-0.8c-1.3-1.9-2.9-3.4-4.8-4.6
					c-0.8-0.5-1.7-0.9-2.6-1.2c-3.3-0.9-6.1,0.1-8.6,2.2c-1.2,1.1-2.2,2.4-3.1,3.7c-3,4.7-4.4,9.9-4.8,15.3
					c-0.2,2.2-0.1,4.4,0.2,6.5c0.1,0.7,0,1.1-0.6,1.6c-1,0.8-1.9,1.7-2.8,2.5c-1.2,1-2.3,2-3.6,2.9c-2.8,1.9-4.7,1.6-6.9-1.1
					c-3.3-4-3.6-8.8-3.4-13.6c0.2-0.1,0.2-0.2,0.3-0.2c0.3-0.1,0.6-0.2,0.9-0.3c3.1-1,6-2.4,8.3-4.9c3.2-3.4,3.3-8.8,0.3-12.4
					c-1.9-2.2-4.2-3.1-7.1-2.6c-2,0.4-3.8,1.4-5.3,2.8c-1.5,1.4-2.7,3-3.6,4.8c-2.7,5.5-3.8,11.2-2.9,17.3c0.1,0.4,0.1,0.9-0.1,1.2
					c-1.8,3.2-3.6,6.3-5.5,9.4c-0.5,0.9-1.4,1.7-2.2,2.3c-1.6,1.2-2.3,1-2.6-1c-0.3-1.5-0.4-3.1-0.4-4.6c0.2-5.3,1-10.5,1.7-15.7
					c0.3-2.4,0.6-4.9,0.7-7.3c0.1-1.6-0.2-3.2-0.9-4.7c-1.1-2.1-3-3.1-5.3-2.6c-1.1,0.3-2.3,0.8-3.3,1.3c-1.8,0.9-3.5,2-5.3,2.9
					c-1.3,0.6-2.7,1.1-4.1,1.6c-0.8,0.2-1.7,0.4-2.6,0c0-0.4,0-0.8,0-1.2c0-1.4,0-2.8-0.2-4.1c-0.4-2.6-1.5-4.9-3.5-6.7
					c-1.6-1.4-3.5-1.6-5.4-0.5c-0.9,0.5-1.6,1.2-2.2,2.1c-1,1.6-1.5,3.4-1.4,5.3c0.4,4.8,3,8.8,8.1,10.2c0.2,0.1,0.5,0.2,0.7,0.3
					c-0.2,0.7-0.4,1.3-0.6,1.9c-1.9,5.8-4.6,11.1-8.6,15.7c-1.4,1.6-2.9,3-4.7,4.1c-4.2,2.5-8.7,1.6-11.6-2.3
					c-1.5-2.1-2.3-4.4-2.7-6.9c-0.9-6.2,0.1-12.1,2.6-17.9c0.4-1,1.1-2,1.8-2.9c1.2-1.6,2.8-2,4.7-1.6c1.6,0.3,2.7,1.2,3,2.9
					c0.1,0.4,0.2,0.9,0.3,1.3c0.4,0.8,1.3,1,1.8,0.3c0.3-0.5,0.6-1.1,0.6-1.6c0.2-1.9-0.3-3.7-1.6-5.2c-1-1.1-2.2-1.9-3.6-2.4
					c-3.3-1.1-6.5-0.8-9.3,1.4c-2.5,1.9-4.3,4.4-5.6,7.3c-2.3,4.9-3.5,10-3.4,15.4c0.1,4.2,1.2,8.2,3.5,11.8
					c4.2,6.5,12.4,9.5,20.1,4.8c1.9-1.2,3.5-2.7,4.9-4.4c4.7-5.6,8-12,10.2-18.9c0.3-0.9,0.6-1.8,0.8-2.7c3.4-0.5,5.2-1.1,7.9-2.7
					c1.1-0.7,2.1-1.4,3.2-2.1c1.1-0.7,2.3-1.3,3.5-2c0.2-0.1,0.5-0.1,0.7-0.2c0,0.2,0,0.3,0,0.3c-0.2,0.5-0.3,1-0.5,1.5
					c-2.3,6.2-3.4,12.7-3.7,19.3c-0.1,3.6,0.5,7.2,1.9,10.5c0.8,1.8,1.9,3.3,3.5,4.4c2.6,1.8,5.4,1.8,7.8-0.2
					c1.1-0.9,2.1-2.1,2.9-3.2c1.5-2.1,2.6-4.4,3.6-6.8c0.3-0.8,0.7-1.6,1.1-2.4c0.2,0.1,0.2,0.1,0.2,0.2c0.2,0.3,0.3,0.6,0.4,1
					c1.6,3.5,4.1,6.4,7.3,8.5c3.7,2.4,7.9,2.2,11.3-0.6c1.1-0.9,2-1.9,2.9-2.9c1.1-1.2,2.2-2.5,3.3-3.7c0.2-0.2,0.4-0.3,0.6-0.5
					c0.2,0.5,0.4,0.8,0.5,1.2c1.1,2.4,2.6,4.4,4.8,5.9c3.5,2.4,9.4,3.2,13-2.3c0.3-0.5,0.6-0.9,0.9-1.4c0.8-1.5,1.6-2.9,2.4-4.4
					c0.2-0.4,0.4-0.7,0.7-1.2c0.6,1.5,1.1,2.8,1.7,4.1c1.1,2.3,2.6,4.2,4.7,5.7c3.2,2.2,6.6,1.9,9.2-1c0.9-1,1.6-2.1,2.3-3.1
					c1.9-3,3.8-6,5.7-8.9c0.2-0.2,0.4-0.4,0.6-0.8c0.1,0.3,0.1,0.5,0.1,0.6c0.4,3.1,1.1,6.1,2.3,9.1c0.8,2,1.8,3.9,3.4,5.4
					c2.6,2.5,6.3,2.6,8.8,0c0.9-0.9,1.7-2.1,2.4-3.2c0.8-1.3,1.5-2.8,2.3-4.2c0.2-0.3,0.4-0.7,0.6-1.1c0.2,0.5,0.3,0.8,0.5,1.1
					c0.8,2,2,3.8,3.6,5.3c3.8,3.6,9.2,4.4,13.8,1.7c2.5-1.5,4.8-3.3,6.6-5.6c1.8-2.2,3.5-4.5,5.2-6.8c0.1-0.2,0.2-0.3,0.3-0.5
					c0.3-0.5,0.1-1-0.3-1.4c-0.4-0.4-0.9-0.5-1.4-0.2c-0.3,0.1-0.5,0.3-0.7,0.6c-1.3,1.3-2.5,2.7-3.8,4c-1.3,1.3-2.5,2.7-3.9,3.8
					c-1.1,0.9-2.4,1.6-3.7,2.1c-1.7,0.7-3.2,0.2-4.4-1c-0.7-0.7-1.2-1.6-1.5-2.5c-0.5-1.4-0.9-2.9-1.3-4.3c-0.5-2.4-0.7-4.9-0.3-7.5
					c0.5,0,1,0,1.4,0c1.9,0,3.8-0.4,5.6-1.1c4-1.6,6.2-4.9,6.1-9c-0.1-3.7-2-6.4-5.1-8.1c-3.1-1.7-6-1.1-8.8,0.8
					c-0.1,0.1-0.3,0.2-0.4,0.3c-2.4,1.7-4.1,4.1-5.4,6.7c-2.6,5.2-3.6,10.8-2.9,16.6c0.1,1,0,1.8-0.5,2.7c-1,1.7-2,3.5-3,5.3
					c-0.5,0.8-1,1.5-1.5,2.3c-0.4,0.5-0.8,0.9-1.3,1.2c-1,0.7-1.8,0.5-2.4-0.6c-0.3-0.6-0.6-1.3-0.7-2c-0.6-3-0.9-6-1-9.1
					c0-3.8,0.5-7.5,0.8-11.3c0.7-8.1,1.7-16.1,2.9-24c0-0.2,0.1-0.4,0.2-0.7c0.4,0.1,0.7,0.1,1,0.2c8.8,2.1,17.7,3.4,26.8,3.5
					c7.4,0.1,14.1-2.1,20-6.6c0.8-0.6,1.4-1.3,2.1-1.9C286.9,243,287,242.4,286.6,241.7z M160.5,271.1c0.5-1.7,1-3.5,1.6-5.2
					c0.3-0.8,0.8-1.5,1.4-2.2c1.1-1.3,2.3-1.2,3.4,0c1.6,1.7,1.8,4.5,0.5,6.5c-0.5,0.8-1.3,1.5-2,2.1c-1.6,1.3-3.5,2-5.7,2.6
					C160,273.6,160.1,272.3,160.5,271.1z M117.9,264.6c-0.7-0.7-1.3-1.1-1.8-1.7c-1.2-1.3-1.8-2.9-2.1-4.6c-0.1-0.9-0.1-1.8,0.7-2.6
					c0.9,0.3,1.5,0.8,1.9,1.5C118,259.4,118.1,261.8,117.9,264.6z M199.4,269.9c-0.3,2-0.6,3.9-0.8,5.9c-0.2,2.5-0.1,5,0.3,7.4
					c0.1,0.5,0,0.9-0.2,1.3c-1.3,1.9-2.5,3.8-3.8,5.6c-0.6,0.9-1.5,1.6-2.4,2.2c-1.5,0.9-2.8,0.6-3.8-0.8c-0.6-0.8-1.1-1.7-1.4-2.6
					c-1-2.7-1.5-5.8-1.4-8.7c0.1-3.3,0.9-6.4,1.6-9.6c0.3-1.4,0.7-2.8,1.2-4.1c0.3-0.8,0.7-1.7,1.2-2.4c0.7-1.1,1.8-1.4,3-0.9
					c1.1,0.5,2.1,1.1,3,1.8c1.1,0.9,2,2.1,3.1,3.1C199.5,268.7,199.5,269.3,199.4,269.9z M257.2,266.7c0.1-0.2,0.3-0.4,0.5-0.5
					c0.7-0.8,1.1-0.8,2.1-0.3c2.3,1.2,3,4.4,1.5,6.6c-0.7,0.9-1.5,1.6-2.5,2.1c-1.7,0.9-3.6,1.1-5.7,1.2
					C254,272.4,255.4,269.4,257.2,266.7z"/>
				<path class="st124" d="M327.3,253.6c-0.2,1.5-0.5,3-0.6,4.4c-0.6,6.5-1.2,13.1-1.6,19.6c-0.3,3.8-0.3,7.6,0.4,11.4
					c0.4,2,0.9,3.9,2.3,5.5c1.2,1.4,2.3,1.7,3.9,0.9c0.8-0.4,1.6-0.9,2.2-1.6c1-1.1,1.9-2.2,2.8-3.4c1.6-2.2,3.1-4.5,4.6-6.8
					c0.2-0.3,0.4-0.6,0.6-0.9c0.5-0.5,1.1-0.6,1.6-0.3c0.5,0.3,0.7,0.9,0.4,1.6c-0.1,0.1-0.1,0.3-0.2,0.4c-1.7,2.9-3.3,5.8-5,8.6
					c-1.2,1.9-2.7,3.6-4.4,5.1c-1.3,1.1-2.8,1.8-4.5,2.1c-1.8,0.3-3.5,0-5-0.9c-2.5-1.5-4.4-3.7-5.8-6.3c-1.2-2.3-1.9-4.8-2.4-7.3
					c0-0.2-0.1-0.4-0.2-0.8c-0.3,0.4-0.5,0.7-0.7,1c-1.6,2.7-3.1,5.4-4.7,8.1c-0.7,1.1-1.4,2.2-2.2,3.2c-1,1.4-2.4,2.4-4,3.1
					c-2.5,1.1-4.9,0.7-7-1.1c-1.9-1.6-3.1-3.7-3.9-6c-1.2-3.5-1.6-7.1-1.3-10.8c0.4-4.8,1.3-9.6,2.6-14.2c0.3-1.2,0.8-2.3,1.4-3.4
					c0.6-1.2,1.7-2,3.1-2.2c2.5-0.4,4.6,1.4,4.7,4.1c0.1,1.8-0.3,3.6-0.6,5.4c-0.7,4.2-1.4,8.4-1.9,12.7c-0.4,3.1-0.6,6.2,0.1,9.2
					c0.1,0.3,0.1,0.5,0.2,0.8c0.4,1.3,1.2,1.7,2.4,1c0.8-0.5,1.6-1.1,2.3-1.9c1-1.2,1.9-2.5,2.8-3.8c1.7-2.6,3.4-5.4,5.2-8
					c0.8-1.1,1.1-2.2,1-3.6c-0.2-4.4,0-8.7,0.4-13c0.5-4.8,1.1-9.7,1.7-14.5c0-0.1,0-0.1-0.1-0.3c-0.3-0.1-0.6-0.2-0.8-0.2
					c-1.9-0.1-3.8-0.1-5.7,0.3c-1.6,0.3-2.7-0.1-3.3-1.2c-0.6-1.1-0.3-2.5,0.9-3.5c0.9-0.7,2-1.4,3-1.8c1.9-0.8,3.8-1.2,5.9-1.3
					c0.5,0,0.9-0.1,1.5-0.1c0.1-0.3,0.2-0.7,0.3-1c0.6-2,1-4.1,1.7-6.1c0.3-1,0.8-2.1,1.4-3c0.5-0.8,1.3-1.5,2.1-1.9
					c2.3-1.3,4.9-0.1,5.5,2.5c0.3,1.3,0.1,2.6-0.1,3.9c-0.4,2.3-1,4.6-1.4,7c0,0.2-0.1,0.5-0.1,0.8c0.2,0.1,0.5,0.3,0.7,0.4
					c1.5,0.8,3,1.6,4.5,2.4c2.8,1.5,5.7,2.7,8.9,3.3c4.7,0.8,9.1,0.1,13.1-2.7c0.7-0.5,1.4-0.8,2.2-1.1c0.7-0.3,1.5-0.2,2.1,0.4
					c0.6,0.7,0.5,1.4,0.1,2.1c-0.4,0.6-0.8,1.2-1.3,1.7c-2.6,2.4-5.7,3.9-9.2,4.8c-6.4,1.6-12.6,0.8-18.7-1.5
					c-1.1-0.4-2.3-0.9-3.4-1.3C327.7,253.7,327.6,253.7,327.3,253.6z"/>
				<path class="st124" d="M295.5,251.3c0.1-0.7,0.1-1.4,0.3-2.1c0.8-2.9,4-4,6.4-2.3c1.9,1.3,2.9,4.4,2.1,6.6
					c-0.6,1.7-1.9,2.6-3.6,2.8c-1.7,0.3-3.1-0.4-4.1-1.8C295.8,253.6,295.5,252.5,295.5,251.3z"/>
			</g>
		</g>
	</g>
	<g>
		<path class="st123" d="M238,324.8c-0.4-0.3-1-0.6-1.5-0.7c-1.8-0.4-3.6-0.8-5.4-0.9c-1.1-0.1-5.1-0.3-10.5,1
			c-2.1,0.6-4.2,1.5-6.2,2.8c-0.9,0.6-1.8,1.1-2.7,1.6c-0.8,0.4-1.6,0.7-2.5,1.2c0.1-1,0.4-1.8,0.2-2.4c-0.3-1.4-0.5-2.8,0.5-4
			c0.1-0.2,2.8-3.3-1-0.8c-0.8,0.5-1.5,0.6-2.3,0.5c-2.4-0.2-4.3,0.8-5.7,2.7c-0.4,0.6-0.9,1.3-1.4,1.9c-0.6,0.8-1.1,0.9-1.9,0.5
			c-0.8-0.4-1.6-0.9-2.3-1.5c-1.3-1.2-2.5-2.5-3.7-3.7c-2.7-2.8-5.6-5.2-9-7c-4.7-2.6-9.8-4-15.1-4.6c-1-0.1-1.9-0.1-2.9,0
			c-0.4,0-0.9,0.4-1,0.7c-0.1,0.3,0.2,0.9,0.4,1.2c0.5,0.5,1.1,0.8,1.7,1.2c2.1,1.3,3.9,2.8,5,5.2c0.6,1.4,1.7,2.4,3.2,2.9
			c1.1,0.4,1.6,1,1.8,2.2c0.2,1.5,1,2.7,2.5,3.4c0.4,0.2,0.7,0.4,0.9,0.8c1.1,1.9,3.1,2.9,4.4,4.6c0.1,0.1,0.3,0.2,0.5,0.3
			c1.2,0.6,2,1.5,2.4,2.7c0.4,0.8,1.1,1.2,1.9,1.6c5.4,2.3,2.4,6.6,2.4,6.6c-1.4,2.3-3.4,4.1-5.8,5.5c-2,1.2-4.2,2.1-6.3,3.1
			c-0.5,0.3-1.1,0.5-1.6,0.8c-0.5,0.3-0.8,0.7-0.7,1.2c0.2,0.6,0.7,0.8,1.2,0.7c0.6,0,1.2,0,1.8-0.2c2-0.7,4.1-1.4,6.1-2.2
			c0.8-0.3,1.7-0.7,2.7-1.1c0.1,0.8,0.3,1.5,0.4,2.1c0.1,1.4,0.1,2.9,0,4.3c0,1.7-0.1,3.5,0,5.2c0,0.7,0.1,1.4,0.3,2
			c0.1,0.5,0.3,1.1,1,1.2c0.7,0.1,1-0.5,1.1-1c0.3-0.8,0.5-1.7,0.7-2.5c0.8-3,1.5-6,2.5-8.9c1.3-4.1,3.4-7.7,6.2-11
			c1.2-1.5,2.6-2.4,4.7-2c1.1,0.2,2.1-0.1,3-0.8c0.7-0.6,1.5-0.9,2.4-0.8c1.2,0.1,2.3-0.3,3.2-1.1c0.7-0.6,1.6-0.9,2.5-1
			c1.5-0.1,2.6-0.7,3.6-1.8c0.3-0.4,0.8-0.7,1.2-0.8c1.4-0.3,2.4-1.1,3.4-2.1c0.8-0.9,1.9-1.4,3-1.8c0.9-0.3,1.9-0.8,2.6-1.4
			c1.5-1.4,3.2-2.2,5.3-2.5c0.9-0.1,1.8-0.4,2.6-0.8C238.7,326.4,238.8,325.4,238,324.8z"/>
		<path class="st123" d="M343.8,338.4c-0.1-0.3-0.2-0.6-0.4-0.9c-0.6-0.8-1.2-1.7-1.9-2.5c-0.4-0.4-2-2.1-4.8-3.6
			c-1.1-0.6-2.4-0.9-3.7-1.2c-0.6-0.1-1.2-0.2-1.8-0.4c-0.5-0.1-0.9-0.3-1.5-0.5c0.4-0.4,0.8-0.6,1-0.9c0.4-0.7,0.9-1.4,1.8-1.5
			c0.1,0,2.4-0.4-0.1-0.7c-0.5-0.1-0.9-0.3-1.2-0.7c-0.9-1-2.1-1.3-3.4-1c-0.4,0.1-0.9,0.2-1.3,0.3c-0.5,0.1-0.8,0-1-0.5
			c-0.2-0.5-0.3-1-0.4-1.5c-0.1-1-0.1-2-0.1-3c-0.1-2.2-0.4-4.3-1.1-6.4c-1-2.9-2.6-5.4-4.6-7.7c-0.4-0.4-0.8-0.8-1.2-1.1
			c-0.2-0.1-0.5-0.2-0.7-0.1c-0.2,0.1-0.3,0.4-0.3,0.7c0,0.4,0.1,0.8,0.3,1.1c0.4,1.4,0.6,2.7,0.1,4.1c-0.3,0.8-0.2,1.7,0.2,2.4
			c0.3,0.6,0.3,1.1-0.1,1.6c-0.5,0.7-0.6,1.5-0.2,2.4c0.1,0.2,0.1,0.5,0.1,0.7c-0.3,1.2,0.2,2.4,0.1,3.6c0,0.1,0,0.2,0.1,0.3
			c0.3,0.7,0.3,1.4,0,2.1c-0.2,0.5,0,0.9,0.2,1.4c1.4,3-1.5,3.7-1.5,3.7c-1.5,0.4-3,0.4-4.5,0.1c-1.3-0.3-2.6-0.7-3.9-1.1
			c-0.3-0.1-0.7-0.2-1-0.3c-0.3-0.1-0.6,0-0.7,0.3c-0.2,0.3,0,0.6,0.2,0.8c0.3,0.2,0.5,0.5,0.8,0.6c1.1,0.5,2.3,1,3.4,1.4
			c0.5,0.2,1,0.3,1.6,0.5c-0.3,0.4-0.4,0.7-0.6,1c-0.5,0.6-1.1,1.2-1.6,1.8c-0.7,0.7-1.4,1.5-2,2.2c-0.3,0.3-0.5,0.6-0.7,1
			c-0.2,0.3-0.3,0.6,0,0.9c0.3,0.3,0.6,0.2,0.9,0c0.4-0.2,0.9-0.5,1.3-0.8c1.5-0.9,2.9-1.9,4.4-2.8c2.1-1.2,4.4-1.9,6.8-2.3
			c1.1-0.2,2,0,2.7,0.9c0.4,0.5,0.9,0.8,1.6,0.8c0.5,0,1,0.2,1.3,0.6c0.5,0.5,1.1,0.7,1.8,0.8c0.5,0,1,0.2,1.4,0.5
			c0.6,0.5,1.4,0.7,2.2,0.6c0.3,0,0.6,0,0.8,0.1c0.7,0.4,1.4,0.5,2.2,0.4c0.7-0.1,1.3,0.1,2,0.4c0.5,0.2,1.1,0.4,1.7,0.4
			c1.2,0,2.2,0.3,3.2,1c0.4,0.3,0.9,0.5,1.4,0.6C343.6,339.4,343.9,339,343.8,338.4z"/>
		<path class="st123" d="M273,327.9c-1.2-0.3-2.4-0.7-3.6-0.9c-1.6-0.3-3.1,0.3-4.3,1.3c-0.2,0.2-0.4,0.4-0.8,0.7c0-0.4,0-0.6,0-0.7
			c0-0.6,0-1.2,0-1.8c0-2.1-0.7-3.8-2-5.4c-1.4-1.8-3.2-3.3-5-4.6c-2.1-1.5-4.1-3.1-6.2-4.6c-0.5-0.4-1.1-0.7-1.7-1
			c-0.2-0.1-0.6-0.2-0.7,0.1c-0.1,0.2,0,0.5,0.1,0.6c0.3,0.4,0.6,0.8,1,1.1c1,0.9,2,1.7,3,2.6c0.8,0.7,1.5,1.5,2.2,2.3
			c0.2,0.2,0.3,0.6,0.4,0.8c0.2,0.4,0.4,0.8,0.6,1.1c0.3,0.4,0.5,0.8,0.6,1.3c0.2,0.8,0.6,1.6,0.8,2.4c0.1,0.4,0.2,0.8,0.2,1.2
			c-0.2,1,0,2,0.6,2.8c0.5,0.7,0.6,1.5,0.2,2.3c-0.2,0.4-0.2,1-0.3,1.4c0,1-0.5,1.7-1.4,2.1c-0.7,0.3-1.4,0.6-2.1,0.9
			c-1.5,0.5-2.9,1-4.4,1.6c-2.8,1.1-5.6,1.3-8.5,0.6c-1.3-0.3-2.6-0.8-3.9-1.2c-0.3-0.1-0.7-0.3-1,0.2c0.5,0.7,1.4,0.9,2.1,1.3
			c0.7,0.4,1.4,0.7,2.2,1.1c0.8,0.3,1.6,0.6,2.3,0.9c0.8,0.2,1.5,0.4,2.3,0.6c-1.9,1.6-3.9,3.2-5.8,4.8c-1.1,1-2.1,2.1-3.1,3.3
			c-0.2,0.3-0.4,0.6-0.5,1c-0.1,0.5,0.2,0.7,0.7,0.6c0.2-0.1,0.4-0.3,0.6-0.4c2.5-2.1,5.2-3.9,8-5.7c0.8-0.5,1.7-1,2.6-1.4
			c1.1-0.5,2.2-0.9,3.2-1.4c1.1-0.5,2.2-0.7,3.4-0.7c1.1,0,2.3,0,3.4,0c0.8,0,1,0.2,0.9,1c-0.2,0.9-0.6,1.7-1.2,2.5
			c-0.7,0.9-1.4,1.9-2.1,2.8c-0.2,0.2-0.3,0.4-0.5,0.6c-0.7,0.6-1.2,1.4-1.7,2.2c-0.2,0.4-0.6,0.8-0.9,1.1c-0.8,0.5-1.4,1.2-1.9,2.1
			c-0.4,0.7-1,1.3-1.8,1.7c-0.9,0.5-1.7,1.3-2.3,2.2c-0.7,0.9-1.4,1.6-2.4,2.1c-0.1,0-0.1,0.1-0.2,0.1c-0.3,0.2-0.6,0.4-0.4,0.8
			c0.2,0.4,0.5,0.3,0.8,0.2c0.8-0.3,1.7-0.5,2.5-0.9c2.7-1.4,5-3.2,7.2-5.2c1.8-1.6,3.6-3.1,5.7-4.2c3.2-1.7,5-4.3,6.1-7.7
			c0.2-0.7,0.4-1.4,0.7-2.2c0.3-1,0.9-1.8,1.7-2.4c0.7-0.5,1.4-1.1,2.1-1.7c1-0.9,1.5-2.1,1.7-3.4c0.1-0.7,0.2-1.3,0.9-1.7
			c0.1-0.1,0.3-0.2,0.3-0.4C273.4,328.2,273.4,328,273,327.9z"/>
		<g>
			<g>
				<path class="st123" d="M189.4,246.3c-5.9-6.6-15.8-8.4-24.3-9.4c-11-1.2-22.1-0.1-33,1.1c-10.8,1.2-21.6,2.6-32.5,2.1
					c-6.3-0.3-13.6-0.7-19.2-4.1c-5.9-3.6-9.6-12.8-2-16.9c1.6-0.9,0.2-3.4-1.5-2.5c-8.1,4.4-6.8,14.7-0.5,20.1
					c8.5,7.3,22.9,6.7,33.3,6.3c13.2-0.6,26.2-2.9,39.3-3.5c11.8-0.5,29.6-0.7,38.2,8.9C188.6,249.7,190.6,247.7,189.4,246.3
					L189.4,246.3z"/>
			</g>
			<g>
				<path class="st123" d="M176.7,339.7c-13.4-12-30-20.1-47.7-23.3c-9-1.6-17.9-1.7-27.1-1.3c-10.3,0.4-24.1-0.5-27.6-12.3
					c-0.5-1.8-3.3-1-2.8,0.8c5.8,19.5,31.2,13.3,46.1,14.4c21.1,1.4,41.3,9.8,57.1,23.9C176.1,343,178.1,341,176.7,339.7
					L176.7,339.7z"/>
			</g>
			<g>
				<path class="st123" d="M160.7,342.4c-7.4-7.5-19.9-14.9-30.9-12.8c-8.6,1.6-12.7,11.8-5.4,17.8c1.4,1.2,3.5-0.9,2.1-2.1
					c-3.9-3.2-4.1-9,0.6-11.7c3.7-2.2,8.5-1.4,12.5-0.3c7.3,1.9,13.8,5.8,19.1,11.2C159.9,345.7,162,343.7,160.7,342.4L160.7,342.4z
					"/>
			</g>
		</g>
	</g>
</g>
</svg>
