<?xml version="1.0" encoding="utf-8"?>
<!-- Generator: Adobe Illustrator 21.1.0, SVG Export Plug-In . SVG Version: 6.00 Build 0)  -->
<svg version="1.1" id="Calque_1" xmlns="http://www.w3.org/2000/svg" xmlns:xlink="http://www.w3.org/1999/xlink" x="0px" y="0px"
	 viewBox="0 0 432 432" style="enable-background:new 0 0 432 432;" xml:space="preserve">
<style type="text/css">
	.st0{fill:#FBB03B;}
	.st1{fill:#AC5247;}
	.st2{fill:#F5967C;}
	.st3{fill:#962942;}
	.st4{fill:#E2896B;}
	.st5{fill:#D5ACAA;}
	.st6{fill:#DDCCC4;}
	.st7{fill:#F7C0AE;}
	.st8{fill:#1A1A1A;}
	.st9{fill:#0071BC;}
	.st10{fill:#7490A5;}
	.st11{fill:#D0876F;}
	.st12{fill:#E2AE74;}
	.st13{fill:#D14758;}
	.st14{fill:#D88460;}
	.st15{fill:#84422C;}
	.st16{fill:#3B4F84;}
	.st17{fill:#3F5584;}
	.st18{fill:#5796B4;}
	.st19{fill:#333333;}
	.st20{fill:#EB8390;}
	.st21{fill:#8A8DB4;}
	.st22{fill:#C4D0F0;}
	.st23{fill:#009245;}
	.st24{fill:#F7931E;}
	.st25{fill:#534741;}
	.st26{fill:#BF8271;}
	.st27{fill:#202749;}
	.st28{fill:#57678A;}
	.st29{fill:#F3A186;}
	.st30{fill:#C6966D;}
	.st31{fill:#516184;}
	.st32{fill:#5B8451;}
	.st33{fill:#C6836D;}
	.st34{fill:#C69C6D;}
	.st35{fill:#9B849C;}
	.st36{fill:#8CA562;}
	.st37{fill:#F5957C;}
	.st38{fill:#BC9688;}
	.st39{fill:#6E8DAF;}
	.st40{fill:#E28F74;}
	.st41{fill:#AF735E;}
	.st42{fill:#8193BB;}
	.st43{fill:#6F9147;}
	.st44{fill:#DD9F4E;}
	.st45{fill:#4F5F82;}
	.st46{fill:#52874F;}
	.st47{fill:#7A5D41;}
	.st48{fill:#808080;}
	.st49{fill:#98B58B;}
	.st50{fill:#E07F65;}
	.st51{fill:#736357;}
	.st52{fill:#E29774;}
	.st53{fill:#95543E;}
	.st54{fill:#66853E;}
	.st55{fill:#6B6871;}
	.st56{fill:#689B62;}
	.st57{fill:#A1BDBE;}
	.st58{fill:#999999;}
	.st59{fill:#A67C52;}
	.st60{fill:#E0D2BE;}
	.st61{fill:#A9B792;}
	.st62{fill:#7E8D66;}
	.st63{fill:#394587;}
	.st64{fill:#3E6D55;}
	.st65{fill:#3A735C;}
	.st66{fill:#C66B4C;}
	.st67{fill:#456C8C;}
	.st68{fill:#BF8E71;}
	.st69{fill:#6D9B65;}
	.st70{fill:#BF987D;}
	.st71{fill:#8F95B2;}
	.st72{fill:#5799A0;}
	.st73{fill:#857A71;}
	.st74{fill:#84686F;}
	.st75{fill:#E2B4A3;}
	.st76{fill:#718E9F;}
	.st77{fill:#B5748A;}
	.st78{fill:#A8766C;}
	.st79{fill:#9B657D;}
	.st80{fill:#9F6754;}
	.st81{fill:#11937F;}
	.st82{fill:#9A4B5E;}
	.st83{fill:#9AB580;}
	.st84{fill:#BD8579;}
	.st85{fill:#86A4B7;}
	.st86{fill:#6F9FB2;}
	.st87{fill:#B57E83;}
	.st88{fill:#B28C78;}
	.st89{fill:#254165;}
	.st90{fill:#79412E;}
	.st91{fill:#BA5A61;}
	.st92{fill:#4D4D4D;}
	.st93{fill:#96AF86;}
	.st94{fill:#EAAE60;}
	.st95{fill:#684033;}
	.st96{fill:#B57C6A;}
	.st97{fill:#C1272D;}
	.st98{fill:#447F7A;}
	.st99{fill:#7CBEB8;}
	.st100{fill:#76A3A1;}
	.st101{fill:#ECD580;}
	.st102{fill:#EB423D;}
	.st103{fill:#EE7A32;}
	.st104{fill:#9E8065;}
	.st105{fill:#231F20;}
	.st106{fill:#725740;}
	.st107{fill:#504657;}
	.st108{fill:#6A5B75;}
	.st109{fill:#BC842C;}
	.st110{fill:#673E46;}
	.st111{fill:#BB808C;}
	.st112{fill:#8E2C40;}
	.st113{fill:#75967E;}
	.st114{fill:#B9AA85;}
	.st115{fill:#9898AF;}
	.st116{fill:#9EC7C8;}
	.st117{fill:#BBBDBF;}
	.st118{fill:#CEACB4;}
	.st119{fill:#DC986F;}
	.st120{fill:#B01E69;}
	.st121{fill:#FFFFFF;}
	.st122{fill:#C19CAF;}
	.st123{fill:#B59736;}
	.st124{fill:#1E8C92;}
	.st125{fill:#9F4868;}
	.st126{fill:#A9B0CF;}
	.st127{fill:#B7768E;}
	.st128{fill:#617C68;}
	.st129{fill:#BB5666;}
	.st130{fill:#C3AEB5;}
</style>
<g>
	<g>
		<path class="st8" d="M240.8,220.6c0.2,1,0.4,1.9,0.7,2.8c0.9,3.2,2.2,6.1,4.3,8.7c1.5,1.8,3.3,3.2,5.4,4.2
			c2.5,1.1,5.1,0.9,7.4-0.5c2.3-1.4,4.1-3.4,5.6-5.7c2.3-3.5,3.9-7.3,5.1-11.2c1.4-4.5,2.3-9.1,2.9-13.8c0.1-1,0.2-1.9,0.3-3
			c-0.5,0.1-0.8,0.3-1.1,0.4c-2.6,0.9-5.3,1.2-8,0.5c-4.9-1.2-7.9-4.5-9.1-9.3c-0.9-3.6-0.2-7.1,1.9-10.2c1.1-1.6,2.5-2.9,4.3-3.7
			c1.9-0.9,3.9-0.9,5.8,0c2.1,1,3.8,2.4,5,4.3c1.7,2.5,2.7,5.4,3.3,8.4c0.2,0.9,0.3,1.8,0.4,2.9c0.8-0.2,1.5-0.4,2.3-0.6
			c2.5-0.7,5.1-1.5,7.6-2.2c3.1-0.7,6.1-0.5,9.1,0.6c3,1.1,4.8,3.2,5.8,6.2c0.7,2,0.8,4,0.7,6.1c-0.2,4.7-1.1,9.2-1.7,13.8
			c-0.5,4-1,7.9-0.8,12c0.2,3.8,1.2,7.3,3.3,10.5c1.6,2.3,3.3,2.9,6,1.9c1.2-0.5,2.3-1.2,3.3-2c1.9-1.6,3.5-3.4,5-5.3
			c4.9-6.4,8.5-13.5,10.9-21.2c0.1-0.4,0.2-0.8,0.3-1.1c0.1-0.4,0.3-0.7,0.5-1.1c0.5-0.6,1.1-0.9,1.9-0.7c0.7,0.2,1.2,0.8,1.2,1.6
			c0,0.5-0.1,1-0.2,1.5c-1.7,5.5-3.8,10.9-6.4,16.1c-1.6,3.3-3.3,6.5-5.5,9.4c-2.3,3-4.9,5.7-8.1,7.7c-2.1,1.3-4.4,2.2-7,2.3
			c-1.8,0.1-3.6-0.2-5.2-1c-2.7-1.3-5-3.2-6.4-5.9c-1.6-2.9-2.5-6.1-2.9-9.4c-0.5-4.1-0.4-8.2,0.1-12.2c0.6-5,1.4-10,2-15
			c0.3-2.5,0.6-5,0.7-7.5c0.1-2.6-0.6-3-2.8-3.2c-1.4-0.1-2.7,0.1-4,0.5c-1.4,0.5-2.8,1-4.2,1.6c-1.7,0.7-3.3,1.4-4.9,2.1
			c-0.5,0.2-0.7,0.5-0.8,1.1c-0.4,5.4-1,10.8-2.2,16.2c-1.2,5.4-2.8,10.7-5.4,15.7c-1.4,2.6-2.9,5.1-4.9,7.2
			c-3.7,3.9-8.3,5-13.4,4.1c-4-0.7-7.2-2.9-9.9-5.9c-1.3-1.5-2.5-3.1-3.5-4.9c-0.1-0.2-0.3-0.4-0.5-0.8c-0.4,1.8-0.7,3.4-1,5.1
			c-0.5,2.4-1.2,4.7-2.4,6.9c-0.3,0.6-0.7,1.2-1.1,1.7c-1.6,2-3.8,2.7-6.2,1.9c-1.8-0.6-3.4-1.6-4.7-3c-1.7-1.7-3-3.6-4-5.7
			c-0.9-1.9-1.6-3.9-2.4-5.9c-0.1-0.3-0.2-0.6-0.4-1.1c-0.2,0.4-0.3,0.7-0.4,1c-1,2.6-2,5.3-3.2,7.9c-0.6,1.4-1.5,2.8-2.3,4.1
			c-0.5,0.7-1.1,1.4-1.7,1.9c-2,1.8-4.2,2.1-6.7,1.1c-1.1-0.5-2.1-1.2-3-2c-1.8-1.7-3.2-3.7-4.3-6c-1.4-2.8-2.2-5.7-2.7-8.8
			c0-0.1,0-0.2-0.1-0.4c0,0,0,0-0.2-0.1c-0.1,0.2-0.3,0.5-0.4,0.7c-1.1,1.7-2,3.4-3.2,5c-1.5,2.1-3.5,3.8-5.8,5
			c-3,1.5-6.1,1.7-9.2,0.5c-3.5-1.3-6.2-3.6-8.3-6.6c-2.1-3-3.3-6.4-4.2-9.9c-0.1-0.3-0.1-0.5-0.2-0.9c-0.9,0.3-1.8,0.6-2.7,0.9
			c-0.2,1.2-0.4,2.4-0.6,3.5c-0.8,4.2-2.1,8.2-4.1,11.9c-0.9,1.7-2,3.3-3.3,4.7c-2,2.2-4.5,3.5-7.5,3.3c-3.6-0.2-6.5-2.6-7.1-6.2
			c-0.7-4.4,0.6-8.3,3.7-11.5c1.8-1.9,3.9-3.3,6.2-4.5c1-0.5,2-1,3.2-1.6c0.1-1.3,0.3-2.7,0.2-4.1c-0.1-3.4-0.9-6.7-1.8-9.9
			c-0.2-0.6-0.4-1.1-0.7-1.6c-0.8-1.1-1.9-1.5-3.2-1.4c-1.3,0.1-2.5,0.5-3.6,1.2c-1.8,1.2-3.1,2.8-4,4.7c-0.9,2-1.5,4-1.6,6.2
			c-0.2,2.4-0.2,4.9-0.4,7.3c0,0.6-0.1,1.2-0.2,1.8c-0.6,2.6-2.8,3.9-5.3,3.1c-1.9-0.6-3.3-1.8-4.7-3.2c-1.5-1.6-2.6-3.4-3.5-5.4
			c-1.2-2.8-2.4-5.7-3.5-8.6c-0.1-0.3-0.2-0.6-0.6-1c-0.1,0.1-0.1,0.3-0.2,0.4c-2.3,2.9-4.6,5.8-6.4,9c-2.1,3.5-3.6,7.3-4,11.4
			c-0.3,2.9-0.3,5.8,0.6,8.6c0.1,0.2,0.1,0.4,0.2,0.6c0.1,0.7-0.2,1.3-0.8,1.6c-0.6,0.3-1.3,0.2-1.7-0.4c-0.3-0.4-0.6-0.8-0.7-1.3
			c-0.4-1.5-0.8-3-0.9-4.5c-0.6-5.3,0.5-10.3,2.7-15.1c2-4.3,4.7-8.1,7.7-11.7c0.7-0.9,1.4-1.7,2.1-2.5c0.4-0.5,0.5-0.9,0.4-1.5
			c-1-4.7-1.3-9.5-0.9-14.2c0.5-5.8,2.2-11.2,5.6-16c1.4-2,3.1-3.8,5.2-5.1c1.8-1.1,3.7-1.7,5.7-1.8c4.5-0.1,7.9,3.2,8.1,7.7
			c0.1,2.9-0.5,5.6-1.6,8.3c-1.4,3.4-3.4,6.6-5.8,9.4c-2.4,3-5,5.8-7.5,8.7c-0.4,0.5-0.5,0.9-0.4,1.6c1.1,4,2.6,7.8,4.4,11.5
			c0.5,1.1,1.1,2.2,1.6,3.2c0.1,0.3,0.3,0.5,0.6,1c0.1-0.8,0.2-1.3,0.3-1.9c0.4-2.4,0.8-4.8,1.7-7.1c1.5-4.1,3.9-7.4,7.7-9.7
			c2-1.2,4.1-2,6.4-1.9c2.4,0.1,4.5,0.8,6.3,2.4c2.8,2.5,4.5,5.6,5.4,9.2c0.6,2.2,0.9,4.5,0.9,6.7c0,0.3,0,0.7,0,1.1
			c0.7-0.2,1.3-0.4,2-0.6c-0.1-1.1-0.2-2.2-0.2-3.3c-0.2-5.5,1.1-10.4,4.9-14.6c1.6-1.8,3.6-3.1,5.9-3.8c3.4-1,6.4-0.2,8.9,2.3
			c2.6,2.7,3.6,5.9,2.4,9.6c-0.4,1.3-1.1,2.3-2.1,3.2c-1.7,1.7-3.6,3.1-5.7,4.3c-1.4,0.8-2.9,1.5-4.4,2.3c0.1,0.5,0.2,1,0.3,1.5
			c0.8,3.7,2.5,7.1,4.6,10.2c0.6,0.9,1.4,1.8,2.3,2.5c1.5,1.4,3.3,1.5,5.2,0.7c1.7-0.8,3.1-2,4.2-3.5c0.8-1.1,1.6-2.3,2.3-3.4
			c0.9-1.4,1.6-2.8,2.5-4.2c0.3-0.5,0.4-1,0.4-1.6c-0.1-3.9,0-7.9,0.3-11.8c0-0.7,0-1.4,0-2.2c-1.4-0.5-2.9-0.6-4.4-0.4
			c-0.6,0.1-1.1,0.3-1.7,0.4c-0.2,0-0.4,0.1-0.6,0.1c-1.1,0.1-1.7-0.8-1.3-1.7c0.2-0.5,0.6-0.9,1-1.3c1-0.8,2.1-1.2,3.4-1.3
			c1,0,2.1,0.1,3.1,0.1c0.3,0,0.5,0,0.9,0.1c0.1-0.8,0.2-1.5,0.3-2.2c0.4-2,0.7-4.1,1.1-6.1c0.3-1.4,0.9-2.7,1.9-3.8
			c1-1.1,2.1-1.6,3.6-1.3c1.1,0.2,1.9,1,2.4,2c0.5,0.9,0.8,2,0.8,3c-0.1,2-0.2,4-0.3,6c-0.1,1.4-0.3,2.8-0.4,4.1c0,0.2,0,0.4,0,0.7
			c1.5,0.3,3,0.6,4.5,0.3c1-0.2,1.8-0.6,2.5-1.3c0.4-0.4,0.8-0.7,1.4-0.8c1.1-0.1,1.7,0.8,1.3,1.7c-0.2,0.4-0.5,0.7-0.8,1
			c-0.5,0.4-1,0.8-1.5,1.2c-1.8,1.4-3.9,2-6.1,1.8c-0.5,0-1-0.1-1.6-0.1c-0.1,1-0.2,1.9-0.2,2.8c-0.1,3.4-0.2,6.8-0.2,10.2
			c0,4.1,0.3,8.1,1.2,12.1c0.4,1.6,0.9,3.1,1.6,4.5c0.4,0.6,0.8,1.2,1.3,1.8c0.5,0.5,0.8,0.5,1.4,0.1c0.5-0.4,1-0.8,1.3-1.3
			c0.8-1.1,1.6-2.2,2.1-3.4c1.7-3.6,3.4-7.3,5.1-11c0.2-0.4,0.2-0.8,0.1-1.2c-0.5-2.9-0.7-5.9-0.9-8.9c-0.2-3.8-0.1-7.5,0.1-11.3
			c0.2-4,0.6-7.9,1-11.9c0-0.4,0.1-0.8,0.1-1.2c-1.4-0.4-2.8-0.3-4.2,0c-1.4,0.3-2.8,0.8-4.1,1.5c-0.3,0.2-0.6,0.3-0.9,0.4
			c-0.8,0.2-1.5-0.3-1.4-1.2c0-0.4,0.2-0.8,0.4-1.2c0.5-0.9,1.3-1.5,2.1-2c2.3-1.4,4.9-2,7.6-1.9c0.4,0,0.7,0,1.2,0.1
			c0.1-0.6,0.3-1.2,0.4-1.8c0.5-2.6,1.2-5.1,2.4-7.4c0.5-1,1.2-1.9,1.8-2.9c0.2-0.3,0.6-0.6,0.9-0.9c1.4-1.1,3-0.8,3.9,0.8
			c0.6,0.9,0.8,2,0.9,3.1c0.2,2.4-0.1,4.7-0.5,7.1c-0.2,1.4-0.4,2.8-0.7,4.3c2,0.6,3.9,1.2,6,1c1.7-0.2,3.1-1,4.2-2.3
			c0.2-0.3,0.4-0.5,0.7-0.8c0.6-0.5,1.5-0.6,2-0.1c0.6,0.5,0.8,1.3,0.3,2c-1.7,2.6-3.9,4.6-7.2,5c-1.9,0.2-3.8,0-5.7-0.3
			c-0.3,0-0.5-0.1-0.9-0.2c-0.1,0.9-0.3,1.7-0.3,2.5c-0.2,3.1-0.5,6.2-0.6,9.3c-0.1,4.3-0.2,8.6-0.1,12.9c0.1,4.2,0.4,8.4,1.2,12.6
			c0.4,2.1,1,4.1,1.9,6.1c0.5,1.1,1.3,2.2,1.9,3.2c0.2,0.3,0.5,0.6,0.8,0.9c0.8,0.8,1.3,0.8,2-0.1c0.5-0.6,1.1-1.3,1.4-2
			c0.6-1.4,1.2-2.8,1.6-4.2c0.7-2.5,1.4-5.1,2-7.7c0.1-0.4,0.1-0.8-0.1-1.3c-1.5-4.1-2.1-8.3-1.8-12.7c0.1-2.3,0.4-4.5,1.1-6.7
			c0.7-2.6,2-4.8,3.8-6.8c1.6-1.8,3.5-2.8,5.9-3c1.8-0.2,3.4,0.2,4.9,1.3c2.3,1.7,3.5,4,3.5,6.9c0,3.5-1.3,6.5-3.7,9
			c-1.6,1.6-3.4,2.8-5.5,3.7C241.2,220.4,241.1,220.4,240.8,220.6z M118,203.3c0.3-0.2,0.4-0.3,0.5-0.4c2.6-2.7,5.1-5.4,7.4-8.3
			c1.9-2.5,3.7-5.1,4.9-8c0.8-1.9,1.3-3.8,1.2-5.9c-0.2-3.5-3.2-5.4-6.4-4.1c-1.8,0.7-3.1,1.9-4.2,3.5c-1.2,1.7-2.1,3.5-2.7,5.4
			c-1.4,4.6-1.5,9.3-1.2,14C117.6,200.6,117.8,201.9,118,203.3z M272.5,195.7c0-0.3,0-0.6,0-0.9c-0.2-1.1-0.3-2.3-0.6-3.4
			c-0.5-2.1-1.2-4.1-2.4-5.8c-1-1.4-2.2-2.4-3.9-2.9c-1.5-0.5-2.8,0-3.5,1.4c-0.4,0.8-0.7,1.6-0.8,2.4c-0.3,1.8,0.1,3.5,0.8,5.2
			c0.4,0.9,1,1.6,1.7,2.3C266.3,196.1,269.3,196.3,272.5,195.7z M165.8,219.3c0.8-0.4,1.5-0.7,2.2-1c2.2-1.1,4.2-2.3,5.9-4
			c2.5-2.3,2.1-6-0.2-8.1c-1.3-1.2-3-1.3-4.4-0.2c-1.1,0.8-1.8,1.9-2.2,3.2c-0.4,1.2-0.6,2.4-0.9,3.7
			C165.9,214.9,165.7,217,165.8,219.3z M240.5,218c0.3-0.1,0.5-0.2,0.7-0.3c1.4-0.7,2.6-1.6,3.7-2.7c1.4-1.4,2.4-3.1,2.6-5.1
			c0.3-1.9,0-3.8-1.3-5.3c-1.5-1.8-3.9-1.6-5,0.5c-0.5,0.9-0.8,1.9-1,2.8C239.7,211.3,240,214.6,240.5,218z M143.8,231
			c-0.1,0-0.3,0.1-0.4,0.1c-1.4,0.9-2.8,1.7-4.1,2.7c-0.9,0.7-1.6,1.5-2.3,2.4c-1,1.3-1.5,2.9-1.4,4.6c0,0.7,0.2,1.3,0.6,1.8
			c0.3,0.3,0.6,0.4,1,0.1c0.3-0.3,0.7-0.6,1-0.9c2.8-2.9,4.5-6.5,5.5-10.4C143.8,231.2,143.8,231.1,143.8,231z"/>
		<path class="st8" d="M290.5,331.9c-0.1-0.7-0.5-1.2-1.2-1.4c-0.7-0.2-1.3,0.1-1.7,0.7c-0.2,0.4-0.4,0.7-0.6,1.1
			c-0.4,1-0.7,2-1,3.1c-1.1,3.7-2.7,7.2-4.9,10.4c-1.6,2.3-3.3,4.5-5.7,6.1c-2.2,1.5-4.6,1.9-7.2,0.7c-0.6-0.3-1.2-0.5-1.8-0.8
			c-1.2-0.6-2.3-1.5-3.1-2.6c-1.8-2.3-2.6-4.9-2.9-7.8c-0.1-0.9,0-1.9-0.1-2.9c0.3,0.1,0.6,0.2,0.8,0.3c1.8,0.5,3.7,0.9,5.6,0.6
			c3.3-0.4,6-2.1,8.1-4.5c2.1-2.4,2.6-5.2,1.6-8.3c-1.6-4.7-6.9-7.6-11.9-6.6c-3,0.6-5.4,2.2-7.4,4.5c-2.9,3.3-4.6,7.3-5.7,11.6
			c-0.2,0.6-0.3,1.3-0.3,1.9c-0.3,3.2-0.1,6.4,0.9,9.6c0.1,0.4,0.1,0.7-0.1,1.1c-1.2,2.4-2.4,4.9-4,7c-0.8,1.1-1.7,2.1-2.8,2.9
			c-1.9,1.5-4.1,1.7-6.4,1c-2.6-0.8-4.9-2.2-7.1-3.8c-1.5-1.1-2.9-2.4-4.4-3.7c0.8-0.2,1.5-0.4,2.2-0.6c7.1-2.1,11.7-6.7,13.7-13.8
			c1.2-4.2,0.1-8-3.1-11c-2.5-2.4-5.4-3-8.7-1.8c-1.7,0.6-3.2,1.7-4.5,3c-2.1,2.1-3.6,4.5-4.9,7.1c-2.2,4.7-3.5,9.6-4.2,14.8
			c-0.2,1.4-0.3,2.8-0.5,4.1c-1.6-5.4-2.5-11-2.7-16.6c0.5-0.3,1-0.6,1.4-0.9c0.4-0.3,0.9-0.7,1.3-1c4.9-4.3,8.3-9.7,10.5-15.7
			c0.9-2.4,1.2-4.9,1.1-7.4c-0.1-2.2-0.6-4.3-1.6-6.2c-1.8-3.2-5.9-5.1-9.9-3.5c-2.6,1.1-4.7,2.7-6.3,4.9c-2.1,2.8-3.4,6-4.2,9.3
			c-1.3,5.2-1.8,10.4-1.8,15.7c0,2.4,0,4.8,0.2,7.2c0.2,2.7,0.6,5.4,0.9,8.1c0,0.2,0,0.4-0.1,0.6c-0.9,2.5-1.8,5-2.9,7.5
			c-0.5,1.1-1.2,2.1-1.8,3.1c-0.3,0.5-0.8,0.8-1.3,1.1c-0.7,0.4-1.1,0.3-1.6-0.3c-0.4-0.5-0.8-1.1-1.1-1.7c-0.6-1.2-1.1-2.5-1.5-3.8
			c-1.1-3-1.6-6.2-1.8-9.4c-0.1-2.2,0-4.4,0-6.5c0-1.3,0.2-2.6,0.2-4c0.1-2.3,0.2-4.7,0.2-7c0-1.2-0.3-2.4-1-3.5
			c-1.7-2.7-4.9-2.8-6.7-0.2c-0.4,0.6-0.6,1.2-1,1.9c-1.4-1.2-3.1-1.8-4.9-2.3c-1.9-0.5-3.8-0.9-5.8-0.7c-3.6,0.4-6.6,2.1-9,4.7
			c-2,2.1-3.4,4.6-4.5,7.3c-0.8,2.1-1.4,4.2-1.7,6.4c-0.1,0.4-0.2,0.8-0.4,1.1c-2,2.5-4,5.1-6.1,7.5c-1.2,1.4-2.5,2.6-3.9,3.8
			c-1.1,1-2.4,1.7-3.8,2.2c-1.6,0.6-3.2,0.6-4.8,0c-2.1-0.8-3.8-2-5.1-3.8c-0.9-1.2-1.6-2.5-2.4-3.7c-0.4-0.6-0.3-1,0.1-1.6
			c5.3-8.7,9.1-17.9,10.4-28c0.5-4.1,0.4-8.2-0.5-12.2c-0.7-2.9-2-5.4-4.5-7.1c-2.3-1.6-5.9-1.7-8.3-0.1c-1.1,0.7-2.1,1.6-3,2.5
			c-2.2,2.3-3.8,5.1-4.9,8c-2.6,6.8-3.2,13.9-3.1,21c0.1,3,0.4,5.9,1,8.8c0.9,4.4,2.1,8.6,4.1,12.6c0.1,0.2,0.2,0.4,0.2,0.5
			c-0.1,0.1-0.1,0.2-0.1,0.2c-3.4,3.4-7.4,5.7-12.3,6.4c-1.8,0.3-3.5,0.4-5.2-0.5c-0.1-0.1-0.3-0.1-0.4-0.1c-0.5-0.1-0.9,0-1.1,0.4
			c-0.3,0.4-0.2,0.9,0.1,1.3c0.2,0.2,0.4,0.4,0.7,0.6c1.3,0.9,2.7,1.3,4.2,1.3c2.6-0.1,5.1-0.6,7.5-1.4c2.9-1.1,5.3-2.8,7.6-4.8
			c0.2-0.2,0.5-0.4,0.8-0.7c0.3,0.3,0.5,0.5,0.7,0.8c1.8,2.1,3.9,3.8,6.4,5c5.1,2.4,10.1,2.3,14.9-0.9c2.5-1.6,4.6-3.6,6.3-6
			c1.2-1.7,2.4-3.5,3.6-5.3c0.4-0.5,0.7-1.1,1.1-1.7c0.1,0.4,0.1,0.6,0.2,0.8c0.2,0.8,0.3,1.7,0.5,2.5c1,4.5,3.6,7.6,8,9.2
			c3.4,1.3,6.5,0.8,9.3-1.6c1.5-1.3,2.8-2.8,3.8-4.6c1-1.8,1.8-3.7,2.7-5.5c0.1-0.3,0.2-0.5,0.4-0.8c0.2,0.7,0.3,1.3,0.3,1.9
			c0.4,3.2,1.1,6.2,2.2,9.2c0.8,2.2,2.2,4,4,5.6c0.9,0.9,2,1.5,3.2,2c3.3,1.4,6.8,0.7,9.2-2c0.8-0.9,1.5-2,2-3.1
			c0.7-1.6,1.2-3.2,1.8-4.8c0.1-0.3,0.2-0.6,0.3-1c0.5,1.5,0.9,2.9,1.3,4.3c0.7,2.2,1.8,4.2,3.4,5.9c0.9,1,2.1,1.6,3.4,1.9
			c1.8,0.4,4.2-0.5,4.6-3.1c0-0.3,0.1-0.6,0.1-0.9c0-1.4,0.1-2.7,0.1-4.1c0-1,0.1-2.1,0.2-3.2c0.2,0.2,0.3,0.3,0.4,0.5
			c1.4,1.5,2.7,3.2,4.2,4.5c2.8,2.6,5.9,4.7,9.6,5.8c2.5,0.7,5,0.9,7.5,0.2c2.9-0.8,5.2-2.5,7.1-4.9c1.9-2.4,3.3-5,4.5-7.7
			c0.1-0.3,0.3-0.6,0.5-1c0.3,0.4,0.4,0.6,0.6,0.9c2,2.8,4.4,5,7.6,6.4c2.6,1.2,5.3,1.6,8.2,1.1c2.6-0.5,4.8-1.8,6.8-3.5
			c2.6-2.3,4.6-5,6.2-8.1c1.8-3.4,3.4-6.9,4.6-10.5c0.8-2.2,1.5-4.4,1.9-6.7C290.5,332.5,290.6,332.2,290.5,331.9z M263.1,326.9
			c1-1.7,2.5-2.8,4.5-3c2.6-0.4,5.5,1.5,6.3,4.4c0.5,1.8,0.2,3.4-1,4.8c-1.9,2.2-4.3,3.3-7.2,3.3c-1.7,0-3.4-0.3-5.2-0.4
			C260.8,332.8,261.3,329.6,263.1,326.9z M131.8,344.2c-0.8-2-1.2-4-1.6-6c-0.8-4-1.1-8-1-12c0.2-4.3,0.8-8.6,1.7-12.9
			c0.5-2.4,1.1-4.7,2.2-6.8c0.3-0.7,0.7-1.3,1.1-1.9c1.3-1.9,3.4-2.1,4.9-0.3c1.1,1.2,1.6,2.7,2,4.2c0.5,2.2,0.7,4.5,0.6,6.8
			c-0.4,10.4-4.3,19.7-9.4,28.5C132,343.9,131.9,344,131.8,344.2z M184.6,339.7c0,0.3-0.1,0.6-0.2,0.9c-1.6,3.4-3.3,6.8-5.5,9.9
			c-0.7,1-1.6,1.8-2.4,2.6c-0.4,0.4-1,0.7-1.6,0.9c-0.7,0.3-1.4,0.2-2-0.3c-0.9-0.7-1.6-1.6-2.1-2.6c-1.1-2.1-1.6-4.3-1.7-6.6
			c-0.2-3-0.1-6,0.5-8.9c0.4-2,1.1-4,2.2-5.7c0.7-1.1,1.5-2,2.6-2.7c1-0.5,2-0.8,3-0.8c1.1-0.1,2.1,0.2,3.1,0.5
			c1.5,0.5,2.8,1.2,4.1,2.1c0.5,0.4,0.7,0.7,0.6,1.4C184.9,333.5,184.8,336.6,184.6,339.7z M214.7,328c0.3-4.5,1-8.9,1.9-13.3
			c0.5-2.2,1.1-4.4,2.5-6.3c0.4-0.6,0.9-1.1,1.5-1.5c1.2-0.8,2.5-0.5,3.4,0.6c0.8,1,1.2,2.3,1.4,3.5c0.5,2.7,0,5.4-0.9,8
			c-0.7,2-1.6,3.8-2.6,5.6c-1.8,3-4,5.7-6.4,8.2c-0.2,0.2-0.4,0.4-0.6,0.5c0,0-0.1,0-0.3,0.1C214.6,331.6,214.6,329.8,214.7,328z
			 M223,345.3c-0.2,0.1-0.5,0.2-0.7,0.3c-0.1,0-0.1,0-0.3,0c0.2-0.6,0.3-1.1,0.4-1.7c1.1-3.7,2.6-7.2,4.9-10.4
			c0.6-0.9,1.4-1.7,2.2-2.5c0.8-0.8,1.7-1.4,2.8-1.7c1.1-0.3,2,0,2.4,1.1c0.2,0.5,0.3,1.1,0.2,1.7c-0.3,3.6-1.9,6.5-4.6,8.8
			C228.1,342.8,225.8,344.4,223,345.3z"/>
		<g>
			<path class="st8" d="M217.3,142.1c-0.6,0.2-1.1,0.5-1.6,0.7c-3.3,1.4-6.6,2.8-10.1,3.7c-4.1,1.1-8.3,1.3-12.5,0.4
				c-2.9-0.6-5.5-1.9-7.6-4.1c-1.1-1.2-1.9-2.6-2.6-4c-0.1-0.2-0.1-0.3-0.2-0.5c-0.2-0.7,0.1-1.4,0.7-1.8c0.6-0.4,1.4-0.4,1.9,0.2
				c0.4,0.4,0.7,0.8,0.9,1.2c1.5,2.7,3.9,4.2,6.9,4.9c2.2,0.5,4.5,0.5,6.8,0.3c3-0.3,5.9-1.3,8.7-2.4c2.3-0.9,4.6-1.9,6.9-2.8
				c0.2-0.1,0.4-0.2,0.6-0.3c-0.4-1.8-0.7-3.6-1.1-5.5c-0.3,0.1-0.6,0.3-0.9,0.4c-1.7,0.8-3.5,1.5-5.5,1.6
				c-4.8,0.3-8.5-1.6-11.4-5.3c-2.1-2.7-3.2-5.9-3.7-9.2c-0.1-1-0.2-2-0.3-3c-0.4,0.1-0.4,0.5-0.6,0.7c-1.9,3.3-3.9,6.6-6.2,9.6
				c-1.8,2.3-3.7,4.3-6.2,5.9c-4.9,3.2-10.5,2.5-14.6-0.7c-0.4-0.3-0.7-0.6-1.1-0.9c-0.2,0.2-0.4,0.3-0.6,0.5
				c-4.2,3.4-9,5.2-14.4,4.8c-6.2-0.4-11.3-3.1-15.1-8.1c-0.8-1-1.4-2.1-1.7-3.4c-0.1-0.5-0.1-1,0.1-1.4c0.3-0.8,1.2-1,1.8-0.3
				c0.2,0.2,0.4,0.6,0.5,0.9c2.2,3.6,5,6.4,9,7.9c5.2,1.9,10.4,1.8,15.4-0.8c0.6-0.3,1.2-0.7,1.8-1.1c0.4-0.3,0.8-0.6,1.2-0.9
				c0-0.1,0-0.2,0-0.2c-2.2-2.8-3.6-6-4.8-9.2c-1.9-5.2-3-10.6-3.4-16.2c-0.3-4.5-0.2-8.9,0.6-13.3c0.6-3.2,1.5-6.2,3.1-9
				c1.3-2.3,2.9-4.2,5.1-5.6c2.4-1.5,4.9-1.9,7.6-1.1c1.7,0.5,2.9,1.6,3.9,3c1.6,2,2.5,4.4,3.1,6.8c0.6,2.4,0.9,4.8,1,7.2
				c0.6,11.8-2.5,22.6-8.6,32.7c-0.1,0.2-0.2,0.3-0.3,0.5c0,0,0,0.1,0,0.2c1.1,1.7,2.3,3.4,4.1,4.5c1.2,0.7,2.5,0.8,3.8,0.4
				c1.4-0.4,2.7-1.2,3.8-2.2c1.1-1.1,2.3-2.3,3.3-3.5c1.8-2.2,3.3-4.6,4.8-7.1c1.1-1.9,2.2-3.7,3.3-5.6c0.3-0.5,0.5-1.1,0.6-1.7
				c0.2-2.1,0.6-4.2,1.3-6.2c0.3-1,0.8-1.9,1.4-2.8c0.4-0.6,1.1-1.2,1.8-1.6c1.6-0.9,3.5-0.5,4.4,1.1c0.4,0.7,0.7,1.6,0.9,2.4
				c0.5,2.2,0.5,4.4,0.5,6.6c0,2.6,0,5.1,0,7.7c0,2.5,0.4,4.9,1.2,7.3c0.8,2.2,2.6,3.5,4.9,3.6c1.6,0,3-0.3,4.2-1
				c-0.2-1.5-0.4-3-0.5-4.5c-0.2-2.3-0.4-4.5-0.5-6.8c-0.4-10.6,1.2-20.9,4.2-30.9c1.4-4.7,3.5-9.1,6.4-13.1c1-1.5,2.2-2.8,3.6-4
				c1-0.9,2.1-1.7,3.4-2.2c3-1.3,5.7-0.7,8,1.5c1.5,1.4,2.6,3.2,3.4,5.1c0.7,1.7,0.9,3.4,1.1,5.2c0.3,3.6,0,7.2-0.7,10.7
				c-2.1,11.7-7.1,22.1-14.2,31.6c-1.6,2.1-3.3,4-5.1,6c-0.3,0.4-0.5,0.7-0.4,1.1c0.5,2.6,1,5.1,1.5,7.7c0,0.1,0.1,0.2,0.1,0.4
				c1-0.2,2-0.4,3-0.5c2.9-0.5,5.7-0.4,8.5,0.4c4.1,1.2,7.3,3.6,9.3,7.4c2.7,5,3.3,10.3,1.8,15.8c-0.4,1.5-1.1,2.9-2,4.2
				c-2.9,4.1-7.3,5.1-11.5,3.5c-2.6-1-4.7-2.6-6.6-4.6c-2.6-2.8-4.5-6-6.1-9.4c-1.3-2.7-2.3-5.6-3.2-8.5
				C217.6,142.8,217.4,142.5,217.3,142.1z M222.1,121.3c0.3-0.3,0.5-0.4,0.6-0.5c1.1-1.2,2.3-2.4,3.4-3.7
				c6.9-8.4,11.5-17.8,13.5-28.5c0.7-3.9,1.1-7.8,0.6-11.7c-0.3-2.2-0.9-4.3-2.1-6.2c-0.5-0.8-1.1-1.5-1.8-2.1
				c-1.3-1.1-2.8-1.2-4.2-0.2c-0.5,0.4-1.1,0.8-1.4,1.3c-0.9,1.2-1.8,2.4-2.5,3.6c-1.7,2.9-2.8,6.1-3.7,9.3
				c-2,7.4-2.9,14.9-3.1,22.5c-0.1,3.1,0,6.2,0.1,9.3C221.7,116.7,221.9,118.9,222.1,121.3z M168.3,122.6c0.2-0.3,0.4-0.6,0.6-0.8
				c5-7.6,7.2-16.1,7.6-25.1c0.1-2.4,0-4.7-0.3-7.1c-0.3-2.5-0.8-5-1.8-7.3c-0.5-1.3-1.2-2.4-2.1-3.4c-1.5-1.6-3.5-1.8-5.3-0.5
				c-1.2,0.9-2.1,2-2.8,3.3c-1,1.7-1.6,3.5-2,5.4c-0.8,3.5-0.7,7.1-0.4,10.7c0.2,3.2,0.8,6.4,1.4,9.6c1,5,2.4,9.8,4.7,14.3
				C167.9,121.9,168.1,122.2,168.3,122.6z M225.4,139c0.1,0.3,0.1,0.5,0.1,0.6c0.9,2.8,1.7,5.6,2.7,8.3c1.2,3.4,2.9,6.5,5.2,9.3
				c1,1.2,2.2,2.3,3.6,3.1c1.6,0.9,3.1,0.8,4.3-0.6c0.9-1.1,1.6-2.3,1.9-3.6c0.9-4.4,0.4-8.7-1.8-12.7c-1.4-2.6-3.8-4.2-6.6-4.9
				c-2.1-0.6-4.3-0.5-6.5-0.1C227.4,138.5,226.4,138.8,225.4,139z"/>
			<path class="st8" d="M247.9,115.9c0.3,1.3,0.5,2.5,0.8,3.6c1.1,3.8,3,7.2,5.9,10c1.5,1.5,3.2,2.7,5.3,3.2c2.6,0.7,5.1,0,7.4-1.2
				c2.1-1.1,3.9-2.7,5.5-4.5c2.1-2.2,3.8-4.8,5.4-7.4c2.3-3.7,4-7.7,5.6-11.7c0.1-0.2,0.1-0.4,0.2-0.6c0.4-0.8,1.2-1.2,2-1
				c0.8,0.3,1.2,1.1,1,2c-0.3,1.1-0.5,2.3-0.9,3.4c-2.5,6.9-5.7,13.3-10,19.2c-1.9,2.6-4,4.9-6.7,6.6c-3.1,1.9-6.5,3-10.1,2.9
				c-4.5-0.2-8.4-2-11.6-5.1c-3.6-3.5-5.7-7.8-7-12.6c-0.8-3.3-1.2-6.6-0.9-10c0.4-4,1.7-7.8,3.6-11.3c1.9-3.4,4.4-6.3,7.8-8.3
				c2.5-1.4,5.1-2.3,8-2c4.2,0.3,7.8,3.6,8.6,7.8c0.3,1.8,0.1,3.5-0.3,5.2c-1.6,5.5-6.8,10.6-12.4,11.9c-2.2,0.5-4.3,0.6-6.5,0
				C248.4,115.9,248.2,115.9,247.9,115.9z M247.8,113.1c0.1,0.1,0.2,0.1,0.3,0.2c2.1,0.6,4.2,0.7,6.3,0.1c5-1.3,8.2-4.6,9.9-9.4
				c0.4-1.2,0.5-2.5,0.4-3.8c-0.2-2.6-2-4.7-4.3-5.2c-1.5-0.3-3,0-4.4,0.7c-2.2,1.1-3.9,2.8-5.2,4.9c-1.9,3.1-2.9,6.6-3.2,10.2
				C247.7,111.5,247.8,112.3,247.8,113.1z"/>
			<path class="st8" d="M194.2,89.6c0-2.5,1.8-4.6,4.1-4.8c3-0.2,5.4,3,4.5,5.9c-0.1,0.3-0.2,0.5-0.3,0.8c-0.7,2.7-4.5,3.8-6.9,1.5
				C194.7,92.1,194.2,91,194.2,89.6z"/>
		</g>
		<g>
			<g>
				<path class="st8" d="M184.9,280.5c-2.3,0-4.6,0-6.9,0c-0.1,0.3-4,12.8-4,12.9c-0.4,1.1-0.7,1.2-1.8,1.2c-1.6,0-5.4,0-5.7,0
					c-1-0.1-1.3-0.4-1-1.4c0.4-1.4,0.8-2.9,1.2-4.3c1.9-6.1,7.3-22.8,8-25c0.3-0.9,0.8-1.2,1.7-1.2c1.8,0,3.6-0.1,5.3-0.1
					c0.9,0,1.3,0.2,1.6,1.1c0.7,2.4,7.2,28.8,7.5,30c0.2,0.8,0.1,0.9-0.7,0.9c-1.9,0-1.8-0.1-2.1-1.5
					C187.1,289.2,184.9,280.7,184.9,280.5z M184.3,278c-0.8-3.5-1.6-6.9-2.3-10.3c-1.2,3.4-2.4,6.8-3.3,10.3
					C180.6,278,182.4,278,184.3,278z"/>
				<path class="st8" d="M202.9,264.9c0,0.5,0.2,28.5,0.2,28.8c-0.1,0.8-0.2,1-1,1c-1,0.1-6.8-0.1-7.2-0.1c-0.7-0.1-0.9-0.2-0.9-0.9
					c0-1-0.4-27.9-0.4-28.7c-0.4,0-5.8-0.1-5.8-0.1c-0.5,0-0.9-0.6-0.9-1.5c0-0.6,0.3-0.9,0.8-0.9c0.2,0,20.9,0,21.1,0
					c0.3,0.1,0.6,0.3,0.6,0.6c0,0.9,0.1,1.7-1.4,1.7C206.5,264.9,203.2,264.9,202.9,264.9z"/>
			</g>
			<g>
				<path class="st8" d="M265.6,279.8c-2.9,0-5.7,0-8.6,0c0,0.4-0.1,9.2-0.1,13.4c0,1.6,0,1.5-1.5,1.5c-1.9,0-3.9,0-5.8,0
					c-0.8,0-1-0.2-1.1-1c-0.1-1.6-0.4-25.3-0.4-29.2c0-1.5,0.1-1.6,1.6-1.7c2.1,0,4.2,0,6.2-0.1c0.8,0,0.9,0,0.9,0.9
					c0.1,2,0.1,10.6,0.2,13c0,0.3,0,0.5,0,0.8c1.3,0,6.7-0.1,8.7-0.1c0-0.3,0-0.6,0-0.9c0-4.2,0-8.5,0-12.7c0-0.9,0.1-1,1-1
					c0.5,0,0.9,0,1.4,0c0.1,0,0.5-0.1,0.5,0.7c0,1,0,30.2,0,30.5c-0.1,0.4-0.3,0.7-0.8,0.7c-2,0.2-1.8,0-1.9-1.6
					C265.8,288.9,265.6,280.1,265.6,279.8z"/>
				<path class="st8" d="M239,264.9c0,0.5,0.2,28.5,0.2,28.8c-0.1,0.8-0.2,1-1,1c-1,0.1-6.8-0.1-7.2-0.1c-0.7-0.1-0.9-0.2-0.9-0.9
					c0-1-0.4-27.9-0.4-28.7c-0.4,0-5.8-0.1-5.8-0.1c-0.5,0-0.9-0.6-0.9-1.5c0-0.6,0.3-0.9,0.8-0.9c0.2,0,20.9,0,21.1,0
					c0.3,0.1,0.6,0.3,0.6,0.6c0,0.9,0.1,1.7-1.4,1.7C242.5,264.9,239.2,264.9,239,264.9z"/>
				<path class="st8" d="M280.8,265c0,4.2-0.1,8.6-0.1,12.8c1.9,0.1,3.8,0,5.7,0c0.5,0,0.8,0.4,0.8,0.8c0,0.8,0.1,1.7-1,1.7
					c-1.1,0-4.7,0-5.5,0v11.8c2.7,0.1,5.5,0.2,8.2,0.2c0.5,0,0.9,0.4,0.8,0.9c0,0.3,0.1,1.3-0.5,1.3c-1.4,0-14.3,0-15.7,0
					c-0.9,0-1-0.2-1.1-1c-0.1-0.5-0.1-0.9-0.1-1.4c0-4.3-0.1-27.5-0.1-28.5c0-0.5,0.4-0.9,0.9-1c0.2,0,14.9-0.1,15.7-0.1
					c1.1,0,1.1,2.3-0.6,2.3C286,265,281.1,265,280.8,265z"/>
			</g>
		</g>
		<g>
			<path class="st8" d="M164.8,183.7c0,1-0.2,1.2-1.2,1.2c-2,0-4,0-6,0c-0.9,0-1.1-0.2-1.2-1.1c0-1.1-0.3-28.9-0.3-29.9
				c0-0.8,0.1-0.9,0.8-0.9c2.2-0.1,4.4-0.1,6.7-0.1c0.8,0,0.9,0,0.9,0.9C164.5,155.2,164.8,178.8,164.8,183.7z"/>
			<path class="st8" d="M176.6,185c-0.1,0-0.3,0-0.4,0c-0.8-0.1-1.6-0.1-2.3-0.2c-2.5-0.5-4.4-1.9-5.7-4.1c0,0,0,0,0-0.1
				c-0.1-0.3-0.4-0.7-0.1-1c0.3-0.2,0.7-0.4,1.2-0.5c0.2,0,0.4,0.3,0.6,0.5c0.5,0.5,0.9,1.1,1.4,1.6c1.1,1,2.4,1.4,3.9,1.5
				c1.6,0,2.8-1.2,3-3c0.1-1.1-0.1-2.2-0.7-3.2c-0.8-1.2-1.7-2.3-2.8-3.2c-1.1-1-2.3-2-3.4-3c-2.3-2.1-3.4-4.9-3.6-8
				c-0.1-1.5,0.1-3,0.4-4.6c0.9-3.5,5-6.1,9-4.6c1.1,0.4,2.1,0.9,3,1.7c0.3,0.3,0.7,0.7,0.9,1.1c0.2,0.4,0.2,0.9-0.2,1.1
				c-0.5,0.4-0.6,0.4-1,0c-0.6-0.5-1.1-1-1.7-1.4c-0.3-0.2-0.7-0.4-1.1-0.6c-1.4-0.6-2.7-0.1-3.6,1.2c-0.2,0.3-0.3,0.7-0.3,1.1
				c-0.1,1.5,0.3,2.9,1.1,4.2c1.2,1.8,2.4,3.5,3.9,5c1.7,1.8,3.2,3.7,4.5,5.8c1.2,2,1.7,4.2,1.2,6.4c-0.6,2.8-2.2,5-5.1,5.8
				C178,184.9,177.3,185,176.6,185z"/>
		</g>
	</g>
	<g>
		<g>
			<path class="st69" d="M312.1,179.6c-0.7-1.6-1.3-3.2-2.1-4.8c-2-4.4-4.7-8.4-7.6-12.2c-0.3-0.4-0.7-0.8-1.1-1.1
				c-1.3-1.1-2.6-0.7-3.1,1c-0.2,0.8-0.2,1.7-0.1,2.6c0.2,2.1,0.7,4.2,1.4,6.2c1.3,4.2,3.2,8.2,4.9,12.2c2.7,6.2,6,12.2,9.2,18.1
				c0.4,0.8,0.9,1.5,1.4,2.2c0.9,1.2,2,1.4,3.4,0.8c1.2-0.5,2.2-1.4,3.1-2.4c2-2,3.7-4.2,5.3-6.6c2.3-3.5,4.3-7.1,5.7-11
				c0.8-2.2,1.5-4.4,1.7-6.8c0.1-0.8,0.1-1.6-0.3-2.4c-0.5-1.2-1.6-1.6-2.6-0.8c-0.4,0.3-0.7,0.7-1.1,1c-1.9,2.3-3.6,4.8-4.9,7.4
				c-0.1,0.2-0.3,0.5-0.5,0.7c0-0.2,0-0.5,0.1-0.7c1.3-6.9,1.8-13.9,1.7-21c0-1.2,0-2.3,0-3.5c0-0.3,0-0.7-0.1-1
				c-0.2-0.7-0.6-1.1-1.3-1.2c-0.7-0.1-1.2,0.2-1.6,0.8c-0.3,0.5-0.5,1-0.5,1.5c-0.1,1.3-0.1,2.6-0.1,3.9c0.1,8.8-0.9,17.6-3.1,26.1
				c-0.5,1.9-1.1,3.7-1.6,5.6c-0.1,0.2-0.1,0.4-0.3,0.8c-0.2-0.5-0.2-0.8-0.2-1.2c-0.2-1.7-0.3-3.3-0.5-5c-0.4-3.2-0.8-6.4-1.3-9.6
				c-0.8-5.5-2-10.9-3.6-16.3c-0.9-3-1.7-5.9-2.7-8.9c-1.3-3.9-2.8-7.8-4.6-11.5c-0.3-0.6-0.6-1.1-1-1.7c-0.5-0.7-1.3-1-1.9-0.8
				c-0.7,0.3-1,1-1.1,1.7c0,0.7,0.1,1.4,0.5,2.1c1.9,4.1,3.5,8.2,4.9,12.5c0.7,2.2,1.4,4.4,2,6.6c0.8,2.8,1.5,5.6,2.1,8.5
				c0.5,2.4,0.9,4.8,1.4,7.2C312.2,179,312.2,179.3,312.1,179.6C312.2,179.5,312.2,179.5,312.1,179.6z"/>
			<path class="st25" d="M329.1,141.2c-0.2-0.7-0.5-1.7-0.8-2.6c0-0.1-0.1-0.3-0.2-0.4c-1.1-2-3.4-2.2-4.6-0.3
				c-0.5,0.8-0.8,1.6-0.9,2.5c-0.4,2-0.5,4.1-0.5,6.2c0,1.2,0.1,2.4,0.2,3.6c0.1,0.8,0.2,1.6,0.5,2.4c0.3,0.9,0.9,1.6,1.8,2
				c1.3,0.5,2.6,0.2,3.3-1c0.4-0.6,0.7-1.4,0.9-2.1c0.6-2.5,0.7-5,0.6-7.5C329.3,143.2,329.2,142.3,329.1,141.2z"/>
			<path class="st25" d="M298.4,124.9c-0.5-0.6-1.1-1.3-1.8-2.1c-0.1-0.1-0.2-0.2-0.3-0.3c-1.8-1.4-4-0.6-4.3,1.7
				c-0.1,0.9,0,1.8,0.2,2.6c0.5,2,1.2,4,2.1,5.8c0.5,1.1,1.1,2.2,1.7,3.2c0.4,0.7,0.9,1.4,1.4,2c0.6,0.7,1.5,1.1,2.5,1.1
				c1.4,0,2.4-0.9,2.6-2.3c0.1-0.7,0.1-1.5-0.1-2.3c-0.5-2.5-1.4-4.8-2.6-7.1C299.4,126.6,299,125.8,298.4,124.9z"/>
		</g>
		<g>
			<path class="st79" d="M286.5,154.4c-1-2.3-3.6-3-5.5-1.5c-1.2,0.9-2.1,2.4-2.7,4c-1-1.8-2.7-3.4-4.5-4c-3.1-1-5.4,2.2-5.2,5
				c0.3,3.4,3,6.5,5.2,8.9c2.2,2.3,4.7,4.6,7.4,6.2c0.5,0.3,1.4,0.2,1.5-0.5c0.7-3.2,2.2-6.2,3.2-9.4
				C286.7,160.5,287.7,157.1,286.5,154.4z"/>
			<path class="st79" d="M159.6,260.7c-1.6-3.8-6-5.1-9.2-2.6c-2,1.6-3.6,4.1-4.6,6.7c-1.7-3.1-4.5-5.7-7.6-6.8
				c-5.1-1.7-9.1,3.7-8.8,8.3c0.4,5.8,5,10.9,8.7,14.9c3.6,3.9,7.8,7.7,12.4,10.4c0.9,0.5,2.3,0.3,2.6-0.8
				c1.2-5.4,3.6-10.5,5.3-15.7C159.8,270.8,161.5,265.2,159.6,260.7z"/>
			<path class="st79" d="M298.7,259.8c1.1-2.6,4.1-3.5,6.3-1.8c1.4,1.1,2.5,2.8,3.1,4.6c1.2-2.1,3.1-3.9,5.2-4.6
				c3.5-1.2,6.3,2.6,6,5.7c-0.3,4-3.4,7.5-6,10.2c-2.5,2.7-5.4,5.3-8.5,7.1c-0.6,0.3-1.6,0.2-1.8-0.6c-0.8-3.7-2.5-7.2-3.6-10.8
				C298.6,266.8,297.4,262.9,298.7,259.8z"/>
			<path class="st79" d="M107,283c0.3-2.2,2.4-3.6,4.5-2.7c1.3,0.5,2.5,1.6,3.4,2.9c0.5-1.9,1.5-3.7,3-4.7c2.5-1.7,5.4,0.6,5.9,3.1
				c0.6,3.1-1,6.5-2.4,9.2c-1.3,2.6-3,5.2-5,7.3c-0.4,0.4-1.2,0.5-1.5-0.1c-1.4-2.7-3.5-5-5.1-7.5C108.4,288.3,106.7,285.6,107,283z
				"/>
			<path class="st79" d="M194.6,161.2c0.3-2.2,2.4-3.6,4.5-2.7c1.3,0.5,2.5,1.6,3.4,2.9c0.5-1.9,1.5-3.7,3-4.7
				c2.5-1.7,5.4,0.6,5.9,3.1c0.6,3.1-1,6.5-2.4,9.2c-1.3,2.6-3,5.2-5,7.3c-0.4,0.4-1.2,0.5-1.5-0.1c-1.4-2.7-3.5-5-5.1-7.5
				C196,166.5,194.2,163.8,194.6,161.2z"/>
			<path class="st79" d="M130.9,151.3c0.2-1.6,1.7-2.5,3.1-1.9c0.9,0.4,1.7,1.1,2.4,2c0.3-1.3,1.1-2.5,2.1-3.3
				c1.7-1.2,3.7,0.4,4.1,2.2c0.4,2.1-0.7,4.5-1.6,6.3c-0.9,1.8-2.1,3.6-3.5,5.1c-0.3,0.3-0.8,0.3-1,0c-1-1.8-2.4-3.5-3.5-5.2
				C131.8,155,130.6,153.2,130.9,151.3z"/>
			<path class="st79" d="M257.1,306.5c-0.2-1.6-1.7-2.5-3.1-1.9c-0.9,0.4-1.7,1.1-2.4,2c-0.3-1.3-1.1-2.5-2.1-3.3
				c-1.7-1.2-3.7,0.4-4.1,2.2c-0.4,2.1,0.7,4.5,1.6,6.3c0.9,1.8,2.1,3.6,3.5,5.1c0.3,0.3,0.8,0.3,1,0c1-1.8,2.4-3.5,3.5-5.2
				C256.1,310.3,257.3,308.4,257.1,306.5z"/>
		</g>
	</g>
</g>
</svg>
