<?xml version="1.0" encoding="utf-8"?>
<!-- Generator: Adobe Illustrator 21.0.2, SVG Export Plug-In . SVG Version: 6.00 Build 0)  -->
<svg version="1.1" id="Layer_1" xmlns="http://www.w3.org/2000/svg" xmlns:xlink="http://www.w3.org/1999/xlink" x="0px" y="0px"
	 width="595.28003px" height="595.28003px" viewBox="0 0 595.28003 595.28003"
	 style="enable-background:new 0 0 595.28003 595.28003;" xml:space="preserve">
<path d="M137.3186,222.8633c2.16159-33.70239,0.92969-63.4446,0.99399-97.18459c8.07251-1.7826,19.81741-3.5008,28.2153-3.87981
	c0.5257,0.0089,1.22481,0.0215,1.7415,0.37901c0.51851,0.3612,0.6812,1.0621,0.8439,1.76469
	c1.45,7.01761,3.0752,14.0388,5.58189,20.72571c1.5036,4.0479,3.49181,10.37709,6.213,14.61989
	c0.6777,1.23541,1.5359,2.12401,2.39941,2.8392c2.04539-7.13199,3.7475-14.4465,5.62489-21.75549
	c0.3665-1.0424,3.59731-15.84641,3.94769-15.8411c11.01901-0.3307,24.3087-0.6239,35.3313-0.9565
	c-0.13948,8.04029-3.16109,100.9947-2.98589,100.9983c-9.619,0.1806-19.06471,0.5417-28.6837,0.72231
	c-0.8743-0.01431-1.92381-0.03401-2.43521-0.742c-0.1662-0.5256-0.16089-0.8761-0.15019-1.3999
	c0.3934-12.5817,3.4043-24.7664,4.1498-37.5161c-4.9937,5.68199-7.05159,13.51309-12.7318,18.3102
	c-1.0638,0.8528-2.4781,1.7039-3.69389,1.33371c-1.04411-0.3683-1.72711-1.25511-2.41011-2.14191
	c-2.21519-3.3577-10.2859-11.71629-9.864-15.90359c-1.0692,11.17099-1.09059,22.53149-0.06079,33.56479
	c0.14839,1.5751,0.2932,3.3273-0.2574,4.71651C166.9088,230.3726,136.8412,230.1974,137.3186,222.8633z M246.9794,229.6682
	c-2.62471,0.13051-5.0778,0.438-7.87051,0.21451c-1.9202-0.20911-4.0103-0.59351-6.09509-1.3302
	c-1.0405-0.5435-2.2545-1.08881-2.9357-2.14911c-0.85291-1.2372-0.6526-2.63359-0.63831-3.5079l0.42731-4.36249
	c2.403-27.57881,4.91139-51.1384,20.0069-74.6514c1.97749-3.11101,4.1248-6.04681,7.31079-8.26381
	c4.6004-3.0663,10.7348-4.0085,16.1218-2.16699c12.1651,4.2338,15.51212,22.82289,17.56821,35.27049
	c0.3147,1.9292,0.6311,3.85831,1.1282,5.4407c0.8045,4.03349,1.4321,8.06709,2.0614,12.09889
	c0.47031,3.1557,0.94049,6.3078,1.5842,9.46701c0.79199,4.7363,1.05841,9.45819,1.1514,14.1819
	c0.11081,3.67239,0.16092,10.842,0.62219,14.52159c0.32001,1.58051-0.05188,2.9715-0.9458,4.0031
	c-1.60559,1.8952-4.75949,2.1902-7.38239,2.319c-0.70261,0.1627-1.4017,0.1519-1.931,0.31641
	c-2.1008,0.3129-4.021,0.1037-5.94479,0.06979c-1.91852-0.20569-3.83691-0.41479-5.59271-0.09659
	c-9.46698,1.58409-3.5043-19.46701-5.7803-19.3311c-2.44769-0.04291-5.06879-0.0876-7.51828,0.04469
	c-0.5238-0.0089-1.0477-0.0179-1.4035,0.32361c-0.3558,0.34509-0.36472,0.86899-0.37372,1.39279
	c0.4238,5.77679,5.11353,17.39661-5.00259,16.1718C252.7562,229.2462,249.9545,229.5466,246.9794,229.6682z M255.56679,168.28149
	c0.27171,4.5502,7.0569,16.38101,12.15971,14.54831c5.80539-1.9971,8.31558-15.7641,7.1785-20.67911
	c-0.16452-0.5275-0.33432-0.8797-0.50241-1.2319c-0.86539-0.53999-1.9184-0.2092-2.8035,0.30031
	c-4.59851,3.0663-7.15878,9.4904-5.68021,14.9346c-0.99948-2.81421-2.1741-5.632-3.17178-8.4462
	c-0.6723-1.58591-1.68781-3.5258-3.4346-3.7296C257.22238,163.59171,255.60249,166.1842,255.56679,168.28149z M367.2551,219.5289
	c-2.89108-4.595-5.42819-9.53329-7.96521-14.4733c-2.36899-4.4126-4.73981-8.82521-6.76199-13.2289
	c-1.00479-2.46561-2.19022-4.75951-3.37381-7.05341c-0.85278-1.239-3.93518-4.7881-3.91379-6.0128
	c7.89551-11.75031,14.40891-24.3981,19.35971-37.5983c-0.177,0.1716-24.40521-4.09801-27.00131-5.5408
	c-5.40311,9.1703-6.3006,20.5182-12.39929,29.3291c0.0304-1.7485-1.0101-22.22031-0.21811-27.627
	c0.18951-0.8707,0.37372-1.39101,0.54889-1.3875c-4.19269-0.0733-8.56418-0.1501-12.9339-0.2252
	c-3.66879-0.06441-8.026-0.84039-11.70551-0.38091c-0.34329,9.6102,0.01431,19.231,0.54712,28.85721
	c0.37012,8.74649,0.39688,17.3143,0.2413,26.2271c-0.04651,12.58881,0.43448,25.183,0.7402,37.77721
	c-0.00711,0.34679-0.01611,0.8725,0.15378,1.2229c0.50781,0.88319,1.55551,0.90289,2.42801,1.09239
	c6.63681,0.2897,12.77301-0.6508,19.0683-0.7169c1.0513-0.15739,1.70212-37.5573,2.0954-39.996
	c2.2063,3.88341,3.87271,8.45871,5.90201,12.5137c2.35999,4.93651,4.36969,10.041,6.3757,15.3208
	c1.83978,4.7523,3.51871,8.80371,6.2381,13.21991c2.71591,4.5932,15.26001-2.88031,18.2583-4.4001
	C366.11078,224.93021,369.633,223.591,367.2551,219.5289z M409.44299,135.64999c6.61719,1.5144,11.09409,5.4389,15.2207,9.3562
	l0.68829,0.70981c0.34689,0.1824,1.03351,0.894,1.366,1.9471c0.32361,1.4053-0.39691,2.61569-0.75269,2.959
	c-3.0574,4.84351-6.81921,10.0213-11.75381,12.38319c-0.17529-0.0036-0.5257,0.16631-0.7009,0.1627
	c-3.1629,0.81889-5.38879-1.8416-6.75299-3.7886c-0.34152-0.5311-1.02451-1.41609-1.3696-1.59839
	c-4.6897-1.8291-8.28342,3.70279-9.3634,5.4317c-1.97742,3.28799-3.08771,6.76369-3.1467,10.08569
	c1.23718-0.6776,2.29028-1.00841,2.46729-1.18181c1.4071-0.49889,3.1647-0.99229,4.91501-1.13719
	c3.15399-0.295,6.46881,0.1127,9.24182,1.3839c3.81906,1.63951,6.73337,5.0134,8.05109,9.5815
	c1.66098,4.92401,1.21759,10.3378-1.121,14.1389c-3.23801,5.1904-8.8396,5.61771-13.2128,5.89131l-0.8779,0.15909
	c-2.6265,0.13051-5.24402-0.0912-7.6738-1.18359c-1.10672,3.47929-1.70032,7.31439-0.16092,9.2632
	c0.85641,1.0656,3.9906,1.81841,7.1499,1.1747c2.1062-0.4899,3.52222-1.5126,3.88879-2.5567
	c0.00531-0.34689,0.01611-0.8725,0.2002-1.39459c0.01791-1.0495,0.21103-2.0919,0.75452-3.30771
	c1.28021-3.12349,5.8161-2.521,12.08099-1.0119c0.35049,0.00531,0.6991,0.01071,0.6991,0.01071
	c0.17172,0.1788,0.6955,0.1877,1.04602,0.1949c3.1449,0.22879,5.23499,0.61499,6.43469,2.03459
	c1.88629,2.1277,0.94229,6.1344-0.72232,11.35161l-0.17517-0.0036c-3.69031,11.1245-14.28381,17.05859-27.9006,15.9465
	c-1.39822-0.02501-2.61942-0.22171-3.66531-0.41481c-16.04309-2.2027-20.44141-10.6703-21.60001-14.5358
	c-1.65918-5.0992-0.8653-10.5041-0.08398-15.2117c0.767-3.8333,2.08121-9.05409,5.4675-12.6657
	c-3.45251-2.6837-6.00922-6.399-6.98898-10.4379c-2.29391-8.6053-0.73843-17.6701,4.29459-25.6246
	C384.90189,139.4171,396.54849,133.15221,409.44299,135.64999z M399.10699,187.04221c0.17349,0.0036,0.5239,0.0089,0.87079,0.1913
	c0.3504,0.0054,0.522,0.18239,0.6972,0.1859c0.52029,0.1842,1.04419,0.1931,1.56812,0.2021
	c1.0495,0.0179,2.1026-0.13771,2.98398-0.6472c0.88681-0.683,0.37552-1.3911-0.32178-1.57881
	C402.81879,184.83411,400.8735,186.0249,399.10699,187.04221z M178.12979,319.9639
	c-0.1752,10.08749,0.1931,18.07779,1.18001,23.9744l0.64009,4.8739c0.11441,1.8183,0.88681,3.21109,2.32071,4.25171
	c1.08,0.59891,2.16341,0.9082,3.25229,0.92789c0.72591,0.01251,1.5269-0.19128,2.25812-0.54169
	c1.75578-0.76889,2.72479-2.27429,2.83569-4.38049c0.3933-5.94302,0.64009-11.6734,0.7348-17.18732l0.0215-5.44611
	c0.90649-18.6373,2.6032-41.0401,5.092-67.12949c4.7934-0.13229,8.2066-0.29141,10.17149-0.54889
	c2.9841-0.4559,4.53061-1.66281,4.561-3.47751c0.0358-2.0311-1.39101-3.5079-4.207-4.35721
	c-0.79739-0.15739-1.66631-0.245-2.537-0.25929c-9.06479-0.4487-16.39-0.79381-21.9057-0.8904
	c-5.5873-0.09831-9.36519,0.0555-11.4016,0.30939c-2.8446,0.67401-4.2446,1.9577-4.27859,3.91731
	c-0.03041,1.81479,1.2516,3.1432,3.8512,3.9156c1.30341,0.23959,5.14571,0.4523,11.6001,0.78128
	c-1.6431,15.2171-2.8642,31.0206-3.6581,47.4838C178.3551,311.18161,178.20309,315.75519,178.12979,319.9639z M206.0894,327.8559
	c1.21761,0.96371,2.8053,1.5,4.8364,1.6073l3.0412,0.34509l0.4023,10.23941c0.6115,2.40839,1.96851,3.73859,4.216,3.84949
	c2.8338-0.02148,4.52339-1.2999,5.0062-3.90668l0.4326-12.3313c3.41679-0.44882,6.10941-0.83682,8.0761-1.16571l0.3201,19.1701
	c0.02141,2.90179,0.261,5.81079,0.6472,8.64819c0.53281,2.7695,2.24921,4.24991,5.0777,4.36969l0.5793,0.0108
	c2.7588,0.04822,4.52521-1.3714,5.1564-4.19269c0.6257-2.6015,2.4798-25.7265,5.49431-69.44501
	c0.9279-15.88031,1.36949-24.58398,1.3963-26.1073c0.0304-1.74319-0.01431-3.3398-0.0607-4.9382
	c-0.35941-4.21419-2.4996-6.35609-6.492-6.42589c-4.4269-0.07861-6.8782,3.2916-7.21609,10.1805
	c-2.78021,38.64069-4.13901,58.21851-4.21591,58.57971c-0.08049,0.43268-0.16269,0.8671-0.24139,1.30157l-7.78461,0.953
	c-0.06079-0.58109-0.09659-2.75879-0.02859-6.60638c0.13229-7.61841,0.60609-22.27402,1.3481-43.96701
	c0.0464-2.68369,0.0071-4.64499-0.11629-5.88049c-0.37721-3.27191-2.2384-4.9025-5.79462-4.96332
	c-3.5562-0.0625-5.55159,2.0079-6.0611,6.28101c-0.6955,6.66541-1.10139,13.19141-1.2104,19.43301
	c-0.09839,5.73209-0.00719,12.92139,0.13231,21.5607c0.118,5.7374,0.12689,9.51169,0.0929,11.39978l-0.2235,4.49661l-1.9702,0.62039
	c-3.9389,0.9458-5.92351,2.36191-5.9574,4.3215C204.9523,326.3826,205.30099,327.2605,206.0894,327.8559z M277.70129,259.1994
	c0.034-1.888-0.6633-3.5687-2.15979-5.12061c-1.49832-1.47859-3.2254-2.3064-5.2565-2.4137
	c-2.53891-0.04291-4.5842,0.6454-6.2077,2.0686c-1.69492,1.4232-2.5961,3.2934-2.71051,5.68921
	c-0.034,2.0329,0.5882,3.7117,1.87201,5.04019c1.35339,1.4017,3.1557,2.15979,5.40311,2.3439
	c2.39578,0.0412,4.5127-0.71872,6.35248-2.21341C276.7627,263.10251,277.66559,261.3038,277.70129,259.1994z M263.04028,354.9072
	c1.30701,0.02332,2.47632-0.46478,3.5079-1.39099c0.96011-0.92792,1.49121-2.22421,1.59311-3.819
	c0.1037-1.81302,0.2074-3.62411,0.3844-5.4371c0.09119-1.01379,0.1806-2.0311,0.19669-3.0466
	c0.51492-16.97821,1.97202-33.8634,4.29462-50.59131c0.2467-1.59299,0.42371-3.47748,0.46118-5.58188
	c-0.18228-1.9631-1.09949-3.5043-2.89639-4.552c-1.2963-0.6759-2.81421-0.99231-4.5556-1.02271
	c-0.79919-0.01431-1.60019,0.11798-2.40298,0.39328c-1.97211,0.76352-3.37561,2.19202-4.2142,4.42871
	c-1.69672,5.70349-2.689,16.86551-2.9787,33.48431c-0.13409,16.03949,0.18961,26.57037,1.04599,31.59268
	C258.06628,353.00491,259.92038,354.85361,263.04028,354.9072z M320.34518,265.96671l0.11261-6.52951
	c0.04831-2.68549-1.08881-4.08719-3.33801-4.19809l-0.79739-0.0858c-2.1062-0.03751-3.50439,1.10139-4.05328,3.4865
	c-0.31641,1.51968-0.4881,2.9697-0.58643,4.4913l-1.5376,46.504c-4.9043-18.45142-7.81857-30.26431-8.74838-35.28839
	c-0.59531-3.34882-1.33731-6.62961-2.22409-9.8389c-1.30881-4.01212-3.74042-6.08792-7.3663-6.22562
	c-4.86322-0.08398-7.52182,2.4834-7.90091,7.63089c-0.0947,1.2319-0.18771,2.46371-0.2825,3.69562
	c-0.21631,4.1355-0.82959,10.14828-1.83621,17.90079c-1.3999,9.48489-2.5853,23.32712-3.48279,41.5318
	c-0.51321,8.62851-0.742,13.4166-0.75809,14.3606c-0.03403,1.95963,0.0036,3.98892,0.11258,6.0253
	c0.23962,2.83572,1.74152,4.24103,4.57181,4.28931l0.28961,0.00531c2.17587,0.0376,3.5741-1.09781,4.26779-3.33801
	c0.31641-1.51797,0.5632-3.10928,0.6633-4.77737c0.0054-0.36292,0.08759-0.79742,0.16809-1.2319l3.48819-50.17102
	c6.00922,21.591,11.02972,37.71991,15.19742,48.392c1.72888,4.96692,4.29642,7.55051,7.70239,7.82761
	c1.0173,0.01791,2.03821-0.1824,3.13251-0.5257c1.97198-0.69189,2.9411-2.12579,2.98041-4.3017l0.0072-0.50961
	c-0.06082-0.65439-0.04111-1.8147-0.01251-3.48459c-0.8082-16.0556-1.10321-28.2565-0.96021-36.4559
	C319.3797,292.15631,319.75339,279.09549,320.34518,265.96671z M358.94299,283.98901c0.1073,2.1062,1.39279,3.3631,3.8566,3.62418
	c1.66809,0.0304,2.8446-0.82068,3.5293-2.62469c0.6044-1.29449,0.93329-3.6116,0.99411-7.02298
	c0.1055-6.095-1.17111-11.92731-3.83151-17.561c-3.23441-6.08261-7.3895-9.12921-12.39749-9.21681
	c-1.1622-0.0197-2.39761,0.1037-3.7099,0.44341c-4.15341,0.944-7.24121,3.1396-9.40631,6.5849
	c-1.86658,2.94659-3.4454,6.0397-4.7363,9.35449c-3.8869,10.67569-5.98419,22.54401-6.21298,35.6781
	c-0.19492,11.24789,1.28189,22.30801,4.50558,33.18039c1.7092,5.90912,4.59491,11.18701,8.64999,15.90363
	c2.99301,3.24689,6.4472,4.9025,10.4397,4.9722c9.15601-0.63831,14.332-10.1304,15.5228-28.47452l0.02142-1.2337
	c0.08231-4.78809-0.88141-7.78278-2.96609-8.90918c-2.0097-1.3392-4.97412-2.04541-9.03802-2.11691
	c-4.57178-0.08051-6.91568,1.1138-6.96039,3.65451c-0.01248,0.79919,0.40759,1.60379,1.19431,2.34399
	c0.79028,0.522,3.96741,1.44821,9.4635,2.63l-0.01251,0.65439c-0.68839,10.3718-2.25821,17.2374-4.71118,20.4628
	c-1.11212,1.28552-2.06512,1.9238-3.00912,1.90771c-4.57349-0.08041-7.50388-15.15802-8.72147-45.15952
	c0.47198-27.06738,4.04788-40.7236,10.80618-41.0419c0.65259,0.0108,1.4411,0.4613,2.22418,1.41971
	c2.55862,3.09131,3.87631,6.59921,4.02472,10.52191c0.32001,2.47269,0.42371,4.9436,0.4505,7.48248
	C358.89828,282.31729,358.8822,283.18979,358.94299,283.98901z M393.8988,265.14609
	c0.50958,0.00891,1.01379,0.23422,1.51437,0.67581c4.58063,3.785,7.039,8.54449,7.36981,14.43039
	c0.16989,2.8338,1.37851,4.3071,3.69919,4.34821c2.0329,0.034,3.50623-1.17468,4.4895-3.55078
	c0.3826-1.1568,0.62222-2.3136,0.64011-3.40073c0.11621-6.67789-1.95779-12.59229-6.15228-17.74869
	c-3.70282-4.05499-8.16541-6.16479-13.31821-6.256c-4.93829,0.13049-9.1185,2.52638-12.61029,7.18568
	c-4.31781,6.16663-6.54022,12.87842-6.66721,20.20721c-0.02322,1.30688,0.02499,2.68719,0.14478,4.0675
	c0.55432,5.7446,1.6181,11.3533,3.2666,16.8244c2.25992,7.73459,5.69812,18.6123,10.24301,32.77271
	c0.68481,2.33508,1.22482,4.73978,1.6181,7.14099c0.33609,1.53229,0.53281,2.7695,0.51672,3.71179
	c-0.03043,1.66989-0.62582,2.52991-1.78613,2.51019c-0.8707-0.01428-1.87018-1.121-2.99118-3.32019
	c-0.7706-1.6806-1.5448-3.00189-2.18491-3.8851c-0.92261-1.10501-2.14551-1.63419-3.67059-1.66101
	c-0.65262-0.01077-1.31052,0.12332-1.96671,0.32901c-1.7522,0.62219-2.64441,1.84149-2.67831,3.80112
	c-0.04468,2.54059,0.70621,5.16888,2.25992,7.73279c2.60498,4.62,6.3382,6.93539,11.05658,7.01761
	c2.32251,0.04108,4.5842-0.57211,6.70831-1.77002c3.73849-2.0419,5.97339-5.34238,6.77618-9.7532
	c0.24503-1.52148,0.34332-2.9715,0.36832-4.42328c0.08411-4.78812-1.72171-13.6777-5.49069-26.59192
	c-1.0209-3.86188-2.19022-7.65768-3.35593-11.3819c-1.16928-3.7207-2.33868-7.51648-3.35959-11.38199
	c-0.95828-3.3559-1.40878-6.70291-1.35159-9.96951c0.0679-3.9191,0.9404-8.11179,2.689-12.5834
	C391.03989,266.8356,392.45059,265.1192,393.8988,265.14609z M256.68069,405.03729c-1.4054,5.6355-2.5782,14.68961-3.4472,27.0871
	c-0.3808,5.0759-0.61499,10.2251-0.70439,15.37802c-0.1001,5.7338,0.04649,9.79959,0.3665,12.27228
	c6.98541-5.25119,12.50479-13.64548,16.55441-25.19009c0.77237-2.74631,1.18008-5.27618,1.22299-7.7453
	c0.0643-3.70099-0.5936-7.48788-1.98102-11.2121C266.53571,410.14359,262.5325,406.5892,256.68069,405.03729z M207.248,475.53171
	l9.8855-0.7724c-0.6902-18.8143-1.87021-30.23032-3.6134-34.32462C210.89,453.9621,208.7981,465.68381,207.248,475.53171z
	 M304.14481,405.86511c-1.4053,5.6355-2.57822,14.68958-3.44711,27.0871c-0.38089,5.0759-0.61511,10.22339-0.7045,15.37619
	c-0.1001,5.73389,0.04651,9.79959,0.36649,12.27411c6.9873-5.2511,12.50482-13.64551,16.5545-25.19009
	c0.77411-2.74631,1.17999-5.27621,1.2229-7.7453c0.06439-3.70102-0.5936-7.48792-1.98099-11.21393
	C313.99988,410.97141,309.9967,407.41699,304.14481,405.86511z M480.20428,385.552
	c-0.7674,22.72629-1.53448,45.44019-2.30148,68.15399c-0.6481,19.19901-2.05362,40.2814-15.36542,54.1311
	c-13.16681,13.69873-33.8989,16.05542-52.84268,17.52063c-57.85382,4.47516-115.76169,8.2182-173.66751,11.96118
	c-31.42509,2.03131-63.32199,4.03162-94.12259-2.52429c-4.8846-1.03949-9.9856-2.43689-13.4832-6.0014
	c-3.55981-3.62769-4.83771-8.85919-5.86581-13.83679c-8.7358-42.29211-9.8436-86.14801-3.2545-128.82712
	c0.43681-2.82791,0.98391-5.81729,2.8952-7.94629c2.6754-2.97983,7.1271-3.36801,11.1276-3.55191
	c61.8017-2.83771,123.6187-5.6778,185.48549-6.57401c31.58063-0.45749,63.17151-0.422,94.74609,0.3848
	C430.70258,368.88,481.05069,360.1337,480.20428,385.552z M181.93269,469.93549c3.4221-0.6651,5.6105-1.35349,6.49561-2.1384
	c0.7348-0.49518,1.11029-1.21399,1.12819-2.22949l0.07501-0.1431c-0.18411-1.8916-1.47141-3.07339-3.85831-3.40768
	c-1.0871-0.08942-2.1741-0.25571-3.1861-0.48993c1.1443-15.66049,2.8446-34.0672,5.10449-55.37039
	c0.0269-1.59479-0.16089-3.27008-0.5667-5.01871c-0.90109-2.4834-2.76599-3.7493-5.66949-3.80109
	c-2.54071-0.043-4.2303,1.16031-5.14391,3.6134c-0.6115,1.80399-1.0799,3.6116-1.40179,5.49069
	c-3.08769,14.6825-5.01869,29.60269-5.78751,44.616l-0.6633,12.98212c-3.2075,0.81348-6.3418,1.63058-9.5511,2.5174
	c0.5721-16.17542,1.07451-28.43521,1.5144-36.84741c0.31281-5.51221,0.77409-11.09409,1.37849-16.67239
	c0.6311-7.03201,0.91541-10.7991,0.92432-11.38019c0.02499-1.37851-0.02501-2.75882-0.14481-4.1409
	c-0.52031-3.56512-2.6676-5.34412-6.36861-5.40842c-3.12529,0.23599-5.11349,1.87012-5.8179,4.8327
	c-1.1765,5.06351-2.05609,9.69241-2.4924,13.89581c-1.3606,11.37119-2.14189,22.82828-2.4119,34.29248
	c-0.1019,5.80542-0.0948,13.71701,0.0179,23.88132c-2.9966,1.18188-5.4836,2.22778-7.3842,3.13959
	c-1.3159,0.48462-2.05609,1.2713-2.2224,2.5014c-0.03931,2.24741,1.8255,3.51501,5.5211,3.79752
	c0.9476-0.20203,2.6927-0.31641,5.23329-0.34512c-0.0125,0.79932,0.31111,2.9823,1.0495,6.47952
	c0.3219,2.40298,0.78851,4.8042,1.32671,7.20889c0.34151,1.16928,0.98151,2.05078,1.9113,2.71948
	c1.00481,0.67041,2.015,0.9798,3.0305,0.99762c2.76239-0.1698,4.3858-1.66632,4.8721-4.4895
	c0.202-3.33441,0.3111-5.51041,0.3308-6.59921c0.02321-1.37851,0.1537-4.64328,0.4613-9.71741l8.95929-1.80399
	c0.68121,10.8992,1.48041,19.18619,2.4691,24.93979c0.4649,2.47812,1.96671,3.73682,4.43051,3.9245l0.65439,0.01071
	c2.4709-0.1752,3.8744-1.60019,4.28381-4.2803C180.53279,496.11609,181.0549,486.90829,181.93269,469.93549z M233.31779,479.0343
	c-0.05721-0.80099-0.40939-1.45901-1.0513-2.05081c-1.214-1.11029-1.8416-2.71759-1.8058-4.75049
	c-0.06259-0.50961-1.50369-22.02011-4.2446-64.68011c-0.31461-2.83389-0.77229-5.6731-1.45-8.4444
	c-0.4684-2.33148-1.8183-3.87979-4.1998-4.72009c-1.01021-0.30759-1.95241-0.46851-2.82321-0.48459
	c-2.97508-0.05182-5.0383,1.7272-6.11649,5.33881c-1.63231,6.14328-3.28261,13.44519-5.10091,21.8324
	c-6.68869,29.79218-10.40041,47.0744-11.14059,51.92679l-0.89401,5.5712c-2.03459,0.03751-3.7063,0.22699-5.01869,0.49341
	c-1.2354,0.12338-2.403,0.3952-3.35229,0.8869c-1.3195,0.70261-1.9882,1.63589-2.08121,2.72299
	c-0.0179,1.0155,0.61861,1.97031,1.9131,2.71759c2.0829,1.1264,4.4698,1.7486,7.1553,1.7951l-0.11801,2.53711
	c-0.0197,1.16031-0.0358,2.03281,0.02501,2.7587c0.23779,2.9823,2.0257,4.53781,5.2923,4.6665
	c2.7552,0.04828,4.5932-1.298,5.51221-4.04071c0.30569-0.8671,0.93329-3.5419,2.0275-7.9491l12.2276-1.9649
	c0.2021,0.8743,0.4077,1.677,0.53999,2.40289c0.2038,0.80463,0.6579,3.8602,1.3642,9.24362
	c0.70261,5.38528,1.2265,8.7323,1.63951,9.97308c0.41299,1.31412,1.19429,2.2724,2.26889,2.9447
	c0.86531,0.52209,1.8022,0.82962,2.8195,0.8475c3.3381,0.05899,5.03661-1.58231,5.0956-4.99371
	c-0.0125-3.48468-0.0965-6.9693-0.32539-10.53088c-0.2717-5.30121-0.3629-8.28171-0.354-8.86279
	c0.02681-1.52332,0.4828-2.67831,1.4447-3.6026C233.08179,480.11951,233.3071,479.61349,233.31779,479.0343z M281.82608,424.20209
	c-0.0322-10.59708-4.53598-18.80548-13.57928-24.62518c-5.10641-2.84991-10.59531-4.39651-16.4007-4.49841
	c-4.13551-0.0715-7.63091,0.52209-10.4129,1.77902c-1.97571,0.90997-3.01271,2.12579-3.0377,3.57758
	c-0.02319,1.30701,0.8278,2.48172,2.55141,3.52942c1.00479,0.5972,1.7235,1.0459,2.0811,1.34268
	c-0.2485,1.80942-0.49521,3.5473-0.74371,5.21191c-1.87019,11.50879-2.95909,24.04941-3.1969,37.61978
	c-0.15549,8.92532,0.12341,17.93112,0.7653,26.944c0.7455,7.19821,1.7092,14.40363,2.8911,21.53741
	c0.80991,3.49899,2.66931,5.19751,5.6427,5.24939l0.50771,0.00891c2.909-0.23599,4.3965-2.2438,4.46269-6.08969l-0.05719-0.9458
	c-0.05011-5.37091-0.1967-13.64902-0.5114-24.76102c0.29329-0.1395,2.5031-1.91669,6.5528-5.40131
	c6.99438-5.4693,12.6246-12.04889,16.89771-19.74228C279.82901,438.8309,281.69019,431.96701,281.82608,424.20209z
	 M329.29019,425.02991c-0.0322-10.59711-4.53601-18.80551-13.57928-24.62689c-5.10632-2.84821-10.59531-4.39661-16.40073-4.4967
	c-4.13538-0.0733-7.6308,0.52209-10.4129,1.77899c-1.97559,0.9101-3.01257,2.12579-3.03769,3.57761
	c-0.02319,1.30698,0.82791,2.48169,2.55142,3.52939c1.00479,0.5972,1.72357,1.04599,2.08118,1.3428
	c-0.2468,1.8075-0.4953,3.54541-0.7438,5.21179c-1.87018,11.50891-2.95898,24.04761-3.19678,37.61801
	c-0.15561,8.92529,0.12329,17.93289,0.7652,26.94409c0.74557,7.19989,1.70929,14.4053,2.89108,21.53729
	c0.80991,3.50082,2.6694,5.19931,5.6427,5.25122l0.50781,0.00888c2.90891-0.23779,4.39648-2.2438,4.46262-6.08969l-0.05722-0.9458
	c-0.04999-5.37091-0.19839-13.64899-0.51129-24.76099c0.29318-0.1394,2.50308-1.91663,6.5527-5.40131
	c6.99438-5.4693,12.62457-12.04892,16.89767-19.74231C327.29309,439.65869,329.1543,432.79489,329.29019,425.02991z
	 M369.9245,401.20389c0.04108-2.39578-3.83511-4.78448-11.63229-7.2446c-1.87912-0.61328-3.6134-0.93329-5.13672-0.96017
	c-7.1857-0.12512-12.01129,6.03247-14.552,18.54617c-2.63541,13.81891-4.40179,27.6521-5.2261,41.505
	c-0.44159,4.56281-0.6669,9.13452-0.74548,13.7063c-0.2146,12.2634,0.49521,21.49442,2.2009,27.83981
	c1.9971,6.1308,5.5748,9.24179,10.7991,9.33301c1.66989,0.02859,3.41489-0.23071,5.38519-0.776
	c4.82031-1.73071,9.4313-3.90121,13.90469-6.43652c2.5657-1.552,3.89951-3.12708,3.9281-4.72369
	c0.009-0.57748-0.12509-1.1604-0.40579-1.67349c-0.7778-1.24802-1.8559-1.92209-3.2326-1.94531
	c-1.2337-0.02148-2.6926,0.3898-4.4502,1.30341c-2.71399,1.55011-5.6391,2.73019-8.84311,3.4722
	c-0.51129,0.20911-0.9494,0.2753-1.31229,0.2681c-1.30701-0.02139-2.23489-0.9118-2.71231-2.6604
	c-0.37189-7.8472-0.5274-15.61398-0.39148-23.37888c0.18228-10.4505,0.8689-20.74722,1.9935-31.03491
	c5.88229-0.26102,9.66199-0.41299,11.33008-0.4559c1.60022-0.04471,3.13071-0.38089,4.6647-1.00839
	c1.39099-0.7009,2.05969-1.63422,2.07941-2.72122c0.03751-2.17767-1.97031-3.59198-6.02539-4.16949
	c-0.21271-0.22168-3.83691-0.50418-10.87061-0.98868c1.07278-7.31262,2.36011-14.6235,3.94058-21.92722
	c0.6759-1.366,1.84702-1.9989,3.51691-1.97031c1.08881,0.01971,2.31891,0.33081,3.76181,0.86362
	c1.01199,0.23599,2.0972,0.40048,3.1843,0.4917C368.2688,404.5134,369.8851,403.45319,369.9245,401.20389z M417.3385,404.862
	c0.04828-2.68539-1.08881-4.08719-3.33621-4.1962l-0.79749-0.08762c-2.10611-0.0376-3.5043,1.10132-4.05322,3.48642
	c-0.31641,1.51981-0.4881,2.96979-0.5864,4.4913l-1.5376,46.504c-4.9043-18.45142-7.8187-30.26422-8.74841-35.2865
	c-0.5954-3.35062-1.33728-6.6315-2.22418-9.84082c-1.31052-4.01208-3.7421-6.08789-7.36621-6.22559
	c-4.86319-0.08401-7.52359,2.48349-7.90268,7.63089c-0.09473,1.2319-0.18771,2.46381-0.2825,3.69571
	c-0.21631,4.1355-0.82959,10.14828-1.83621,17.8989c-1.3981,9.48682-2.5835,23.32712-3.48111,41.5336
	c-0.51309,8.62851-0.74197,13.4166-0.758,14.3606c-0.034,1.95959,0.00351,3.98892,0.11261,6.02542
	c0.23959,2.8356,1.74139,4.24088,4.56989,4.28918l0.2897,0.0054c2.1777,0.03751,3.57581-1.09781,4.26962-3.3381
	c0.31638-1.51788,0.56317-3.11099,0.6633-4.77728c0.00528-0.36301,0.08759-0.79752,0.168-1.2319l3.48648-50.17111
	c6.01102,21.591,11.03149,37.72171,15.19742,48.39209c1.72888,4.96512,4.29639,7.55042,7.70419,7.82751
	c1.0173,0.01791,2.03821-0.18231,3.13058-0.5256c1.97211-0.69189,2.94122-2.12759,2.9787-4.30179l0.009-0.50952
	c-0.06079-0.65439-0.0412-1.81479-0.01248-3.48468c-0.8082-16.0556-1.10321-28.25641-0.96021-36.4559
	c0.22528-12.98932,0.599-26.05011,1.1908-39.1788L417.3385,404.862z M460.81509,456.4241
	c-1.40262-3.95221-6.034-5.69211-10.63699-4.3956c-2.22751,0.57388-4.39609,1.26428-6.25931,2.53711
	c-0.96042,0.57928-1.3168,0.4682-1.5448-0.67651c-0.3844-1.58481-0.85751-3.19711-1.56439-4.68671
	c-1.535-3.21289-3.84851-5.4967-7.7453-5.8353c-2.4794-0.1886-4.1749,0.55112-5.29102,3.8157
	c-0.11081,0.35489-0.21701,1.00571-0.35059,1.74481c-0.40482,3.4866,0.7753,6.58868,2.24988,9.68399
	c1.81293,3.88629,3.92133,7.76498,4.80051,12.1405c0.16193,0.73441,0.2019,2.79678,1.46371,4.0687
	c1.64578,1.29471,3.76288-0.48431,5.0589-2.1308c2.0108-2.69101,4.83438-4.5433,7.72501-5.98349
	c1.6337-0.8573,3.33047-1.59692,5.05267-2.42532c1.83932-0.89038,3.61942-1.89658,5.06342-3.39838
	C460.55389,459.75861,461.16068,457.50851,460.81509,456.4241z M125.0882,308.39059c10.6362,0,21.2724,0,31.90871,0
	c7.23349,0,7.24539-11.24161,0-11.24161c-10.63631,0-21.27251,0-31.90871,0
	C117.8547,297.14899,117.8426,308.39059,125.0882,308.39059z M413.93069,311.37091c8.94101,0,17.88199,0,26.82318,0
	c7.23352,0,7.24542-11.24161,0-11.24161c-8.94119,0-17.88217,0-26.82318,0
	C406.6972,300.1293,406.68518,311.37091,413.93069,311.37091z M414.35089,87.3082c0.02618,4.0532-1.16211,8.0191-3.63309,12.124
	l-0.03552,0.05901l-0.03839,0.0571c-3.02588,4.5003-6.83929,8.0893-11.31781,10.6578
	c-7.3768,4.3002-15.21259,6.4805-23.28979,6.4805c-3.4328,0-6.95819-0.3972-10.48111-1.1814
	c-2.44989-0.54881-4.87878-1.72961-7.64407-3.7159l-0.03842-0.0277l-0.03778-0.029c-5.27771-4.0748-6.77551-10.5944-3.78952-16.6628
	c3.49503-6.7306,9.46381-10.6069,18.2467-11.8478c0.2984-0.0621,0.60861-0.0935,0.92462-0.0935
	c1.53448,0,2.80679,0.7247,3.21979,0.9964c2.681,1.6533,3.5741,4.897,2.08121,7.5387c-1.0379,1.8485-2.88211,2.9969-4.81311,2.9969
	c-0.8356,0-1.66931-0.2202-2.41171-0.6371c-0.1113-0.0624-0.15198-0.0624-0.18509-0.0624c-0.21069,0-0.60559,0.1301-1.00189,0.265
	c-2.5665,1.0504-4.5556,2.1235-5.8847,3.874c-0.7261,0.9958-1.5242,2.4656-1.20309,3.8132
	c0.31378,1.3159,1.6387,2.236,2.65579,2.7566c2.36389,1.162,4.9465,1.5149,8.09259,1.6825
	c0.263,0.0037,0.52631,0.0055,0.7883,0.0055c8.6868,0,15.54422-1.9953,21.52591-6.2397c3.51889-2.6306,5.849-5.4524,7.10101-8.5689
	c2.77109-7.37991-1.33981-17.2781-8.7655-21.1658c-5.29941-2.6869-11.05191-3.9932-17.58612-3.9933l-0.34909,0.0009l-0.6763-0.0024
	c-11.70367,0-23.87439,2.145-37.16669,6.54359c-4.02399,1.4017-8.12222,2.8759-12.0853,4.30151
	c-3.97592,1.4303-8.08731,2.9091-12.11102,4.31049c-2.87769,1.03571-12.11298,3.8885-16.53629,5.1536
	c-1.8219,4.3113-3.72589,8.7322-5.7312,13.3888c-1.40741,3.2679-2.83701,6.5873-4.28461,9.9773
	c-0.9205,2.061-2.41458,4.5756-5.82709,5.739c-0.90469,0.3075-1.72131,0.4569-2.49609,0.4569
	c-1.44922,0-2.77002-0.5298-3.931-1.57561c-0.48752-0.333-0.80591-0.7139-1.01471-0.9636
	c-0.0491-0.0589-0.099-0.1242-0.1629-0.18719l-0.11221-0.1105l-0.09879-0.1227l-2.9986-3.7192
	c-4.7634-5.9063-9.689-12.0138-14.5047-18.1462c-0.80191-1.0866-1.09291-1.0866-1.37431-1.0866
	c-0.24318,0-0.56049,0.0463-0.9433,0.13741L254.34,90.506l-0.0871,0.01501c-12.5459,2.1468-24.5899,5.6194-35.867,8.99709
	c-8.0526,2.3572-18.0744,5.2909-27.70709,6.5117c-3.53111,0.558-6.7552,0.8293-9.85591,0.8293c-3.276,0-6.3297-0.2996-9.33609-0.916
	l-0.15179-0.0311l-0.14751-0.048c-0.1234-0.0402-0.2478-0.0534-0.36211-0.0733c-0.31129-0.05431-0.71449-0.1246-1.14709-0.2909
	c-6.09261-1.6275-10.67801-4.9998-13.2691-9.762c-2.616-4.8082-2.93581-10.5543-0.94519-16.5548
	c1.9323-6.3303,5.86169-11.8611,11.41789-16.0343c3.98289-2.8409,8.22791-4.2813,12.6172-4.2813
	c1.91539,0,3.89079,0.2753,5.87199,0.8183l0.06331,0.0173l0.06229,0.0205c5.2588,1.7153,9.16591,5.2784,11.2989,10.304
	l0.01941,0.0456l0.0177,0.0464c1.51479,3.9603,0.90399,7.7537-1.7182,10.6893c-0.59921,0.7271-1.94511,2.3055-4.1456,2.3055
	c-0.88431,0-1.7709-0.2653-2.6356-0.7886c-1.30791-0.7516-2.1837-1.8978-2.4689-3.2327c-0.2117-0.9907-0.196-2.53381,1.056-4.22511
	c0.33279-0.4642,0.5954-0.8308-0.63091-2.55939c-1.2869-1.9024-3.79109-3.08421-6.5358-3.08421
	c-1.09129,0-2.16,0.18201-3.22499,0.5577c-6.24701,2.07681-12.0401,10.019-12.15341,16.5985
	c0.02681,4.2181,2.0972,7.1937,5.95691,8.5942c3.1973,1.1175,6.63339,1.6607,10.5052,1.6607
	c1.49359,0,3.07079-0.0847,4.68329-0.2511c8.89421-0.9331,17.37331-3.1997,26.35001-5.5995l0.73419-0.1958
	c7.47191-2.134,15.0563-4.1357,22.39111-6.0714c3.7502-0.9898,7.5006-1.9796,11.33099-3.0103
	c1.3528-0.3213,2.7641-0.5869,4.129-0.8438c0.15221-0.0288,0.3044-0.0574,0.457-0.0862c-0.1949-0.6833-0.35471-1.3726-0.4532-2.0895
	c-0.5062-2.9407-0.58-5.446-0.2193-7.6963c1.10941-6.3372,6.2075-10.595,12.68611-10.595c1.13599,0,2.29739,0.1338,3.431,0.3927
	c4.27429,0.9412,7.95428,3.3033,11.24808,7.2202c3.11832-4.9955,6.7612-8.1861,11.4201-10.0144l0.1145-0.0448l0.11771-0.0346
	c1.43369-0.4192,3.11331-0.8492,4.7287-0.8714c0.19418-0.0091,0.38638-0.0136,0.5759-0.0136c5.28961,0,9.01831,3.5606,9.0983,8.6716
	c0.2023,2.9541-0.32687,5.6883-0.83868,8.3329l-0.08902,0.4562c-0.03281,0.15321-0.06729,0.3046-0.10278,0.4548
	c4.21008-1.3887,10.24548-3.4824,13.97269-4.8415c2.41519-0.8503,4.82092-1.7291,7.22769-2.60851
	c8.14532-2.9758,16.56781-6.0528,25.40552-7.9982C357.1488,57.585,365.6813,56,374.46219,56c3.6937,0,7.14481,0.2733,10.57739,0.84
	c4.7785,0.8369,8.9162,2.0595,12.27911,3.6252C408.1694,65.4174,414.05878,74.6836,414.35089,87.3082z M293.58728,67.2775
	c-1.76379,0.6834-3.1629,1.4558-4.34509,2.38731c-3.01401,2.4751-4.88168,6.0904-5.5527,10.7463
	c-0.26547,2.7998-1.88638,4.4238-3.19138,5.7313l-0.31183,0.3134c-0.8808,0.8918-2.03799,1.38309-3.25827,1.38309
	c-2.41611,0-4.55072-1.8456-5.07541-4.3883l-0.05499-0.2658l-0.0018-0.2714c-0.00311-0.5004,0.06479-0.93,0.1196-1.2752
	c0.02029-0.1288,0.04959-0.2568,0.05289-0.4706c0.10889-4.2324-1.73541-7.3427-5.802-9.7797
	c-0.50378-0.2282-1.6076-0.5668-3.71979-0.5668l-0.12521,0.0005l-0.09628,0.0006l-0.0961-0.0062
	c-0.0704-0.0045-0.13989-0.00681-0.20782-0.00681c-0.66449,0-1.27679,0.11691-1.46768,1.52831l-0.0163,0.1295l-0.034,0.1395
	c-0.4483,2.4906,5.0134,13.5113,6.58429,15.4476c2.05719,2.5835,4.1138,5.1203,6.17081,7.6572
	c2.02258,2.4944,4.0452,4.9891,6.108,7.57909c0.04849,0.064,0.0939,0.1212,0.13608,0.1723
	c1.21362-2.8152,2.45822-5.6171,3.6691-8.3429c1.46381-3.29549,2.97751-6.70309,4.42221-10.1036
	c1.74341-4.0379,3.49542-8.5657,5.36911-13.8793c0.4043-1.0956,0.56119-2.4493,0.71298-3.7583L293.58728,67.2775z"/>
</svg>
