<?xml version="1.0" encoding="utf-8"?>
<!-- Generator: Adobe Illustrator 21.1.0, SVG Export Plug-In . SVG Version: 6.00 Build 0)  -->
<svg version="1.1" id="Calque_1" xmlns="http://www.w3.org/2000/svg" xmlns:xlink="http://www.w3.org/1999/xlink" x="0px" y="0px"
	 viewBox="0 0 432 432" style="enable-background:new 0 0 432 432;" xml:space="preserve">
<style type="text/css">
	.st0{fill:#FBB03B;}
	.st1{fill:#AC5247;}
	.st2{fill:#F5967C;}
	.st3{fill:#962942;}
	.st4{fill:#E2896B;}
	.st5{fill:#D5ACAA;}
	.st6{fill:#DDCCC4;}
	.st7{fill:#F7C0AE;}
	.st8{fill:#1A1A1A;}
	.st9{fill:#0071BC;}
	.st10{fill:#7490A5;}
	.st11{fill:#D0876F;}
	.st12{fill:#E2AE74;}
	.st13{fill:#D14758;}
	.st14{fill:#D88460;}
	.st15{fill:#84422C;}
	.st16{fill:#3B4F84;}
	.st17{fill:#3F5584;}
	.st18{fill:#5796B4;}
	.st19{fill:#333333;}
	.st20{fill:#EB8390;}
	.st21{fill:#8A8DB4;}
	.st22{fill:#C4D0F0;}
	.st23{fill:#009245;}
	.st24{fill:#F7931E;}
	.st25{fill:#534741;}
	.st26{fill:#BF8271;}
	.st27{fill:#202749;}
	.st28{fill:#57678A;}
	.st29{fill:#F3A186;}
	.st30{fill:#C6966D;}
	.st31{fill:#516184;}
	.st32{fill:#5B8451;}
	.st33{fill:#C6836D;}
	.st34{fill:#C69C6D;}
	.st35{fill:#9B849C;}
	.st36{fill:#8CA562;}
	.st37{fill:#F5957C;}
	.st38{fill:#BC9688;}
	.st39{fill:#6E8DAF;}
	.st40{fill:#E28F74;}
	.st41{fill:#AF735E;}
	.st42{fill:#8193BB;}
	.st43{fill:#6F9147;}
	.st44{fill:#DD9F4E;}
	.st45{fill:#4F5F82;}
	.st46{fill:#52874F;}
	.st47{fill:#7A5D41;}
	.st48{fill:#808080;}
	.st49{fill:#98B58B;}
	.st50{fill:#E07F65;}
	.st51{fill:#736357;}
	.st52{fill:#E29774;}
	.st53{fill:#95543E;}
	.st54{fill:#66853E;}
	.st55{fill:#6B6871;}
	.st56{fill:#689B62;}
	.st57{fill:#A1BDBE;}
	.st58{fill:#999999;}
	.st59{fill:#A67C52;}
	.st60{fill:#E0D2BE;}
	.st61{fill:#A9B792;}
	.st62{fill:#7E8D66;}
	.st63{fill:#394587;}
	.st64{fill:#3E6D55;}
	.st65{fill:#3A735C;}
	.st66{fill:#C66B4C;}
	.st67{fill:#456C8C;}
	.st68{fill:#BF8E71;}
	.st69{fill:#6D9B65;}
	.st70{fill:#BF987D;}
	.st71{fill:#8F95B2;}
	.st72{fill:#5799A0;}
	.st73{fill:#857A71;}
	.st74{fill:#84686F;}
	.st75{fill:#E2B4A3;}
	.st76{fill:#718E9F;}
	.st77{fill:#B5748A;}
	.st78{fill:#A8766C;}
	.st79{fill:#9B657D;}
	.st80{fill:#9F6754;}
	.st81{fill:#11937F;}
	.st82{fill:#9A4B5E;}
	.st83{fill:#9AB580;}
	.st84{fill:#BD8579;}
	.st85{fill:#86A4B7;}
	.st86{fill:#6F9FB2;}
	.st87{fill:#B57E83;}
	.st88{fill:#B28C78;}
	.st89{fill:#254165;}
	.st90{fill:#79412E;}
	.st91{fill:#BA5A61;}
	.st92{fill:#4D4D4D;}
	.st93{fill:#96AF86;}
	.st94{fill:#EAAE60;}
	.st95{fill:#684033;}
	.st96{fill:#B57C6A;}
	.st97{fill:#C1272D;}
	.st98{fill:#447F7A;}
	.st99{fill:#7CBEB8;}
	.st100{fill:#76A3A1;}
	.st101{fill:#ECD580;}
	.st102{fill:#EB423D;}
	.st103{fill:#EE7A32;}
	.st104{fill:#9E8065;}
	.st105{fill:#231F20;}
	.st106{fill:#725740;}
	.st107{fill:#504657;}
	.st108{fill:#6A5B75;}
	.st109{fill:#BC842C;}
	.st110{fill:#673E46;}
	.st111{fill:#BB808C;}
	.st112{fill:#8E2C40;}
	.st113{fill:#75967E;}
	.st114{fill:#B9AA85;}
	.st115{fill:#9898AF;}
	.st116{fill:#9EC7C8;}
	.st117{fill:#BBBDBF;}
	.st118{fill:#CEACB4;}
	.st119{fill:#DC986F;}
	.st120{fill:#B01E69;}
	.st121{fill:#FFFFFF;}
	.st122{fill:#C19CAF;}
	.st123{fill:#B59736;}
	.st124{fill:#1E8C92;}
	.st125{fill:#9F4868;}
	.st126{fill:#A9B0CF;}
	.st127{fill:#B7768E;}
	.st128{fill:#617C68;}
	.st129{fill:#BB5666;}
	.st130{fill:#C3AEB5;}
</style>
<g>
	<g>
		<g>
			<path class="st114" d="M79.5,213.8c-6.5,12.7-13.1,25.3-19.9,37.8c-1.7,3.2,3.2,6.2,4.9,2.9c6.8-12.5,13.4-25.2,19.9-37.8
				C86,213.4,81.1,210.5,79.5,213.8z"/>
			<path class="st114" d="M91.8,220.2c-1.9,4.3-3.9,8.6-5.8,12.9c-1.5,3.3,3.4,6.3,4.9,2.9c1.9-4.3,3.9-8.6,5.8-12.9
				C98.2,219.8,93.3,216.8,91.8,220.2z"/>
			<path class="st114" d="M105.2,221.7c0.1,12.1,0.1,24.3-0.2,36.4c-0.1,3.7,5.7,3.8,5.7,0.1c0.2-12.1,0.3-24.3,0.2-36.4
				C110.9,218.1,105.2,218,105.2,221.7z"/>
			<path class="st114" d="M124.3,226.2c-0.3-4.4-6-3.3-5.7-0.1c0.3,3.5,0.5,7,0.8,10.5c0.1,1.6,1.1,2.9,2.8,2.9
				c1.4,0.1,3.1-1.3,2.9-2.8C124.8,233.3,124.6,229.7,124.3,226.2z"/>
		</g>
		<g>
			<path class="st114" d="M178.8,96.3c-11.9,12.2-23.1,25-33.8,38.2c-2.3,2.8,1.7,6.9,4.1,4c10.7-13.3,22-26,33.8-38.2
				C185.4,97.7,181.3,93.6,178.8,96.3z"/>
			<path class="st114" d="M144.6,105.7c-3.3,6.9-6.1,14-8.6,21.2c-1.2,3.5,4.3,5,5.5,1.5c2.3-6.8,5-13.4,8.1-19.8
				C151.1,105.3,146.1,102.4,144.6,105.7z"/>
			<path class="st114" d="M126.7,76.5c-0.6,16.3-0.8,32.6-0.8,48.8c0,3.7,5.7,3.7,5.7,0c-0.1-16.3,0.2-32.6,0.8-48.8
				C132.6,72.8,126.8,72.8,126.7,76.5z"/>
			<path class="st114" d="M116.5,119.6c-0.8-3.6-6.3-2.1-5.5,1.5c0.7,3.3,1.4,6.6,2.1,9.9c0.8,3.6,6.3,2.1,5.5-1.5
				C117.9,126.2,117.2,122.9,116.5,119.6z"/>
		</g>
	</g>
	<g>
		<g>
			<g>
				<g>
					<path class="st115" d="M66.6,106c-0.6,4-0.9,7.9-0.7,11.8c0.2,3.8,0.5,7.7,1.5,11.4c0,0.1,0,0.2,0,0.3c0.1,1-0.3,1.8-1,2
						c-0.8,0.2-1.5-0.3-1.7-1.4c-0.6-3-1.1-5.9-1.3-8.9c-0.3-3-0.3-6-0.1-9c0.2-3.2,0.5-6.5,1.2-9.7c0.1-0.7,0.2-1.4,0.4-2.1
						c0.3-1.1,1-1.7,2-1.7c1,0,2.1-0.1,3.1-0.1c1.5,0,2.1,0.5,2.6,2c1.1,3.7,2.1,7.4,3,11.2c0.6,2.5,1.4,4.8,2.2,7.2
						c0,0.1,0.1,0.2,0.3,0.3c0-0.4-0.1-0.8-0.1-1.2c0-0.4,0-0.8-0.1-1.2c-0.3-3.6-0.4-7.2-0.5-10.8c-0.1-2.3,0.1-4.6,0.2-6.9
						c0-0.3,0-0.6,0-0.9c0-0.9,0.7-1.7,1.4-1.6c0.7,0,1.3,0.7,1.3,1.6c0,1.4-0.1,2.9-0.2,4.3c-0.1,2.7,0,5.4,0.1,8.2
						c0.1,2.8,0.3,5.6,0.5,8.4c0.1,2.5,0.3,4.9,0.4,7.4c0,1,0,2-0.2,3c-0.1,0.8-0.5,1.3-1.2,1.5c-1.2,0.4-2.5,0.6-3.7,0.5
						c-0.8,0-1.4-0.5-1.9-1.3c-0.3-0.6-0.6-1.2-0.8-1.9c-2.2-5.8-4-11.9-5.5-17.9c-0.3-1.3-0.6-2.6-1-3.9
						C66.8,106.4,66.8,106.2,66.6,106z"/>
					<path class="st115" d="M82.8,114.6c0-4,0.6-7.4,1.9-10.7c3.1-7.6,10.2-8.4,12.7-2.1c1.2,3.2,1.8,6.5,2.1,9.9
						c0.3,4.2,0,8.2-1,12.2c-0.3,1.4-0.8,2.7-1.5,4c-0.6,1.2-1.5,2.1-2.5,2.8c-2.5,1.7-5.2,0.9-6.8-0.7c-0.7-0.7-1.2-1.5-1.7-2.4
						c-1.6-2.9-2.4-6.1-2.9-9.4C82.9,116.9,82.8,115.6,82.8,114.6z M93.8,101.1c-0.9,0.6-2.2,4.3-2.6,5.8c-1.1,4.2-1.4,8.4-1,12.7
						c0.2,2.6,0.9,5.1,2.1,7.4c0.6,1.3,1,1.3,1.9,0.3c0.8-0.9,1.3-2.1,1.6-3.3c0.7-2.5,1.1-5,1.2-7.6c0.1-1.9,0-3.7-0.2-5.6
						C96.4,107.7,95.3,102.4,93.8,101.1z"/>
				</g>
			</g>
			<g>
				<path class="st115" d="M203,224.2c-0.9-0.1-1.7,0-2.5,0c-0.3,0-0.6,0-0.9,0c-1.2,0-2.9-2.4,2-2.6c3.4-0.1,6.8-0.3,10.2-0.2
					c0.3,0,0.7,0,1,0.1c0.6,0.2,0.9,0.7,0.9,1.2c0,0.6-0.4,1-1,1.2c-0.3,0.1-0.5,0.1-0.8,0c-0.7-0.1-1.4,0-2.2,0
					c-0.4,0-0.5,0.2-0.6,0.6c-0.3,2.8-0.6,5.6-0.7,8.4c-0.1,2.6,0,5.2,0.1,7.9c0,1.5,0.1,3,0.2,4.5c0.1,1.5,0,3-0.1,4.5
					c-0.1,1.4-0.7,2-2,2.3c-0.5,0.1-0.9,0.2-1.4,0.2c-1.3,0.1-2.1-0.4-2.5-1.7c-0.3-0.9-0.4-1.9-0.6-2.9c-0.4-3.5-0.6-6.9-0.4-10.4
					c0.2-3.5,0.4-6.9,0.9-10.3C202.6,226.1,202.8,225.2,203,224.2z"/>
				<path class="st115" d="M221.2,245.6c0.1,1,0.4,1.9,0.6,2.8c0.1,0.5,0.2,0.9,0.3,1.4c0.1,0.9-0.4,1.6-1.3,1.8
					c-0.4,0.1-0.9,0.2-1.3,0.2c-1.1,0-1.8-0.4-2.1-1.5c-0.4-1.4-0.7-2.8-1-4.2c-0.9-4.2-1.2-8.4-1.3-12.7c-0.1-3.2,0.2-6.4,0.8-9.6
					c0.2-1.3,1-2,2.7-1.8c0.8,0.1,1.6,0.3,2.4,0.6c1.1,0.4,1.5,1.2,1.2,2.3c-0.5,1.6-1,3.1-1.4,4.7c-0.9,3.5-1,7-0.5,10.5
					c0.1,0.8,0.2,1.5,0.3,2.3c0,0.4,0.2,0.6,0.6,0.6c1-0.1,2.1-0.1,3.1-0.1c0.4,0,0.5-0.1,0.5-0.5c0-0.3,0-0.5,0-0.8
					c0-4.8,0.1-9.7,0.2-14.5c0.1-2.7-0.3-5.7,2.2-5.8c4.8-0.2,4.5,1.1,3.9,6.3c-0.4,3.9-0.7,7.8-0.7,11.8c0.1,3.3,0,6.6,0,9.9
					c0,0.4-0.1,0.8-0.1,1.2c-0.1,0.8-0.6,1.4-1.4,1.5c-0.7,0.1-1.4,0.3-2.1,0.2c-1.4-0.1-2.2-0.9-2.2-2.3c0-1.1,0-2.3,0-3.4
					c0-1.3,0.2-1.1-1.2-1.1c-0.7,0-1.4,0-2.2,0C221.3,245.5,221.3,245.6,221.2,245.6z"/>
				<path class="st115" d="M232.9,236.8c-0.1-16.6,13.5-23.3,15.1-2.6c0.3,3.8,0,7.5-0.9,11.1c-0.3,1.3-0.7,2.5-1.4,3.6
					c-0.6,1-1.4,1.9-2.3,2.5c-2.2,1.6-4.7,0.8-6.2-0.7c-0.6-0.6-1.1-1.4-1.6-2.2c-1.4-2.6-2.2-5.5-2.6-8.5
					C233,238.9,232.9,237.7,232.9,236.8z M242.9,224.6c-0.8,0.5-2,3.9-2.4,5.3c-1,3.8-1.2,7.6-0.9,11.6c0.2,2.4,0.9,4.6,1.9,6.7
					c0.6,1.2,0.9,1.2,1.7,0.2c0.7-0.9,1.2-1.9,1.5-3c0.6-2.2,1-4.5,1-6.9c0.1-1.7,0-3.4-0.2-5C245.2,230.6,244.2,225.8,242.9,224.6z
					"/>
				<path class="st115" d="M257.4,248.6c0.5-0.5,0.8-1.1,1.1-1.7c0.8-1.7,1.3-3.5,1.7-5.3c0.8-4,1.3-8.1,1.6-12.2
					c0.3-5.6-0.1-5.6,0-6.7c0.2-1.1,3.7-5.5,2.1,10.9c-0.3,3.4-0.8,6.8-1.6,10.1c-0.4,1.8-1,3.5-1.8,5c-0.5,1-1.1,1.9-1.9,2.6
					c-1.5,1.3-3.1,1.3-4.6-0.1c-0.6-0.6-1.1-1.4-1.5-2.2c-1.1-2.4-1.8-5-2.2-7.7c-0.7-4.7-0.7-9.3-0.4-14c0.2-2.9-0.8-4.8,5.3-4
					c0.9,0.1,1.3,0.8,1.4,1.8c0.1,1.5,0,3,0,4.5c-0.1,3.7-0.3,7.5-0.1,11.2c0.1,2.2,0.3,4.5,0.8,6.6
					C257.1,247.8,257.2,248.2,257.4,248.6z"/>
				<path class="st115" d="M274.6,249.2c0.7-0.9,1-1.8,1.2-2.9c0.4-1.6,0.5-3.2,0.6-4.8c0.1-1.6,0.1-3.3,0-4.9
					c0-0.7-0.1-0.7-0.8-0.6c-0.5,0-0.9,0.1-1.4,0.1c-0.8,0-1.3-0.4-1.4-1c-0.1-0.7,0.3-1.2,1.1-1.3c0.9-0.2,1.8-0.3,2.7-0.3
					c1.2,0,1.8,0.5,2.1,1.7c0.2,0.7,0.1,1.4,0.1,2.1c0.1,3,0.1,6-0.5,8.9c-0.2,1.2-0.6,2.4-1.2,3.4c-0.4,0.8-1,1.5-1.8,2
					c-1.1,0.7-2.3,0.8-3.5,0.2c-1.4-0.7-2.5-1.9-3.2-3.3c-1.1-2-1.7-4.2-2.2-6.4c-0.5-2.4-0.7-4.7-0.7-7.1
					c0.7-17.3,15-16.3,14.2-7.8c-0.2,1.7-2.3,1.6-2.4,0c-0.1-1.3-0.7-2-1.2-2.8c-3.1,2-4.6,6.2-4.8,9.9c-0.4,4.9,0.5,9.6,2.5,14.1
					C274.2,248.8,274.3,249,274.6,249.2z"/>
				<path class="st115" d="M287.6,245.6c0.1,1,0.4,1.9,0.6,2.8c0.1,0.5,0.2,0.9,0.3,1.4c0.1,0.9-0.4,1.6-1.3,1.8
					c-0.4,0.1-0.9,0.2-1.3,0.2c-1.1,0-1.8-0.4-2.1-1.5c-0.4-1.4-0.7-2.8-1-4.2c-0.9-4.2-1.2-8.4-1.3-12.7c-0.3-11.1,1-12.5,6-10.8
					c1.1,0.4,1.5,1.2,1.2,2.3c-0.5,1.6-1,3.1-1.4,4.7c-0.9,3.5-1,7-0.5,10.5c0.1,0.8,0.2,1.5,0.3,2.3c0,0.4,0.2,0.6,0.6,0.6
					c1-0.1,2.1-0.1,3.1-0.1c0.4,0,0.5-0.1,0.5-0.5c0-0.3,0-0.5,0-0.8c0-4.8,0.1-9.7,0.2-14.5c0.1-2.7-0.3-5.7,2.2-5.8
					c0.9,0,1.7,0,2.6,0.2c1.1,0.2,1.6,0.8,1.6,1.9c0,1.4-0.1,2.8-0.3,4.2c-0.4,3.9-0.7,7.8-0.7,11.8c0.1,3.3,0,6.6,0,9.9
					c0,0.4-0.1,0.8-0.1,1.2c-0.1,0.8-0.6,1.4-1.4,1.5c-0.7,0.1-1.4,0.3-2.1,0.2c-1.4-0.1-2.2-0.9-2.2-2.3c0-1.1,0-2.3,0-3.4
					c0-1.3,0.2-1.1-1.2-1.1c-0.7,0-1.4,0-2.2,0C287.8,245.5,287.7,245.6,287.6,245.6z"/>
				<path class="st115" d="M303.9,224.2c-0.9-0.1-1.7,0-2.5,0c-0.3,0-0.6,0-0.9,0c-0.7,0-1.2-0.5-1.2-1.2c0-0.6,0.5-1.2,1.1-1.3
					c0.7-0.1,1.4-0.1,2.1-0.2c3.4-0.1,6.8-0.3,10.2-0.2c0.3,0,0.7,0,1,0.1c0.6,0.2,0.9,0.7,0.9,1.2c0,0.6-0.4,1-1,1.2
					c-0.3,0.1-0.5,0.1-0.8,0c-0.7-0.1-1.4,0-2.2,0c-0.4,0-0.5,0.2-0.6,0.6c-0.3,2.8-0.6,5.6-0.7,8.4c-0.1,2.6,0,5.2,0.1,7.9
					c0,1.5,0.1,3,0.2,4.5c0.1,1.5,0,3-0.1,4.5c-0.1,1.4-0.7,2-2,2.3c-0.5,0.1-0.9,0.2-1.4,0.2c-1.3,0.1-2.1-0.4-2.5-1.7
					c-0.3-0.9-0.4-1.9-0.6-2.9c-0.4-3.5-0.6-6.9-0.4-10.4c0.2-3.5,0.4-6.9,0.9-10.3C303.6,226.1,303.8,225.2,303.9,224.2z"/>
				<path class="st115" d="M323.1,252.3c-2.4-0.2-4.3-1.2-5.6-3.3c-0.7-1.1-1.1-2.4-1.4-3.6c-0.2-0.7,0.2-1.3,0.8-1.5
					c0.6-0.2,1.2,0.1,1.5,0.8c0.1,0.2,0.2,0.5,0.2,0.7c0.2,0.5,0.3,1,0.5,1.5c0.3,0.8,0.7,1.4,1.4,1.9c1.5,1.2,3,1.2,4.3-0.2
					c1.1-1.2,1.4-2.5,0.9-4c-0.4-1.3-1.1-2.3-2-3.2c-0.8-0.8-1.6-1.7-2.5-2.5c-1.1-1.1-2.1-2.2-3-3.5c-1.3-1.9-2-4.1-2-6.4
					c0.1-2.6,1.2-4.7,3.2-6.3c2.8-2.2,6.6-1.5,8.7,1.4c0.5,0.8,0.9,1.6,1.3,2.5c0.1,0.2,0.1,0.4,0.2,0.7c0,0.7-0.3,1.1-0.9,1.3
					c-0.5,0.2-1-0.1-1.3-0.6c-0.1-0.2-0.2-0.4-0.3-0.6c-0.2-0.5-0.5-1.1-0.8-1.6c-0.2-0.3-0.4-0.4-0.8-0.3c-0.5,0.2-0.9,0.5-1.3,0.8
					c-1.5,1.4-2.2,4-1,6.2c0.5,0.9,1.1,1.8,1.8,2.6c1.1,1.5,2.2,3.1,3,4.8c1,2.2,1.4,4.4,0.9,6.8c-0.5,2.2-1.5,4.1-3.7,5.1
					C324.6,252.2,323.9,252.4,323.1,252.3z"/>
			</g>
		</g>
		<g>
			<g>
				<path class="st8" d="M342.2,318.3c0.5-0.2,0.8-0.3,1.2-0.5c4.8-1.9,9.6-1.8,14.3,0.6c3.1,1.6,5,4.2,5.7,7.7
					c0.2,1.2,0.2,2.5-0.1,3.7c-1.2,4.4-3.6,7.9-7.4,10.3c-3.7,2.3-7.6,2.6-11.7,0.8c-4.2-1.9-7.3-4.8-9.6-8.7
					c-0.2-0.4-0.5-0.8-0.8-1.3c-0.3,0.3-0.6,0.5-0.9,0.7c-4.6,3.9-9.5,7.6-14.5,11c-8.4,5.7-17.5,9.7-27.3,12.4
					c-6.5,1.7-13,2.8-19.7,3.2c-4.1,0.2-8.2,0.4-12.3,0c-10.4-1.1-20.3-4-28.7-10.4c-4.3-3.2-8-7.1-10.8-11.7
					c-1-1.6-1.9-3.4-2.3-5.3c-0.1-0.8-0.2-1.8,0-2.6c0.4-1.8,2.2-2.6,3.9-1.7c0.5,0.3,1,0.7,1.4,1.1c0.8,1,1.5,2.1,2.2,3.2
					c0.5,0.8,0.9,1.7,1.3,2.6c2.2,4.9,5.7,8.7,10.2,11.7c5.6,3.7,11.8,6.1,18.3,7.4c4.4,0.9,8.9,1.1,13.3,1c4.8-0.1,9.6-0.4,14.3-1
					c4.5-0.6,8.8-2,13.1-3.4c8.7-2.9,16.5-7.4,23.7-13.1c4.1-3.2,8.1-6.6,12.2-9.9c0.2-0.1,0.3-0.3,0.4-0.4c-0.5-2.6-1-5.2-1.5-7.9
					c-0.3,0.3-0.5,0.6-0.7,0.9c-1.1,1.4-2.4,2.7-4,3.6c-2.8,1.6-5.5,1.5-8.2-0.1c-1.5-0.9-2.7-2.1-3.7-3.5c-2.2-3-3.5-6.3-4.2-9.9
					c-0.2-1.1-0.3-2.1-0.5-3.2c-0.1-0.4-0.1-0.7-0.2-1.3c-0.3,0.4-0.4,0.6-0.6,0.8c-0.8,1.5-1.7,2.9-2.5,4.4c-1.5,2.6-3.2,5-5.3,7.2
					c-1.6,1.6-3.4,2.9-5.6,3.4c-2.6,0.6-5.2,0.2-7.6-1.1c-2.5-1.3-4.5-3.3-5.9-5.7c-1.9-3.3-2.9-6.9-3.1-10.7c-0.1-1.5,0-2.9,0-4.4
					c-2.3,0.2-4.5,0.4-6.7,0.6c-0.1,0.8-0.1,1.7-0.2,2.6c-0.3,4.9-0.9,9.7-2.2,14.4c-0.7,2.8-1.8,5.4-3.6,7.7
					c-1.3,1.6-2.9,2.9-4.9,3.5c-2.6,0.7-4.9,0.2-7.2-1.1c-2.3-1.4-4-3.3-5.3-5.6c-1.5-2.7-2.3-5.6-2.9-8.6c-0.3-1.4-0.5-2.8-0.7-4.2
					c0-0.2-0.1-0.4-0.3-0.6c-0.3,0.9-0.7,1.8-1,2.7c-0.9,2.3-1.9,4.5-3.4,6.5c-0.6,0.9-1.4,1.7-2.2,2.4c-2,1.7-4.2,1.9-6.6,0.8
					c-1.5-0.7-2.7-1.8-3.6-3.1c-1.3-1.8-2.1-3.9-2.5-6.1c-0.6-2.7-0.9-5.5-0.9-8.4c-0.2,0.1-0.4,0.1-0.6,0.2c-1.5,1-2.9,1.9-4.4,2.9
					c-0.5,0.3-0.7,0.7-0.7,1.3c-0.3,5.7-1.9,10.9-5,15.7c-0.8,1.2-1.8,2.4-2.9,3.3c-3.1,2.4-7,2.7-10.4,0.8
					c-2.4-1.4-4.2-3.4-5.6-5.7c-0.6-1.1-1.1-2.2-1.6-3.3c-0.1-0.2-0.2-0.4-0.4-0.8c-0.2,0.5-0.3,0.9-0.4,1.2
					c-0.8,2.4-1.5,4.8-2.4,7.1c-0.6,1.6-1.3,3.1-2.1,4.6c-0.4,0.8-1,1.5-1.6,2.2c-2.1,2.2-4.9,2.8-7.7,1.5c-1.7-0.8-3.1-2.1-4.4-3.4
					c-1.9-2.1-3.3-4.5-4.5-7.1c-1.3-3-2.2-6.2-2.9-9.4c0-0.2-0.1-0.5-0.2-0.9c-0.2,0.3-0.3,0.6-0.4,0.8c-0.8,1.6-1.6,3.2-2.6,4.7
					c-0.6,1-1.5,2-2.3,2.9c-2,2.2-4.6,2.5-7.4,1.8c-2-0.6-3.6-1.7-5.1-3.1c-2.6-2.6-4.5-5.7-5.9-9.1c-0.3-0.8-0.6-1.7-1-2.6
					c-0.4,0.2-0.4,0.5-0.5,0.8c-1.2,3.1-2.4,6.2-3.6,9.3c-0.5,1.3-1.1,2.6-1.7,3.8c-0.4,0.8-0.9,1.7-1.5,2.4c-1.7,2.2-4,2.8-6.7,2.1
					c-1.9-0.5-3.4-1.6-4.7-2.9c-1.9-2.1-3.1-4.6-4-7.2c-0.8-2.3-1.2-4.7-1.5-7.1c-0.1-0.5-0.1-1-0.4-1.5c-0.6,1-1.1,1.9-1.7,2.9
					c-1.4,2.6-2.9,5.1-4.7,7.5c-1.3,1.7-2.8,3-4.9,3.7c-2.7,0.8-5,0.3-7-1.6c-2.6-2.5-4.2-5.5-4.9-8.9c-1.2-6-0.5-11.8,2-17.4
					c0.9-1.9,1.9-3.7,3.4-5.1c2.8-2.7,6-3.5,9.7-2.2c1.6,0.5,3.1,1.3,4.3,2.3c1.1,0.9,2.1,1.9,3.2,2.9c0.3,0.3,0.5,0.5,0.9,0.9
					c0.1-0.4,0.1-0.6,0.2-0.8c0.3-1.5,0.9-2.8,1.7-4.1c0.3-0.5,0.7-0.9,1.1-1.3c1.6-1.4,3.5-1.1,4.7,0.6c0.8,1.1,1.2,2.4,1.3,3.7
					c0.1,1.3,0.2,2.6,0.2,3.9c0,5-0.2,10-0.2,15.1c0,2.8,0.2,5.7,1,8.4c0.2,0.7,0.4,1.4,0.8,2c0.4,0.6,1,1.2,1.6,1.7
					c0.5,0.4,1.2,0.4,1.7-0.1c0.5-0.5,1-1,1.3-1.6c0.8-1.5,1.6-3,2.3-4.5c1.6-3.8,3-7.6,4.3-11.6c0.4-1.1,0.5-2.1,0.2-3.3
					c-1.2-6-1.8-12.1-1.7-18.2c0.1-7.5,1-14.9,3.5-22c0.9-2.7,2-5.2,3.5-7.6c1-1.5,2-3,3.5-4c1.4-1.1,3-1.7,4.8-1.3
					c1.6,0.3,2.8,1.2,3.8,2.4c1.3,1.6,2,3.5,2.5,5.5c1,4.1,1,8.3,0.3,12.5c-0.7,4.7-2.1,9.2-3.9,13.6c-1.6,3.8-3.3,7.6-5.3,11.1
					c-0.9,1.6-2,3.2-3.1,4.8c-0.2,0.4-0.3,0.7-0.3,1.1c0.7,4.1,1.4,8.2,2.9,12.2c0.7,1.9,1.7,3.6,3.1,5.1c0.4,0.4,0.7,0.7,1.2,1.1
					c1.5,1.1,2.8,1,4.2-0.2c1.9-1.7,3.3-3.9,4.4-6.1c0.5-1,1-2.1,1.6-3.1c0.2-0.4,0.4-0.8,0.3-1.3c-0.6-4.9-0.7-9.8-0.4-14.7
					c0.3-4.7,0.8-9.4,1.9-14c1.1-4.2,2.5-8.3,4.6-12.1c1.2-2,2.5-3.9,4.3-5.4c0.8-0.6,1.7-1.2,2.6-1.6c2.8-1.2,5.5-0.5,7.4,1.8
					c1.4,1.7,2.2,3.6,2.6,5.7c0.7,3.4,0.4,6.8-0.5,10.1c-2.1,7.4-5.7,14-10.6,19.8c-0.8,0.9-1.7,1.8-2.6,2.7
					c-0.5,0.5-0.7,0.9-0.6,1.6c0.2,2.8,0.4,5.6,0.7,8.4c0.4,4.1,1.3,8,2.5,11.9c0.6,1.8,1.3,3.6,2.3,5.2c0.6,1,1.3,1.9,2.2,2.5
					c1.2,0.9,2.2,0.8,3.3-0.3c0.9-0.9,1.6-2,2.1-3.2c0.7-1.6,1.3-3.2,1.9-4.8c0.8-2.1,1.5-4.2,2.1-6.3c0.1-0.4,0.2-0.9,0.2-1.3
					c0-1.4-0.2-2.8-0.2-4.2c0-0.5-0.2-0.8-0.6-1.1c-1.4-0.9-2.6-2-3.7-3.3c-3.6-4.4-4.5-9.9-1.4-15.3c3-5.3,7.6-7.9,13.7-7.7
					c2.9,0.1,5.5,1.1,7.8,2.8c6.2,4.3,9.9,10.2,11,17.7c0.1,0.7,0.1,1.3,0.2,2.2c2.1-1.2,4-2.4,5.9-3.5c0.2-2.7,0.6-5.2,1.3-7.7
					c0.4-1.4,0.9-2.8,1.9-3.9c0.4-0.5,0.9-0.9,1.4-1.3c1.8-1.2,3.7-0.7,4.8,1.1c0.6,1,0.9,2.1,0.9,3.3c0,2.5,0,5-0.1,7.5
					c0,1.4-0.1,2.7-0.1,4.1c-0.1,2.6-0.1,5.1-0.1,7.7c0,1,0.1,2,0.2,3.1c0,0.5,0.1,0.9,0.3,1.3c0.4,1.5,1.3,1.8,2.5,0.8
					c0.5-0.4,1-1,1.4-1.6c1.5-2,2.3-4.2,3-6.6c0.9-3.2,1.2-6.4,1.7-9.6c0.2-1.1,0.4-2.2,0.7-3.3c0.3-1.1,0.9-2.1,1.8-2.9
					c1.4-1.2,3.2-1.1,4.4,0.2c0.8,0.8,1.2,1.7,1.5,2.8c0.5,2.1,0.9,4.2,1.3,6.3c0.6,3.8,1.1,7.7,1.7,11.5c0.4,2.1,1.1,4.1,1.7,6.1
					c0.2,0.7,0.5,1.4,0.9,2c1.5,2.5,4.1,2.8,6,0.2c0.7-0.9,1.2-2,1.6-3.1c1.1-2.6,1.7-5.4,2-8.2c0.4-3.3,0.6-6.7,0.9-10.1
					c0-0.2,0-0.3,0-0.5c-0.6-0.3-1.2-0.5-1.7-0.8c-2.5-1.3-4.5-3.1-6.1-5.4c-2.1-3-3.5-6.3-3.9-10c-0.3-3.3,0-6.5,1.8-9.4
					c0.5-0.7,1.1-1.4,1.7-1.9c1.6-1.2,3.6-1.1,5.2,0.1c1.1,0.9,1.9,2,2.6,3.2c1.6,2.8,2.6,5.8,3.2,9c0.7,3.4,0.8,6.9,1,10.4
					c0,0.3,0,0.6,0,1.1c2.5,0.6,4.8,0.4,7.1-0.4c0.3-1.4,0.6-2.7,0.9-4.1c0.6-2.4,1.5-4.7,2.9-6.7c1.5-2.2,3.4-3.9,6-4.7
					c5.3-1.6,9.7,2.1,11,5.5c0.9,2.4,0.5,4.6-1.1,6.6c-1.6,2-3.8,3.2-6.3,3.8c-1.1,0.3-2.3,0.3-3.4,0.4c-0.4,0-0.9,0-1.4,0
					c-0.1,0.3-0.1,0.6-0.1,0.9c-0.2,4.9,0.4,9.7,1.8,14.5c0.4,1.5,1.2,2.8,2.3,3.9c1.6,1.6,3.4,1.8,5.3,0.4c1.7-1.3,3.2-2.7,4.5-4.5
					c2.5-3.5,5-7,7.5-10.5c0.4-0.6,0.7-1.2,0.8-1.9c0.5-2.6,1.4-4.9,2.9-7.1c0.4-0.6,0.9-1.1,1.3-1.6c2.9-3,6.4-3.8,10.2-2.2
					c2.4,1,4.5,2.4,6.3,4.3c0.2,0.2,0.4,0.5,0.7,0.8c0.1-0.5,0.2-0.8,0.2-1.1c1.1-8.3,2.7-16.4,4.9-24.5c1.2-4.2,2.6-8.4,4.6-12.3
					c0.9-1.8,1.9-3.6,3.3-5.2c1.3-1.5,2.7-2.8,4.6-3.6c3.3-1.4,6.6-0.5,8.8,2.3c1.4,1.8,2.1,3.9,2.6,6.1c1,5.2,0.6,10.3-0.8,15.3
					c-2.2,8.2-6.2,15.4-11.9,21.7c-1.5,1.7-3.2,3.2-5.1,4.4c-0.4,0.3-0.6,0.6-0.6,1.1c0,3.4-0.1,6.9,0,10.3c0.1,3.1,0.4,6.1,0.7,9.1
					C341.8,315.7,342,316.9,342.2,318.3z M214.7,303.4c-0.1-1.9-0.4-3.6-0.9-5.4c-1.5-5.8-4.8-10.2-10-13.2
					c-1.8-1.1-3.8-1.6-5.9-1.4c-2.4,0.2-4.5,1.2-5.6,3.5c-1.6,3.2-1.7,6.5,0,9.7c0.1,0.3,0.3,0.5,0.5,0.8c0.3-0.4,0.5-0.7,0.7-1
					c0.8-1,1.7-1.9,2.9-2.4c1.7-0.7,3.4-0.1,4.2,1.6c0.3,0.7,0.4,1.5,0.5,2.2c0.1,1.3,0,2.5,0,3.8c0,1.1-0.1,2.2-0.1,3.2
					C204.8,306.1,210.6,305.5,214.7,303.4z M341.3,288.8c0.1,0,0.1,0.1,0.2,0.1c0.2-0.2,0.4-0.3,0.6-0.5c1.2-1.2,2.4-2.4,3.5-3.6
					c3.2-3.6,5.9-7.6,7.7-12.1c1.4-3.4,2.4-6.9,2.8-10.5c0.3-2.9,0.2-5.9-0.5-8.8c-0.3-1.3-1-2.5-2-3.4c-0.9-0.8-1.8-0.8-2.8-0.1
					c-0.4,0.3-0.7,0.6-1,1c-1.1,1.3-1.9,2.8-2.5,4.3c-1.7,4.5-2.8,9.1-3.6,13.8c-0.8,4.7-1.4,9.4-2.1,14.1
					C341.5,285,341.4,286.9,341.3,288.8z M329.7,303.8C329.6,303.8,329.6,303.8,329.7,303.8c0-1.8,0.1-3.6,0.2-5.4
					c0.1-2.4,0.1-2.4-1.5-4.3c-1.6-1.8-3.6-3.1-5.9-3.8c-1.4-0.4-2.3-0.1-3.1,1.1c-0.4,0.6-0.7,1.3-0.8,1.9
					c-0.3,1.4-0.5,2.8-0.6,4.3c-0.2,3.8-0.2,7.6,0.4,11.4c0.3,1.8,0.6,3.7,1.3,5.4c1.2,2.8,4.2,3.5,6.5,1.5c1.3-1,2.2-2.4,3.1-3.7
					c0.4-0.5,0.5-1,0.5-1.7C329.6,308.3,329.7,306,329.7,303.8z M102.6,308.1c0,0.6,0.1,1.3,0.1,2c0,0.4,0,0.7,0.1,1
					c0.2,0.8,0.3,1.7,0.6,2.4c0.5,1.4,1.4,1.7,2.6,1c0.9-0.6,1.8-1.3,2.6-2.2c1.2-1.3,2.3-2.8,3.3-4.2c1.6-2.3,3.1-4.6,4.6-6.9
					c0.2-0.3,0.4-0.8,0.4-1.2c0.1-1.3,0.2-2.6,0.2-3.9c0-0.3-0.1-0.7-0.2-1c-1.4-2.1-3.2-3.8-5.4-5c-2.1-1.2-3.5-0.7-5.1,1.1
					c-0.3,0.3-0.5,0.6-0.6,1c-0.4,1-0.9,2-1.2,3C103.4,299.5,102.8,303.8,102.6,308.1z M146.8,291.3c0.3-0.4,0.4-0.6,0.6-0.8
					c4-7.1,7.1-14.6,8.2-22.8c0.4-3,0.9-5.9,0.5-8.9c-0.2-2-0.5-4-1.3-5.8c-0.4-0.9-0.8-1.7-1.9-2.2c-0.4,0.6-0.9,1.1-1.2,1.7
					c-1,1.6-1.6,3.4-2.1,5.1c-1.3,4.4-2,9-2.4,13.6c-0.5,6.3-0.8,12.5-0.5,18.8C146.7,290.3,146.8,290.7,146.8,291.3z M173.9,293.8
					c0.5-0.5,0.8-0.9,1.1-1.3c4.1-4.9,7-10.5,9-16.5c0.9-2.8,1.5-5.6,1.4-8.5c-0.1-1.8-0.4-3.6-1.2-5.2c-0.4-0.8-0.9-1.4-1.6-1.9
					c-0.7-0.4-0.9-0.4-1.5,0.1c-0.5,0.5-1,1.1-1.3,1.8c-0.5,0.9-0.9,1.8-1.3,2.8c-1.7,4.5-2.9,9.2-3.6,14c-0.5,3.5-0.7,7.1-1,10.7
					C173.8,291.1,173.9,292.3,173.9,293.8z M343.2,323.5c0.5,2.5,1.5,5.5,2.6,7.5c0.7,1.3,1.5,2.4,2.7,3.4c1.1,0.9,2.2,1.4,3.7,1.3
					c4.9-0.2,7.5-5,7.2-8.2c-0.1-1.3-0.6-2.4-1.5-3.3c-0.8-0.9-1.7-1.5-2.7-1.9C351,320.6,347,321.1,343.2,323.5z M200.9,309.4
					c0.1,0.7,0.1,1.1,0.1,1.6c0.3,2.2,0.7,4.4,1.7,6.5c0.6,1.3,1.3,2.5,2.5,3.3c1.3,1,2.7,1,4-0.1c0.8-0.7,1.6-1.6,2.3-2.5
					c1.6-2.3,2.6-5,3.1-7.8c0.2-1.2,0.3-2.5,0.3-3.8C210.3,308.6,205.8,309.9,200.9,309.4z M267.2,291.6c0-0.6,0-1,0-1.4
					c-0.1-1.5-0.2-2.9-0.4-4.4c-0.3-3.2-0.9-6.3-2.1-9.2c-0.5-1.1-1.1-2.1-1.7-3.1c-0.2-0.4-0.6-0.8-1.2-0.6
					c-0.6,0.1-0.8,0.6-0.9,1.1c-0.1,0.6-0.2,1.2-0.2,1.8c0,1.8,0.3,3.6,0.8,5.4c0.7,2.6,1.6,5.2,3.1,7.5
					C265.3,289.6,266,290.5,267.2,291.6z M287.2,291.5c2.4,0,4.7-0.3,6.7-1.6c0.9-0.6,1.7-1.3,2.2-2.2c0.8-1.3,0.7-2.7-0.3-3.9
					c-0.5-0.6-1.2-1-1.8-1.4c-1.7-0.8-2.6-0.5-3.7,1c-0.2,0.3-0.4,0.6-0.6,1c-1.1,1.9-1.8,3.9-2.3,6
					C287.3,290.8,287.3,291.1,287.2,291.5z"/>
			</g>
			<g>
				<path class="st8" d="M336.3,171.9c-3.2,1-6.1,0.8-8.9-1.2c-0.2,0.5-0.4,0.9-0.6,1.3c-2.9,6.1-6.1,12.1-9.9,17.8
					c-0.9,1.4-1.9,2.7-2.9,4c-0.5,0.7-1.2,1.3-1.9,1.8c-2.1,1.6-4.3,1.7-6.6,0.5c-1.2-0.7-2.2-1.6-3.1-2.7c-2.2-2.7-3.5-5.8-4.2-9.1
					c-0.5-2.6-0.9-5.2-1.4-7.7c0-0.2-0.1-0.3-0.3-0.6c-0.4,1.1-0.9,2.2-1.3,3.3c-0.9,2.6-1.8,5.2-2.8,7.8c-0.7,1.7-1.5,3.4-2.5,5
					c-2.4,3.8-5.9,4.5-9.7,1.9c-2.1-1.4-3.7-3.3-4.8-5.5c-0.8-1.6-1.3-3.2-2-4.8c-0.1-0.3-0.2-0.7-0.4-1.3c-0.2,0.5-0.4,0.9-0.6,1.3
					c-1.6,4.2-3.2,8.5-4.9,12.6c-0.8,2-1.8,3.9-2.8,5.9c-0.7,1.4-1.8,2.6-3,3.6c-2,1.6-4.2,1.9-6.5,0.7c-1.6-0.8-3-2-4.1-3.3
					c-3-3.5-4.8-7.7-6.1-12.1c-1.5-5-2.1-10.2-2.4-15.4c0-0.3,0-0.5-0.1-1c-0.2,0.4-0.4,0.6-0.5,0.8c-0.7,1.5-1.4,2.9-2.2,4.4
					c-0.8,1.6-1.8,3.1-3.2,4.4c-2.8,2.7-6.2,3-9.4,0.7c-1.7-1.2-3-2.8-4.1-4.5c-1.8-2.9-2.8-6.1-3.6-9.4c-0.1-0.3-0.2-0.6-0.3-1.1
					c-0.2,0.4-0.3,0.7-0.5,0.9c-1.1,2.2-2.2,4.5-3.4,6.7c-0.8,1.4-1.8,2.6-2.9,3.7c-3.2,3.1-7.5,3.3-10.9,0.5
					c-1.9-1.6-3.2-3.6-4.1-5.9c-1.2-3.2-1.5-6.5-1.1-9.9c0.4-3.3,1.3-6.4,2.8-9.4c0.9-1.9,2.1-3.6,3.6-4.9c3.3-2.8,6.9-3.3,10.8-1.6
					c1.3,0.6,2.4,1.5,3.6,2.3c0.3,0.2,0.5,0.4,0.9,0.8c0.1-0.3,0.2-0.5,0.2-0.8c0.3-0.9,0.5-1.9,0.9-2.8c1.3-2.7,4.5-3,6.2-0.5
					c0.6,0.8,1,1.9,1.3,2.9c0.4,1.6,0.6,3.3,0.7,5c0.2,5,0.5,10.1,1.4,15.1c0.4,2.1,0.9,4.1,1.8,6c0.4,0.8,0.9,1.7,1.5,2.4
					c0.7,0.9,1.5,1,2.5,0.3c0.8-0.6,1.5-1.2,2.2-2c1.7-1.9,2.9-4.2,4.2-6.4c1.1-2,1.6-4.1,1.6-6.4c0-7.5,0.3-15.1,0.4-22.6
					c0-0.4,0-0.8,0-1.3c-0.2-0.1-0.4-0.2-0.5-0.2c-2.8-0.4-5.4-1.3-7.9-2.5c-3.1-1.5-6.3-3-9.3-4.8c-6.6-3.9-13.6-6.5-21.1-7.8
					c-4.5-0.8-8.9-0.9-13.4,0.1c-3.1,0.7-5.9,1.8-8.1,4.3c-1.4,1.5-2.3,3.3-2.8,5.3c-0.1,0.6-0.4,1.3-0.8,1.8
					c-1,1.2-2.8,0.9-3.2-0.7c-0.2-0.6-0.2-1.2-0.1-1.8c0.9-4.3,3.2-7.7,6.8-10.2c3.1-2.2,6.7-3.4,10.4-4c6.8-1.1,13.4-0.2,20,1.5
					c5.2,1.4,10.1,3.4,14.9,5.9c3.5,1.9,7.1,3.7,10.9,5.1c1.3,0.5,2.5,1,4.1,1.1c0-0.5,0-1,0-1.5c0-3.3,0.2-6.5,1-9.7
					c0.2-0.7,0.3-1.5,0.7-2.2c0.4-0.8,1-1.7,1.6-2.3c1.3-1.2,2.9-1.1,4,0.3c0.5,0.7,0.9,1.5,1.2,2.3c0.3,1.3,0.6,2.7,0.7,4
					c0.2,2.4,0.2,4.9,0.2,7.3c0,0.4,0,0.8,0,1.3c0.3,0,0.5,0,0.8-0.1c3.1-0.7,6.1-1.9,8.6-4c0.6-0.5,1.3-1,2-1.4
					c0.9-0.5,1.8-0.6,2.7,0.1c0.8,0.7,1,1.6,0.6,2.6c-0.3,0.8-0.7,1.6-1.1,2.3c-1.1,1.7-2.6,2.9-4.4,3.9c-2.6,1.5-5.4,2.5-8.4,3.1
					c-0.2,0-0.4,0.1-0.8,0.2c0,0.4,0,0.9,0,1.3c0.1,4.7,0.1,9.4,0.3,14.1c0.1,4,0.2,8,0.4,12c0.2,4.4,0.4,8.8,0.7,13.2
					c0.3,4.2,0.6,8.3,1.5,12.4c0.4,1.7,1,3.4,1.6,5.1c0.3,0.9,0.9,1.7,1.5,2.4c0.8,1,2,0.9,2.9-0.1c0.3-0.4,0.6-0.8,0.8-1.2
					c2.6-4.3,4.4-8.9,6.2-13.5c1.2-3.1,2.3-6.3,3.5-9.4c0.3-0.8,0.4-1.7,0.3-2.6c-0.4-4.8-0.5-9.6-0.3-14.4c0.1-1.5,0.5-3,0.8-4.5
					c0.2-1,0.7-1.8,1.4-2.5c1.4-1.5,3.4-1.4,4.8,0.1c0.7,0.8,1.1,1.8,1.3,2.9c0.3,1.4,0.5,2.8,0.6,4.3c0.5,6.8,1.3,13.6,2.3,20.4
					c0.3,1.9,0.7,3.8,1.1,5.7c0.2,0.9,0.6,1.7,1,2.5c0.6,1.2,1.5,1.3,2.4,0.3c0.7-0.7,1.3-1.5,1.8-2.4c1.4-2.4,2.6-5,3.5-7.7
					c1.1-3.2,2.2-6.4,3.2-9.6c0.2-0.5,0.2-1.1,0.1-1.7c-0.4-3.9-0.8-7.9-1.2-11.8c-0.1-1.5-0.3-3.1,0.2-4.5c0.2-0.7,0.6-1.4,1-2
					c1.3-1.6,3.5-1.6,4.9,0c0.8,0.9,1.2,2,1.4,3.1c0.4,2.4,0.8,4.7,1.1,7.1c0.8,6.8,1.4,13.6,2.7,20.3c0.5,2.5,1,5,1.6,7.5
					c0.2,0.7,0.4,1.4,0.7,2c0.8,1.7,1.4,1.9,2.8,0.6c0.7-0.6,1.3-1.2,1.8-1.9c1.5-2.1,3.1-4.1,4.5-6.3c2.7-4.3,5.1-8.9,7.2-13.6
					c0.1-0.2,0.2-0.5,0.3-0.7c-0.1-0.1-0.1-0.2-0.1-0.3c-3-3.9-4.2-8.4-4.3-13.3c0-3.2,0.2-6.5,1.1-9.6c0.4-1.2,0.9-2.3,1.4-3.3
					c0.3-0.7,0.9-1.3,1.4-1.8c2.1-2,4.6-1.9,6.5,0.2c1.6,1.8,2.4,3.9,2.7,6.3c0.5,3.9-0.2,7.6-1.3,11.2c-0.9,2.9-2.1,5.8-3.2,8.7
					c-0.1,0.3-0.2,0.6-0.4,1.1c2.6,1.8,5.2,1.4,7.9,0.7c0.4-1.5,0.7-3,1.1-4.4c0.8-3.1,2.1-6,4-8.5c1.5-2,3.2-3.5,5.5-4.5
					c3.6-1.6,7-0.8,9.5,2.2c1.8,2.3,2.8,4.8,2.5,7.8c-0.3,3.3-1.9,5.7-4.8,7.2c-2.7,1.4-5.5,2-8.5,1.6c-0.3,0-0.6,0-1,0
					c-0.1,0.4-0.1,0.8-0.2,1.2c-0.6,4.5-0.3,8.9,1,13.2c0.6,2.1,1.6,4,3.1,5.6c2.4,2.6,5.2,3.4,8.6,2.3c2-0.6,3.8-1.7,5.4-3.1
					c1.5-1.3,2.8-2.9,3.9-4.6c1.5-2.5,2.9-5,4.3-7.5c0.6-1.1,1.1-2.3,1.8-3.3c0.5-0.8,1.3-1.6,2.1-2.1c1.4-0.9,3.1,0,3.2,1.7
					c0,0.8-0.2,1.7-0.5,2.4c-0.5,1.2-1.2,2.3-2,3.3c-2.7,3.8-5.6,7.5-8.8,11c-1.9,2.1-4.2,3.9-6.7,5.2c-5.6,2.9-10.8,2.4-15.8-1.4
					c-1.8-1.4-3.2-3-4.4-4.9c-2.9-4.6-4-9.7-3.7-15.1C336.2,173.1,336.2,172.6,336.3,171.9z M203.6,168.6c0.1,0.8,0.1,2,0.3,3.2
					c0.2,2,0.7,3.9,2,5.5c1.7,2.2,3.2,1.9,4.6,0.4c1.1-1.3,2.2-2.6,3.1-4.1c1.2-2,2.2-4.3,3.4-6.3c1.3-2,1.7-4.1,1.3-6.5
					c0-0.3,0-0.6-0.2-0.9c-1.4-2.7-3.5-4.7-6.5-5.5c-1.4-0.4-2.7-0.1-3.8,0.9c-0.6,0.6-1.2,1.3-1.6,2
					C204.2,160.7,203.7,164.4,203.6,168.6z M345.3,167c2.1,0.2,4,0.3,5.8-0.3c2.7-0.8,4.2-2.7,4.2-5.5c0-2-0.7-3.7-2.3-4.9
					c-1-0.7-1.7-0.7-2.6,0c-0.7,0.6-1.4,1.4-2,2.2c-1.1,1.6-1.8,3.5-2.4,5.4C345.9,164.8,345.6,165.8,345.3,167z M328.2,142.9
					c-0.9,0.8-1.3,1.9-1.5,2.9c-0.3,1.8-0.6,3.7-0.8,5.5c-0.4,3.8-0.1,7.6,0.7,11.3c0.1,0.3,0.2,0.5,0.4,0.9
					c1.2-3.3,2.3-6.4,2.9-9.7c0.4-2.4,0.6-4.7,0.2-7.1C329.7,145.4,329.3,144,328.2,142.9z"/>
				<path class="st8" d="M124.4,169c0.2,2.5,0.6,5,1.4,7.3c0.7,2,1.6,3.9,2.9,5.7c0.9,1.2,1.9,2,3.4,2.3c1,0.2,2,0.1,2.9-0.4
					c0.9-0.5,1.9-1.1,2.6-1.8c2-1.9,3.9-3.9,5.7-5.9c1.9-2.1,3.6-4.3,5.4-6.4c0.5-0.5,0.4-1,0.3-1.6c-0.3-2.8-0.4-5.5,0.1-8.3
					c0.5-2.9,1.5-5.7,3.3-8c2.9-3.8,7.3-5.1,11.8-3.6c2.2,0.7,4.2,1.9,5.9,3.4c2.6,2.3,4.7,4.9,6.1,8.1c0.1,0.1,0.1,0.2,0.3,0.5
					c0.2-0.4,0.3-0.7,0.4-1c0.8-2,1.5-4,2.3-5.9c0.4-0.9,0.8-1.7,1.4-2.5c1.3-1.8,3.5-2.1,5.3-0.7c1.1,0.8,1.7,1.9,2.2,3.1
					c0.9,2.1,1.3,4.3,1.6,6.5c0.8,6,0.9,12,1.1,18c0.1,5.5,0.1,11.1,0.1,16.6c0,3.1-0.2,6.2-0.3,9.2c0,0.4,0,0.9,0,1.4
					c0.2,0.1,0.4,0.1,0.6,0.1c3.9,0.3,7.9,0.7,11.8,0.9c2.9,0.2,5.7-0.1,8.5-0.8c1.2-0.3,2.3-0.8,3.4-1.3c2.7-1.2,4.3-3.4,5.4-6
					c0.2-0.4,0.3-0.9,0.4-1.4c0.2-1.3-0.2-2.4-1.4-3.1c-0.8-0.5-1.6-0.9-2.3-1.4c-0.8-0.5-1.4-1.3-1.3-2.4c0.1-1.2,0.6-1.9,1.8-2.2
					c2.3-0.5,5.3,0.1,6.9,2.9c1.5,2.6,1.7,5.3,0.3,8.1c-2.9,5.8-7.7,9.1-13.9,10.3c-3.4,0.7-6.9,0.9-10.4,0.7c-3-0.2-6-0.4-9-0.6
					c-0.3,0-0.6,0-1,0c-0.2,1.4-0.3,2.7-0.5,4c-0.7,5.1-1.6,10.2-3.2,15.1c-1,3.2-2.4,6.2-4.2,9.1c-1.3,1.9-2.8,3.6-4.7,5
					c-2.9,2-6.1,2.9-9.6,2c-2.2-0.6-3.9-1.8-5.3-3.5c-4.6-5.5-5.8-11.8-3.9-18.7c1.5-5.2,4.6-9.3,9.2-12.2c3.8-2.4,8-3.9,12.5-4.4
					c0.3,0,0.5-0.1,0.8-0.1c0.1,0,0.2-0.1,0.4-0.2c0-0.4,0.1-0.8,0.1-1.2c-0.1-5.5,0-11-0.2-16.5c-0.1-4.8-0.5-9.6-0.7-14.5
					c-0.2-3.7-0.2-7.4-0.3-11.2c0-0.4,0-0.7-0.2-1.2c-0.2,0.4-0.3,0.7-0.5,1.1c-1.4,3.6-2.7,7.2-4.1,10.7c-1,2.5-2.2,5-3.7,7.3
					c-1,1.7-2.2,3.2-3.7,4.4c-3.5,2.9-7.6,3.2-11.4,0.6c-2-1.3-3.5-3.1-4.7-5.2c-1-1.8-1.7-3.7-2.3-5.7c-0.1-0.3-0.2-0.6-0.3-1
					c-0.4,0.5-0.7,0.9-1,1.3c-2.7,3.5-5.3,7.2-8.4,10.4c-1.2,1.3-2.5,2.5-3.9,3.5c-1.6,1.3-3.5,2.1-5.6,2.4
					c-2.8,0.3-5.3-0.4-7.5-1.9c-2.1-1.4-3.7-3.2-5.2-5.3c-0.2-0.3-0.4-0.6-0.8-1.1c-0.2,1.2-0.4,2.1-0.6,3.1
					c-1.1,4.4-2.1,8.8-3.3,13.2c-0.4,1.5-0.9,3.1-1.5,4.5c-0.6,1.5-1.4,2.9-2.3,4.2c-1,1.5-2.6,2.4-4.5,2.2
					c-0.8-0.1-1.7-0.4-2.5-0.8c-1.3-0.7-2.3-1.8-3.2-2.9c-2-2.6-3.4-5.5-4.4-8.6c-1.3-4.1-2.1-8.4-2.5-12.7
					c-0.6-6-0.7-12.1-0.7-18.1c0-2.7-0.2-5.4-0.4-8.1c0-0.7-0.3-1.5-0.6-2.2c-0.4-1-1.2-1.3-2.1-0.8c-0.7,0.4-1.5,0.9-2,1.5
					c-0.9,1-1.8,2.2-2.5,3.4c-2.8,4.5-4.6,9.4-6,14.5c-0.7,2.7-1.5,5.5-2.3,8.2c-0.2,0.7-0.5,1.4-0.9,2.1c-1.1,1.7-3,2.2-4.8,1.3
					c-1.2-0.6-2.1-1.7-2.5-3c-0.7-1.7-1-3.5-1.1-5.3c-0.3-5-0.5-9.9-0.7-14.9c-0.1-2.4-0.2-4.8-0.8-7.1c-0.2-0.6-0.4-1.2-0.7-1.8
					c-0.4-0.8-0.6-0.9-1.4-0.5c-0.6,0.3-1.1,0.6-1.7,1c-1.6,1.2-2.8,2.8-3.8,4.5c-0.4,0.7-0.8,1.5-1.1,2.2c-0.2,0.3-0.3,0.7-0.5,0.9
					c-0.3,0.2-0.7,0.5-1.1,0.5c-0.5,0-0.8-0.4-0.9-0.9c-0.1-0.4-0.1-0.8,0-1.1c1-4.7,3.5-8.5,7.5-11.2c1.3-0.9,2.9-1.4,4.5-1.4
					c2.1,0,3.8,0.8,4.9,2.6c0.7,1,1.2,2.2,1.5,3.4c1,3.3,1.4,6.7,1.6,10.1c0.2,3.1,0.4,6.3,0.6,9.4c0,0.1,0,0.3,0.1,0.7
					c0.2-0.6,0.3-0.9,0.5-1.3c1.6-5,3.4-9.9,5.7-14.6c1.1-2.2,2.2-4.3,3.7-6.2c1-1.4,2.2-2.6,3.7-3.6c3-2,6.6-1.7,9.2,0.8
					c1.4,1.3,2.3,2.8,2.9,4.6c0.9,2.5,1.2,5.1,1.3,7.7c0.1,4.2,0.2,8.4,0.1,12.5c-0.2,6.7,0.1,13.3,0.6,19.9c0.2,2.7,0.6,5.5,1.6,8
					c0.4,1,1,2,1.6,2.9c0.5,0.8,1.1,0.8,1.7,0.1c0.6-0.7,1.2-1.4,1.6-2.2c0.9-2.1,1.7-4.2,2.3-6.3c1.8-5.7,3.2-11.4,4.3-17.2
					c0.1-0.6,0.1-1.2-0.1-1.8c-2.4-7.8-1.5-15.2,2.5-22.3c1-1.8,2.3-3.3,3.9-4.6c5.3-4.4,12.5-2.5,15.8,2.3c2,2.9,2,6.5,0,9.4
					c-0.3,0.5-0.7,1-1.2,1.4c-3.2,3.1-6.9,5.1-11.5,5.5C124.8,168.9,124.7,168.9,124.4,169z M181.5,208.8c-0.3,0-0.5,0-0.6,0
					c-1.7,0.4-3.4,0.7-5.1,1.3c-3.2,1.2-6.2,2.7-8.6,5.2c-4.2,4.5-6,9.8-4.7,15.9c0.6,2.6,1.8,4.9,3.8,6.8c1.7,1.6,3.8,1.9,6,0.9
					c1.1-0.5,1.9-1.3,2.7-2.2c1.2-1.4,2-3,2.7-4.7c1.3-3.3,2.1-6.8,2.5-10.4c0.4-3.8,0.8-7.7,1.1-11.6
					C181.5,209.7,181.5,209.3,181.5,208.8z M158.2,160c0.3,5.4,1.3,10.2,3.5,14.7c0.4,0.8,0.9,1.5,1.4,2.2c1,1.2,2,1.4,3.3,0.6
					c0.6-0.4,1.2-0.9,1.7-1.5c0.6-0.7,1.2-1.5,1.7-2.3c2.1-3,3.6-6.3,5.2-9.5c0.3-0.5,0.2-0.9-0.1-1.4c-1.7-3.1-4.2-5.5-7-7.5
					c-1.5-1.1-3.2-1.7-5.1-1.9c-2-0.2-3.7,0.6-4.1,2.8C158.4,157.6,158.3,159,158.2,160z M124.2,165.3c0.4,0,0.7,0,1-0.1
					c2.1-0.4,4.1-0.9,5.9-1.9c1.6-0.8,3-2,3.9-3.6c0.5-0.8,0.8-1.5,0.6-2.5c-0.3-2.3-1.7-3.7-3.8-4.4c-1.6-0.5-3.1-0.2-4.4,1
					c-1.1,1-1.8,2.2-2.3,3.6c-0.6,1.7-0.8,3.5-0.9,5.3C124.2,163.6,124.2,164.4,124.2,165.3z"/>
				<path class="st8" d="M280.6,142c0,4.1-3.5,6.8-6.7,5.9c-0.6-0.2-1.1-0.4-1.6-0.8c-2.7-2-3.6-7,0-9.7c1.6-1.2,3.4-1.3,5.1-0.3
					C279.4,138.3,280.5,140.2,280.6,142z"/>
			</g>
		</g>
	</g>
</g>
</svg>
