<?xml version="1.0" encoding="utf-8"?>
<!-- Generator: Adobe Illustrator 21.0.0, SVG Export Plug-In . SVG Version: 6.00 Build 0)  -->
<svg version="1.1" id="Layer_1" xmlns="http://www.w3.org/2000/svg" xmlns:xlink="http://www.w3.org/1999/xlink" x="0px" y="0px"
	 viewBox="0 0 841.9 595.3" style="enable-background:new 0 0 841.9 595.3;" xml:space="preserve">
<style type="text/css">
	.st0{fill:#F7BB63;}
</style>
<g>
	<path d="M234,152.1c-2.2,4.4-3.3,9.5-3.3,15.1c0,5.6,1.1,10.6,3.3,15.1c2.2,4.4,5,7.9,8.5,10.5c6.8,4.9,13.8,7.3,21.1,7.3
		c3.4,0,6.7-0.4,9.7-1.3c3.1-0.9,5.2-1.8,6.6-2.7l3-2.2c3.8-2.2,6.4-3.3,8-3.3c3.4,0,7.2,3.1,11.2,9.3c2.4,3.9,3.7,7,3.7,9.3
		c0,2.3-0.7,4.3-2.2,5.8c-1.5,1.6-3.2,2.9-5.2,4.2c-2,1.2-3.9,2.4-5.7,3.5c-1.8,1.1-5.6,2.6-11.2,4.3c-5.7,1.8-11.1,2.7-16.4,2.7
		c-5.3,0-10.6-0.7-16-2.1c-5.4-1.4-10.9-3.7-16.6-7c-5.7-3.3-10.8-7.3-15.4-12c-4.6-4.7-8.3-10.8-11.2-18.1
		c-2.9-7.4-4.4-15.4-4.4-24.1c0-8.7,1.4-16.5,4.3-23.6c2.9-7,6.6-12.9,11.1-17.5c4.5-4.6,9.6-8.5,15.4-11.6c10.9-6,21.8-9,32.8-9
		c5.2,0,10.5,0.8,15.9,2.4c5.4,1.6,9.5,3.2,12.2,4.9l4,2.3c2,1.2,3.6,2.2,4.7,3c2.9,2.3,4.3,5,4.3,7.9c0,2.9-1.2,6-3.5,9.2
		c-4.3,6-8.2,9-11.7,9c-2,0-4.8-1.2-8.5-3.7c-4.7-3.8-10.9-5.7-18.6-5.7c-7.2,0-14.3,2.5-21.3,7.5C239,144.3,236.2,147.7,234,152.1z
		 M428.8,207.6c1.9,3.8,2.8,6.6,2.8,8.5c0,4-3.2,7.6-9.7,10.8c-3.8,1.9-6.7,2.8-8.9,2.8s-3.9-0.5-5.3-1.5c-1.4-1-2.4-2.1-3-3.2
		c-0.6-1.1-1.5-2.8-2.6-5l-8.7-18h-46.1l-8.7,18c-1.1,2.2-2,3.8-2.6,4.8c-0.6,1-1.6,2-3,3.1c-1.4,1.1-3.2,1.6-5.3,1.6
		c-2.2,0-5.1-0.9-8.9-2.8c-6.4-3.1-9.7-6.7-9.7-10.7c0-1.9,0.9-4.7,2.8-8.5l44.9-93.1c1.2-2.6,3.1-4.6,5.6-6.2
		c2.5-1.6,5.1-2.3,7.9-2.3c6,0,10.4,2.9,13.3,8.7L428.8,207.6z M381.5,177.4l-11.2-22.8l-11,22.8H381.5z M544.2,109
		c-0.9-0.8-2.4-1.4-4.3-2c-1.9-0.6-4.5-0.8-7.7-0.8c-3.2,0-5.8,0.3-7.9,1c-2.1,0.7-3.7,2-4.7,3.9c-1.1,1.9-1.6,5-1.6,9.2v56.3
		c-7.9-10.2-23.5-31.2-46.9-63.1c-2.1-2.6-3.4-4-3.8-4.3c-0.8-0.8-2.1-1.5-4.1-2.1c-1.9-0.6-4.6-0.9-7.9-0.9c-3.3,0-6.1,0.3-8.2,1
		c-2.1,0.7-3.7,2-4.7,3.9c-1.1,1.9-1.6,5-1.6,9.2v92.9c0,2.6,0.1,4.5,0.2,5.8c0.2,1.3,0.7,2.8,1.6,4.5c1.6,3,5.8,4.5,12.7,4.5
		c7.1,0,11.4-1.5,13-4.5c0.9-1.7,1.4-3.1,1.6-4.3c0.2-1.2,0.2-3.2,0.2-5.8v-54.8c7.9,10.2,24.3,32,49.3,65.3
		c1.1,1.4,2.5,2.5,4.2,3.2c1.7,0.7,4.7,1,9,1c7.1,0,11.4-1.5,13-4.5c0.9-1.7,1.4-3.1,1.6-4.3c0.2-1.2,0.3-3.2,0.3-5.8V121
		c0-3.9-0.3-6.7-1-8.5C545.9,111,545.2,109.8,544.2,109z M631.4,112.2c-1.4-4.1-6.1-6.2-13.8-6.2c-7.1,0-11.4,1.5-13,4.5
		c-0.9,1.7-1.4,3.1-1.6,4.4c-0.2,1.3-0.3,3.2-0.3,5.7v92.6c0,3.9,0.3,6.7,1,8.5c1.3,4.2,5.9,6.3,13.7,6.3c7.1,0,11.4-1.5,13-4.5
		c0.9-1.7,1.4-3.1,1.6-4.3c0.2-1.2,0.2-3.2,0.2-5.8v-92.6C632.2,117,631.9,114.1,631.4,112.2z"/>
	<path d="M335.8,266.4c-0.1-0.1-0.1-0.3-0.1-0.5c-0.7-2.4-2.3-3.9-4.8-4.6c-0.5-0.1-0.9-0.2-1.3-0.4c-0.4-0.1-0.9-0.1-1.5,0
		c-0.6,0.2-1.2,0.6-1.7,1c-0.5,0.4-1.1,0.7-1.7,1c-0.6,0.1-1.1,0.1-1.6-0.1c-0.5-0.2-0.9-0.3-1.4-0.4c-3.8-1.3-7.7-1.8-11.6-1.6
		c-4,0.2-7.8,1.2-11.4,2.8c-3.5,1.7-6.8,3.8-9.8,6.4c-3,2.6-5.6,5.6-7.8,8.9c-2,3.1-3.6,6.4-4.8,9.8c-1.2,3.5-1.7,7.1-1.4,10.7
		c0.2,3.7,1.4,7.1,3.5,10.4c2.1,3.3,4.8,5.6,8.2,7c4.1,1.7,8.6,2,13.4,1.1c4.8-0.9,9.2-2.5,13.2-4.8l-1.6,8.5
		c-0.8,3.9-1.8,7.8-2.8,11.8c-1.1,4-3,7.5-5.7,10.5c-0.5,0.6-0.9,1.1-1.3,1.5c-0.4,0.4-0.9,0.9-1.5,1.5c-0.6,0.6-1.2,1.1-1.7,1.5
		c-0.5,0.4-1.2,0.7-1.9,1c-0.2,0-0.4-0.1-0.6-0.2c-0.2-0.1-0.4-0.2-0.6-0.4c-1.3-0.8-2.6-1.6-4-2.4c-1.4-0.8-2.8-1.4-4.3-2
		c-1.7-0.6-3.3-0.9-5-1c-1.7-0.1-3.3,0-5,0.1H277v0.2v2c0,0.8,0.4,1.6,1.1,2.4c0.7,0.8,1.4,1.4,2,2c1.2,1.4,2.5,2.7,3.9,3.9
		c3.1,2.7,6.3,4.7,9.6,6c1.8,0.7,3.7,1.1,5.9,1.1c1.8,0.1,3.5,0,5.3-0.4c0.4-0.1,0.8-0.2,1.4-0.2c2.1-0.4,4.1-1.1,5.9-2.3
		c1.8-1.2,3.5-2.6,4.9-4.3c1.4-1.7,2.6-3.4,3.6-5.2c1-1.8,1.9-3.8,2.7-5.8c1.9-4.4,3.5-9.4,4.9-15.1c1.4-5.7,2.5-11.5,3.4-17.6
		c0.9-6,1.6-12,2.2-18c0.6-6,1-11.6,1.2-16.8c0-0.2,0-0.4,0.1-0.6c0.1-0.2,0.1-0.4,0.1-0.6c0.2-1.3,0.5-2.5,0.7-3.7
		c0.2-1.2,0.2-2.4,0-3.7C335.9,266.7,335.8,266.6,335.8,266.4z M314.2,284.3c-0.2,1.2-0.6,2.4-1.1,3.5c-0.2,0.8-0.5,1.6-0.9,2.3
		c-0.4,0.7-0.7,1.4-1.1,2.1c-0.9,2.1-2.4,4.3-4.3,6.6c-1.2,1.4-2.6,2.9-4.3,4.5c-1.7,1.6-3.4,2.7-5.3,3.3c-0.6,0.2-1.2,0.4-1.9,0.4
		c-0.7,0-1.3,0.1-1.9,0.2c-0.6,0-1.2,0-1.7-0.1c-0.5-0.1-1-0.3-1.5-0.6c-0.9-0.7-1.4-1.8-1.3-3.2c0.1-1.4,0.2-2.6,0.4-3.5
		c0.6-3,1.5-5.7,2.7-8.3c2.5-5.2,6-9.9,10.6-14c0.6-0.5,1.2-0.9,1.7-1.3c0.5-0.4,1.1-0.7,1.7-1c2-0.7,3.8-0.4,5.3,0.8
		c1.5,1.2,2.4,2.8,2.7,4.7C314.5,281.9,314.5,283.2,314.2,284.3z M395.1,274.6c-0.2-0.4-0.5-0.7-0.8-1.1c-0.3-0.4-0.6-0.6-0.8-0.9
		c-0.1-0.1-0.2-0.2-0.4-0.2c-0.1,0-0.2-0.1-0.4-0.2c-0.5-0.5-1.1-0.8-1.8-1.1c-1.5-0.8-3.1-1.3-4.6-1.4c-2-0.4-4.1-0.4-6.1,0
		c-2.1,0.4-4.1,0.9-6.1,1.8c-5.7,2.4-10.8,5.6-15.3,9.7c-4.6,4.1-8.3,8.8-11.3,14.1c-1.1,2-2,4-2.7,6c-0.8,2-1.3,4.1-1.5,6.4
		c-0.2,3.5,0.4,6.8,1.8,9.8c1.4,3,3.4,5.7,6,8.1c2.5,2.2,5.5,3.6,9,4.2c3.5,0.5,6.9,0.5,10.1-0.1c2.8-0.6,5.6-1.5,8.2-2.8
		c2.7-1.3,5-3,7-5.1c0.8-0.7,1.7-1.6,2.7-2.7c1-1.1,1.9-2.3,2.7-3.6c0.8-1.3,1.3-2.6,1.6-3.9c0.3-1.3,0.1-2.5-0.4-3.7
		c-0.1-0.1-0.2-0.2-0.2-0.4h-0.2h-0.5c-2.4,0.5-4.6,1.2-6.6,2.1c-2.1,0.9-4.2,2.1-6.3,3.4c-1.1,0.6-2.2,1.2-3.3,1.8
		c-1.1,0.6-2.3,1.1-3.5,1.4c-0.2,0.1-0.7,0.3-1.3,0.5c-0.7,0.2-1.4,0.4-2.1,0.6c-0.8,0.2-1.5,0.3-2.1,0.4c-0.7,0.1-1,0-1.2-0.3
		c-0.6-0.9-1-1.8-1.2-2.5c-0.2-0.7-0.2-1.7,0-2.8c0-0.6,0-1.1,0.1-1.6c0.1-0.5,0.1-1,0.1-1.6c1.7-0.1,3.3-0.3,4.9-0.5
		c1.6-0.2,3.1-0.6,4.5-1.2c2.4-0.9,4.7-2,6.9-3.1c2.2-1.1,4.4-2.5,6.4-4.2c1.8-1.3,3.5-2.8,5.1-4.5c1.6-1.7,2.9-3.6,4-5.6
		c1.1-2.1,1.7-4.5,1.9-7.3c0.2-2.7-0.4-5.1-1.7-7.3L395.1,274.6z M386.3,287.7c-0.5,1.5-1.3,2.7-2.4,3.5c-2.2,1.8-4.8,3.3-7.7,4.4
		c-2.9,1.2-5.8,1.9-8.8,2.1c-0.4,0.1-0.9,0.2-1.6,0.2c0.6-2,1.4-4,2.6-5.9c1.1-1.9,2.5-3.5,4.2-5c2.1-2,4.5-3.5,7.1-4.6
		c0.9-0.5,2-0.6,3.3-0.5c1.2,0.1,2.2,0.7,2.9,1.6C386.7,284.9,386.9,286.2,386.3,287.7z M449.1,291.2c0.5,0.5,0.8,1.2,0.8,1.9
		c0,0.1-0.1,0.7-0.3,1.6c-0.2,0.9-0.7,1.7-1.5,2.1c-1.3,0.8-3.4,1.6-6.3,2.4c-2.9,0.8-6,1.4-9.3,2c-1.4,8.2-2.9,16.3-4.4,24.6
		c-1.5,8.2-3.1,16.4-4.8,24.6c-0.2,1.3-1,2.4-2.2,3.3c-1.2,0.9-2.6,1.3-4.2,1.3h-0.2c-0.9-0.1-1.9-0.5-2.9-1.2
		c-1-0.7-1.6-1.7-1.9-2.8c-0.5-1.8-0.9-3.6-1.2-5.4c-0.3-1.8-0.5-3.6-0.6-5.4c-0.1-2.4-0.1-4.8-0.1-7.4c0.1-2.5,0.3-5,0.6-7.4
		c0.5-2.7,1-5.9,1.6-9.5c0.6-3.6,1.2-7.5,2-11.6c-0.7,0.1-1.4,0.2-2,0.3c-0.7,0.1-1.3,0.1-2,0.1c-2.1,0-4-0.4-5.5-1.1
		c-0.2-0.1-0.7-0.4-1.5-0.9c-0.8-0.5-1.5-1.1-2.3-1.8c-0.8-0.7-1.4-1.5-1.9-2.3c-0.5-0.8-0.5-1.7-0.2-2.5c0.2-0.4,0.5-0.6,0.8-0.8
		c0.3-0.2,0.6-0.4,0.8-0.6c1.1-0.7,3-1.4,5.9-2.1c2.8-0.7,6.3-1.4,10.3-2c0.7-4.4,1.4-8.7,2.1-13c0.7-4.3,1.4-8.4,2-12.3
		c0.6-3.9,1.3-7.5,1.9-10.7c0.6-3.2,1.1-6,1.4-8.2c0.2-1.2,0.5-2.2,0.7-3.2c0.2-0.5,0.4-0.9,0.4-1.2c0.9-0.2,1.6-0.4,2-0.5
		c1.1-0.2,2.1-0.5,3.1-0.7c1-0.2,2-0.4,3.1-0.5c2.1,0,3.8,0.7,5,2c1.8,1.9,2.4,4.6,1.8,8c-0.7,6.4-1.5,12.8-2.5,19.2
		c-0.9,6.4-2,13-3,19.8c1.3,0,2.7,0,4.1,0c1.4,0,2.8,0.1,4.1,0.2c1.4,0,3,0.3,4.8,0.9C448,290.3,448.6,290.7,449.1,291.2z
		 M558.8,268.1c-1.3-1.3-2.9-1.9-4.8-1.8c-1.1,0-2.1,0.1-3.1,0.4c-1,0.3-2,0.6-2.9,0.8c-0.2,0.1-0.5,0.2-0.9,0.3
		c-0.4,0.1-0.7,0.1-0.9,0.3c-0.2,0.5-0.4,0.8-0.4,1.1c-0.2,0.6-0.4,1.1-0.5,1.6c-0.1,0.5-0.2,0.9-0.4,1.4c-0.1,0.6-0.2,1.1-0.3,1.6
		c-0.1,0.5-0.1,0.9-0.1,1.4l-0.2-0.2c-2.1-1.9-4.6-3.1-7.4-3.7c-2-0.2-4-0.2-5.9,0.2c-2,0.4-3.9,0.9-5.8,1.6
		c-5.3,2.2-10.2,5.3-14.5,9.2c-4.4,3.9-7.9,8.4-10.6,13.5c-2.2,3.9-3.6,7.9-4.1,11.9c-0.2,3.3,0.4,6.4,1.8,9.3
		c1.4,2.9,3.3,5.4,5.7,7.5c2.4,2.1,5.2,3.5,8.5,4c3.3,0.5,6.5,0.5,9.6-0.1c5.8-1.1,10.7-3.6,14.7-7.6c0.5-0.6,1-1.2,1.6-1.8
		c0.6-0.6,1.2-1.3,1.8-2.1c0.1,1.7,0.3,3.4,0.6,5.1c0.3,1.8,0.7,3.5,1.2,5.1c0.2,1.1,0.8,2,1.8,2.7c0.9,0.7,1.9,1.1,2.8,1.2h0.2
		c1.4,0,2.7-0.4,3.9-1.3c1.2-0.9,1.9-2,2.1-3.3c1.1-5.3,1.9-9.6,2.6-12.8c0.6-3.2,1.2-5.8,1.6-7.9c0.4-2.1,0.8-3.8,1.1-5.3
		c0.3-1.5,0.6-3.2,0.8-5.1c0.2-2,0.5-4.4,0.9-7.4c0.4-3,0.8-7,1.4-12C560.9,272.4,560.3,269.8,558.8,268.1z M541.9,291.3
		c-0.2,1.3-0.5,2.8-0.7,4.6c-0.2,1.8-0.6,4-1.1,6.6c-0.1,0.8-0.2,1.7-0.3,2.5c-0.1,0.8-0.2,1.7-0.3,2.5c-1.9,0.6-3.7,1.3-5.3,2.1
		c-1.7,0.8-3.3,1.7-5,2.7c-1.1,0.6-2.1,1.2-3.2,1.8c-1.1,0.6-2.2,1.1-3.4,1.4c-0.2,0.1-0.7,0.3-1.3,0.4c-0.7,0.2-1.3,0.4-2,0.5
		c-0.7,0.2-1.4,0.3-2,0.4c-0.6,0.1-0.9,0.1-1.1-0.2c-0.5-0.9-0.8-1.7-1.1-2.4c-0.2-0.6-0.3-1.6-0.2-2.7c0.4-4.4,1.5-8.7,3.5-12.9
		c2-4.3,4.6-7.8,7.8-10.6c1.3-1.2,2.7-2.2,4.2-3c1.5-0.8,3-1.5,4.7-2c0.9-0.2,1.7-0.4,2.3-0.4c0.5,0,1,0.1,1.6,0.2
		c0.6,0.1,1.1,0.4,1.6,1c0.5,0.5,0.8,1.4,1.1,2.6C542.1,287.5,542.1,289.2,541.9,291.3z"/>
	<path d="M309.2,384.3c0.6,1.9,0.8,4.8,0.8,8.7v92.4c0,2.6-0.1,4.5-0.2,5.7c-0.2,1.3-0.7,2.7-1.6,4.4c-1.6,3-5.9,4.5-13,4.5
		c-7.8,0-12.3-2.1-13.7-6.2c-0.7-1.9-1-4.8-1-8.7v-33.8h-44.1v34c0,2.6-0.1,4.5-0.2,5.7c-0.2,1.3-0.7,2.7-1.6,4.4
		c-1.6,3-5.9,4.5-13,4.5c-7.8,0-12.3-2.1-13.7-6.2c-0.7-1.9-1-4.8-1-8.7v-92.4c0-2.6,0.1-4.5,0.2-5.7c0.2-1.3,0.7-2.7,1.6-4.4
		c1.6-3,5.9-4.5,13-4.5c7.8,0,12.4,2.1,13.8,6.2c0.6,1.9,0.8,4.8,0.8,8.7v34h44.1v-34.1c0-2.6,0.1-4.5,0.2-5.7
		c0.2-1.3,0.7-2.7,1.6-4.4c0.9-1.7,2.4-2.8,4.5-3.5c2.1-0.7,4.8-1,8-1c3.2,0,5.8,0.3,7.7,0.8c1.9,0.6,3.3,1.2,4.3,2
		C307.8,381.8,308.6,382.9,309.2,384.3z M427.7,380.8c-1-0.8-2.4-1.4-4.3-2c-1.9-0.6-4.4-0.8-7.6-0.8c-3.2,0-5.8,0.3-7.9,1
		c-2.1,0.7-3.7,1.9-4.8,3.7c-1.1,1.8-1.7,4.8-1.7,9.2v50.9c0,7.9-2,14.8-6,20.8c-4,6-10,9-18.1,9c-4.6,0-8.5-0.9-11.8-2.8
		c-3.3-1.9-5.8-4.4-7.5-7.5c-3.3-6.1-5-12.5-5-19.3V393c0-4.4-0.7-7.9-2-10.5c-0.8-1.7-2.2-2.8-4.3-3.5c-2.1-0.7-4.9-1-8.5-1
		c-3.6,0-6.4,0.3-8.5,1c-2.1,0.7-3.6,1.8-4.5,3.5c-0.9,1.7-1.4,3.1-1.6,4.4c-0.2,1.3-0.3,3.2-0.3,5.9v50.1c0,14.9,4.5,28.2,13.5,40
		c4.3,5.8,10,10.4,16.9,14c6.9,3.5,14.6,5.3,23.1,5.3c8.5,0,16.2-1.7,23.2-5.2c7-3.5,12.7-8.1,17.1-13.7c9.1-12,13.7-25.3,13.7-40
		V393c0-3.9-0.3-6.8-1-8.7C429.4,382.8,428.7,381.6,427.7,380.8z M537.1,426.6h-29.3c-3.3,0-6,0.5-8,1.5c-1.3,0.7-2.2,1.9-2.7,3.7
		c-0.5,1.8-0.7,4.1-0.7,7.1c0,2.9,0.2,5.3,0.7,7c0.4,1.7,1.4,3,2.8,3.9c1.4,0.9,3.9,1.3,7.3,1.3h13.2v18.1c-4.9,2-10.4,3-16.5,3
		c-8.4,0-16-3.4-22.6-10.1c-6.7-6.7-10-14.9-10-24.5c0-9.6,3.3-17.4,9.8-23.3c6.5-5.9,14-8.9,22.5-8.9c6.4,0,12,1.5,16.6,4.6
		c4.7,3.1,8,4.6,10.2,4.6c3.6,0,7.5-2.9,11.8-8.8c2.6-3.6,3.8-6.7,3.8-9.4c0-2.7-1.5-5.2-4.5-7.4c-11.7-8.7-24-13-37.1-13
		c-16.9,0-31.5,5.9-43.9,17.7c-12.4,11.8-18.6,26.6-18.6,44.2c0,17.6,6.1,32.7,18.3,45.2c12.2,12.5,26.6,18.7,43.1,18.7
		c18.6,0,32.6-4.8,42-14.5c3.1-3.2,4.7-6.6,4.7-10.2v-36.6c0-4.1-0.6-7.2-1.7-9.3C546.7,428.4,543.1,426.8,537.1,426.6z M600,469.2
		c-4.9,0-8.5,0.4-10.7,1.2c-2.3,0.8-3.9,2-4.7,3.7c-0.9,1.7-1.4,3.2-1.6,4.6c-0.2,1.3-0.2,3.3-0.2,5.8v2.7c0,4.6,0.9,7.8,2.8,9.7
		c2.6,2.3,6.2,3.5,11,3.5c4.8,0,8.3-0.4,10.6-1.1c2.3-0.7,4-2.2,5.1-4.3c1.1-2.2,1.7-5.5,1.7-9.9c0-6.2-1.1-10.4-3.2-12.6
		C608.4,470.3,604.9,469.2,600,469.2z M626.3,386.5c-7.4-7.5-17-11.3-28.8-11.3c-5.6,0-10.6,0.9-15.1,2.7c-4.6,1.8-8.1,3.8-10.6,6
		c-2.5,2.2-4.7,4.7-6.7,7.6c-1.9,2.9-3.1,4.9-3.6,6.1c-0.4,1.2-1,2.6-1.7,4.3c-0.7,1.7-1,3.4-1,5.1c0,3.8,3.3,6.9,10,9.5
		c3.4,1.3,6.2,2,8.3,2c2.1,0,3.8-0.7,5.2-2.2c1.3-1.5,2.5-3.7,3.5-6.6l0.5-2c0.4-1.3,1.6-2.6,3.6-3.9c1.9-1.3,5-1.9,9.1-1.9
		c4.1,0,7.2,1,9.2,3c2.1,2,3.1,4.8,3.1,8.4c0,3.6-1.4,6.5-4.1,8.6c-2.7,2.1-5.7,3.6-8.9,4.5c-3.2,0.9-6.2,2.7-8.9,5.5
		c-2.7,2.8-4.1,6.5-4.1,11.3l-0.2,1.3c0,2.2,0.1,3.9,0.2,4.9c0.2,1.1,0.6,2.2,1.4,3.6c0.8,1.3,2.1,2.3,4.1,2.8
		c1.9,0.6,4.5,0.8,7.7,0.8c3.2,0,5.8-0.3,7.7-0.7c1.9-0.5,3.3-1.3,4.2-2.5c0.8-1.2,1.3-2.2,1.5-3.2c0.2-1,0.2-2.4,0.2-4.3l2.7-0.8
		c4.2-1.6,8.8-4.7,13.7-9.3c2.4-2.3,4.5-5.5,6.2-9.6c1.7-4.1,2.6-8.5,2.6-13.2C637.4,402.8,633.7,394,626.3,386.5z"/>
	<path class="st0" d="M264.1,252c0.6,2.8,0.2,5.8-0.9,8.5l-10.8,27.4c-3.1,7.8-4.6,16-6.2,24.7c-0.9,4.6-1.7,9.4-2.9,14.5
		c-3.9,17-19,36.4-37.4,39.6c-1.4,0.2-2.7,0.3-4.1,0.3c-8.5,0-16.7-4.3-24.8-8.4c-8.5-4.4-16.4-7.8-24.1-8.5c-7.7-0.8-37-1.5-37-1.5
		c-5.4,0-9.8-0.6-13.3-4.6c-0.5-0.5-0.9-1.1-1.2-1.7c-2.6-4.6-2.5-10,0.2-14.2c1.9-3.1,4.9-5.8,8.5-6c5.3-0.4,27.7,0.9,38.9,1.4
		c1.6,0.1,2.1-2.1,0.7-2.8c-14.2-6.9-49.9-24.2-49.9-24.2c-3.3-1.6-5.7-4.4-6.9-7.8c-1.6-4.8-0.5-10,3.1-13.9c0.5-0.5,1-1,1.6-1.4
		c4.4-3.1,9.7-3.5,14.1-1.2c0,0,25,12.2,38,18.4c1.5,0.7,2.9-1.2,1.7-2.4c-11.6-11.6-36.3-36.3-36.3-36.3c-0.1-0.1-0.2-0.2-0.2-0.3
		c-3.1-3.5-4.1-8.4-2.7-13c0.4-1.2,1-2.4,1.7-3.5c5.3-7.5,15.7-7.8,21.4-1.4l37.1,36.6c0.7,0.7,1.8-0.2,1.3-1l-25-36.9
		c-4-6.4-2.3-14.2,4.1-18.6c3-2.1,6.6-2.8,10-2.1c3.6,0.7,6.8,3,8.9,6.3l29.6,46.8c6.2,9.8,12.7,15.2,17.8,14.7
		c3.3-0.3,6.4-3.2,8.4-8l8.5-21.6c2.7-6.8,9.9-10.7,16.8-9.2c0,0,0,0,0,0C258.5,241.7,262.9,246.1,264.1,252z M745.9,274.7
		c-0.5-0.5-1-1-1.6-1.4c-4.4-3.1-9.7-3.5-14.1-1.2c0,0-25,12.2-38,18.4c-1.5,0.7-2.9-1.2-1.7-2.4c11.6-11.6,36.3-36.3,36.3-36.3
		c0.1-0.1,0.2-0.2,0.2-0.3c3.1-3.5,4.1-8.4,2.7-13c-0.4-1.2-1-2.4-1.7-3.5c-5.3-7.5-15.7-7.8-21.4-1.4l-37.1,36.6
		c-0.7,0.7-1.8-0.2-1.3-1l25-36.9c4-6.4,2.3-14.2-4.1-18.6c-3-2.1-6.6-2.8-10-2.1c-3.6,0.7-6.8,3-8.9,6.3l-29.6,46.8
		c-6.2,9.8-12.7,15.2-17.8,14.7c-3.3-0.3-6.4-3.2-8.4-8l-8.5-21.6c-2.7-6.8-9.9-10.7-16.8-9.2c0,0,0,0,0,0
		c-5.6,1.3-10.1,5.6-11.3,11.5c-0.6,2.8-0.2,5.8,0.9,8.5l10.8,27.4c3.1,7.8,4.6,16,6.2,24.7c0.9,4.6,1.7,9.4,2.9,14.5
		c3.9,17,19,36.4,37.4,39.6c1.4,0.2,2.7,0.3,4.1,0.3c8.5,0,16.7-4.3,24.8-8.4c8.5-4.4,16.4-7.8,24.1-8.5c7.7-0.8,37-1.5,37-1.5
		c5.4,0,9.8-0.6,13.3-4.6c0.5-0.5,0.9-1.1,1.2-1.7c2.6-4.6,2.5-10-0.2-14.2c-1.9-3.1-4.9-5.8-8.5-6c-5.3-0.4-27.7,0.9-38.9,1.4
		c-1.6,0.1-2.1-2.1-0.7-2.8c14.2-6.9,49.9-24.2,49.9-24.2c3.3-1.6,5.7-4.4,6.9-7.8C750.6,283.8,749.5,278.6,745.9,274.7z"/>
</g>
</svg>
