<?xml version="1.0" encoding="utf-8"?>
<!-- Generator: Adobe Illustrator 20.1.0, SVG Export Plug-In . SVG Version: 6.00 Build 0)  -->
<svg version="1.1" id="Calque_1" xmlns="http://www.w3.org/2000/svg" xmlns:xlink="http://www.w3.org/1999/xlink" x="0px" y="0px"
	 viewBox="0 0 432 432" style="enable-background:new 0 0 432 432;" xml:space="preserve">
<style type="text/css">
	.st0{fill:none;}
	.st1{fill:#020203;}
	.st2{fill:#12100B;}
	.st3{fill:#12100E;}
	.st4{fill:#EDCCA3;}
	.st5{fill:#EB5C2C;}
	.st6{fill:#F49523;}
	.st7{fill:#F39208;}
	.st8{fill:#95C11F;}
</style>
<g>
	<g>
		<g>
			<path d="M173,235.8c0.1-2.8-0.6-5-0.8-6.3c-0.3-0.6-0.6-1.4-0.9-2c-0.5-1.5-2.3-4.1-5.9-5c-0.5-0.2-1.1-0.3-1.6-0.5
				c-0.6-0.3-1.4-0.1-2,0.1c-0.4,0.1-0.5,0.3-0.3,0.6c0.3,0.3,0.5,0.6,0.8,1c0.4,0.3,0.6,0.7,0.8,1.2c0.6,1.8,1.2,3.6,1.8,5.4
				c0.6,1.5,1,3.1,1.1,4.7c0.1,0.8,0.2,1.7,0.4,2.6c1.6,9.7-0.6,16.8-2.3,19.7c-0.2,0.5-0.4,1.2-0.8,1.7
				c-4.4,5.9-12.5-2.7-13.4-10.3c-0.2-0.7,0-1.4,0.2-2c0.7-1.2,1.2-2.2,1.7-3.4c1.5-3.4,3.1-7.2,1.3-9.1c-1-1-2.1-1-3.1-0.6
				l-0.7,0.5c-0.5,0.4-0.8,1-1.3,1.4c-1.4,1.7-2.5,3.6-2.4,5.7c0,0.2,0,0.3-0.1,0.5c-0.1,1.5-0.1,3-0.1,4.5c0.1,0.8,0.1,1.7,0.2,2.6
				c0.1,0.7,0,1.3-0.3,2c-0.3,0.5-0.8,0.8-1.3,1.5c-1.5,1.9-6.7,5.5-8.4,6.5c-1.3,0.4-1.5,0.4-1.7-0.8c-0.2-1.1,0.1-2.2,0.1-3.4
				c0.1-1.6-0.1-1.5,0.3-3.1c0.2-1.1,0.6-2.4,1-3.5c0.1-0.3,0.2-0.8,0.3-1.3c0.5-1.4,1-2.7,1.5-4.1c0.6-1.5,1.1-3,1.7-4.6
				c0.2-0.6,0.6-1.3,0.7-2c0.4-1.3,1-2.4,1.4-3.8c0.3-0.6,0.5-1.2,0.7-2c0.3-1.2,0.6-2.6,1.2-3.8c0.1-0.3,0-0.5,0.1-0.6
				c0.2-0.4,0.2-0.7,0.2-1c0.5-2.3-0.2-5.8-2-7.3c-0.9-0.6-2-1-3.1-0.9c-0.4,0-0.8,0-1.2-0.1c-1.5,0-3,0.2-4.2,0.8
				c-1.2,0.6-2.2,1.2-3.1,2.1c-2.2,1.9-4.2,3.9-5.5,6.4c-0.4,0.3-0.7,0.7-0.8,1.1c-0.3,0.6-0.4,1.1-0.6,1.6
				c-0.1,0.3-0.2,0.5-0.2,0.8c0,0.2,0.1,0.4,0.3,0.5c0.2,0.1,0.5,0.2,0.8,0.2c0.5,0.1,1,0,1.3,0.1c0.4-0.3,0.7-0.5,1-0.9
				c0.8-1.6,2.3-2.8,3.4-4.2c0.1-0.1,0.2-0.1,0.3-0.2c1.3-1.3,2.6-2.5,4.2-3.7c0.9-0.8,2.1-1.4,3.5-2.1c0.1-0.1,0.3-0.1,0.4-0.1
				c0.7-0.2,1.1,0.1,1.1,0.6c0,0.2,0,0.3-0.1,0.4c-0.1,0.8-0.2,1.6-0.5,2.5c-0.6,2.5-1.7,4.9-2.7,7.2c-0.6,1.4-1.2,2.8-1.7,4.1
				c-0.8,1.9-1.7,3.9-2.5,5.9c-1.5,3.6-3.5,13.7-3.6,14.7c-0.1,0.9-0.1,1.8-0.1,2.5c0,0.7,0.2,1.4,0.3,2.1c0.1,0.2,0.2,0.5,0.3,0.7
				c0.8,0.9,1.4,1.8,2.3,2.5c0.8,0.8,1.8,1.3,3.4,1.1c0.1-0.1,0.4,0,0.7-0.1c1.4-0.2,2.7-0.6,3.9-1.3c0.7-0.4,1.3-1.1,2.1-1.5
				c0.7-0.6,1.2-1.2,1.7-1.7c0.6-0.5,1-1,1.5-1.3c0.6-1.3,3-3.2,3.7-4c0.2-0.2-0.1,0.3,0.1,0.7c0.1,0.2,0.1,0.3,0.2,0.5
				c0.4,1.1,1,2.2,1.6,3.2c0.8,1.2,1.6,2.2,2.3,3.2c0.5,0.8,1.2,1.4,2.1,2c1.6,1.1,3.5,2,5.8,2.2c1.5,0.2,3,0.1,4.5-0.3
				c0.4-0.2,1.1-0.5,1.6-0.7l1-0.7c5.9-5.4,7.8-18.5,6.7-26C173,236.8,173,236.3,173,235.8z M149.1,244.1c-0.1-1.3-0.2-2.5,0.1-3.7
				c0.3-0.5,0.3-1,0.4-1.4c0.2-0.4,0.2-0.7,0.2-1.1l1-2.8c0-0.2,0.1-0.4,0.3-0.5c0.1-0.2,0.6-0.2,0.6,0c0.2,0.6,0.3,1.2,0.3,1.9
				c-0.1,0.6-0.3,1.1-0.5,1.6c-0.3,1.1-0.7,2.1-1.1,3.2c-0.3,0.8-0.6,1.8-0.9,2.5C149.3,244,149.2,244,149.1,244.1z"/>
			<path d="M180.6,239c0.2,0.1,0.6,0.2,0.8,0.2c0.3-0.1,0.5-0.4,0.4-0.6c-0.2-0.4-0.4-0.8-0.5-1.2c-0.2-0.4-0.3-0.7-0.7-0.8
				c-0.4-0.2-0.9-0.1-1.3,0.2c0,0.4,0.2,0.8,0.3,1.2C179.8,238.4,180.2,238.8,180.6,239z"/>
			<path d="M293.1,244.2c-1.3,0.4-2.5,0.9-3.7,1.5c-0.7,0.3-1.4,0.6-2.2,1.1c-1.3,0.7-2.7,1.5-4.1,2.3c-0.1,0.1-0.3,0.1-0.3,0.2
				c-0.3,0.1-0.5,0.1-0.7-0.2c-0.5-0.5-0.5-1.1-0.7-1.9c-0.5-2.7,0.5-5,2.7-4.7c0.4,0.1,0.6-0.1,0.9-0.3c0.2-0.1,0.3-0.4,0.2-0.5
				c-0.3-0.6-0.7-1.1-1.3-1.1c-1-0.3-1.8-0.3-2.7-0.1c-0.5,0.1-0.9,0.2-1.3,0.3c-0.9,0.2-1.7,0.4-2.3,1c-0.7,0.4-1.1,0.8-1.6,1.3
				c-1.1,1-1.3,2.2-1,3.4c-0.8,0.9-1.6,1.7-1.8,1.9c-0.4,0.5-1,1.1-1.3,1.5c-0.5,0.3-0.7,0.8-1.1,1.2c-0.4,0.3-6,5.3-6.8,3l-0.4-0.5
				c-0.2-0.6-0.4-1.2-0.4-1.9c-0.1-0.7,0.2-2.2,0.1-2.9c0.1-0.8,0.5-1.4,1.2-1.9c1.3-0.8,2.3-1.8,3.3-2.9c0.3-0.3,0.8-0.7,1.2-1.4
				c2-3.3,1-5-2.6-5.2c-0.4,0-0.7-0.1-1,0.1c-0.7,0.3-1.7,0.6-2.3,1c-1.1,1-2.1,1.9-2.9,3.1c-0.5,0.7-1,1.5-1.3,2.3
				c-0.3,1-0.7,2.1-0.7,3.1c-0.1,1.1-0.2,3.3,0.1,4.4c0.2,0.4,0.3,0.7,0.3,1.1c0.5,1.3,1.2,2.5,2.1,3.6c-0.2,0.1-0.5,0.3-0.6,0.7
				c-0.1,0.1-0.2,0.2-0.2,0.4c-0.3,0.9-0.8,1.8-1.5,2.6c-0.4,0.6-0.9,1.2-1.3,1.9c-0.6,1.2-1.9,1.8-3,2.4c-0.3,0.3-0.6,0.1-0.9-0.1
				c-1-0.6-1.6-1.5-1.8-2.5c-0.3-1.3-0.3-2.6,0-4c0.6-2.5,0.5-5.1,0.7-7.8c0.2-1.3-0.6-2.3-1.8-2.9c-0.2-0.1-0.4-0.1-0.5-0.3
				c-0.6-0.2-1.2-0.3-1.8-0.1c-1.1,0.2-2.2,0.5-3.1,1.1c-1.7,1-3.3,2.1-4.5,3.7c-0.4,0.5-0.8,1-1.3,1.2c-0.4-0.3-0.6-0.7-0.6-1.2
				c-0.1-0.3,0-0.5-0.1-0.6c0.2-2.1,0.3-4.2,0.4-6.3c0-0.4,0.2-0.9,0.5-1.2c0.4-0.3,0.7-0.6,1.1-1.1c1-0.8,1.8-1.7,2.7-2.6
				c0.6-0.6,3.4-5.1,3.9-6.3c0.7-1.5,1.1-3.1,1.2-4.8c0.1-1.9-1.3-3.2-3.2-3.5c-0.4,0-0.7-0.1-1-0.1c-0.6-0.2-1.2,0-1.7,0.4
				c-1,0.7-1.8,1.7-2.5,2.8c-1,1.8-1.8,3.5-2.7,5.3c-0.4,1-1.1,2.1-1.3,3.1c-0.4,1.9-1.6,3.2-2.3,10.3c0,0,0,0.1,0,0.1
				c-0.9,1-1.8,2-2.6,2.7c-5,4.4-8.3,5.6-8.6,5.7c-0.5,0.1-3.7-0.1-3.9-0.3c-0.3-0.3-0.7-0.5-0.8-0.8c-0.3-0.7-0.4-1.1-0.6-1.6
				c-0.2-1.1-0.4-2.2-0.3-3.2c0.1-2.6,0.2-3.6,0.3-4.7c0.2-1,0.5-1.8,1-2.5c0.5-0.9,1.2-1.6,2-2.3c0.2-0.3,0.7-0.4,0.8-0.4
				c1.2,0.6,2.1,0.8,2.8,1.5c0.6,0.8,1.1,1.5,1.6,2.1c0.3,0.4,0.4,0.5,1,0.5c1-0.1,1-0.2,1.4-0.6c0.2-0.4,0.2-0.6,0.1-1.1
				c-0.3-0.2-0.3-0.5-0.4-0.8c-0.9-1.1-2.2-1.8-3.5-2.5c-3.6-2.3-8.9-1.8-10.2,0.5c-0.4,0.7-0.9,1.3-1.1,2c-0.4,1.2-0.7,2.3-1,3.4
				c-1.4,1.3-3.1,4.2-7.4,8.5l-0.2,0.2c-1.1,1-1.7,2.2-2.5,2.8c-0.8,0.6-1.5,1.4-2.3,2c-0.7,0.5-1.1,0.4-1.5-0.4
				c-0.2-0.3-0.3-0.7-0.4-1.1c-0.5-1.6-0.8-3.3-0.7-5.1c0.1-1.6,0.3-3.2,0.4-4.8c0.1-0.6,0.2-1.3,0.3-1.9c0.6-2.8,1-5.6,1.3-8.3
				c0.2-1.2,0.4-2.4,0.6-3.6c0.2-0.8,0.4-1,1.3-1c1.1-0.1,2.2-0.1,3.3-0.2c2-0.2,3.7-0.7,5.6-1.2c1.6-0.3,3-1.1,4.4-1.8
				c0.7-0.4,1.1-1.1,1.5-1.7c0.1-0.2,0.2-0.5,0.1-0.7c-0.1-0.6-0.6-1.8-1.6-2.6c-0.4-0.4-1-0.3-1.1,0.3c-0.3,0.8-0.7,1.4-1.1,2.1
				c-0.5,0.8-1.2,1.3-2.1,1.7c-0.4,0.2-1,0.4-1.5,0.5c-1.5,0.3-3.1,0.6-4.6,0.8c-1,0.2-1.9,0.1-2.9,0.1c-0.5-0.1-0.7-0.3-0.8-0.8
				v-1.6c0-0.8-0.1-1.8-0.4-2.6c-0.5-1.1-1.3-1.5-2.5-1c-0.2,0.1-0.4,0.2-0.6,0.3c-0.5,0.2-0.7,0.5-0.8,1c-0.3,1.2-0.6,2.4-1,3.6
				c-0.6,1.8-0.5,1.5-2,1.8c-0.5,0.1-1,0.1-1.4,0.2c-0.7,0.1-1.5,0.3-2.2,0.4c-0.6,0.1-1.1,0.3-1.6,0.4c-2.1,0.5-3.9,1.5-5.6,2.6
				c-0.3,0.2-0.6,0.5-0.8,0.7c-0.1,0.2-0.1,0.4-0.2,0.5c0.6,0.5,1.2,0.6,1.8,0.3c0.3-0.2,0.6-0.4,0.9-0.6c0.6-0.4,1.2-0.7,2-0.9
				c1.3-0.4,2.7-0.7,4.1-1c0.9-0.2,1.8-0.2,2.8-0.2c0.5,0,0.8,0.3,0.7,0.8c-0.1,0.4-0.2,0.8-0.3,1.3c-0.6,1.8-1,3.7-1.5,5.5
				c-0.5,2.1-1,4.1-1.4,6.2c-1.1,1.5-2.5,3.2-3.3,4c-1,1.1-2.2,2.2-4.7,4c-0.2,0.1-0.4,0.2-0.7,0c0-0.1-0.1-0.3-0.1-0.5
				c-0.1-0.4,0.1-2.3,0.1-2.7c0.1-1.4,0.2-3.8,0.9-5c0.7-1.2,0.8-3.3-0.4-3.6c-0.7-0.2-1.2-0.5-1.8-0.6c-0.6,0.1-1.1,0.2-1.3,0.8
				c-0.2,0.3-0.2,0.5-0.3,0.8c-0.1,0.2-0.2,0.4-0.2,0.5c0,0.1,0.1,0.2-0.1,0.3c-1,4.8-2,8.9,1,12.2c1.2,1.3,2,1.6,3.8,0.9
				c0.3,0,0.6-0.2,0.8-0.3c1.9-1,4-3.4,5.5-5.3c-0.1,2.3,0.4,4.5,1.5,6.6c1.4,2.7,3.7,3.7,6.7,3.9c0.3,0,0.6-0.1,0.9-0.2
				c1.3-0.5,2.6-0.8,3.7-1.7c0.2-0.2,0.4-0.2,0.7-0.3c0.2-0.2,0.5-0.2,0.7-0.4c1.7-1.5,3-3.2,4.2-5c0.2-0.2,0.2-0.3,0.3-0.5l2.4-3.7
				c0.2-0.2,0.3-0.4,0.5-0.5c0.3-0.4,0.6-0.9,0.9-1.3c0.1,1.3,0.3,2.7,0.5,3.7c0.1,0.4,0.4,0.7,0.7,1.2c0.6,1.2,1.7,1.9,3.6,2.9
				c0.1,0.1,0.4,0.2,0.5,0.2c1,0.3,2.1,0.6,3.4,1c0.7,0.2,1.3,0.3,1.7,0.2c3.3,0,8.2-3.3,11.9-6.7c0,1.4,0.1,2.8,0.2,4.3
				c0,1.2,0.1,2.5,0.6,3.7c0.4,1.4,1.5,2.3,3.1,2.6c0.1,0.1,0.4-0.1,0.6-0.2c0.3-0.2,0.5-0.5,0.5-0.8c-0.1-0.6,0.2-1.2,0.6-1.6
				c0.2-0.2,0.3-0.4,0.4-0.6c0.2-0.6,0.7-1.1,1-1.6c0.6-0.8,1.2-1.5,2-2.3c0.3-0.5,1.6-2.4,2.1-3c0.8-0.9,1.8-1.8,2.7-2.4
				c0.1-0.1,0.2-0.1,0.4-0.1c0.1,0.1,0.2,0.2,0.2,0.3c-0.1,0.5-0.1,0.9-0.2,1.4c-0.4,2.7-2.1,6.8-1.9,9.5c0.1,1.2,0.3,2.4,1.1,3.5
				c0.3,0.3,0.4,0.5,0.6,0.8c0.7,1.3,1.8,2.1,3.1,2.8c0.6,0.3,1.1,0.3,1.7,0.4c1.5,0.1,2.9-0.3,4.3-0.8c0.8-0.3,1.6-0.7,2.1-1.6
				c1-1.4,1.8-2.8,2.5-4.5c0.2-0.4,0.3-0.8,0.3-1.4c0-0.5,0-1.1,0.3-1.5c0.1-0.2,0.2-0.4,0.2-0.5c0.3,0.2,0.7,0.3,1.2,0.4
				c4.8,0.5,6.4-1.2,7-1.5c0.6-0.5,1.5-0.8,1.9-1.7c1.2-1.3,2.3-2.7,3.4-3.9c0.4-0.6,0.7-1,1-1.5c0.4,0.6,0.9,1.1,1.5,1.7
				c0.2,0.2,0.4,0.5,0.4,0.7c0.2,0.3,0.2,0.5-0.1,0.7c-0.2,0.2-0.3,0.3-0.4,0.5c-0.7,0.3-1.1,0.7-1.6,1.2c-0.4,0.6-0.8,1-1.2,1.5
				c-0.4,0.4-0.7,0.7-0.9,1c-0.4,0.6-0.3,1.2,0.3,1.6c0.2,0.2,0.4,0.3,0.6,0.5c0.4,0.3,0.7,0.5,1,0.8c1,0.6,2.1,1.1,3.4,1
				c0.4,0,0.8-0.1,1.2,0c0.8,0.1,1.5-0.2,2.1-0.6c0.8-0.5,1.6-1.1,2.2-1.6c0.3-0.3,0.6-0.6,0.7-1c0.3-1.6,0-3.2-1-4.6l-0.6-1
				c-0.2-0.4-0.1-0.5,0.3-0.7c1.4-0.8,2.9-1.5,4.2-2.3c1.1-0.6,2-1.1,3-1.6C292.9,246.3,300.3,242.5,293.1,244.2z M263.9,242.7
				c0.4-0.9,1.1-1.7,1.8-2.5c0.3-0.4,0.7-0.7,1.2-1.1c0.3-0.2,0.6-0.1,0.7,0.3c0.1,0.4-0.1,0.9-0.2,1.2c-0.3,0.8-0.8,1.6-1.5,2.4
				c-0.3,0.4-0.6,0.6-0.8,1.1l-1.2,0.9c-0.2,0.2-0.3,0.1-0.4-0.2C263.3,244.1,263.5,243.4,263.9,242.7z M240.6,235.5
				c0-0.3,0.1-0.5,0.2-0.7c0.3-2,1.5-4.9,2.7-6c0.3-0.4,0.6-0.8,0.9-1.1c0.1-0.2,0.3-0.1,0.4-0.1c0.1,0,0.1,0.1,0.1,0.2
				c0,0.6-0.1,1.1-0.1,1.5c-0.7,1.6-1.3,3.1-2.3,4.5c-0.5,0.6-1,1.3-1.4,1.9c0,0.1-0.3,0.1-0.4,0
				C240.7,235.7,240.6,235.5,240.6,235.5z M279,257.1c-0.4,0.5-0.9,0.7-1.5,0.9c-0.3,0.1-0.6,0-0.8,0c-0.3-0.1-0.6-0.3-0.5-0.6
				c0.1-0.3,0.1-0.7,0.3-1c0.8-0.8,1.5-1.8,2.5-2.5c0.1-0.1,0.3-0.1,0.3-0.1c0.1-0.1,0.4,0,0.5,0.2c0,0.2,0.1,0.4,0,0.5
				c0,0.3,0,0.6,0.1,0.7C279.8,256,279.4,256.6,279,257.1z"/>
		</g>
		<g>
			<path d="M155.6,298c-1.3-2.1-2.9-3.8-5.2-4.9c-0.3-0.1-0.6-0.3-0.9-0.7c0.2-0.4,0.6-0.7,0.9-1c1.7-1.8,3-3.9,3.8-6.3
				c0.3-0.9,0.3-1.9,0.7-2.9c0.1-0.1,0.1-0.3,0-0.5c-0.3-0.9-0.3-2-0.3-2.9c-0.3-2.1-1.3-3.7-2.8-5.2c-1.7-1.1-3.1-2.3-5.1-2.7
				c-0.5-0.1-1-0.3-1.4-0.4c-1.1-0.2-2.3,0-3.4-0.3c-0.2,0-0.3,0-0.5,0.1c-1.3,0.2-2.7,0.1-4,0.2c-1.5,0.2-3,0.6-4.3,1.3
				c-0.2,0.1-0.3,0.2-0.4,0.3c-0.3,0.3-0.3,0.6-0.3,1c0.1,0.3,0.3,0.6,0.8,0.7c0.3,0,0.6,0,0.9,0.1c0.3,0,0.6,0.2,0.6,0.5
				c0,0.2,0.1,0.5,0.1,0.8c0,3.4,0,6.8,0,10.2v4.5c0,0.5,0,0.9,0.2,1.3c0.3,0.7,0.3,1.5,0.3,2.1c0,1.9,0.1,3.8,0.1,5.7
				c0,0.7,0.1,1.4,0.1,2.1c0.5,1.3,0.3,2.6,0.3,4c0.1,2.5,0.1,5,0.2,7.5c0,0.7-0.1,1.5,0.1,2.1c0.3,1,0.3,2,0.3,3
				c0,1.9,0.1,3.7,0.1,5.6v1.9c0,0.3-0.3,0.5-0.5,0.6c-0.2,0.1-0.3,0.1-0.5,0.2c-0.4,0.1-0.6,0.4-0.7,0.7c-0.1,0.8,0.2,1.2,0.9,1.6
				c0.9,0.4,1.9,0.6,3,0.8c0.6,0.2,1.2-0.2,1.9-0.3c0.3-0.1,0.5-0.1,0.8-0.1c0.8,0,1.6,0,2.4-0.1c0.5,0,1.1,0,1.7-0.2
				c1.1-0.2,2.2-0.6,3.3-0.7c1-0.2,2-0.5,2.9-1.2c0.8-0.6,1.7-1.2,2.3-1.9c1.7-2.1,3.1-4.2,3.9-6.8c0.5-2,1-3.8,1-5.9v-2.6
				c0-1.8,0.1-3.6-0.6-5.4C157.7,302,156.7,300,155.6,298z M141.5,278.5v-5.1c0-0.4,0.6-0.7,1-0.6c0.2,0.1,0.3,0.2,0.4,0.2
				c0.4,0.2,0.8,0.6,1.1,0.8c1.7,0.9,2.5,2.4,3.3,4c0.5,1,0.8,2.1,1.1,3.3c0.1,0.2,0.2,0.5,0.2,0.7c0,1.2,0.1,2.4,0.1,3.6
				c0.1,1.1-0.2,2.1-0.5,3.1c-0.4,1.2-1.2,2-2.4,2.5c-0.5,0.2-1,0.4-1.7,0.5c-0.8,0.1-1.3,0.6-2,0.9c-0.3-0.3-0.3-0.7-0.3-1.1
				c0-2.6,0-5.2,0-7.8v-2.1c0-0.7,0-1.3-0.3-1.9C141.5,279.3,141.5,278.8,141.5,278.5z M152.2,318.1c0.1,1.4-0.4,2.6-1,4
				c-0.3,0.9-0.8,1.7-1.6,2.5l-0.7,0.5c-0.4,0.2-4,1.1-4.6,1.2h-0.6c-0.2,0-0.6-0.3-0.6-0.5c0-0.8-0.1-1.7-0.1-2.6
				c-0.1-1.2,0.1-2.5-0.3-3.7c-0.2-0.4-0.1-0.9-0.1-1.3c-0.1-1.5-0.1-2.9-0.1-4.4c-0.1-1,0-1.9-0.4-2.9c-0.1-0.4-0.1-0.9-0.1-1.3
				c0-2.3-0.1-4.7-0.1-8.1c0-1.4,0-4,0.1-6.4c0-0.1,0.3-0.3,0.3-0.3c0.6,0.3,1.2,0.5,1.9,0.4c0.4,0,0.9,0.1,1.2,0.4
				c0.3,0.2,0.6,0.6,0.9,0.7c2.4,1.7,3.3,4,4.1,6.6c-0.1,1.1,0.4,2.1,0.7,3.1c0.2,1.1,0.5,2.1,0.5,3.1c0,0.2,0,0.4,0.1,0.6
				c0.5,1.2,0.3,2.5,0.4,3.7C152.2,314.9,152.1,316.5,152.2,318.1z"/>
			<path d="M197.8,317.7c-0.5-0.3-1.3-0.4-1.8,0c-0.6,0.3-1,1-0.8,1.6c0.2,0.4,0.4,0.8,0.4,1.3c-0.2,1.2-0.4,2.5-0.7,3.6
				c-0.1,0.5-0.5,1-0.8,1.4c-0.3,0.4-0.9,0.4-1.3,0.2c-0.4-0.3-0.9-0.7-1-1.2c-0.2-0.7-0.7-1.5-0.7-2.3c0-0.8-0.6-1.5-0.5-2.3
				c0.1-0.9-0.5-1.8-0.5-2.6c-0.1-1.3-0.7-2.5-0.7-3.7c-0.4-1.4-0.5-2.8-1-4.2c-0.3-0.8-0.8-1.7-1-2.5c-0.3-0.8-0.7-1.5-1.3-2.1
				c-0.3-0.2-0.4-0.6-0.7-0.9c-0.6-0.8-1.4-1.7-2.4-2.2c-0.3-0.2-0.7-0.5-1-0.8c-0.2-0.2-0.2-0.6,0.1-0.7c0.5-0.3,1-0.7,1.7-1
				c2.7-1.6,5-3.6,6.7-6.1l1.3-2.4c0.7-1.5,1.2-3.1,1.7-4.5c0.3-1.4,0.3-2.9,0.2-4.4c0-1.4-0.3-2.8-1.1-4c-0.2-0.4-0.4-0.8-0.8-1.2
				c-1.4-1.6-3-3-5-3.8c-2-0.8-5.2-1.7-7.4-1.8c-1.1-0.1-2.3-0.1-3.4-0.3c-0.9-0.2-1.8,0-2.8-0.1c-1.2,0.5-2.4,0.4-3.7,0.4
				c-1.4,0-2.6,0.6-3.9,0.7c-0.4,0.1-0.8,0.4-1,0.9c-0.2,0.2,0,0.8,0.3,1c0.4,0.2,1,0.4,1.5,0.7c0.3,0.1,0.4,0.3,0.5,0.6v1.3v13.8
				c0,4.7,0,9.4,0.1,14c0,0.7-0.1,1.3,0.1,1.9c0.3,0.7,0.3,1.4,0.3,2.1c0.1,4.6,0.1,9.3,0.2,14c0,1-0.1,2,0.2,3
				c0.1,0.2-0.2,0.5-0.4,0.5c-0.6,0-1.3,0-2,0.1c-0.9,0-1.5,1-1.1,1.7c0.3,0.8,1,1.5,1.8,1.5h4.3c0.5,0,1,0,1.4-0.2
				c0.9-0.2,1.7-0.2,2.5,0c0.7,0.2,1.5,0.1,2.3,0.1c0.6,0,1.2-0.7,1.3-1.2c0-0.5-0.3-1.1-0.9-1.3c-0.6-0.2-1.1-0.5-1.8-0.6
				c-0.4-0.1-0.6-0.3-0.7-0.7c-0.6-1.7-0.6-1.7-0.6-3.1v-8.3v-9.2c0-0.3,0-0.6,0.1-0.8c0.1-0.2,0.3-0.3,0.4-0.3
				c0.6-0.1,1.3-0.1,2-0.1c0.3,0,0.5,0.1,0.8,0.2c1,0.4,1.8,0.9,2.3,1.8c0.9,1.4,1.7,2.9,2.2,4.4c0.5,1.5,1,3,1.2,4.5
				c0.2,1.5,0.6,3,1,4.5c0.6,2,1.4,3.9,1.8,5.9c0.3,1.2,0.8,2.2,1.3,3.3c0.3,0.4,0.6,0.7,1,0.9c0.6,0.2,1.1,0.6,1.7,0.8
				c1.3,0.4,2.6,0.4,3.9,0.2c0.3,0,0.4-0.1,0.5-0.2c0.5-0.2,1-0.5,1.5-0.9c1.6-1.2,2.4-2.9,2.6-4.9c0.1-1.1,0.1-2.1,0.4-3.2
				c0.1-0.5,0-1.1,0-1.6C198.4,318.3,198.1,317.9,197.8,317.7z M180.2,297.7c-0.1,0.1-0.3,0.2-0.4,0.2c-1.8,0.9-3.7,1.7-5.8,2.1
				c-0.1,0-0.3-0.2-0.3-0.2c-0.1-0.2-0.1-0.6-0.1-0.8v-6.2c0-0.3,0-0.7,0.1-1.1c0.6-2.1,0.3-4.1,0.4-6.2V275c0-0.5,0-0.9,0.1-1.3
				c0-0.2,0.3-0.3,0.4-0.3c1.1-0.2,2.3-0.2,3.4,0.1c0.3,0.1,0.7,0.2,1,0.2c1.1,0,2,0.4,2.8,1.2c1.6,1.2,2.5,2.9,3.5,4.5
				c0.1,0.8,0.7,1.5,0.7,2.3c0.2,1.2,0.7,2.3,0.5,3.5v0.5c0.2,2.2-0.4,4.3-1.1,6.4c-0.3,1-0.8,1.8-1.6,2.5L180.2,297.7z"/>
			<path d="M213.8,275.6c0.3-0.7,0.5-1.2,1.6-1.2c1.1,0,2.3-0.1,3.4-0.1c0.6-0.1,1.2,0,1.7-0.2c1.1-0.4,2.4-0.4,3.6-0.4
				c1.4,0,2.6-0.5,3.9-0.6c0.1,0,0.2-0.1,0.3-0.1c0.6-0.2,0.9-1.2,0.4-1.6c-0.5-0.6-1.1-0.9-1.9-1c-2.3-0.1-4.8,0.1-7.1,0.1
				c-0.2,0-0.3,0-0.5,0.1c-1,0.4-1.9,0.2-2.8,0.3c-0.8,0.1-1.6-0.1-2.3,0.2c-1.2,0.4-2.4,0.3-3.7,0.4c-0.6,0-1.2,0-1.7,0.2
				c-0.6,0.2-1.2,0.2-1.9,0.2c-0.7,0.1-1.3,0.1-2,0.2c-0.8,0.1-1.4,0.5-1.7,1.2c-0.4,0.7-0.3,1.4-0.1,2.1c0.1,0.1,0.3,0.2,0.4,0.3
				c0.3,0.1,0.7,0.1,1.1,0.2c0.8,0,1.5-0.2,2.2-0.5c0.2,0,0.7,0.2,0.7,0.4c0.2,1.3-0.2,2.6,0.3,4c0,0.4-0.3,0.9-0.3,1.3
				c0,1.5,0.3,3.1,0.3,4.5c0,2.7-0.1,2.6-0.3,5c-0.1,3.1-0.1,6.1-0.2,9.2c0,0.5,0.1,1-0.1,1.4c-0.4,1.2-0.3,2.5-0.3,3.7v15.4
				c-0.1,1.4-0.1,2.7-0.1,4c0,0.6-0.1,1.1-0.8,1.2c-0.3,0.1-0.4,0.3-0.7,0.4c-0.5,0.2-0.8,0.5-1,1l-0.3,0.7c-0.2,0.3-0.1,0.7,0.2,1
				c0.3,0.4,0.7,0.6,1.2,0.7c0.7,0.1,1.5-0.1,2.3-0.2c0.3-0.1,0.7-0.2,1-0.2c1.8,0,3.5-0.8,5.3-0.7c1.3-0.5,2.6-0.4,3.9-0.5
				c0.5,0,1-0.2,1.4-0.2c0.3-0.1,0.8-0.2,1.1-0.2c1-0.1,1.9-0.1,2.9-0.2c1-0.1,2-0.5,3-0.5c0.7,0,1.2-0.3,1.8-0.7
				c0.6-0.2,0.8-1.1,0.4-1.6c-0.4-0.6-1-0.9-1.7-0.7c-0.3,0.2-0.7,0.2-1,0.2c-0.7,0.1-1.4,0-2,0.2c-1.3,0.4-2.6,0.4-3.9,0.4
				c-1.7,0.1-3.2,0-4.8,0.4c-0.3,0.1-2-0.2-2.1-0.4c-0.3-0.6-0.6-1.2-0.4-1.8c0.1-0.3,0.1-0.7,0.1-1c-0.3-2.1-0.1-4.1-0.1-6.2
				c0-0.2,0-0.4,0.1-0.6c0.3-0.7,0.3-1.4,0.3-2.1c0-3.9,0-7.8,0.1-11.7c0-1.1,0.1-2.1,0.1-3.2c0-0.8,0.4-1.3,1.2-1.7
				c0.6-0.2,1.2-0.4,1.9-0.5c0.6,0,1.3,0.1,1.9-0.1c1.2-0.4,2.4-0.3,3.7-0.4c0.4,0,0.8,0,1.1-0.1c0.5,0,1-0.2,1.2-0.7
				c0.3-0.3,0.5-0.7,0.7-1.2c0.1-0.2,0-0.5-0.2-0.7c-0.3-0.4-0.6-0.7-1.1-0.7h-5.7c-1,0-2.1,0.1-3,0.4c-0.2,0.1-0.3,0.1-0.5,0.1
				c-0.3,0-0.7-0.2-0.7-0.4c0-0.2-0.1-0.4-0.1-0.6c0.1-4.9,0.1-9.7,0.2-14.5C213.7,276.5,213.7,276.1,213.8,275.6z"/>
			<path d="M281.3,271.8c-1-0.3-2.2,0.4-3.2,0.5c-1.1,0.1-2.2,0-3.2,0.3c-1,0.2-2.1,0.2-3.2,0.2c-0.3,0-0.5,0.2-0.7,0.4
				c-0.2,0.2-0.3,0.6-0.5,0.9c0,0.2,0.1,0.4,0.2,0.5c1,1.1,2.1,0.7,3.4,0.4c1.4-0.3,0.9,6.7,0.8,7.6c0,0.8-0.3,1.7-0.4,2.5
				c0,0.8,0,1.7-0.1,2.5c0,1.1-0.3,2-0.4,3c-0.1,0.8-0.1,1.7-0.1,2.6c-0.1,1.7-0.3,3.4-0.4,5.2c-0.1,1.7-0.1,3.5-0.2,5.3
				c-0.1,0.9-0.3,1.8-0.4,2.7c-0.1,1.2-0.1,2.3-0.2,3.6c0,1.1-0.5,2.1-0.4,3.3c0,1-0.1,2-0.3,3c0,0.2-0.3,0.1-0.3,0
				c-0.2-0.2-0.3-0.4-0.4-0.7c-2.1-7.1-4-14.2-6.6-21.2c-1.3-3.5-2.5-7-3.7-10.5c-0.6-1.7-1.1-3.4-1.9-5c-0.5-0.9-2.4-1.2-2.6,0.1
				c-0.1,0.6-0.2,1.1-0.5,1.6c-0.3,0.4-0.5,0.9-0.6,1.5c-0.2,1.2-0.7,2.4-1,3.6c-0.3,1.1-0.4,2.2-0.8,3.3c-0.7,2.4-1.3,4.7-2.1,7.1
				c-1.6,4.8-3.2,9.5-5,14.3c-0.5-0.3-0.3-1.3-0.3-1.8c0-0.7-0.3-1.4-0.3-2.1c-0.3-1.7-0.2-3.4-0.3-5c-0.6-1.2-0.4-2.6-0.5-3.9
				c-0.1-1-0.4-1.9-0.5-3c-0.2-2.1-0.6-4.3-0.6-6.6c-0.1-1-0.4-2.1-0.5-3.2c-0.1-1-0.4-1.9-0.5-2.9c-0.1-1.1-0.3-2.1-0.5-3.1
				c-0.3-1.1-0.1-2.1-0.6-3.1c-0.1-0.2,0-0.8,0.3-1l1.3-0.2c0.7-0.2,1.1-0.9,1-1.5c-0.1-0.6-0.7-1.2-1.4-1.2
				c-1.4,0.1-2.9,0.1-4.3,0.2c-1.7,0.6-3.8,0.3-5.7,0.5c-0.4,0.1-1,0.6-1.1,1.1c-0.4,1.3,1,2,2.3,2.1c0.9,0.1,1,0.2,1.2,1.2l0.3,2.1
				c0.2,1.2,0.1,2.5,0.4,3.7c0.3,1.1,0.2,2.1,0.3,3.2c0.1,1.2,0.3,2.1,0.4,3.2c0.2,1.1,0,2.1,0.2,3.1c0.3,1.2,0.4,2.2,0.5,3.4
				c0.1,1.1,0.4,2.1,0.5,3.1c0.2,2.1,0.4,4.2,0.7,6.3c0.1,1.2,0.4,2.2,0.5,3.4c0,1.1,0.3,2,0.4,3.1c0.2,2.1,0.6,4.1,0.7,6.2
				c0,1.2,0.4,2.2,0.5,3.4c0.1,1.2,0,2.2,0.3,3.3c0.4,1.5-0.4,4.9,1.8,5.4c0.9,0.2,1.7-1,1.8-1.7c0.2-1.7,0.9-3.1,1-4.8
				c0.2-1.3,0.4-3,1-4.3c0.6-1.3,0.9-3,1.3-4.4c0.3-1.6,0.9-3.1,1.4-4.7c2.2-6.4,5-12.9,6.4-19.6c0-0.1,0.1-0.2,0.1-0.2
				c0.2-0.2,0.3-0.3,0.4-0.4c0.3-0.1,1.5,3.9,1.6,4.3l1.5,4.4c1,2.9,1.9,5.9,2.9,8.8c1,3.1,2.1,6.2,3.1,9.3c1,3.1,2.1,6.1,3.4,9.1
				c0.4,1.2,1.1,2.3,2.2,3.1c0.8,0.5,1.8,0.2,2.2-0.6c0.1-0.2,0.1-0.3,0.2-0.5c0.3-1.2,0.7-2.4,0.6-3.7c-0.1-0.9,0-1.8,0.1-2.7
				c0.6-1.3,0.4-3,0.4-4.4c0-1.5,0.5-2.9,0.5-4.5c0.1-1.4,0.4-2.8,0.5-4.2c0.1-1.3,0-2.6,0.2-3.9c0.8-5.3,1.4-10.6,1.7-15.9
				c0-1,0.3-1.8,0.4-2.8c0.1-0.8-0.1-1.7,0.3-2.6c0.4-0.7,0.3-1.6,0.4-2.4c0.1-0.9,0.5-1.7,0.5-2.6c0.5-1.1,1-2.6,2.1-3.1
				c0.3-0.2,0.7-0.3,1-0.6C282.7,273.2,282.1,272.1,281.3,271.8z"/>
		</g>
	</g>
	<g>
		<path class="st1" d="M257.7,146c-3.3-4-3.4-9.9-0.1-13.9c1.2-1.4,1.7-2.9,1.7-4.2h0c0-2.5-20.4-4.6-45.5-4.6
			c-25.1,0-45.5,2.1-45.5,4.6c-0.1,1.2,0.4,2.8,1.5,4.2c3.3,4.1,3.3,9.9,0,13.9c-7.8,9.6-12.5,21.7-12.7,35
			c-0.4,31.5,24.7,35.5,56.2,35.8c31.5,0.3,57.1-3.7,57.1-35.1C270.5,168.2,265.7,155.8,257.7,146z"/>
		<g>
			<g>
				<circle class="st8" cx="199.7" cy="114.8" r="3.8"/>
				<circle class="st8" cx="233.3" cy="111.1" r="3.8"/>
				<circle class="st8" cx="210.8" cy="116" r="3"/>
				<circle class="st8" cx="215.6" cy="105.7" r="2.3"/>
				<circle class="st8" cx="193.9" cy="106.5" r="3"/>
				<circle class="st8" cx="240.1" cy="119.7" r="3"/>
				<circle class="st8" cx="217.3" cy="120.3" r="1.3"/>
				<circle class="st8" cx="186.6" cy="119" r="1.3"/>
				<circle class="st8" cx="229.1" cy="118.2" r="1.3"/>
				<circle class="st8" cx="221.8" cy="111.9" r="1.3"/>
			</g>
			<path class="st8" d="M239.8,128c-0.4-1.4-1.7-2.5-3.3-2.5c-1.4,0-2.6,0.9-3.2,2.1c-0.3,0-0.6,0-1,0c-0.2-0.5-0.7-0.9-1.3-0.9
				c-0.6,0-1,0.3-1.2,0.8c-0.3,0-0.7,0-1,0c-0.5-1.2-1.7-2.1-3.1-2.1c-1.3,0-2.5,0.8-3.1,1.9c-0.1,0-0.2,0-0.4,0
				c0-1.2-1-2.2-2.2-2.2c-1.2,0-2.2,0.9-2.2,2.1c-0.2,0-0.5,0-0.7,0c-0.2-0.3-0.6-0.5-1.1-0.5c-0.4,0-0.8,0.2-1.1,0.5
				c-0.4,0-0.8,0-1.2,0c-0.3,0-0.7,0-1,0c-0.3-1.6-1.7-2.8-3.4-2.8c-1.7,0-3.1,1.3-3.4,2.9c-0.3,0-0.6,0-0.9,0c-0.9-1.2-2.4-2-4-2
				c-1.7,0-3.3,0.9-4.2,2.2c-0.5,0-0.9,0-1.4,0.1c-0.8-1.8-2.6-3.1-4.7-3.1c-2.3,0-4.3,1.6-4.9,3.7c-0.5,0-1.1,0.1-1.6,0.1l1,2.4
				l28.4,1c17.1,0,31.8-0.9,38-2.2C249.1,128.8,245,128.3,239.8,128z"/>
		</g>
		<path class="st7" d="M184.4,128.2l-17.3-42.1c-2.3-5.6-8.7-16.9-11.7-17.5c-3-0.6-3.8,7.6-1.9,9.3c2,1.7,9.3,9.1,9.8,10.7
			l12.6,40.7l0,0.1c0,0,0,0,0,0c0.8,0.2,1.8,0.3,2.9,0.5c0,0,0,0,0,0c1.8,0.3,4,0.5,6.5,0.7L184.4,128.2z"/>
	</g>
	<g>
		<path class="st7" d="M81.6,313.6c-0.1-0.2-0.1-0.2,0-0.4c-0.2-0.1-0.1-0.2,0-0.4c0.6-2.5,2.7-3.5,5.3-3.9c0.7-0.3,1.8,0.2,2.4,0.6
			c0.4,0.4,0.7,0.5,1,0.8c0.3,0.5,0.4,0.7,0.7,1.3c0.3,0.1,0.6,0.4,0.7,0.9c0.2,0.1,0.1,0.2,0.2,0.4c0.2,0.3-0.1,0.7-0.3,1
			c2.7,2.8,5.7,5.1,8.7,7.5c1.5,1.2,3,2.3,4.6,3.5c1.6,1,3.2,2,4.8,3c3.2,1.9,6.4,3.9,9.7,5.4c1.7,0.8,3.3,1.5,5,2.3
			c1.7,0.7,3.3,1.5,5.1,2c3.5,1.3,7,2.5,10.5,3.6c3.5,1,7.1,1.9,10.5,2.7c3.5,0.8,7,1.4,10.3,2c0.9,0.2,1.7,0.3,2.6,0.5
			c0.9,0.1,1.7,0.3,2.6,0.4c1.7,0.3,3.4,0.5,5.1,0.6c13.8,1.9,27.7,2.4,41.4,2.2c3.5,0,7-0.1,10.5-0.3c3.5-0.3,7-0.5,10.6-0.7
			c2.5-0.3,4.9-0.8,7.4-1c-1.6-1.1-3.6-2.8-5.6-2.5c-0.5,0-0.5-0.7,0-0.7l0.5,0c1.7-0.8,3.1-2.2,5.1-2.1c-0.7-0.4-1.5-0.7-2.3-0.9
			c-0.3-0.2-0.3-0.7,0-0.9c0.7-0.3,1.3-0.6,2.1-0.6c-1.5-0.9-2.9-2-3.9-3.4c-0.2-0.2-0.2-0.5,0.2-0.7c1.6-0.8,2.9-0.4,4.4,0.6
			c2.8,1.5,5.7,2.1,8.6,2.5c3,0.4,6.1,0.6,9,0.8c0,0-0.2-0.2-0.2-0.3c0-0.2-0.2-0.2,0-0.3c1.1-1,2.1-1.2,3.3-0.7
			c1.5-1.3,2.9-1.2,4.3-0.3c0.8-0.3,1.5-0.4,2-0.2c1-0.7,2.1-0.7,2.9-0.3c1.3-1,2.4-1,3.4-0.5c2.7-2.3,5.6-4.2,8.5-6.2
			c2.9-2.1,5.7-4,8.6-6.1c2.4-1.9,4.7-4,6.9-6.1c2.2-2.3,4-4.5,5.8-6.9c3-4.2,6-9,8.2-14c2.2-5.1,3.2-10.6,2.6-15.9
			c0-0.3,0.3-0.3,0.5-0.2l0.2,0c0.6,7.9,2.2,16.7-0.5,24.4c3.4-5.2,5.8-10.8,7-17.1c0.1-0.3,0.5-0.2,0.5,0.2
			c-0.2,5.2-0.2,10.5-1.7,15.3c0.5-0.4,0.8-0.9,1.1-1.2c1.4-1.4,2.5-3,4.1-4.4c0.9-2.7,1.6-5.5,3-7.9c0.1-0.2,0.3-0.2,0.3-0.2
			s0,0,0.2,0c2.2,3.1,1,7.4-0.8,11c0.7-1,1.6-2.1,2.6-2.8c2.3-2.1,5-3.7,6.8-6.2c0.3-0.3,0.7,0,0.5,0.3c-1.3,2.9-1.4,6.3-3.3,9.1
			c0.9-0.7,1.9-1.4,2.8-2.3c0.9-0.9,1.7-1.8,2.4-2.6c1.5-1.9,2.3-4,2.6-6.5c0,0,0,0,0-0.2l0.1-0.2c0.2,0,0.5,0,0.4,0.3l0,0.2
			c0.8,5.5-2.1,10.9-5.6,15c0.2-0.2,0.3-0.4,0.6-0.4c4.1-2.9,8.1-6,10.6-10c0.1-0.2,0.3-0.2,0.3,0c0.1,0,0.2,0.2,0.2,0.3l0,0.2
			c-0.2,2.5-1.2,4.7-2.6,6.7c-1.4,2-3.3,3.8-5.3,5.5c-4.1,3.3-9,6-12.5,9.5c5.9-4.5,13.2-7,18-12.4c0.3-0.4,0.9,0.1,0.6,0.5
			l-0.3,0.4c-3,7.1-9.1,13.6-16.1,17.7c2.8-1.4,5.6-2.7,8.4-4.1c0.5-0.2,0.7,0.3,0.6,0.7c-0.8,2.8-2.9,4.9-5.1,6.7
			c0.7-0.2,1.2-0.2,1.8-0.4c0,0,0,0,0.2,0c2.2-0.6,4.4-1.2,6.6-1.8c0.3-0.2,0.6,0.5,0.4,0.7c-1.8,1.4-3.6,2.7-5.5,4
			c-2,1.3-3.9,2.4-6.1,3.5c2.2-0.4,4.4-0.9,6.6-1.3c2.2-0.4,4.4-0.7,6.7-1l0.5-0.4c0.5-0.4,0.9,0.5,0.4,0.8c0,0-0.2,0.2-0.3,0.2
			l-0.2,0c-4.8,2.6-9.9,4.2-15.1,5.4c0.9,0.1,1.6,0.3,2.4,0.6c0.4,0.2,0.2,0.5,0,0.7l-4,1.9c0.7,0,1.3-0.2,2.2-0.3l0.2,0
			c0.7-0.2,1.1,0.6,0.4,0.8c-7.4,2.7-13.5,7.8-20.8,10.4c4.2-0.2,8.2-0.9,12.5-1.4l1.5-0.6c0.7-0.2,0.9,0.7,0.4,0.8
			c-3.5,1.8-7.3,3-11.4,3.9c-2,0.5-4,0.8-6,1c-2,0.2-4,0.3-5.9,0.5c-1.2,0-2.4,0.1-3.4,0.1l-3.4-0.3c1.2,0.7,2.4,1.2,3.6,1.7
			c0.5,0,1,0.1,1.3,0.1c0.3,0,0.5,0.5,0.2,0.7c-0.2,0.2-0.2,0.2-0.3,0.2c-3.9-0.2-7.7-0.9-11.6-1.3c-3.9-0.4-7.7-0.8-11.6-0.4
			c0,0,0,0-0.2,0c-1,1-2.1,1.7-4,1.7l-0.2,0c-0.5,0.3-1,0.5-1.7,0.5c-0.2,0-0.2,0-0.3,0c-0.5,0.3-1,0.5-1.5,0.5
			c-0.2,0-0.3-0.2-0.5-0.2l-0.2,0.2c-0.2,0.2-0.5,0.3-0.7,0.2l-0.8-0.5c0,0,0,0.2-0.2,0.2c-0.2,0.2-0.5,0.3-0.7,0.2
			c-0.8-0.7-0.5-0.3-1-1.4c-3.5-0.7-6.8,0.2-10,1.5c-3.2,1.3-6.4,3.1-9.6,4.4c-0.5,0.2-1-0.5-0.5-0.7c0-0.5,0.2-1,0.5-1.4
			c-2.2,0.3-4.4,0.6-6.5,0.4c-0.3,0-0.5-0.5-0.3-0.7l3.5-2.5c-2.2-0.4-4.2-1-6.2-1.5c-0.3,0-0.3-0.5,0-0.5c1.3-0.8,2.7-1.5,4-2
			c-1-0.2-1.8-0.6-2.8-0.9c-0.2,0-0.3-0.2-0.7-0.4c-11.5,0.7-23,1.3-34.6,1.1l-4.4,0l-4.4-0.2c-2.9-0.1-5.8-0.1-8.8-0.3l-8.8-0.6
			c-1.5-0.1-2.9-0.2-4.4-0.4l-4.4-0.5c-1.8-0.2-3.6-0.4-5.4-0.6c-1.8-0.3-3.6-0.7-5.4-1.1c-3.6-0.6-7.3-1.3-10.8-2.3
			c-1.8-0.5-3.6-1-5.4-1.5c-0.9-0.3-1.8-0.5-2.7-0.8c-0.9-0.3-1.8-0.6-2.7-1c-1.8-0.7-3.7-1.3-5.5-2c-1.8-0.7-3.8-1.3-5.6-2.2
			c-3.2-1.5-6.6-2.9-9.9-4.4c-3.3-1.6-6.7-3.3-10-5c-0.8-0.4-1.7-0.9-2.5-1.3c-0.8-0.5-1.6-1-2.4-1.5c-1.6-1-3.2-2.1-4.8-3.2
			c-0.8-0.6-1.6-1.1-2.4-1.7c-0.8-0.6-1.6-1.2-2.3-1.8c-1.5-1.3-2.9-2.7-4.4-4.1c-0.1,0.2-0.3,0.2-0.6,0.1
			C83,317,82.4,315.4,81.6,313.6z"/>
	</g>
</g>
</svg>
