<?xml version="1.0" encoding="iso-8859-1"?>
<!-- Generator: Adobe Illustrator 19.0.0, SVG Export Plug-In . SVG Version: 6.00 Build 0)  -->
<svg version="1.1" id="Capa_1" xmlns="http://www.w3.org/2000/svg" xmlns:xlink="http://www.w3.org/1999/xlink" x="0px" y="0px"
	 viewBox="0 0 451.918 451.918" style="enable-background:new 0 0 451.918 451.918;" xml:space="preserve">
<g>
	<path style="fill:#1185E0;" d="M373.102,412.735l-26.122-31.347c-3.135-3.657-7.314-5.747-12.016-5.747H166.735
		c-5.224-21.943-22.465-39.706-44.931-45.453V106.057c0-6.269-3.657-12.016-9.404-14.629L50.751,64.784
		c-7.837-3.657-17.241,0-20.376,8.359s0,17.241,8.359,20.376l52.245,22.465v213.682c-26.645,6.792-46.498,31.347-46.498,60.082
		c0,34.482,27.69,62.171,62.171,62.171c28.735,0,52.245-19.331,60.082-45.453h161.437l21.42,25.6
		c3.135,3.657,7.314,5.747,12.016,5.747c3.657,0,7.314-1.045,9.927-3.657C377.804,428.931,378.849,419.527,373.102,412.735z
		 M106.131,421.094c-17.241,0-30.824-13.584-30.824-30.824c0-17.241,13.584-30.824,30.824-30.824s30.824,13.584,30.824,30.824
		S123.372,421.094,106.131,421.094z"/>
	<path style="fill:#1185E0;" d="M407.061,112.849h-84.114V15.673C322.947,6.792,316.155,0,307.274,0H188.155
		c-8.882,0-15.673,6.792-15.673,15.673v112.849v192.261c0,8.882,6.792,15.673,15.673,15.673h218.906
		c8.882,0,15.673-6.792,15.673-15.673V128.522C422.735,119.641,415.943,112.849,407.061,112.849z M291.6,31.347v81.502h-87.771
		V31.347H291.6z M391.388,305.11H203.829V144.196h187.559V305.11z"/>
</g>
<g>
	<path style="fill:#4DCFE0;" d="M291.6,210.547h-40.751c-8.882,0-15.673-6.792-15.673-15.673c0-8.882,6.792-15.673,15.673-15.673
		H291.6c8.882,0,15.673,6.792,15.673,15.673C307.274,203.755,300.482,210.547,291.6,210.547z"/>
	<path style="fill:#4DCFE0;" d="M317.2,276.898h-66.351c-8.882,0-15.673-6.792-15.673-15.673c0-8.882,6.792-15.673,15.673-15.673
		H317.2c8.882,0,15.673,6.792,15.673,15.673C332.874,270.106,326.082,276.898,317.2,276.898z"/>
</g>
<g>
</g>
<g>
</g>
<g>
</g>
<g>
</g>
<g>
</g>
<g>
</g>
<g>
</g>
<g>
</g>
<g>
</g>
<g>
</g>
<g>
</g>
<g>
</g>
<g>
</g>
<g>
</g>
<g>
</g>
</svg>
