<?xml version="1.0" encoding="iso-8859-1"?>
<!-- Generator: Adobe Illustrator 19.0.0, SVG Export Plug-In . SVG Version: 6.00 Build 0)  -->
<svg version="1.1" id="Capa_1" xmlns="http://www.w3.org/2000/svg" xmlns:xlink="http://www.w3.org/1999/xlink" x="0px" y="0px"
	 viewBox="0 0 512 512" style="enable-background:new 0 0 512 512;" xml:space="preserve">
<g>
	<g>
		<circle cx="166" cy="166" r="15"/>
	</g>
</g>
<g>
	<g>
		<circle cx="346" cy="166" r="15"/>
	</g>
</g>
<g>
	<g>
		<path d="M462.493,136.345c-11.863-27.43-28.79-51.928-50.311-72.812C368.144,20.796,310.212-1.734,249.09,0.104
			C189.992,1.878,134.764,27.776,93.576,73.028C53.224,117.364,31,174.818,31,234.805V346c0,41.355,33.645,75,75,75h15v15
			c0,20.03,7.759,38.999,21.847,53.412C157.086,503.978,175.962,512,196,512c8.284,0,15-6.716,15-15v-56.142
			C224.944,447.476,240.28,451,256,451c15.72,0,31.056-3.524,45-10.142V497c0,8.284,6.716,15,15,15
			c20.038,0,38.914-8.022,53.153-22.588C383.241,474.999,391,456.03,391,436v-15h15c41.355,0,75-33.645,75-75V226
			C481,194.905,474.774,164.741,462.493,136.345z M181,479.265c-17.281-6.475-30-23.675-30-43.265v-50.17
			c9.581,3.378,19.749,5.17,30,5.17V479.265z M181,361c-32.721,0-60-26.425-60-60c0-33.084,26.916-60.2,60-60.2h36.053
			c-3.842,6.624-6.053,14.506-6.053,22.699c0,3.406,1.159,6.711,3.287,9.37l26.499,33.124C238.251,336.345,212.929,361,181,361z
			 M301,405.994C288.067,415.707,272.319,421,256,421c-16.319,0-32.067-5.293-45-15.006v-20.131
			c18.682-6.597,34.364-19.143,45-35.192c10.636,16.049,26.318,28.595,45,35.192V405.994z M241.667,259.07
			c1.894-6.116,7.603-10.572,14.333-10.572s12.439,4.456,14.333,10.572L256,276.987L241.667,259.07z M361,436
			c0,19.59-12.719,36.791-30,43.265V391c10.252,0,20.42-1.792,30-5.169V436z M331,361c-31.857,0-57.245-24.586-59.786-55.007
			l26.499-33.124c2.128-2.66,3.287-5.964,3.287-9.371c0-8.193-2.212-15.875-6.053-22.499H331c33.084,0,60,26.916,60,60
			C391,334.497,363.798,361,331,361z M451,346c0,24.813-20.187,45-45,45h-15v-22.928c19.155-17.109,30-41.151,30-67.072
			c0-49.626-40.374-90-90-90H181c-49.626,0-90,40.374-90,90c0,25.926,10.849,49.972,30,67.072V391h-15c-24.813,0-45-20.187-45-45
			V234.805c0-109.752,84.78-201.586,188.99-204.714c52.949-1.588,103.135,17.934,141.3,54.972C429.795,122.429,451,172.482,451,226
			V346z"/>
	</g>
</g>
<g>
</g>
<g>
</g>
<g>
</g>
<g>
</g>
<g>
</g>
<g>
</g>
<g>
</g>
<g>
</g>
<g>
</g>
<g>
</g>
<g>
</g>
<g>
</g>
<g>
</g>
<g>
</g>
<g>
</g>
</svg>
