<?xml version="1.0" encoding="iso-8859-1"?>
<!-- Generator: Adobe Illustrator 19.0.0, SVG Export Plug-In . SVG Version: 6.00 Build 0)  -->
<svg version="1.1" id="Capa_1" xmlns="http://www.w3.org/2000/svg" xmlns:xlink="http://www.w3.org/1999/xlink" x="0px" y="0px"
	 viewBox="0 0 512.051 512.051" style="enable-background:new 0 0 512.051 512.051;" xml:space="preserve">
<g>
	<g>
		<g>
			<path d="M65.432,425.092c-11.929-0.007-21.606,9.658-21.613,21.587c-0.007,11.929,9.658,21.606,21.587,21.613
				c5.728,0.007,11.224-2.265,15.275-6.315c4.055-4.049,6.335-9.542,6.338-15.272C87.026,434.776,77.361,425.099,65.432,425.092z
				 M65.598,446.895V446.5v-0.021C65.705,446.597,65.705,446.777,65.598,446.895z"/>
			
				<rect x="294.452" y="288.83" transform="matrix(0.7071 0.7071 -0.7071 0.7071 301.3322 -127.9531)" width="21.333" height="21.867"/>
			<rect x="330.718" y="181.359" width="21.333" height="21.333"/>
			<path d="M501.384,0.025H224.051c-0.57,0-1.133,0.058-1.689,0.147c-0.122,0.019-0.245,0.031-0.366,0.055
				c-0.162,0.032-0.32,0.078-0.479,0.117c-0.18,0.044-0.361,0.082-0.539,0.136c-0.116,0.035-0.228,0.081-0.343,0.12
				c-0.216,0.073-0.433,0.144-0.645,0.231c-0.087,0.036-0.169,0.08-0.255,0.118c-0.233,0.103-0.465,0.206-0.691,0.327
				c-0.081,0.043-0.157,0.095-0.237,0.14c-0.222,0.126-0.445,0.252-0.659,0.395c-0.117,0.078-0.226,0.167-0.339,0.249
				c-0.169,0.123-0.341,0.24-0.505,0.374c-0.275,0.225-0.54,0.464-0.793,0.717l-96,96c-2.001,2-3.125,4.713-3.125,7.541v89.821
				c-1.981,0.403-3.871,1.368-5.408,2.904l-30.933,30.933c-4.164,4.165-4.164,10.917,0,15.083l7.931,7.931l-7.92,7.92
				c-0.002,0.002-0.004,0.004-0.005,0.005c-21.243,21.246-21.241,55.69,0.005,76.933L96.68,353.86
				c-28.316,10.972-54.531,26.74-77.493,46.613C6.883,412.747-0.022,429.418,0,446.797c0.046,36.071,29.324,65.275,65.395,65.229
				c17.336,0.022,33.967-6.86,46.219-19.125c1.968-2.274,3.884-4.59,5.771-6.927v15.385c0,5.891,4.776,10.667,10.667,10.667h373.333
				c5.891,0,10.667-4.776,10.667-10.667V10.692C512.051,4.801,507.275,0.025,501.384,0.025z M448.051,202.692v21.333
				c0,5.891-4.776,10.667-10.667,10.667h-16c-14.728,0-26.667,11.939-26.667,26.667s11.939,26.667,26.667,26.667h5.333
				c11.782,0,21.333,9.551,21.333,21.333c0,11.782-9.551,21.333-21.333,21.333h-75.595l23.392-23.392
				c12.692-12.713,12.692-33.303,0-46.016l-54.122-54.122c0,0,0,0,0,0l-47.136-47.136h142.795c13.932,0,25.778,8.906,30.172,21.333
				h-72.839v21.333H448.051z M258.718,196.292c-2.829,0.001-5.541,1.125-7.541,3.125l-15.467,15.467
				c-4.336,4.155-11.176,4.155-15.512,0c-4.47-4.284-4.622-11.38-0.338-15.851l31.125-31.115l46.773,46.773l-15.669,15.648
				c-4.424,4.242-11.406,4.242-15.829,0c-0.005-0.005-0.011-0.011-0.016-0.016c-4.365-4.374-4.358-11.459,0.016-15.824
				c1.999-2,3.122-4.711,3.123-7.539C269.383,201.07,264.609,196.293,258.718,196.292z M204.776,183.951
				c-10.438,10.451-12.528,26.621-5.091,39.383c9.05,15.529,28.975,20.781,44.504,11.732c5.095,12.054,16.908,19.889,29.995,19.893
				c8.63,0.033,16.913-3.394,22.997-9.515l15.668-15.66l23.576,23.576l-23.385,23.385l15.085,15.085l23.385-23.385l7.922,7.922
				c4.376,4.378,4.376,11.473,0,15.851l-38.475,38.475h-0.907v0.907l-30.405,30.405L150.057,222.415l69.792-69.782
				c4.38-4.37,11.471-4.37,15.851,0l0.202,0.202L204.776,183.951z M119.518,222.041l170.517,170.517l-15.851,15.84l-7.915-7.915
				L111.603,245.817l-7.925-7.925L119.518,222.041z M96.52,477.807c-17.098,16.674-44.372,16.674-61.469,0
				c-17.406-16.974-17.756-44.845-0.781-62.251c24.851-21.12,53.734-36.971,84.896-46.592c1.858-0.472,3.555-1.437,4.911-2.792
				c4.167-4.164,4.17-10.918,0.006-15.085L96.136,323.14c-0.003-0.003-0.007-0.007-0.01-0.01
				c-12.911-12.916-12.906-33.853,0.01-46.763l7.92-7.92L243.63,408.02l-7.92,7.92c-0.003,0.003-0.007,0.007-0.01,0.01
				c-12.916,12.911-33.853,12.906-46.763-0.01l-27.947-27.947c-1.356-1.355-3.053-2.32-4.911-2.792
				c-5.709-1.451-11.514,2-12.966,7.71c-5.988,19.396-14.393,37.907-24.976,55.115h-0.752v1.197
				C111.151,459.224,104.188,468.784,96.52,477.807z M490.718,490.692h-352v-35.318c7.597-12.729,14.132-26.094,19.509-39.967
				l15.637,15.627c0.002,0.002,0.004,0.004,0.005,0.005c21.246,21.243,55.69,21.241,76.933-0.005l7.92-7.92l7.92,7.92
				c2,2,4.713,3.125,7.541,3.125c2.829-0.001,5.541-1.125,7.541-3.125l30.933-30.933c4.164-4.165,4.164-10.917,0-15.083
				l-7.931-7.931l25.061-25.061h96.928c23.564,0,42.667-19.103,42.667-42.667s-19.103-42.667-42.667-42.667h-5.333
				c-2.946,0-5.333-2.388-5.333-5.333c0-2.945,2.388-5.333,5.333-5.333h16c17.673,0,32-14.327,32-32v-32
				c-0.035-29.441-23.893-53.298-53.333-53.333H251.923l-1.141-1.141c-12.716-12.686-33.3-12.686-46.016,0l-66.048,66.039v-92.482
				l74.667-74.667v59.584h-32v21.333h42.667c5.891,0,10.667-4.776,10.667-10.667V21.359h256V490.692z"/>
			<path d="M448.051,448.025h-32v21.333h42.667c5.891,0,10.667-4.776,10.667-10.667v-42.667h-21.333V448.025z"/>
			<rect x="373.384" y="448.025" width="21.333" height="21.333"/>
			<path d="M448.051,96.025h21.333V53.359c0-5.891-4.776-10.667-10.667-10.667h-42.667v21.333h32V96.025z"/>
			<rect x="373.384" y="42.692" width="21.333" height="21.333"/>
		</g>
	</g>
</g>
<g>
</g>
<g>
</g>
<g>
</g>
<g>
</g>
<g>
</g>
<g>
</g>
<g>
</g>
<g>
</g>
<g>
</g>
<g>
</g>
<g>
</g>
<g>
</g>
<g>
</g>
<g>
</g>
<g>
</g>
</svg>
