<?xml version="1.0" encoding="iso-8859-1"?>
<!-- Generator: Adobe Illustrator 19.0.0, SVG Export Plug-In . SVG Version: 6.00 Build 0)  -->
<svg version="1.1" id="Capa_1" xmlns="http://www.w3.org/2000/svg" xmlns:xlink="http://www.w3.org/1999/xlink" x="0px" y="0px"
	 viewBox="0 0 512 512" style="enable-background:new 0 0 512 512;" xml:space="preserve">
<g>
	<g>
		<g>
			<path d="M416,309.33c17.673,0,32-14.327,32-32v-1.828c3.337,1.18,6.925,1.828,10.667,1.828c17.673,0,32-14.327,32-32v-10.667
				h10.667c5.891,0,10.667-4.776,10.667-10.667V181.33c0-5.891-4.776-10.667-10.667-10.667h-10.667v-10.667
				c0-17.673-14.327-32-32-32c-3.741,0-7.33,0.648-10.667,1.828v-1.828c0-17.673-14.327-32-32-32s-32,14.327-32,32v42.667h-32v-32
				c0-17.673-14.327-32-32-32c-8.197,0-15.672,3.086-21.333,8.155c-5.662-5.069-13.136-8.155-21.333-8.155
				c-8.197,0-15.672,3.086-21.333,8.155c-5.662-5.069-13.136-8.155-21.333-8.155c-8.197,0-15.672,3.086-21.333,8.155
				c-5.662-5.069-13.136-8.155-21.333-8.155c-17.673,0-32,14.327-32,32v32h-32v-42.667c0-17.673-14.327-32-32-32s-32,14.327-32,32
				v1.828c-3.337-1.18-6.925-1.828-10.667-1.828c-17.673,0-32,14.327-32,32v10.667H10.667C4.776,170.664,0,175.439,0,181.33v42.667
				c0,5.891,4.776,10.667,10.667,10.667h10.667v10.667c0,17.673,14.327,32,32,32c3.741,0,7.33-0.648,10.667-1.828v1.828
				c0,17.673,14.327,32,32,32s32-14.327,32-32v-42.667h32c0,4.166,0.805,8.142,2.253,11.792
				c-13.59,3.695-23.586,16.114-23.586,30.874c0,17.673,14.327,32,32,32c0,13.932,8.906,25.778,21.333,30.172v142.493
				c-87.437-24.818-156.161-99.531-168.704-195.375l-21.163,2.752C19.094,416.668,127.58,511.803,256,511.997
				c132.482-0.709,242.804-101.83,255.019-233.749l-21.248-1.835C481.266,374.643,412.626,455.731,320,481.94V339.502
				c12.427-4.394,21.333-16.24,21.333-30.172v-32H320v32c0,5.891-4.776,10.667-10.667,10.667H202.667
				c-5.891,0-10.667-4.776-10.667-10.667h32c17.673,0,32-14.327,32-32c0-5.706-1.501-11.059-4.118-15.698
				c1.457-0.932,2.835-1.975,4.118-3.123c5.662,5.069,13.136,8.155,21.333,8.155c8.197,0,15.672-3.086,21.333-8.155
				c5.662,5.069,13.136,8.155,21.333,8.155c17.673,0,32-14.327,32-32h32v42.667C384,295.003,398.327,309.33,416,309.33z
				 M286.429,488.853c-24.993,3.271-49.576,2.464-73.096-1.877V341.33h85.333v145.581
				C294.623,487.658,290.546,488.315,286.429,488.853z M458.667,149.33c5.891,0,10.667,4.776,10.667,10.667v85.333
				c0,5.891-4.776,10.667-10.667,10.667S448,251.221,448,245.33v-85.333C448,154.106,452.776,149.33,458.667,149.33z
				 M405.333,127.997c0-5.891,4.776-10.667,10.667-10.667c5.891,0,10.667,4.776,10.667,10.667v32v85.333v32
				c0,5.891-4.776,10.667-10.667,10.667c-5.891,0-10.667-4.776-10.667-10.667V127.997z M234.667,127.997
				c5.891,0,10.667,4.776,10.667,10.667v96c0,5.891-4.776,10.667-10.667,10.667c-5.891,0-10.667-4.776-10.667-10.667v-96
				C224,132.773,228.776,127.997,234.667,127.997z M181.333,138.664c0-5.891,4.776-10.667,10.667-10.667s10.667,4.776,10.667,10.667
				v96c0,5.891-4.776,10.667-10.667,10.667s-10.667-4.776-10.667-10.667V138.664z M53.333,255.997
				c-5.891,0-10.667-4.776-10.667-10.667v-85.333c0-5.891,4.776-10.667,10.667-10.667c5.891,0,10.667,4.776,10.667,10.667v85.333
				C64,251.221,59.224,255.997,53.333,255.997z M106.667,277.33c0,5.891-4.776,10.667-10.667,10.667s-10.667-4.776-10.667-10.667
				v-32v-85.333v-32c0-5.891,4.776-10.667,10.667-10.667s10.667,4.776,10.667,10.667V277.33z M128,213.33v-21.333h32v21.333H128z
				 M224,287.997h-53.333c-5.891,0-10.667-4.776-10.667-10.667c0-5.891,4.776-10.667,10.667-10.667H224
				c5.891,0,10.667,4.776,10.667,10.667C234.667,283.221,229.891,287.997,224,287.997z M277.333,245.33
				c-5.891,0-10.667-4.776-10.667-10.667v-96c0-5.891,4.776-10.667,10.667-10.667c5.891,0,10.667,4.776,10.667,10.667v96
				C288,240.555,283.224,245.33,277.333,245.33z M330.667,234.664c0,5.891-4.776,10.667-10.667,10.667s-10.667-4.776-10.667-10.667
				v-96c0-5.891,4.776-10.667,10.667-10.667s10.667,4.776,10.667,10.667V234.664z M352,213.33v-21.333h32v21.333H352z"/>
			<path d="M97.941,82.525c89.565-81.605,226.531-81.605,316.096,0l14.379-15.744c-97.71-89.037-247.143-89.037-344.853,0
				l14.379,15.765V82.525z"/>
		</g>
	</g>
</g>
<g>
</g>
<g>
</g>
<g>
</g>
<g>
</g>
<g>
</g>
<g>
</g>
<g>
</g>
<g>
</g>
<g>
</g>
<g>
</g>
<g>
</g>
<g>
</g>
<g>
</g>
<g>
</g>
<g>
</g>
</svg>
