<?xml version="1.0" encoding="iso-8859-1"?>
<!-- Generator: Adobe Illustrator 19.0.0, SVG Export Plug-In . SVG Version: 6.00 Build 0)  -->
<svg version="1.1" id="Capa_1" xmlns="http://www.w3.org/2000/svg" xmlns:xlink="http://www.w3.org/1999/xlink" x="0px" y="0px"
	 viewBox="0 0 512 512" style="enable-background:new 0 0 512 512;" xml:space="preserve">
<g>
	<g>
		<path d="M452,150c-33.084,0-60,26.916-60,60v105c0,8.271-6.729,15-15,15h-16V135c0-57.897-47.103-105-105-105
			c-57.897,0-105,47.103-105,105v75h-16c-8.271,0-15-6.729-15-15V60c0-33.084-26.916-60-60-60S0,26.916,0,60v135
			c0,74.439,60.561,135,135,135h16v152h-45c-8.284,0-15,6.716-15,15s6.716,15,15,15h60h180h60c8.284,0,15-6.716,15-15
			s-6.716-15-15-15h-45v-32h16c74.439,0,135-60.561,135-135V210C512,176.916,485.084,150,452,150z M482,315
			c0,57.897-47.103,105-105,105h-31c-8.284,0-15,6.716-15,15v47H181V315c0-8.284-6.716-15-15-15h-31c-57.897,0-105-47.103-105-105
			V60c0-16.542,13.458-30,30-30s30,13.458,30,30v135c0,24.813,20.187,45,45,45h31c8.284,0,15-6.716,15-15v-90
			c0-41.355,33.645-75,75-75c41.355,0,75,33.645,75,75v210c0,8.284,6.716,15,15,15h31c24.813,0,45-20.187,45-45V210
			c0-16.542,13.458-30,30-30s30,13.458,30,30V315z"/>
	</g>
</g>
<g>
	<g>
		<path d="M226,120c-8.284,0-15,6.716-15,15v30c0,8.284,6.716,15,15,15s15-6.716,15-15v-30C241,126.716,234.284,120,226,120z"/>
	</g>
</g>
<g>
	<g>
		<path d="M226,300c-8.284,0-15,6.716-15,15v30c0,8.284,6.716,15,15,15s15-6.716,15-15v-30C241,306.716,234.284,300,226,300z"/>
	</g>
</g>
<g>
	<g>
		<path d="M286,120c-8.284,0-15,6.716-15,15v30c0,8.284,6.716,15,15,15s15-6.716,15-15v-30C301,126.716,294.284,120,286,120z"/>
	</g>
</g>
<g>
	<g>
		<path d="M286,300c-8.284,0-15,6.716-15,15v30c0,8.284,6.716,15,15,15s15-6.716,15-15v-30C301,306.716,294.284,300,286,300z"/>
	</g>
</g>
<g>
	<g>
		<path d="M256,210c-8.284,0-15,6.716-15,15v30c0,8.284,6.716,15,15,15s15-6.716,15-15v-30C271,216.716,264.284,210,256,210z"/>
	</g>
</g>
<g>
	<g>
		<path d="M256,390c-8.284,0-15,6.716-15,15v30c0,8.284,6.716,15,15,15s15-6.716,15-15v-30C271,396.716,264.284,390,256,390z"/>
	</g>
</g>
<g>
</g>
<g>
</g>
<g>
</g>
<g>
</g>
<g>
</g>
<g>
</g>
<g>
</g>
<g>
</g>
<g>
</g>
<g>
</g>
<g>
</g>
<g>
</g>
<g>
</g>
<g>
</g>
<g>
</g>
</svg>
