<?xml version="1.0" encoding="iso-8859-1"?>
<!-- Generator: Adobe Illustrator 19.0.0, SVG Export Plug-In . SVG Version: 6.00 Build 0)  -->
<svg version="1.1" id="Capa_1" xmlns="http://www.w3.org/2000/svg" xmlns:xlink="http://www.w3.org/1999/xlink" x="0px" y="0px"
	 viewBox="0 0 512 512" style="enable-background:new 0 0 512 512;" xml:space="preserve">
<g>
	<g>
		<g>
			<path d="M472.211,288.48c-6.154-7.088-15.082-11.156-24.469-11.147h-33.292l4.087-52.501c0.022-0.288,0.033-0.576,0.032-0.865
				c-0.018-5.891-4.808-10.652-10.699-10.634H245.331v-96c-0.043-37.595-27.839-68.673-64-73.884V10.667
				C181.331,4.776,176.555,0,170.664,0h-64c-5.891,0-10.667,4.776-10.667,10.667v32.782c-36.161,5.211-63.957,36.29-64,73.884
				v149.333c0,8.197,3.086,15.672,8.155,21.333c-5.069,5.662-8.155,13.136-8.155,21.333V480c0,17.673,14.327,32,32,32h149.589
				h21.077H386.28c5.581,0.017,10.231-4.271,10.667-9.835L401.164,448h12.434c26.623-0.015,49.252-19.454,53.28-45.771l12.8-88.352
				C480.994,304.729,478.269,295.46,472.211,288.48z M191.998,213.333c-0.289-0.001-0.577,0.01-0.865,0.032
				c-5.873,0.46-10.262,5.593-9.802,11.466l4.087,52.501H63.998c-5.891,0-10.667-4.776-10.667-10.667v-73.453
				c5.589,1.406,10.854,4,15.413,7.661c10.895,8.269,24.244,12.655,37.92,12.459c14.503-0.025,28.767-3.693,41.483-10.667
				c13.438-7.316,28.554-10.993,43.851-10.667c10.742,0.123,21.446,1.186,32,3.14v18.193H191.998z M117.331,21.333h42.667v21.333
				h-42.667V21.333z M106.664,64h64c29.441,0.035,53.298,23.893,53.333,53.333v56.182c-10.572-1.764-21.268-2.731-32-2.849
				c-18.466-0.355-36.717,4.01-53.024,12.683c-9.847,5.612-20.975,8.592-32.309,8.651c-9.465,0.193-18.697-2.949-26.08-8.875
				c-8.034-6.097-17.404-10.075-27.253-11.67v-54.122C53.366,87.893,77.224,64.035,106.664,64z M53.331,480V309.333
				c0-5.891,4.776-10.667,10.667-10.667h123.081l14.946,192H63.998C58.107,490.667,53.331,485.891,53.331,480z M376.414,490.667
				H234.664h-11.211l-15.84-203.488l-4.085-52.512h192.811L376.414,490.667z M458.579,310.827l-12.8,88.352
				c-2.47,15.851-16.139,27.526-32.181,27.488h-10.773l9.964-128h34.953c3.205-0.037,6.263,1.345,8.352,3.776
				C458.118,304.734,459.027,307.802,458.579,310.827z"/>
			<rect x="341.331" y="448" width="21.333" height="21.333"/>
			<rect x="298.664" y="448" width="21.333" height="21.333"/>
			<rect x="341.331" y="405.333" width="21.333" height="21.333"/>
			<rect x="74.664" y="373.333" width="21.333" height="21.333"/>
			<path d="M95.998,448v-32H74.664v42.667c0,5.891,4.776,10.667,10.667,10.667h42.667V448H95.998z"/>
			<rect x="74.664" y="96" width="21.333" height="21.333"/>
			<rect x="74.664" y="138.667" width="21.333" height="21.333"/>
			<rect x="117.331" y="96" width="21.333" height="21.333"/>
		</g>
	</g>
</g>
<g>
</g>
<g>
</g>
<g>
</g>
<g>
</g>
<g>
</g>
<g>
</g>
<g>
</g>
<g>
</g>
<g>
</g>
<g>
</g>
<g>
</g>
<g>
</g>
<g>
</g>
<g>
</g>
<g>
</g>
</svg>
