<?xml version="1.0" encoding="iso-8859-1"?>
<!-- Generator: Adobe Illustrator 19.0.0, SVG Export Plug-In . SVG Version: 6.00 Build 0)  -->
<svg version="1.1" id="Capa_1" xmlns="http://www.w3.org/2000/svg" xmlns:xlink="http://www.w3.org/1999/xlink" x="0px" y="0px"
	 viewBox="0 0 512 512" style="enable-background:new 0 0 512 512;" xml:space="preserve">
<g>
	<g>
		<circle cx="196" cy="301" r="15"/>
	</g>
</g>
<g>
	<g>
		<circle cx="316" cy="301" r="15"/>
	</g>
</g>
<g>
	<g>
		<path d="M466.514,175.826C476.331,159.858,482,141.08,482,121c0-57.897-47.103-105-105-105c-52.804,0-96.623,39.184-103.924,90
			h-34.152C231.623,55.184,187.804,16,135,16C77.103,16,30,63.103,30,121c0,20.08,5.669,38.858,15.486,54.826
			C16.075,210.888,0,254.875,0,301c0,15.118,7.501,28.508,18.969,36.672C56.84,430.061,148.767,496,256,496
			c107.302,0,199.183-65.996,237.031-158.328C504.499,329.508,512,316.118,512,301C512,254.875,495.925,210.888,466.514,175.826z
			 M377,46c41.355,0,75,33.645,75,75s-33.645,75-75,75c-41.355,0-75-33.645-75-75S335.645,46,377,46z M135,46
			c41.355,0,75,33.645,75,75s-33.645,75-75,75s-75-33.645-75-75S93.645,46,135,46z M256,466
			c-83.971,0-161.312-47.261-199.969-119.914c30.871,0.963,61.457,10.601,86.649,27.395C174.591,394.755,211.73,406,250.083,406
			h11.834c38.353,0,75.492-11.245,107.403-32.519c25.191-16.794,55.777-26.432,86.649-27.395C417.312,418.739,339.971,466,256,466z
			 M467,316h-5.917c-38.45,0-76.948,11.549-108.403,32.519C325.712,366.498,294.327,376,261.917,376h-11.834
			c-32.41,0-63.795-9.502-90.763-27.481C124.501,325.306,87.017,316,45,316c-8.271,0-15-6.729-15-15
			c0-37.216,12.359-72.792,35.082-101.737C83.663,215.88,108.17,226,135,226c52.804,0,96.623-39.184,103.924-90h34.152
			c7.301,50.816,51.12,90,103.924,90c26.83,0,51.337-10.12,69.918-26.737C469.641,228.208,482,263.784,482,301
			C482,309.271,475.271,316,467,316z"/>
	</g>
</g>
<g>
	<g>
		<path d="M377,76c-24.813,0-45,20.187-45,45s20.187,45,45,45s45-20.187,45-45S401.813,76,377,76z M377,136c-8.271,0-15-6.729-15-15
			s6.729-15,15-15s15,6.729,15,15S385.271,136,377,136z"/>
	</g>
</g>
<g>
	<g>
		<path d="M135,76c-24.813,0-45,20.187-45,45s20.187,45,45,45s45-20.187,45-45S159.813,76,135,76z M135,136c-8.271,0-15-6.729-15-15
			s6.729-15,15-15s15,6.729,15,15S143.271,136,135,136z"/>
	</g>
</g>
<g>
</g>
<g>
</g>
<g>
</g>
<g>
</g>
<g>
</g>
<g>
</g>
<g>
</g>
<g>
</g>
<g>
</g>
<g>
</g>
<g>
</g>
<g>
</g>
<g>
</g>
<g>
</g>
<g>
</g>
</svg>
