<?xml version="1.0" encoding="utf-8"?>
<!-- Generator: Adobe Illustrator 21.0.0, SVG Export Plug-In . SVG Version: 6.00 Build 0)  -->
<!DOCTYPE svg PUBLIC "-//W3C//DTD SVG 1.1//EN" "http://www.w3.org/Graphics/SVG/1.1/DTD/svg11.dtd">
<svg version="1.1" id="Layer_1" xmlns="http://www.w3.org/2000/svg" xmlns:xlink="http://www.w3.org/1999/xlink" x="0px" y="0px"
	 viewBox="0 0 595.3 595.3" enable-background="new 0 0 595.3 595.3" xml:space="preserve">
<g>
	<path fill="#9E3F2B" d="M123.8,454.4c7.9-3.7,11.6-0.4,11.6-0.4c-17.5,6.3-25.9,19.7-29.7,28.7c9.5,10.7,19.6,5.6,19.6,5.6
		s19.5-36.4,61.3-8.7c0,0,21.8,16.4,25.4-4.3c0.1-0.7,0.1-1.4,0.1-2.2c0.7-21-18-54.7-18-54.7c-6.8-20.5-3.9-37.1,3.6-47.9
		c6.2-9,15.5-14,25.2-14c7.8,0,34.7,1.8,61.7,81c13.4,39.2,42.9,49,42.9,49c6.7,4.4,14.7,6.9,23.2,6.9c0,0,11.5-0.5,18.3-4.1
		c7.4-3.5,13.5-9.1,17.8-15.9c1.4-2.2,2.6-4.6,3.6-7.1c1-2.6,3.8-4.1,6.6-3.6c0,0,0.1,0,0,0c0,0-1.1,5-1.6,12.6
		c-0.5,8.1-0.4,19,2.6,29.9c3.7,13.5,11.7,26.9,28,34.4c0,0,10.1,2.6,19.4-5.4c-13.8-4.4-25.1-16.1-29-22.4
		c-4.6-7.4-1.7-11.4-1.7-11.4c9.8,19.5,27.7,25.5,36.3,27.3c9.4-14.6-0.4-23.3-0.4-23.3s-15.5-1.8-25.1-14.5
		c-2.9-3.8-5.2-8.6-6.4-14.7c-1.3-6.6-1.4-14.6,0.6-24.5c0,0,2.4-9,0.3-15.6c-0.1-0.3-0.2-0.6-0.3-0.8c-0.2-0.5-0.4-1.1-0.7-1.6
		c-2-3.4-5.7-5.5-12.7-4l0,0.2c0,0,0,0-0.1-0.1c-4.3,3.9-9.3,6.9-14.9,8.7c-2,0.7-4.1,1.2-6.3,1.6c-0.1,0-0.2,0-0.3,0
		c-1,0.2-2,0.3-3.1,0.4c-0.1,0-0.3,0-0.4,0c-1,0.1-2.1,0.1-3.1,0.1c-1.2,0-2.3,0-3.5-0.1c-0.3,0-0.6-0.1-0.9-0.1c-0.1,0-0.3,0-0.4,0
		c-0.7-0.1-1.4-0.1-2.1-0.3c-0.5-0.1-1-0.2-1.6-0.3c-0.6-0.1-1.1-0.2-1.7-0.4c-0.6-0.1-1.1-0.3-1.7-0.5c-0.5-0.1-1-0.3-1.5-0.4
		c-0.6-0.2-1.1-0.4-1.7-0.6c-0.5-0.2-0.9-0.3-1.4-0.5c-0.6-0.2-1.1-0.5-1.7-0.8c-0.4-0.2-0.9-0.4-1.3-0.6c-0.5-0.3-1.1-0.6-1.6-0.9
		c-0.4-0.2-0.8-0.5-1.2-0.7c-0.8-0.5-1.6-1.1-2.4-1.6c-0.8-0.5-1.5-1.1-2.1-1.7c-12.4-12.8-13.4-35.1-5.6-51.3
		c0.8-1.6,2.2-4.2,3.9-7.2h0c12.2-21.2,25-54.3,25-54.3c24.6-2.8,43.3,4.1,55.7,11c0.8,0.5,3.5,2,3.5,2c2.8,1.8,13.9,9.1,20.3,16
		c10.9,9.3,15.9,23,19.1,37.5c0.1,0.6,0.3,1.3,0.4,2c0,0-2.3,8.2-7.6,8.8c0,0,3.2,0.6,6.5-0.3c-4.8,24.8-20.9,25.5-23.6,32.8
		c-3,8,6.8,20.3,27.5,5.9c12.5-8.7,15-30.4,15-46.2c1.5,1,3.3,1.8,5.4,1.8c0,0-4.5-5.5-6.1-16.9c-0.1-1.3-0.2-2.3-0.3-2.8
		c0-0.2,0-0.4-0.1-0.5c-0.1-1-0.3-1.9-0.5-2.7c-3.3-18.5-4.9-19.6-9.7-29.6l-2.6-4.9c-7-12.2-17.2-22.3-29.4-29.3
		c-26.4-16.4-58.8-30.7-96.8-41.1c1,0,2.1,0,3.1-0.1h0c0.4,0,0.8-0.1,1.2-0.1l0,0c1.1-0.1,2.1-0.2,3.2-0.3h0c0.2,0,0.4-0.1,0.6-0.1
		c0.3,0,0.6-0.1,1-0.1c0.1,0,0.2,0,0.4-0.1c0.5-0.1,1-0.1,1.4-0.2c0.3,0,0.6-0.1,0.9-0.1c0.3-0.1,0.7-0.1,1-0.2
		c0.3-0.1,0.7-0.1,1-0.2c0.5-0.1,0.9-0.2,1.4-0.3c0,0,0,0,0,0c11.8-2.8,23-8.6,32.2-17l0,0l0,0c1.2-1.1,2.4-2.3,3.6-3.5
		c0,0,0,0,0.1-0.1c0.5-0.5,0.9-1,1.4-1.5c0.2-0.3,0.5-0.6,0.7-0.8c0.4-0.5,0.8-0.9,1.2-1.4c0.6-0.7,1.2-1.5,1.7-2.2
		c0.2-0.3,0.4-0.6,0.7-0.9c0.4-0.6,0.9-1.2,1.3-1.9c0.2-0.3,0.4-0.6,0.6-0.9c0.6-0.9,1.2-1.8,1.7-2.8c2-3.4,3.6-7.4,5-11.5
		c0.2-0.7,0.4-1.6,0.6-2.5c0.2-1.1,0.3-2.3,0.3-3.3c0-0.6,0-1.2,0-1.7c0-0.3,0-0.6,0-0.8c0-0.2,0-0.4-0.1-0.6
		c-1.3-8.8-8.5-16.1-18.1-17.1c-0.1,0-0.3,0-0.4,0c-10.5-1.2-19-9.7-20.2-20.2c-0.1-0.7-0.1-1.3-0.1-2c-0.5-12.9,9.6-23.6,22.3-24.1
		c-2.4-2.5-5.1-4.9-7.8-7c-0.1-0.1-0.2-0.1-0.2-0.2c0,0-0.1,0-0.1-0.1c-0.2-0.1-0.4-0.3-0.6-0.4l0,0c-0.7-0.5-1.4-1-2-1.5l0,0
		c-0.3-0.2-0.5-0.4-0.8-0.5c-0.1,0-0.1-0.1-0.2-0.1c-0.7-0.4-1.3-0.9-2-1.3c-0.3-0.2-0.5-0.3-0.8-0.5c0,0,0,0,0,0
		c-0.9-0.6-1.9-1.1-2.8-1.6c-0.3-0.1-0.6-0.3-0.8-0.4c-0.7-0.4-1.4-0.7-2.2-1.1c-0.2-0.1-0.4-0.2-0.5-0.3c-0.2-0.1-0.4-0.2-0.6-0.3
		h0c-0.7-0.3-1.4-0.6-2.1-0.9l0,0c-0.2-0.1-0.4-0.1-0.5-0.2c-0.2-0.1-0.3-0.1-0.5-0.2c-1-0.4-2-0.8-3.1-1.1l0,0
		c-0.1,0-0.2-0.1-0.3-0.1c-0.1,0-0.3-0.1-0.4-0.1c-0.8-0.3-1.7-0.5-2.6-0.8v0c-0.1,0-0.2-0.1-0.4-0.1c-0.3-0.1-0.5-0.1-0.8-0.2
		c-0.8-0.2-1.5-0.4-2.3-0.6l0,0c-0.3-0.1-0.5-0.1-0.8-0.2c-0.1,0-0.2,0-0.3-0.1c-1.1-0.2-2.2-0.5-3.3-0.7l0,0c-0.1,0-0.1,0-0.2,0
		c-0.3-0.1-0.6-0.1-0.9-0.1l-6.7-0.7c-0.1,0-0.2,0-0.4,0h0c-1.1-0.1-2.2-0.1-3.3-0.1h0c-0.1,0-0.1,0-0.2,0c-0.1,0-0.1,0-0.2,0
		c-1.3,0-2.5,0-3.8,0.1c-0.1,0-0.1,0-0.1,0c-0.8,0-1.7,0.1-2.5,0.2l0,0c-0.3,0-0.5,0-0.8,0.1c-0.3,0-0.5,0.1-0.8,0.1
		c-0.9,0.1-1.8,0.2-2.7,0.3c-0.4,0.1-0.9,0.2-1.3,0.2c-0.2,0-0.4,0.1-0.6,0.1l0,0c-10.1,1.8-19.4,5.8-27.5,11.5l-0.8,0.5
		c-1.8,1.3-3.5,2.6-5.2,4.1c0,0,0,0,0,0c-0.7,0.6-1.4,1.3-2.1,1.9c0,0,0,0,0,0c-2.9,2.7-5.5,5.7-7.9,8.8c0,0,0,0,0,0
		c6.2,3.1,8.5,7.9,9.4,11.1c-2.3-3.5-5.8-6.3-10-7.7c0,0,0,0,0,0c0,0,0,0,0,0c-6.3-2.1-12.9-0.8-17.8,2.8c-3.2,2.3-5.7,5.6-7.1,9.7
		c-2.9,8.6,0.6,17.9,7.9,22.6c1.4,0.9,2.9,1.7,4.6,2.3c0.2,0.1,0.4,0.1,0.6,0.2c0,0,0,0,0,0c4.2,1.2,8.5,1,12.3-0.4
		c-4.1,3.1-9.8,3.7-13.9,3.6c0,0,0.4,16.8,6.7,32.1c-13.7-17-21.7-38.8-21.3-62.4c0.4-26,11.3-49.4,28.4-66.5l2.7-2.6
		c11.9-11.1,26.6-19.2,42.8-23.4c0.8-0.1,1.6-0.2,2.4-0.3c0.6-0.1,1.2-0.1,1.7-0.2c16-1.1,20.5,6.3,20.5,6.3
		c0.3-1.7-0.7-3.5-1.8-4.8c20.2,6.1,24.9,26.1,26.5,28.4c2.1,2.9,16.1,1.6,13.6-11.1c-2.5-12.8-12.6-21.4-12.6-21.4
		c-3-3-12.3-5.1-20.5-6.4c1.5-2.5,1.3-5.1,1.3-5.1c-3.5,4-15.7,3.3-15.7,3.3l-2.2,0c-41.7,0.6-78.6,22.2-100.5,54.7l-3.7,5.9
		c-10.5,17.6-16.7,37.9-17.3,59.7c-0.8,32.2,10.8,61.7,30.4,84.1l-0.1-0.1l0.8,1c4.3,4.7,6,10.5,6,17.4c0,0.5,0,1,0,1.5
		c-1,17.2-21,26.6-35.2,16.7c-16.1-11.2-33.5-11.8-44.1-2.7c-7.3,6.3-15.2,16.7-15.2,16.7c0-0.1,0-0.1,0-0.2
		c-9.5,13.4-18.3,33.1-17.7,58.2c0.2,7.1,1.1,14.7,3,22.7c1.5,6.5,3.7,13.2,6.6,20.3c2.9,6.9,6.6,13.5,11,19.6
		c3.4,4.7,6.1,8.9,8.1,12.7c2.4,4.6,4,8.6,4.9,11.8l-5.9-4.4c0,0-48.8-33.3-82.2-1.7c0,0-7.4,10.1-0.9,23.2
		C107.4,464.9,117.9,457.1,123.8,454.4z M413.2,206.1l0,0.1l0,0.1c0.1,0.9,0.1,4.7-0.6,6.8c-0.3,1-0.7,2-1.1,3
		c-0.6-4.7-2.1-9.9-5.4-14.3c-0.1-0.2-0.3-0.3-0.4-0.5c-1.1-1.9-2.4-4.8-1.8-7.4C408.8,196.1,412.4,200.6,413.2,206.1z M357.5,158.7
		c6.8,0,13,3.3,16.9,8.8c0,0.4,0.1,0.7,0.1,1.1c1.5,12.4,11.5,22.5,23.9,23.9c0.2,0,0.3,0,0.5,0.1c1.2,0.1,2.3,0.4,3.4,0.8
		c-0.5,1-1,2.4-0.7,4.1c-4.9-3.4-10.6-3.8-14.5-3.6c-3,0.2-3.5,0.9-1.1,1.2c5,0.7,13.4,2.7,17.4,8c3.8,5.1,5.3,14.8,4.3,21.2
		c-3,5.1-6.8,9.8-11.2,14c-3.1,1.5-6.4,2.2-9.9,2.2c-12.8,0-23.3-10.4-23.3-23.3c0-4.1,1.1-8.1,3.2-11.7l4.8-8.3l-9.4,2
		c-1.4,0.3-2.9,0.5-4.3,0.5c-11.3,0-20.6-9.2-20.6-20.6C337,167.9,346.2,158.7,357.5,158.7z M289.5,181.8c-0.2,0-0.3,0-0.5-0.1
		c-0.1,0-0.1,0-0.2,0c-0.1,0-0.2,0-0.4-0.1c-0.6,0-1.2-0.1-1.8-0.2c-0.3-0.1-0.6-0.1-0.9-0.2c-0.8-0.2-1.5-0.6-2.3-1
		c-0.3-0.2-0.5-0.3-0.8-0.5c0,0,0,0,0,0c-1-0.7-1.9-1.6-2.6-2.8c-0.8-1.2-1.4-2.8-1.6-4.3c-0.2-1.6-0.1-3.3,0.4-4.8
		c0.5-1.6,1.4-3,2.5-4.1c0.6-0.6,1.2-1.1,1.9-1.5c0.4-0.3,0.6-0.4,0.9-0.5c0.4-0.2,0.7-0.3,1.1-0.5c0.8-0.3,1.6-0.5,2.4-0.6
		c0.3,0,0.6-0.1,1-0.1c0,0,0,0,0,0c0.3,0,0.6,0,0.9,0c1,0.1,1.9,0.3,2.8,0.6c0.3,0.1,0.6,0.2,0.9,0.4c0.7,0.4,1.4,0.8,2,1.2
		l-1.5,0.6c-0.3-0.1-0.7-0.3-1-0.4c-0.9-0.3-1.9-0.4-3-0.4c0,0-0.1,0-0.1,0c-0.6,0-1.3,0.1-1.9,0.3c0,0,0,0,0,0
		c-0.5,0.1-0.9,0.3-1.4,0.5c-0.2,0.1-0.6,0.3-0.8,0.4c-0.3,0.2-0.6,0.4-0.8,0.5c-0.4,0.3-0.9,0.7-1.3,1.2c-0.8,0.9-1.5,2-1.9,3.2
		c-0.4,1.2-0.5,2.4-0.4,3.6c0,0.3,0.1,0.5,0.1,0.8c0.1,0.7,0.3,1.3,0.6,2c0.1,0.2,0.2,0.5,0.3,0.7c0.3,0.5,0.6,1,1,1.4c0,0,0,0,0,0
		c0.4,0.4,0.8,0.8,1.2,1.2c0,0,0.1,0.1,0.1,0.1c0.3,0.2,0.6,0.4,0.9,0.6c-0.2-0.5-0.3-1.1-0.3-1.7c0-0.7,0.2-1.4,0.5-1.9
		c0.3-0.6,0.8-1.2,1.3-1.6c0.7-0.6,1.7-0.9,2.7-0.9c2.5,0,4.4,2,4.4,4.4C293.9,179.8,291.9,181.8,289.5,181.8z M258,311.2
		c17.4-15.4,38.4-42.9,42.5-65.1c0,0,27.9,20.6,43.7,20.2c0,0-14.2,68-41.7,96.7c-27.5,28.7-51.4,2-56.2-8.1
		C241.4,344.7,240.6,326.5,258,311.2z"/>
	<path fill="#9E3F2B" d="M358.1,186.3c1.8,0.5,3.6,0.3,5.1-0.4c0.3-0.1,0.2-0.4-0.1-0.5c-0.1,0-0.3,0-0.4-0.1
		c-2.3-0.6-3.6-2.9-3-5.1c0.6-2.3,2.9-3.6,5.1-3c1.2,0.3,2.2,1.2,2.7,2.2c0.2,0.4,0.6,0.2,0.6-0.2c0.3-3.9-2.1-7.5-6-8.5
		c-4.3-1.1-8.7,1.5-9.8,5.8C351.2,180.8,353.8,185.2,358.1,186.3z"/>
</g>
</svg>
