<?xml version="1.0" encoding="utf-8"?>
<!-- Generator: Adobe Illustrator 22.0.0, SVG Export Plug-In . SVG Version: 6.00 Build 0)  -->
<svg version="1.1" id="Calque_1" xmlns="http://www.w3.org/2000/svg" xmlns:xlink="http://www.w3.org/1999/xlink" x="0px" y="0px"
	 viewBox="0 0 432 432" style="enable-background:new 0 0 432 432;" xml:space="preserve">
<style type="text/css">
	.st0{fill:#E5DAC7;}
	.st1{fill:#FAF3E3;}
	.st2{fill:#C7B29A;}
	.st3{fill:#972021;}
	.st4{fill:#E9EAE4;}
	.st5{fill:#8C633A;}
	.st6{fill:#F39323;}
	.st7{fill:#ED6F71;}
	.st8{fill:#FFFFFF;}
	.st9{fill:#B6CE3F;}
	.st10{fill:#95AF23;}
	.st11{fill:#18B0C1;}
	.st12{fill:#C2E1D1;}
	.st13{fill:#9F1E29;}
	.st14{fill:#E6E9EA;}
	.st15{fill:#020203;}
	.st16{fill:#4D9564;}
	.st17{fill:#754D24;}
	.st18{fill:#A67D52;}
	.st19{fill:#F0D2B5;}
	.st20{fill:#E1BC9E;}
	.st21{fill:#97509A;}
	.st22{fill:#603914;}
	.st23{fill:#E83078;}
	.st24{fill:#E89125;}
	.st25{fill:#89BF4A;}
	.st26{fill:#82171C;}
	.st27{fill:#6CC2EE;}
	.st28{fill:#1861A9;}
	.st29{fill:#E00825;}
	.st30{fill:#109F3D;}
	.st31{fill:#808181;}
	.st32{fill:#D79A5D;}
	.st33{fill:#C68448;}
	.st34{fill:#D62416;}
	.st35{fill:#F9D61D;}
	.st36{fill:#A9191E;}
	.st37{fill:#F3E4E7;}
	.st38{fill:none;}
	.st39{fill:#E8CAA3;}
	.st40{fill:#64121D;}
	.st41{fill:#15A57E;}
	.st42{fill:#167157;}
	.st43{fill:#CF8916;}
	.st44{fill:#B26F14;}
	.st45{fill:#901D81;}
	.st46{fill:#612261;}
	.st47{fill:#B88E5C;}
	.st48{fill:#EBDCC8;}
	.st49{fill:#F3A0BE;}
	.st50{fill:#FAD7E3;}
	.st51{fill:#EAD797;}
	.st52{fill:#E18CAC;}
	.st53{fill:#A8D9DD;}
	.st54{fill:#67C2C6;}
	.st55{fill:#4EADAD;}
	.st56{fill:#CDCCCC;}
	.st57{fill:#D4C3B3;}
	.st58{fill:#CAB9A7;}
	.st59{fill:#C69C6C;}
	.st60{fill:#D7C5B3;}
	.st61{fill:#96877C;}
	.st62{fill:#EFE8E9;}
	.st63{fill:#B4B4B4;}
	.st64{fill:#F0CC53;}
	.st65{fill:#EE7D54;}
	.st66{fill:#F5D29D;}
	.st67{fill:#5D403F;}
	.st68{fill:#F9CBCC;}
	.st69{fill:#F6DEB8;}
	.st70{fill:#D6A14D;}
	.st71{fill:#B09878;}
	.st72{fill:#C1292E;}
	.st73{fill:#5B4841;}
	.st74{fill:#E0C399;}
	.st75{fill:#EBDA8C;}
	.st76{fill:#363A3D;}
	.st77{fill:#BFC1D7;}
	.st78{fill:#7188BA;}
	.st79{fill:#A34F4D;}
	.st80{fill:#D9CD7A;}
	.st81{fill:#D9AF66;}
	.st82{fill:#E6C776;}
	.st83{fill:#575756;}
	.st84{fill:#C3BF5B;}
	.st85{fill:#63622A;}
	.st86{fill:#E1AE9D;}
	.st87{fill:#D9C7AB;}
	.st88{fill:#B3625C;}
	.st89{fill:#D4BB78;}
	.st90{fill:#009245;}
	.st91{fill:#0B7B3A;}
	.st92{fill:#911A29;}
	.st93{fill:#571419;}
	.st94{fill:#9A9999;}
	.st95{fill:#A81922;}
	.st96{fill:#A3282E;}
	.st97{fill:#B3713B;}
	.st98{fill:#998675;}
	.st99{fill:#6189B1;}
	.st100{fill:#E0EDF3;}
	.st101{fill:#A5C0DF;}
	.st102{fill:#DBDBDB;}
	.st103{fill:#067838;}
	.st104{fill:#E5AEBF;}
	.st105{fill:#9982BC;}
	.st106{fill:#E7E6E6;}
	.st107{fill:#706F6F;}
	.st108{fill:#746458;}
	.st109{fill:#412413;}
	.st110{fill:#544842;}
	.st111{fill:#DAA405;}
	.st112{fill:#D06C5D;}
	.st113{fill:#8C694B;}
	.st114{fill:#C8C8CE;}
	.st115{fill:#D286A7;}
	.st116{fill:#C6CCCC;}
	.st117{fill:#A65F42;}
	.st118{fill:#343434;}
	.st119{fill:#A56E45;}
	.st120{fill:#F2F2F2;}
	.st121{fill:#8AC18A;}
	.st122{fill:#4B6678;}
	.st123{fill:#324C5B;}
	.st124{fill:#97AFBC;}
	.st125{fill:#B27D63;}
	.st126{fill:#6A737A;}
	.st127{fill:#72403F;}
	.st128{fill:#8D7968;}
	.st129{fill:#1B1B1B;}
	.st130{fill:#6B141A;}
	.st131{fill:#E4DCCC;}
	.st132{fill:#B33949;}
	.st133{fill:#6D141B;}
	.st134{fill:#911825;}
	.st135{fill:#821622;}
	.st136{fill:#1F1D1D;}
	.st137{fill:#CC1417;}
	.st138{fill:#69362D;}
	.st139{fill:#ECC9AE;}
	.st140{fill:#471E19;}
	.st141{fill:#2B1D1C;}
	.st142{fill:#BE1622;}
	.st143{fill:#E6332A;}
	.st144{fill:#D8EAF8;}
	.st145{fill:#D4AE8E;}
	.st146{fill:#883B4C;}
	.st147{fill:#C74A54;}
	.st148{fill:#F2959C;}
	.st149{fill:#3C3C3B;}
</style>
<g>
	<g>
		<g>
			<path class="st17" d="M108,122.6c-6,1.1-9.8-22.1-28.3-25.1c-11-1.8-17.1-5.9-14.8-8.5c1.9-2.2,20.8,5.5,22.4,3.2
				c1.6-2.3-12.6-23.1-6.6-24S91.2,86.7,93.9,88c3,1.4,9.9-11.7,12.3-9.5c6.9,6.2-9.8,9.9-7.6,18.1
				C100.7,104.8,115.8,121.2,108,122.6z"/>
			<path class="st17" d="M122.7,121.4c6.1,0.5,7.8-22.9,26-27.5c10.8-2.7,16.5-7.3,14-9.8c-2.1-2-20.3,7.3-22.1,5.1
				c-1.8-2.2,10.6-24.1,4.5-24.5s-8.8,19.5-11.4,21c-2.9,1.7-10.9-10.8-13.1-8.4c-6.4,6.8,10.6,9,9.2,17.4
				C128.4,103,114.8,120.7,122.7,121.4z"/>
		</g>
		<path class="st18" d="M153.5,143c0-0.1-0.1-0.3-0.1-0.4c0,0,0,0,0,0l0,0c-1.5-5.4-4-10.4-7.2-14.6c3.3-5.2,2.8-20.9-1.3-22.9
			c-4.7-2.3-13,4.3-16.4,10.5c-3.8-1.2-7.9-1.7-12.1-1.4c-5.1,0.4-9.9,1.9-14.2,4.4c-4.7-5.4-16.4-9.7-20.4-5.6
			c-3,3.1,1.3,16.7,6,21.3c-3.1,6.3-4.6,13.6-4,21.2c1.4,19.8,16.3,35.2,34,36.2c0.2,0,0.5,0,0.8,0c0,0,0,0,0,0c0.9,0,1.8,0,2.7,0
			c17.2-0.2,29-2.9,36.6-18.4C165.7,157.2,157.6,159,153.5,143z"/>
		<g>
			<circle class="st13" cx="158.8" cy="159" r="8.4"/>
			<circle class="st15" cx="148.2" cy="141.1" r="2.1"/>
			<circle class="st15" cx="130.2" cy="148.2" r="3.1"/>
			<path class="st15" d="M146.2,171.7c-0.1,0.4-0.3,0.7-0.5,1c-0.2,0.3-0.6,0.5-0.9,0.8c-0.6,0.4-1.4,0.7-2.1,1
				c-1.5,0.4-3.1,0.5-4.6,0.1c-0.8-0.2-1.5-0.5-2.2-1c-0.7-0.4-1.3-1-1.7-1.7c-0.5-0.7-0.7-1.4-0.9-2.2c-0.1-0.8-0.1-1.5,0.1-2.3
				c0.3,0.7,0.6,1.3,0.9,1.9c0.3,0.6,0.7,1.1,1.2,1.5c0.9,0.8,2,1.3,3.2,1.7c1.2,0.3,2.5,0.4,3.8,0.3c0.7,0,1.3-0.1,2-0.3
				C145.1,172.4,145.7,172.2,146.2,171.7z"/>
		</g>
		<g>
			<path class="st17" d="M133.2,116.2c2.8-3.2,7.6-8.2,9.5-7.4c1.9,0.8,2.7,10.4,0.7,14.1C141.4,126.6,130.2,119.6,133.2,116.2z"/>
			<path class="st17" d="M97.5,119.6c-3.7-2.1-9.9-5.2-11.4-3.8s0.9,10.8,4,13.6C93.2,132.1,101.4,121.8,97.5,119.6z"/>
		</g>
	</g>
	<g>
		<path class="st13" d="M146.4,204.6H101c-3.7,0-6.8-3.1-6.8-6.8v-7c0-3.7,3.1-6.8,6.8-6.8h45.4c3.7,0,6.8,3.1,6.8,6.8v7
			C153.2,201.5,150.2,204.6,146.4,204.6z"/>
		<g>
			<g>
				<path class="st32" d="M117.4,205.2c-3.6-3.5-3.6-9.2-0.1-12.8c0.1-0.1,0.1-0.1,0.2-0.2c0.3-0.3,0.6-0.5,0.9-0.7
					c3.5-2.6,8.5-2.3,11.7,0.8c3.6,3.5,3.6,9.2,0.1,12.8C126.6,208.6,120.9,208.7,117.4,205.2z"/>
				<path class="st33" d="M117,202.9c-0.3-0.6-0.4-1.3-0.2-1.8c-1.1-2.8-0.5-5.5,1.6-7.6c0.1-0.1,0.1-0.1,0.2-0.2
					c-0.3-0.4-0.7-0.7-1-1.1c0.3-0.3,0.6-0.5,0.9-0.7c0.3,0.4,0.7,0.7,1,1.1c1.9-1.4,4.2-1.6,6.9-0.5c0.6-0.3,1.4-0.2,2.2,0.3
					c1,0.6,1.4,1.8,0.9,2.5c-0.5,0.7-1.7,0.8-2.6,0.1c-0.7-0.5-1.1-1.3-1.1-1.9c-2.1-0.8-3.9-0.6-5.4,0.4c1,1.1,2.1,2.2,3.1,3.3
					c0.7-0.2,1.5,0.1,2.2,0.8c0.8,0.9,0.9,2,0.2,2.6c-0.6,0.6-1.8,0.3-2.6-0.6c-0.6-0.6-0.8-1.4-0.6-2c-1.1-1.1-2.1-2.3-3.2-3.4
					c-1.7,1.7-2.3,3.8-1.6,6c0.7-0.2,1.6,0.3,2.1,1.2c0.5,1,0.4,2.2-0.4,2.6C118.6,204.4,117.5,203.9,117,202.9z"/>
			</g>
			<g>
				<path class="st32" d="M104.8,195.1c-1.7,4.7-6.9,7.1-11.6,5.3c-0.1,0-0.2-0.1-0.3-0.1c-0.4-0.1-0.7-0.3-1-0.5
					c-3.8-2.1-5.6-6.8-4-11c1.7-4.7,6.9-7.1,11.6-5.3C104.2,185.2,106.6,190.4,104.8,195.1z"/>
				<path class="st33" d="M102.9,196.3c-0.4,0.5-1,0.9-1.5,1c-2.1,2.1-4.8,2.7-7.6,1.7c-0.1,0-0.1-0.1-0.2-0.1
					c-0.2,0.5-0.4,0.9-0.6,1.4c-0.4-0.1-0.7-0.3-1-0.5c0.2-0.5,0.4-0.9,0.6-1.4c-2-1.2-3.1-3.2-3.3-6c-0.5-0.4-0.8-1.2-0.6-2.1
					c0.2-1.2,1-2,1.9-1.8c0.8,0.1,1.4,1.2,1.2,2.3c-0.1,0.9-0.7,1.6-1.3,1.8c0.2,2.3,1,3.8,2.6,4.8c0.6-1.4,1.2-2.8,1.8-4.2
					c-0.5-0.5-0.5-1.4-0.2-2.3c0.5-1.1,1.5-1.7,2.3-1.3c0.8,0.4,1,1.5,0.6,2.6c-0.3,0.8-1,1.3-1.6,1.4c-0.6,1.4-1.2,2.9-1.8,4.3
					c2.3,0.9,4.4,0.5,6.2-1c-0.5-0.6-0.4-1.6,0.3-2.4c0.7-0.9,1.9-1.2,2.5-0.7C103.7,194.2,103.6,195.4,102.9,196.3z"/>
			</g>
			<g>
				<path class="st32" d="M144.6,183.6c4.6-2,9.9,0,11.9,4.6c0,0.1,0.1,0.2,0.1,0.3c0.2,0.4,0.3,0.7,0.4,1.1c1.1,4.2-1,8.8-5.1,10.6
					c-4.6,2-9.9,0-11.9-4.6C137.9,191,140,185.7,144.6,183.6z"/>
				<path class="st33" d="M146.8,184.1c0.7-0.1,1.3,0.1,1.8,0.4c3,0,5.3,1.6,6.5,4.3c0,0.1,0.1,0.1,0.1,0.2c0.5-0.2,0.9-0.4,1.4-0.6
					c0.2,0.4,0.3,0.7,0.4,1.1c-0.5,0.2-0.9,0.4-1.4,0.6c0.6,2.3-0.1,4.5-2,6.6c0.1,0.6-0.3,1.4-1.1,1.9c-1,0.7-2.1,0.6-2.6-0.1
					c-0.5-0.7-0.1-1.8,0.8-2.5c0.7-0.5,1.6-0.6,2.2-0.3c1.5-1.7,2-3.4,1.6-5.2c-1.4,0.6-2.8,1.1-4.2,1.7c0,0.7-0.6,1.4-1.5,1.7
					c-1.1,0.4-2.2,0.1-2.5-0.7c-0.3-0.8,0.4-1.8,1.5-2.2c0.8-0.3,1.6-0.2,2.1,0.2c1.5-0.6,2.9-1.1,4.4-1.7c-0.9-2.2-2.7-3.5-5-3.7
					c-0.1,0.7-0.9,1.4-1.9,1.5c-1.2,0.1-2.2-0.5-2.3-1.3C144.8,185.1,145.7,184.3,146.8,184.1z"/>
			</g>
		</g>
	</g>
</g>
<g>
	<g>
		<path class="st16" d="M359.8,206.7l0.2,0c0,0-28-21.8-64.6-22.4c-36.5-0.6-44.3,15-50.3,18.6l0.2,0c-2.8,1.8-4.1,3.6-3.8,4.9
			c1,4.7,29.2-2.6,32.2-0.8c3,1.8-4.8,16.7,0.8,17.9c5.6,1.2,14.1-16,18.6-15.4c4.5,0.6,6.3,14,11.5,14s4.6-14.5,8.4-14.5
			c3.8,0,13.2,16.3,17.8,15.1c4.6-1.2-2.6-14.3,0.8-15.7s23.8,9.6,29.6,4.5C362.9,211.5,362.6,209.2,359.8,206.7z"/>
		<g>
			<ellipse class="st13" cx="242.2" cy="207.6" rx="6.3" ry="6.2"/>
			<ellipse class="st13" cx="274.7" cy="223.7" rx="6.3" ry="6.2"/>
			<ellipse class="st13" cx="304.8" cy="222.9" rx="6.3" ry="6.2"/>
			<ellipse class="st13" cx="331.2" cy="225.1" rx="6.3" ry="6.2"/>
			<ellipse class="st13" cx="361.3" cy="211.4" rx="6.3" ry="6.2"/>
		</g>
	</g>
	<g>
		<g>
			<path class="st17" d="M286.9,126.9c-6,1.1-9.8-22.1-28.3-25.1c-11-1.8-17.1-5.9-14.8-8.5c1.9-2.2,20.8,5.5,22.4,3.2
				s-12.6-23.1-6.6-24c6-0.9,10.4,18.6,13.2,19.9c3,1.4,9.9-11.7,12.3-9.5c6.9,6.2-9.8,9.9-7.6,18.1S294.7,125.5,286.9,126.9z"/>
			<path class="st17" d="M301.6,125.7c6.1,0.5,7.8-22.9,26-27.5c10.8-2.7,16.5-7.3,14-9.8c-2.1-2-20.3,7.3-22.1,5.1
				c-1.8-2.2,10.6-24.1,4.5-24.5c-6.1-0.4-8.8,19.5-11.4,21c-2.9,1.7-10.9-10.8-13.1-8.4c-6.4,6.8,10.6,9,9.2,17.4
				C307.3,107.4,293.7,125,301.6,125.7z"/>
		</g>
		<path class="st18" d="M326.1,132.4c2.3-6.8,2.5-21.4-2.6-22.8c-5.6-1.6-12.7,6.3-16.9,12c-2.7-0.6-5.5-0.9-8.4-0.9
			c-5.8,0-11.4,1.3-16.4,3.6c-4.9-4.9-12.4-10.8-17.4-8.6c-5,2.1-2.7,17.1,0.6,23.4c-3.8,6-6,13.1-6,20.8
			c0,21.6,17.5,39.1,39.1,39.1c21.6,0,39.1-17.5,39.1-39.1C337.3,149.1,333,139.5,326.1,132.4z"/>
		<g>
			<ellipse class="st13" cx="298.2" cy="161.8" rx="9.5" ry="9.4"/>
			<ellipse class="st15" cx="283.8" cy="146.7" rx="3.4" ry="3.4"/>
			<ellipse class="st15" cx="310.6" cy="145.7" rx="3.4" ry="3.4"/>
			<path class="st15" d="M305.8,178.5c0,0.4-0.1,0.8-0.3,1.2c-0.2,0.4-0.5,0.7-0.8,1c-0.6,0.6-1.3,1.1-2.1,1.5
				c-1.5,0.8-3.3,1.2-5.1,1.1c-0.9,0-1.8-0.2-2.6-0.5c-0.9-0.3-1.7-0.8-2.3-1.4c-0.7-0.6-1.2-1.4-1.5-2.2c-0.3-0.8-0.4-1.6-0.4-2.5
				c0.5,0.7,0.9,1.3,1.4,1.9c0.5,0.5,1.1,1,1.6,1.3c1.2,0.7,2.5,1,3.9,1.1c1.4,0.1,2.8-0.1,4.3-0.5c0.7-0.2,1.4-0.4,2.1-0.7
				C304.7,179.5,305.4,179.2,305.8,178.5z"/>
		</g>
		<g>
			<path class="st17" d="M312.1,120.5c2.8-3.2,7.6-8.2,9.5-7.4c1.9,0.8,2.7,10.4,0.7,14.1C320.3,130.9,309.1,123.9,312.1,120.5z"/>
			<path class="st17" d="M276.4,123.9c-3.7-2.1-9.9-5.2-11.4-3.8c-1.5,1.4,0.9,10.8,4,13.6C272.1,136.4,280.3,126.1,276.4,123.9z"/>
		</g>
	</g>
</g>
<g>
	<g>
		<g>
			<path class="st17" d="M184.4,257.6c-6,1.1-9.8-22.1-28.3-25.1c-11-1.8-17.1-5.9-14.8-8.5c1.9-2.2,20.8,5.5,22.4,3.2
				c1.6-2.3-12.6-23.1-6.6-24s10.4,18.6,13.2,19.9c3,1.4,9.9-11.7,12.3-9.5c6.9,6.2-9.8,9.9-7.6,18.1
				C177.1,239.8,192.3,256.2,184.4,257.6z"/>
			<path class="st17" d="M199.2,256.5c6.1,0.5,7.8-22.9,26-27.5c10.8-2.7,16.5-7.3,14-9.8c-2.1-2-20.3,7.3-22.1,5.1
				c-1.8-2.2,10.6-24.1,4.5-24.5s-8.8,19.5-11.4,21c-2.9,1.7-10.9-10.8-13.1-8.4c-6.4,6.8,10.6,9,9.2,17.4
				C204.9,238.1,191.2,255.8,199.2,256.5z"/>
		</g>
		<path class="st18" d="M229.9,278.1c0-0.1-0.1-0.3-0.1-0.4c0,0,0,0,0,0l0,0c-1.5-5.4-4-10.4-7.2-14.6c3.3-5.2,2.8-20.9-1.3-22.9
			c-4.7-2.3-13,4.3-16.4,10.5c-3.8-1.2-7.9-1.7-12.1-1.4c-5.1,0.4-9.9,1.9-14.2,4.4c-4.7-5.4-16.4-9.7-20.4-5.6
			c-3,3.1,1.3,16.7,6,21.3c-3.1,6.3-4.6,13.6-4,21.2c1.4,19.8,16.3,35.2,34,36.2c0.2,0,0.5,0,0.8,0c0,0,0,0,0,0c0.9,0,1.8,0,2.7,0
			c17.2-0.2,29-2.9,36.6-18.4C242.2,292.3,234,294,229.9,278.1z"/>
		<g>
			<circle class="st13" cx="235.2" cy="294" r="8.4"/>
			<circle class="st15" cx="224.7" cy="276.2" r="2.1"/>
			<circle class="st15" cx="206.7" cy="283.2" r="3.1"/>
			<path class="st15" d="M222.7,306.7c-0.1,0.4-0.3,0.7-0.5,1c-0.2,0.3-0.6,0.5-0.9,0.8c-0.6,0.4-1.4,0.7-2.1,1
				c-1.5,0.4-3.1,0.5-4.6,0.1c-0.8-0.2-1.5-0.5-2.2-1c-0.7-0.4-1.3-1-1.7-1.7c-0.5-0.7-0.7-1.4-0.9-2.2c-0.1-0.8-0.1-1.5,0.1-2.3
				c0.3,0.7,0.6,1.3,0.9,1.9c0.3,0.6,0.7,1.1,1.2,1.5c0.9,0.8,2,1.3,3.2,1.7c1.2,0.3,2.5,0.4,3.8,0.3c0.7,0,1.3-0.1,2-0.3
				C221.5,307.4,222.2,307.3,222.7,306.7z"/>
		</g>
		<g>
			<path class="st17" d="M209.6,251.2c2.8-3.2,7.6-8.2,9.5-7.4c1.9,0.8,2.7,10.4,0.7,14.1C217.8,261.6,206.7,254.6,209.6,251.2z"/>
			<path class="st17" d="M173.9,254.6c-3.7-2.1-9.9-5.2-11.4-3.8s0.9,10.8,4,13.6C169.7,267.2,177.9,256.9,173.9,254.6z"/>
		</g>
	</g>
	<g>
		<path class="st13" d="M202.3,336.5c16,4.1,36.9,17.4,37.4-7.5c0.6-27.2-31.9-5.3-41.1-1.4c0,0-36.9-32.5-40.9-5.5
			c-3.4,23.2,23.6,15.6,35.6,13.8c-6.1,5.4-27.2,13.9-45.9,17.4c3.1,0.7,13.2,2.3,13.2,2.3s-2.7,5.8-5.9,11.6
			c24.9-1.7,36.6-20,43.1-26.6c3.9,4.5,21.7,18.2,36.1,18.8c-1.8-1.6-5.6-4.9-5.6-4.9s1.3-0.5,6.6-2.4
			C224,353.6,206.9,342.1,202.3,336.5z"/>
		<path class="st26" d="M206,331.1l0.1-1.6c0.2-2.8-1.9-5.3-4.7-5.6l-4.3-0.4c-2.8-0.2-5.3,1.9-5.6,4.7l-0.1,1.7
			c-11.1-3.4-29.1-10-29-2.9c0.1,6.7,18.7,6.6,28.7,6.3l-0.2,2.7c-0.2,2.8,1.9,5.3,4.7,5.6l4.3,0.4c2.8,0.2,5.3-1.9,5.6-4.7l0.2-2.6
			c9.9,1.9,27.8,5,29-1.6C236,326.1,217.5,329.6,206,331.1z"/>
	</g>
</g>
</svg>
