<?xml version="1.0" encoding="utf-8"?>
<!-- Generator: Adobe Illustrator 21.1.0, SVG Export Plug-In . SVG Version: 6.00 Build 0)  -->
<svg version="1.1" id="Calque_1" xmlns="http://www.w3.org/2000/svg" xmlns:xlink="http://www.w3.org/1999/xlink" x="0px" y="0px"
	 viewBox="0 0 432 432" style="enable-background:new 0 0 432 432;" xml:space="preserve">
<style type="text/css">
	.st0{fill:#591C00;}
	.st1{fill:#999999;}
	.st2{fill:#FCC062;}
	.st3{fill:#DA7D81;}
	.st4{fill:#C1272D;}
	.st5{fill:#1A1A1A;}
	.st6{fill:#736357;}
	.st7{fill:#8D819B;}
	.st8{fill:#BF7F99;}
	.st9{fill:#881B30;}
	.st10{fill:#A58B66;}
	.st11{fill:#781F00;}
	.st12{fill:#852A00;}
	.st13{fill:#AD8C52;}
	.st14{fill:#859660;}
	.st15{fill:#D3AB99;}
	.st16{fill:#A12E37;}
	.st17{fill:#8F8279;}
	.st18{fill:#758295;}
	.st19{fill:#60373C;}
	.st20{fill:#EFD333;}
	.st21{fill:#CE74B4;}
	.st22{fill:#313E2B;}
	.st23{fill:#5A1700;}
	.st24{fill:#BC79A7;}
	.st25{fill:#877F9A;}
	.st26{fill:#CC8FC1;}
	.st27{fill:#333333;}
	.st28{fill:#C3CD84;}
	.st29{fill:#7E97A5;}
	.st30{fill:#627C55;}
	.st31{fill:#B3B3B3;}
	.st32{fill:#AD3642;}
	.st33{fill:#2A7893;}
	.st34{fill:#669AB4;}
	.st35{fill:#AF689C;}
	.st36{fill:#6EA892;}
	.st37{fill:#663D2C;}
	.st38{fill:#BBBA2A;}
	.st39{fill:#A09830;}
	.st40{fill:#799D7D;}
	.st41{fill:#C69C6D;}
	.st42{fill:#BC79AD;}
	.st43{fill:#BC8A70;}
	.st44{fill:#ADADAD;}
	.st45{fill:#606981;}
	.st46{fill:#4D4D4D;}
	.st47{fill:#70BEB2;}
	.st48{fill:#11937F;}
	.st49{fill:#C78287;}
	.st50{fill:#944F54;}
	.st51{fill:#534741;}
	.st52{fill:#D6A354;}
	.st53{fill:#E7AC22;}
	.st54{fill:#89BBA2;}
	.st55{fill:#BF4D28;}
	.st56{fill:#88382D;}
	.st57{fill:#D86C62;}
	.st58{fill:#B57C53;}
	.st59{fill:#E6C34F;}
	.st60{fill:#A0392B;}
	.st61{fill:#FFFFFF;}
	.st62{fill:#AD7460;}
	.st63{fill:#939E9E;}
	.st64{fill:#2E4DA7;}
	.st65{fill:#39B54A;}
	.st66{fill:#D1417E;}
	.st67{fill:#FD8402;}
	.st68{fill:#727D6D;}
	.st69{fill:#BAAC91;}
	.st70{fill:#3F4650;}
	.st71{fill:#653F34;}
	.st72{fill:#3F3C35;}
	.st73{fill:#A84A5C;}
	.st74{fill:#3B5347;}
	.st75{fill:#854B16;}
	.st76{fill:#5B6F69;}
	.st77{fill:#767094;}
	.st78{fill:#08B19A;}
	.st79{fill:#AAB1A7;}
	.st80{fill:#4C5839;}
	.st81{fill:#6E2521;}
	.st82{fill:#ED6184;}
	.st83{fill:#A4B449;}
	.st84{fill:#EB7466;}
</style>
<g>
	<g>
		<path class="st10" d="M208.8,355.5c-1.3,0-2.4-0.1-3.6,0c-10,0.5-20.1,1-30.1,1c-4.8,0-9.7-0.1-14.5-0.3
			c-3.4-0.1-6.9-0.5-10.2-1.5c-0.9-0.3-1.9-0.6-2.7-1.1c-1.1-0.6-1.7-1.5-1.9-2.8c-0.1-1,0.1-1.8,0.6-2.7c0.5-0.8,1.2-1.5,1.9-2.1
			c1.7-1.4,3.6-2.1,5.7-2.7c1.9-0.5,3.7-0.8,5.7-0.9c4.2-0.3,8.3-0.5,12.5-0.7c3.5-0.1,7-0.2,10.5-0.3c5.8-0.2,11.5-0.4,17.3-0.3
			c2.4,0,4.7,0.1,7.1,0.2c0.3,0,0.6,0,1.1,0c0-0.4,0-0.8,0-1.1c0-1.1-0.1-2.2,0-3.2c0-1.1,0.2-2.1,0.3-3.1c0.2-1.4,1.2-2.3,2.5-2.8
			c1.8-0.6,3.7-0.8,5.6-1c3.9-0.3,7.8-0.5,11.8-0.7c2.6-0.1,5.1-0.2,7.7-0.2c5.9-0.1,11.8-0.2,17.7-0.2c2.4,0,4.9,0.2,7.3,0.6
			c0.3,0.1,0.6,0.1,1,0.2c1.5,0.4,2.5,1.3,3,2.8c0.5,1.4,0.6,2.9,0.5,4.3c-0.1,2.2-0.5,4.4-1,6.6c-0.7,3-1.5,6-2.7,8.9
			c-0.6,1.4-1.3,2.8-2.1,4.2c-2.9,4.6-6.9,7.7-12.2,9c-5.5,1.4-11,2-16.6,1.8c-5.4-0.2-10.7-0.5-16.1-0.7c-0.8,0-1.6-0.1-2.3-0.2
			c-1.1-0.2-2-0.8-2.6-1.8c-0.6-1-0.9-2.1-0.9-3.2c-0.1-1.8-0.1-3.5-0.2-5.3C208.8,355.7,208.8,355.6,208.8,355.5z"/>
		<g>
			<path class="st11" d="M289.3,170c0.2-0.8,0.4-1.5,0.7-2.1c0.4-1.3,1.1-2.5,1.9-3.5c1.3-1.6,2.9-2.8,5-3.1
				c1.8-0.3,3.2,0.3,4.3,1.7c1,1.3,1.3,2.8,1.4,4.4c0.1,2.9-0.5,5.8-1.6,8.4c-1.2,2.8-2.9,5.3-4.7,7.8c-1.1,1.5-2.7,2.2-4.5,2
				c-0.7-0.1-1.4-0.2-2.1-0.4c-1.5-0.4-2.8-1.2-4.1-2c-3.2-2-5.9-4.6-7.9-7.8c-0.9-1.4-1.6-3-1.9-4.7c-0.1-0.8-0.2-1.7,0-2.5
				c0.5-2.7,3-4.4,5.7-4.1c1.7,0.2,3.2,0.9,4.5,2c1.1,0.9,2,1.9,2.9,3.1C289,169.5,289.1,169.7,289.3,170z"/>
			<path class="st11" d="M160.3,153.2c-0.4-1.5-1.4-2.4-2.8-2.8c-1.7-0.4-3.4-0.1-4.9,0.8c-1,0.6-1.9,1.3-2.6,2.2
				c-0.4,0.4-0.8,0.9-1.2,1.5c-0.1-0.3-0.1-0.5-0.2-0.7c-0.3-1.2-0.7-2.3-1.2-3.4c-0.7-1.3-1.7-2.3-2.9-3c-2.1-1.2-4.5-0.7-5.8,1.3
				c-0.4,0.6-0.6,1.3-0.8,2c-0.3,1.4-0.3,2.9,0,4.3c0.5,3.2,1.8,6.1,3.6,8.7c0.8,1.1,1.6,2.1,2.6,2.9c0.5,0.4,1,0.7,1.6,1
				c1.4,0.7,2.8,0.7,4.2-0.1c2.2-1.3,4.4-2.8,6.2-4.6c1.8-1.7,3.2-3.8,4.1-6.1C160.4,155.8,160.7,154.5,160.3,153.2z"/>
			<path class="st11" d="M291.8,335.5c-0.4-1-1-1.9-1.9-2.5c-1.1-0.7-2.1-0.7-3.2-0.1c-1.3,0.7-2,1.8-2.5,3.2
				c-0.3,0.9-0.4,1.8-0.4,2.7c0,0.5,0.1,1,0.1,1.5c-0.2-0.1-0.4-0.2-0.5-0.3c-0.8-0.5-1.7-1-2.6-1.3c-1.1-0.4-2.2-0.4-3.4-0.2
				c-1.9,0.4-3,2.1-2.7,4c0.1,0.6,0.3,1.1,0.6,1.6c0.6,1,1.4,1.8,2.3,2.5c2.1,1.6,4.4,2.6,7,3.1c1,0.2,2.1,0.4,3.1,0.3
				c0.5,0,1-0.1,1.5-0.3c1.2-0.3,2.1-1.2,2.4-2.4c0.6-2,1-4,1.1-6.1C292.9,339.3,292.6,337.3,291.8,335.5z"/>
			<path class="st11" d="M104.3,266.3c0.5-0.4,1-0.7,1.4-1c1.4-0.9,2.9-1.5,4.5-1.8c4.8-0.8,8.7,3.3,7.7,8.1c-0.4,1.6-1.1,3-2.2,4.2
				c-1.1,1.3-2.3,2.4-3.7,3.3c-2.6,1.8-5.2,3.3-8.1,4.6c-0.7,0.3-1.5,0.6-2.3,0.7c-2,0.3-3.7-0.3-5.2-1.7c-1.4-1.3-2.6-2.8-3.5-4.4
				c-1.6-2.7-2.6-5.7-3.2-8.9c-0.3-1.9-0.6-3.9-0.7-5.8c-0.1-1.8,0.1-3.6,0.7-5.4c0.3-0.9,0.8-1.7,1.5-2.5c1.9-2.1,4.6-2.6,7.1-1.3
				c1.6,0.8,2.7,2.1,3.6,3.6c0.9,1.6,1.5,3.3,1.9,5.1C103.9,264.3,104.1,265.3,104.3,266.3z"/>
		</g>
	</g>
	<g>
		<path class="st11" d="M329.9,239.4c-0.4-0.8-1.2-1.3-2-1.4c-1.2-0.2-2.2,0.3-2.9,1.4c-0.8,1.3-1.7,2.8-2.5,4.2
			c-1.7,3-3.7,6-5.9,8.8c-1.1,1.4-2.2,2.4-3.5,3.2c-1.7,1.1-3.5,1.1-5.3,0.2c-1.2-0.6-2.3-1.6-3.3-2.9c-1.5-1.9-2.6-3.9-3.4-6
			c-3.2-8.1-4.7-16.3-4.4-24.6c0,0,0.1,0,0.1,0c0.4,0,0.8-0.1,1.2-0.1c0.8-0.1,1.6-0.2,2.4-0.3c3-0.5,5.8-1.6,8.3-3.2
			c7.1-4.6,9.3-13,5.6-20.4c-1.2-2.4-2.9-4.1-5.1-5.2c-1.9-1-3.7-1.3-5.6-1.1c-3,0.4-5.6,1.4-7.9,3c-2.7,1.9-4.7,4.5-6.2,6.5
			c-2.1,2.9-3.6,6.3-4.8,11.1c-0.2,0.8-0.4,1.6-0.5,2.4c0,0.2-0.1,0.4-0.1,0.6c-1.9-0.8-3.6-1.9-5-3.1c-0.8-0.7-1.6-1.5-2.4-2.2
			c-0.5-0.5-0.9-0.9-1.4-1.4c-0.6-0.5-1.1-1-1.7-1.4c-0.7-0.5-1.5-0.8-2.4-0.8c-1.2,0-2.1,0.5-2.5,1.5c-0.3,0.8-0.6,1.7-0.7,2.4
			c-0.4,2.1-0.8,4.3-1.2,6.5c-0.4,2.3-0.8,4.5-1.3,6.8c-0.4,1.9-0.8,3.9-1.2,5.8c-0.4,1.9-0.8,3.9-1.2,5.8l-0.6,2.9
			c-0.8,4.2-1.7,8.6-2.6,12.8c-0.6,2.6-1.4,5.9-2.6,9.1c-1.4-4.2-2.6-8.9-3.7-14.4c-0.4-2.2-0.8-4.4-1.2-6.6
			c-0.4-2.3-0.9-4.6-1.3-6.9c-0.8-4-1.6-7.3-2.6-10.4c-0.5-1.8-1.3-3.8-2.5-5.8c-0.8-1.3-1.7-2.3-2.8-3c-1.2-0.8-2.4-1.2-3.6-1.1
			c-1,0.1-1.9,0.5-2.5,0.9c-0.9,0.5-1.9,1.1-2.8,1.6c-0.2-2-0.7-4-1.5-6.2c-2-5.6-5.9-9.2-11.6-10.6c-3.2-0.8-6.5-0.8-10-0.1
			c-3.8,0.8-7,2-9.6,3.9c-3.5,2.5-6.3,5.5-8.3,9.2c-0.1-0.3-0.3-0.5-0.4-0.8c-0.7-1.1-1.3-2.2-1.9-3.3c-2.8-4.3-6.6-7.6-11.4-9.7
			c-4.5-1.9-9-2-13.5-0.1c-4.3,1.8-7.6,5-9.8,9.7c-1.6,3.5-2.3,7.3-2,11.8c0.2,3.3,0.9,6.7,2.1,10.1c1.6,4.7,3.8,9.2,6.3,13.5
			l0.3,0.5c0,0,0,0.1,0,0.1c-0.4,0.7-0.8,1.4-1.3,2.1c-1,1.6-1.9,3.3-3,4.8c-1.8,2.7-4,5.2-6.5,7.2c-1.3,1-2.5,1.8-3.8,2.3
			c-3.3,1.4-6.3,0.9-8.9-1.4c-0.5-0.5-1.1-1-1.7-1.8c-1.2-1.4-2.2-3-3.1-5c-2.1-4.3-3.3-9-4.4-13.2c0-0.1,0-0.1,0.1-0.3
			c0.5-0.8,1-1.6,1.5-2.4c5-8.1,8.3-17.2,10.2-27.8c0.5-2.9,0.9-5.9,1-8.7c0.2-2.9,0.1-5.3-0.3-7.5c-0.4-2.3-1.2-4.1-2.4-5.7
			c-2-2.6-4.7-3.6-7.9-3c-1.8,0.3-3.5,1.1-5.2,2.4c-1.6,1.2-3,2.8-4.5,4.9c-2.1,3-3.7,6.5-4.8,10.7c-1.6,5.6-2.5,11.6-2.8,18.4
			c-0.1,2.4-0.2,5-0.1,7.6c0,0.8,0.1,1.6,0.1,2.3c0.1,1.3,0.1,2.6,0.2,3.9c0.3,3.8,1.1,7.7,2.4,12.3c0,0,0,0.1,0,0.1
			c-2.3,1.6-4.7,2.8-7.1,3.7l-0.4,0.1c-0.4,0.1-0.8,0.3-1.2,0.4c-0.3,0.1-0.6,0.3-0.8,0.5c-0.5,0.4-0.7,0.9-0.6,1.4
			c0.1,0.5,0.5,1,1,1.1c0.5,0.2,0.9,0.2,1.3,0.1c0.5,0,1.1-0.1,1.6-0.3c2.3-0.6,4.5-1.7,7.3-3.4l0.1-0.1l0,0.1
			c0.2,0.5,0.4,1,0.6,1.4c1.7,4.3,3.6,7.6,6,10.4c2.5,3,5.1,5,7.9,6.4c4.4,2,8.9,2.2,13.2,0.6c3.3-1.2,6.2-3.2,8.6-5.9
			c4-4.3,7.4-9.3,10.1-14.8c2.8,4.1,5.5,7.7,8.3,10.9c3.4,3.9,7,7.9,10.9,12.1c1.2,1.2,2.4,2.4,3.7,3.5l1,0.9
			c0.8,0.7,1.7,1.3,2.7,1.7c0.7,0.3,1.4,0.4,2,0.4c1,0,1.9-0.3,2.7-0.9c0.8-0.5,1.5-1.1,2.2-1.7c3.3-2.9,6.2-6.3,8.9-9.4
			c4.7-5.5,9.5-11.7,15.3-19.6c2.6-3.5,4.6-6.8,6.2-10c2.2-4.4,3.5-7.9,4.2-11.5c0.2-0.9,0.3-1.8,0.5-2.7l0.2-1l1.9-0.9l0.2,1.8
			c0.1,1.5,0.3,3,0.5,4.4l0.1,1c0.3,2.7,0.7,5.5,1.1,8.2c0.4,2.6,0.8,5.1,1.3,7.6c0.2,1.3,0.4,2.5,0.7,3.8c1,6.2,2.8,12.7,5.3,19.9
			c0.7,1.9,1.5,3.6,2.6,5c1.2,1.7,2.8,2.9,4.7,3.5c2.7,0.9,5.2,0.1,6.8-2.1c1-1.3,1.7-2.9,2.5-4.9c1.4-3.7,2.3-7.5,3.3-11.6
			c1.7-7.4,3-14.8,4-20.5c0.8-4.8,1.6-9.6,2.3-14.3l1-6.5c1.6,1.5,3.1,2.9,4.9,3.9c1.7,1,3.7,1.9,6.2,2.7c0,0.1,0,0.3,0,0.4
			c-0.2,3.6-0.1,7.3,0.2,11.1c0.4,4.5,1.2,9,2.5,13.3c1.3,4.5,3.2,8.4,5.5,11.9c2.9,4.4,6.9,7.1,11.8,8c2.7,0.5,4.8,0.5,6.8-0.1
			c1.8-0.5,3.5-1.4,5.6-2.7c1.2-0.7,2.7-1.8,3.8-3.2c0.8-0.9,1.7-2.1,2.7-3.4c3.1-4.3,5.7-8.9,7.9-13.8
			C330.3,241,330.3,240.1,329.9,239.4z M296.9,217.8l0-0.2c0.1-0.5,0.1-1,0.2-1.5c0.5-4,1.3-7.5,2.2-10.7c0.5-1.5,1.1-3,1.9-4.2
			c0.5-0.8,1.1-1.5,1.8-2.1c0.9-0.7,1.9-1.1,3.1-1.2c0,0,0.1,0,0.1,0c0.2,0,0.4,0,0.7,0.1c1.1,0.4,2,1.2,2.8,2.4
			c2.5,3.8,2.3,8.6-0.7,12.2c-1.7,2-3.8,3.4-6.6,4.3C300.8,217.4,299,217.7,296.9,217.8z M134.9,187.7c0.3,0,0.5,0.1,0.8,0.2
			c0.5,0.3,1,0.8,1.4,1.5c0.6,1,1,2.2,1.4,3.8c0.5,2.5,0.5,4.9,0.4,7.1c-0.1,4.1-0.9,8.4-2.4,13.3c-1.8,6-3.9,11.3-6.6,16.3
			c-0.4,0.7-0.8,1.4-1.2,2l-0.1,0.3c-0.1-0.4-0.2-0.8-0.2-1.2c-0.8-4.9-1.2-9-1.4-12.8c-0.4-8.2,0.5-15.9,2.6-23.1
			c0.5-1.7,1-3.2,1.9-4.5c0.5-0.8,1.2-1.6,2-2.2c0.2-0.2,0.5-0.3,0.7-0.5C134.4,187.8,134.6,187.7,134.9,187.7z"/>
		<g>
			<path class="st10" d="M118.4,113.4c-0.4,0-0.8,0-1.2,0c-3.7,0.2-7.5,0.3-11.2,0c-1.4-0.1-2.8-0.3-4.2-0.8c-0.7-0.3-1.4-0.6-2.1-1
				c-0.8-0.4-1.3-1.1-1.7-1.9c-1.1-2.3-1.5-4.6-0.9-7.1c0.5-2.1,1.8-3.6,3.8-4.5c1.3-0.6,2.8-1,4.2-1.3c3.5-0.7,7-1,10.5-1.3
				c0.8-0.1,1.7-0.2,2.6-0.2c0-0.3,0-0.5,0-0.7c0-3.5,0-7.1,0-10.6c0.1-3,0.2-5.9,0.7-8.9c0.5-3.1,2.3-5.1,5.1-6.3
				c1.6-0.7,3.2-1,4.9-1.2c4.5-0.7,9-1.1,13.5-1.3c4.6-0.2,9.2-0.5,13.8-0.7c4.6-0.2,9.2-0.4,13.8-0.5c4.3-0.1,8.5-0.2,12.8-0.2
				c23.5,0,47.1-0.1,70.6-0.1c5.9,0,11.7,0.1,17.6,0.3c4.5,0.1,9,0.4,13.5,0.6c4.4,0.2,8.7,0.4,13.1,0.4c3.5,0,7,0.1,10.4,0.5
				c2,0.2,4,0.6,5.8,1.4c2.4,1,4.1,2.8,5,5.3c0.6,1.7,0.9,3.6,1.1,5.4c0.5,4.6,0.2,9.3,0.4,13.9c0,0.5,0,1,0,1.6
				c1.1,0,2.1,0.1,3,0.1c4.1,0.2,8.2,0.6,12.1,1.9c1.9,0.7,3.7,1.6,5.2,3c1.2,1.2,2.1,2.6,2.4,4.3c0.3,2.1-0.3,3.9-2,5.3
				c-1.2,1-2.7,1.5-4.2,1.8c-3.2,0.7-6.4,1-9.7,1.3c-2.2,0.2-4.4,0.3-6.7,0.4c0,0.3,0,0.5,0,0.8c0,3.2,0.1,6.4,0.1,9.6
				c0,2-0.1,4-0.3,5.9c-0.1,1.7-0.5,3.4-1.2,5c-1.3,3.1-3.5,4.9-6.8,5.7c-1.9,0.5-3.9,0.7-5.8,0.7c-3.6,0.1-7.2,0.1-10.7,0.2
				c-1.3,0-2.6,0.1-3.8,0.2c-1.7,0.1-3.3,0.2-5,0.2c-9,0.1-18,0.2-27,0.3c-8.3,0-16.5,0-24.8-0.1c-14.3-0.1-28.6-0.2-42.9-0.3
				c-7.2-0.1-14.3-0.1-21.5-0.2c-7.7-0.1-15.3-0.3-22.9-0.5c-4.1-0.1-8.1-0.3-12.2-0.5c-3.3-0.2-6.6-0.5-9.9-1.3
				c-0.6-0.1-1.2-0.4-1.8-0.6c-1.9-0.8-3.2-2.2-3.7-4.3c-0.4-1.8-0.8-3.6-0.9-5.4c-0.3-3.5-0.5-7-0.7-10.5c-0.1-1.1-0.1-2.3-0.2-3.4
				C118.5,113.7,118.4,113.6,118.4,113.4z M306.9,115.5c0.1-0.3,0.1-0.5,0.1-0.6c0.6-2.4,1.3-4.7,1.9-7.1c1.3-5.1,2.5-10.3,2.7-15.6
				c0.1-1.8,0-3.6-0.4-5.3c-0.2-0.8-0.5-1.5-1.1-2.1c-1.2-1.2-2.9-1-3.7,0.4c-0.3,0.5-0.6,1-0.8,1.6c-2.5,5.8-5.8,11.1-9.3,16.4
				c-0.9,1.4-2,2.6-3.4,3.5c-1.9,1.2-3.2,0.9-4.3-1.1c-0.6-1.1-0.9-2.2-1.2-3.4c-0.7-3.7-0.9-7.5-0.6-11.3c0.1-1.7,0.4-3.3,0.9-4.9
				c0.3-1.1,0.9-2,1.8-2.7c0.9-0.7,1.8-0.8,2.7-0.2c1.3,0.8,2.4,1.8,3.3,3c1,1.5,1.7,3.1,2.2,4.8c0.2,0.8,0.5,1.5,0.7,2.3
				c0.1,0.2,0.1,0.4,0.2,0.6c0.1,0.3,0.4,0.5,0.8,0.5c0.4,0,0.7-0.3,0.8-0.6c0.1-0.3,0.1-0.7,0.1-1c-0.1-3.1-0.9-5.9-2.4-8.6
				c-0.9-1.7-2.2-3.1-3.6-4.2c-2.7-2.1-5.9-2.1-8.6,0.1c-1.1,0.9-1.9,1.9-2.7,3.1c-1.5,2.4-2.4,5.1-2.8,7.9
				c-0.6,4.2-0.4,8.3,0.4,12.5c0.1,0.4,0,0.7-0.1,1.1c-1,2.4-2,4.9-3,7.3c-1.7,4.1-3.4,8.2-5.6,12.2c-0.5,0.8-1,1.6-1.5,2.4
				c-0.1,0.2-0.3,0.3-0.5,0.5c-0.1-0.2-0.2-0.3-0.2-0.4c-0.6-1.2-0.7-2.4-0.7-3.7c0-3.1,0-6.2,0.2-9.3c0.2-3.5,0.6-7.1,0.9-10.6
				c0.4-4.2,0.8-8.3,1.1-12.5c0.2-2.3,0.2-4.5-0.2-6.8c-0.4-2.4-1.3-4.6-3.1-6.3c-2.5-2.4-5.4-2.9-8.5-1.4c-2.2,1.1-4,2.7-5.3,4.8
				c-1.2,1.9-2.1,3.9-2.9,6c-1.8,5.1-3.1,10.3-4.1,15.6c0,0.2-0.1,0.4-0.2,0.7c-0.2-1.9-0.3-3.7-0.4-5.6c-0.1-1.9-0.4-3.8-0.8-5.6
				c-0.2-0.9-0.5-1.8-1-2.5c-1.1-1.6-2.9-1.6-4,0c-0.4,0.6-0.7,1.2-0.8,1.9c-0.8,2.8-1,5.6-0.9,8.5c0.1,2.7,0.3,5.5,0.4,8.2
				c0.1,1,0,2-0.3,2.9c-0.3,0.9-0.5,1.8-0.7,2.6c-0.8,3.8-1.8,7.5-3.2,11.1c-0.1,0.4-0.3,0.8-0.5,1.2c-0.1,0-0.1,0-0.2,0
				c-0.2-1-0.5-1.9-0.6-2.9c-0.9-5-1.3-10-1.8-15.1c-0.3-2.6-0.5-5.3-0.8-7.9c-0.2-1.3-0.6-2.5-1-3.7c-0.2-0.7-0.6-1.4-1.2-1.9
				c-1.1-1-2.6-0.9-3.5,0.4c-0.4,0.5-0.6,1.2-0.9,1.8c-0.6,1.7-0.7,3.5-0.8,5.3c-0.2,2.8-0.1,5.5-0.1,8.3c0,1.5,0.1,3-0.1,4.4
				c-0.4,3.6-1,7.3-1.5,10.9c-0.3,1.9-0.8,3.8-1.3,5.7c-0.1,0.4-0.3,0.7-0.5,1.2c-0.2-0.5-0.5-0.9-0.6-1.3c-0.4-1.4-0.9-2.8-1.3-4.2
				c-0.7-3.1-1.4-6.3-2.1-9.5c-0.6-2.5-1.3-5-2.4-7.3c-0.9-1.9-2.2-3.6-4-4.8c0,0,0-0.1,0-0.2c0.9-0.5,1.8-0.9,2.7-1.5
				c5.1-3.1,7.4-7.6,7.1-13.5c-0.1-2.1-0.7-4-1.9-5.7c-1.4-2-3.3-2.8-5.6-2.4c-1,0.1-1.9,0.5-2.7,1.1c-1,0.7-1.9,1.5-2.6,2.5
				c-1.4,1.8-2.5,3.8-3.3,5.9c-0.1,0.3-0.2,0.5-0.4,0.9c-0.1-0.5-0.1-0.8-0.1-1.1c-0.1-1.9-0.2-3.8-0.3-5.7
				c-0.2-2.2-0.3-4.5-0.5-6.7c-0.1-1.3-0.4-2.6-1.1-3.8c-1.2-2.1-3.2-2.1-4.5-0.1c-0.6,1-1,2.1-1.2,3.2c-0.5,2.5-0.6,5.1-0.6,7.7
				c-0.1,5.4,0,10.7,0.4,16c0.3,3.7,0.7,7.3,1.1,10.9c0.2,1.4,0.2,2.7-0.2,4c-0.2,0.6-0.3,1.3-0.5,1.9c-0.6,2.1-1.3,4.2-1.9,6.3
				c-0.1,0.4-0.4,0.8-0.6,1.3c-0.1-0.3-0.2-0.3-0.2-0.4c-1.2-3.3-1.7-6.8-2-10.4c-0.4-4-0.6-8.1-0.9-12.2c-0.2-2.1-0.4-4.2-0.6-6.2
				c-0.2-1.3-0.5-2.6-1.3-3.7c-1.1-1.5-3-1.6-4.1,0c-0.4,0.6-0.7,1.4-1,2.2c-0.5,1.6-0.5,3.3-0.5,5c0,0.2,0,0.4,0,0.7
				c-0.2-0.3-0.4-0.5-0.5-0.6c-1.4-1.7-3.1-3.1-5.2-3.9c-1.3-0.5-2.6-0.8-3.9-0.7c-2.9,0.3-5.1,1.6-6.6,4.1c-0.5,0.9-1,1.9-1.3,2.9
				c-0.8,2.4-1.2,5-1.3,7.6c-0.2,3.9,0.3,7.8,1.7,11.5c0.8,2.1,1.8,4.1,3.2,5.9c1.1,1.4,2.5,2.5,4.2,3.2c0.9,0.3,1.7,0.5,2.7,0.4
				c1.7-0.2,2.9-1,3.8-2.4c0.7-1,1.3-2.2,1.8-3.3c1.4-2.9,2.2-6.1,2.9-9.2c0-0.2,0.1-0.3,0.2-0.6c0.1,0.5,0.2,0.9,0.3,1.3
				c0.6,2.7,1.3,5.3,2.4,7.8c0.7,1.6,1.8,3,3.3,3.9c1.9,1.2,4,0.6,4.9-1.5c0.3-0.7,0.6-1.4,0.8-2.2c0.5-1.8,1-3.7,1.4-5.5
				c0-0.1,0.1-0.2,0.2-0.4c0.1,0.2,0.1,0.3,0.1,0.3c0.6,2.6,1.2,5.1,1.8,7.7c0.3,1.3,0.8,2.5,1.5,3.6c0.6,0.9,1.3,1.7,2.3,2.2
				c2.3,1.2,4.2,0.3,4.8-2.2c0.3-1.2,0.3-2.4,0.1-3.6c-0.5-3.2-1-6.3-1.5-9.5c-0.5-3.3-1-6.6-1.5-9.8c0-0.3,0-0.6-0.1-0.9
				c1.4,0,2.2,0.7,2.7,1.8c0.6,1.5,1.1,3.1,1.5,4.6c0.7,2.9,1.3,5.9,1.9,8.8c0.7,3.1,1.6,6.1,2.9,9.1c0.6,1.3,1.2,2.5,2.3,3.5
				c0.6,0.5,1.2,1,1.9,1.3c1.4,0.7,2.8,0.3,3.6-1c0.3-0.5,0.6-1.1,0.8-1.6c0.7-1.7,1-3.4,1.3-5.2c0.4-2.5,0.7-5.1,1-7.6
				c0.1-0.9,0.2-1.8,0.4-2.7c0.2,0.4,0.3,0.9,0.4,1.3c0.5,2.2,1.1,4.4,2.1,6.5c0.7,1.4,1.5,2.6,2.7,3.5c0.6,0.4,1.2,0.7,1.9,0.8
				c1.4,0.2,2.5-0.3,3.2-1.5c0.7-1.2,1.2-2.5,1.5-3.8c1-4.1,2-8.1,3.1-12.2c0.1-0.2,0.1-0.5,0.2-0.7c0.2,0.4,0.2,0.7,0.3,1.1
				c0.4,2.2,0.8,4.5,1.4,6.7c0.3,1,0.7,1.9,1.3,2.7c0.4,0.5,0.9,0.9,1.5,1.2c1.4,0.5,2.7,0,3.3-1.4c0.1-0.3,0.2-0.7,0.3-1
				c0.3-2.5,0.5-5.1,0.8-7.6c0.4-4,0.8-8.1,1.3-12.1c0.5-3.6,1.3-7.2,2.4-10.6c0.7-2.3,1.6-4.5,2.8-6.5c0.7-1.1,1.5-2.1,2.5-2.9
				c0.7-0.5,1.5-0.9,2.3-1c0.9-0.1,1.6,0.1,2.1,1c0.5,0.8,0.8,1.7,0.9,2.6c0.4,2.7,0.3,5.3,0.1,8c-0.2,3.3-0.5,6.6-0.7,9.9
				c-0.2,3.1-0.4,6.2-0.5,9.4c-0.2,3.4-0.2,6.7,0.2,10.1c0.2,1.6,0.5,3.2,1.1,4.8c0.6,1.6,1.7,2.8,3.2,3.7c1.5,0.9,3,0.7,4.2-0.6
				c0.4-0.5,0.8-1,1.1-1.5c1-1.9,2.1-3.7,3-5.7c2.1-4.7,4.2-9.4,6.3-14.1c0.1-0.2,0.2-0.5,0.4-0.8c0.2,0.4,0.3,0.6,0.4,0.9
				c0.5,1.1,1.2,2.2,2.1,3.1c1,1,2.2,1.7,3.6,1.8c2.3,0.3,4.3-0.4,5.9-2c1.3-1.2,2.3-2.6,3.2-4.1c2.4-3.8,4.5-7.6,6.4-11.7
				c0.1-0.3,0.3-0.5,0.4-0.7c-1.4,7.6-3.2,15-5.8,22.3c-0.4,0-0.7,0-1,0c-1.6,0.2-3.2,0.2-4.8,0.5c-3,0.5-5.6,1.9-7.6,4.2
				c-2.6,3-3.5,7-1.4,11.1c0.9,1.8,2.2,3.2,4.1,4c1.6,0.8,3.3,0.9,5.1,0.3c2.2-0.7,3.9-2,5.5-3.6c1.6-1.7,2.8-3.6,3.9-5.6
				c1.4-2.6,2.5-5.3,3.4-8c0.2-0.6,0.5-1,1.1-1.2c1-0.3,2-0.7,2.9-1.2c4.1-1.9,6.6-5.2,8-9.4c0.3-0.9,0.3-1.8,0.5-2.8
				c0-0.2,0-0.4,0-0.6c-0.1-0.5-0.4-0.9-0.8-1c-0.5-0.1-0.9,0.1-1.1,0.5c-0.3,0.5-0.5,1-0.6,1.6c-0.6,1.8-1.3,3.5-2.4,5.1
				C311.5,113.1,309.4,114.4,306.9,115.5z M135.6,126.9c-0.1,0-0.2,0-0.2,0c-0.2-0.1-0.4-0.2-0.6-0.3c-1.6-1-2.9-2.2-4.1-3.7
				c-0.3-0.4-0.7-0.8-1.1-1c-0.7-0.4-1.5,0.1-1.5,0.9c0,0.4,0.1,0.9,0.3,1.2c1,1.9,2.4,3.6,4.2,4.9c3.8,2.9,8.1,4.5,12.9,4.9
				c3.1,0.2,6.1-0.4,8.7-2.2c3.6-2.4,5.6-5.7,5.9-10c0.2-2.7-0.3-5.4-1.3-7.9c-2.1-5.2-5.6-9.2-10.7-11.6c-0.1-0.1-0.3-0.1-0.5-0.3
				c0.3-0.2,0.5-0.3,0.7-0.5c2.7-1.8,5.3-3.7,7.6-5.9c3-3,5.1-6.6,5.5-11c0.4-4.3-1.1-7.9-4.6-10.6c-0.7-0.5-1.5-0.9-2.3-1.2
				c-2.2-0.7-4.4-0.4-6.4,0.7c-1.9,1-3.4,2.5-4.6,4.2c-2.4,3.3-3.9,7-4.7,11c0,0.2-0.1,0.4-0.2,0.7c-0.2-0.3-0.2-0.6-0.3-0.9
				c-0.4-1.3-0.7-2.5-1.1-3.8c-0.4-1.2-1.1-2.3-1.9-3.2c-1.3-1.4-3-2.1-4.9-1.7c-1.6,0.3-2.9,1.1-3.9,2.4c-0.3,0.4-0.5,0.8-0.7,1.3
				c-0.1,0.3-0.1,0.6,0.2,0.9c0.3,0.2,0.6,0.1,0.9-0.1c0.3-0.2,0.6-0.5,1-0.7c1-0.6,1.5-0.5,2,0.5c0.2,0.3,0.4,0.7,0.5,1.1
				c0.2,0.7,0.5,1.4,0.6,2.1c0.6,2.9,1.1,5.8,1.6,8.8c0.1,0.6,0,1.2,0,1.7c-1.6,0.1-3.2,0.1-4.7,0.2c-1.9,0.2-3.8,0.8-5.5,1.7
				c-1,0.6-1.8,1.4-2.3,2.4c-0.6,1.2-0.5,2.3,0.3,3.3c0.9,1.3,2.2,2.1,3.7,2.3c2.3,0.3,4.5,0.2,6.8-0.1c0.9-0.1,1.9-0.3,2.9-0.4
				C134.8,113.6,135,120.3,135.6,126.9z M232,86.9c0-1.9-0.6-3.5-1.6-4.6c-0.4-0.4-0.9-0.8-1.5-1.1c-2.1-1-4.6,0-5.4,2.3
				c-0.8,2.1,0,4.9,1.8,6.2c1.4,1,2.8,1.2,4.4,0.5C231.2,89.4,232,88.1,232,86.9z"/>
			<path class="st10" d="M176.7,126.6c-0.5-0.5-1-1-1.4-1.6c-0.6-0.9-1.1-1.8-1.5-2.8c-2.2-5-2.9-10.3-2.4-15.7
				c0.1-1.3,0.4-2.6,0.7-3.9c0.2-0.7,0.5-1.3,0.9-1.8c0.4-0.6,1-0.8,1.7-0.9c2.6-0.2,4.6,0.7,6.1,2.9c0.9,1.4,1.5,2.9,1.9,4.5
				c0.1,0.4,0.1,0.8,0.1,1.1c-0.9,4.8-2,9.6-3.6,14.3c-0.3,1-0.8,1.9-1.2,2.9C177.8,125.9,177.4,126.3,176.7,126.6z"/>
			<path class="st10" d="M204.8,103c0.1-1.2,0.1-2.3,0.2-3.4c0.4-3.3,1.2-6.5,2.6-9.5c0.5-1.1,1-2.1,1.8-3c0.4-0.5,0.9-0.9,1.5-1.2
				c0.7-0.4,1.4-0.3,2,0.4c0.6,0.7,0.8,1.6,0.9,2.4c0.2,2.5-0.1,4.9-1.1,7.2c-0.7,1.7-1.9,3.1-3.3,4.2c-1.3,1-2.7,1.8-4.1,2.7
				C205.2,102.9,205.1,102.9,204.8,103z"/>
			<path class="st10" d="M297.2,120.1c-0.1,0.3-0.1,0.5-0.2,0.6c-0.9,2-1.8,4.1-2.9,6.1c-0.7,1.5-1.8,2.8-3.1,3.9
				c-0.8,0.7-1.7,1.1-2.8,1c-0.8-0.1-1.5-0.4-1.9-1.2c-1-2-0.9-4,0.3-5.9c0.9-1.4,2.2-2.4,3.7-3.1c1.7-0.7,3.4-1,5.2-1.3
				C296,120.2,296.5,120.2,297.2,120.1z"/>
			<path class="st10" d="M140.1,98.3c-0.1-0.7-0.2-1.2-0.2-1.8c0.1-4.3,0.8-8.5,2.6-12.4c0.7-1.6,1.6-3.2,2.6-4.7
				c0.9-1.3,1.9-2.4,3.2-3.2c0.5-0.3,1.1-0.6,1.7-0.8c2.9-1,4.8,1.2,5.1,3.3c0.3,2,0,4-0.8,5.9c-2.1,4.8-5.3,8.6-9.7,11.4
				C143.2,96.9,141.8,97.8,140.1,98.3z"/>
			<path class="st10" d="M144.6,128.6c-1.6-7.5-2.3-15-2.9-22.7c0.3,0.1,0.6,0.2,0.8,0.3c2.6,1.2,4.8,3,6.7,5.1
				c1.8,1.8,3.3,3.8,4.2,6.2c0.6,1.4,0.8,2.7,0.7,4.2c-0.1,1.5-0.6,2.8-1.7,3.9c-0.7,0.6-1.4,1.2-2.2,1.7c-1.6,0.9-3.4,1.3-5.2,1.4
				C144.9,128.7,144.7,128.7,144.6,128.6z"/>
			<path class="st10" d="M133.1,100.3c0.1,0.9,0.2,1.9,0.3,2.8c-0.5,0.2-1,0.3-1.5,0.5c-2.3,0.7-4.6,1.2-7,1.4
				c-0.9,0.1-1.8,0-2.5-0.7c-0.8-0.7-0.9-1.4-0.2-2.2c0.4-0.5,1-0.9,1.5-1.2c1.2-0.6,2.4-0.9,3.8-1
				C129.4,99.9,131.2,100,133.1,100.3z"/>
		</g>
		<g>
			<g>
				<g>
					<path class="st5" d="M177.2,186.5c0.3,0.8,0.1,1.4-0.7,1.6c-0.4,0.1-0.8,0.2-1.2,0.2c-1.2,0-2.5,0.1-3.7,0
						c-0.3,0-0.5,0-0.7-0.2c-0.4-0.3-0.5-0.8-0.2-1.3c0.3-0.4,0.6-0.8,1-1.1c0.3-0.3,0.4-0.7,0.4-1.2c-0.1-2.6-0.2-5.2-0.3-7.8
						c-0.1-3-0.2-6-0.2-9c-0.1-3.4-0.1-6.8,0-10.2c0-0.9,0.1-1.8,0.1-2.6c0-0.4,0-0.8-0.3-1.2c-0.3-0.5-0.5-0.9-0.8-1.4
						c-1.4-2.5,2.3-1.9,3.4-1.9c1.2,0,4.3-0.3,3,1.7c-0.4,0.7-0.8,1.3-1.1,2.1c-0.1,0.3-0.2,0.6-0.1,1c0.5,6.2,0.4,28,0.4,28.9
						c0,0.6,0,1,0.4,1.5C176.8,185.9,177,186.2,177.2,186.5z"/>
					<path class="st5" d="M182.7,183.2c-0.5-1.4-0.6-2.1-1.3-2.3c-0.6-0.2-1.1-0.6-1.1-1.2c0.1-0.8,0.7-1.3,1.9-1.2
						c1.6,0.2,4.3,0.2,3.1,2c-0.6,0.9-1,1.1-0.4,2.2c0.6,1.2,1.5,2.2,2.6,2.8c8.5,4.5,13.7-10.4,6.9-14c-3.8-2-6.3-2.7-8.4-5
						c-2-2.2-2.7-4.9-2.3-7.9c0.5-3.8,2.4-6.6,5.4-8.5c3.2-2.1,7.1-1.2,9,3.7c0.4,1.1,1.4,1.3,1.6,1.9c0.8,1.8-2.8,1.8-3.9,1.7
						c-1-0.1-1.4-1.4-0.6-2c0.5-0.5,1-0.6,0.6-1.3c-0.9-1.8-3.6-3.3-5.8-1.2c-9,8.7,5.1,14.3,7.5,16.4
						C212.2,182.2,187.1,196.4,182.7,183.2z"/>
				</g>
				<g>
					<path class="st5" d="M233.4,166.4c2-4.6,3.6-9.1,5.1-13.7c-0.1-0.1-0.4-0.1-0.6-0.1c-0.4-0.1-0.7-0.3-0.7-0.7
						c0-0.4,0.2-0.9,0.6-1.1c0.2-0.1,0.4-0.1,0.7-0.1c0.6,0,1.2,0,1.8,0.1c1,0.1,2,0,2.9,0c0.2,0,0.5-0.1,0.7,0
						c0.4,0,0.7,0.3,0.8,0.7c0.1,0.4,0,0.7-0.3,1c-0.1,0.1-0.3,0.2-0.4,0.3c-0.9,0.5-1.4,1.2-2,2c-0.6,0.8-0.8,1.7-0.8,2.8
						c0,3-0.1,6-0.1,9c-0.1,2.6,0.1,5.2,0.2,7.7c0.1,3.2,0.1,6.5,0,9.7c0,0.6,0.1,1,0.7,1.2c0.3,0.1,0.5,0.3,0.7,0.5
						c0.3,0.3,0.5,0.6,0.4,1.1c-0.1,0.5-0.4,0.7-0.9,0.8c-0.5,0.1-1.1,0.1-1.6,0.2c-1,0.1-2,0.2-3,0.3c-0.3,0-0.6,0-0.8-0.1
						c-0.8-0.3-0.9-1.1-0.3-1.6c0.4-0.3,0.8-0.7,1.2-1c0.5-0.4,0.6-0.9,0.6-1.5c-0.1-4.9-0.1-9.8-0.1-14.7c0-3.6,0.1-7.1,0.1-10.7
						c0-0.3,0-0.7,0.1-1c-0.1,0-0.2,0.1-0.2,0.1c-0.9,2.9-2.2,5.6-3.3,8.4c-0.3,0.7-0.5,1.5-0.7,2.3c-0.1,0.5-0.4,0.9-0.9,1
						c-0.5,0.1-0.9-0.2-1.3-0.6c-0.9-1.1-1.6-2.3-2.3-3.5c-1.2-2-2.4-3.9-3.5-6c-0.1-0.1-0.1-0.2-0.2-0.3c-0.2,0-0.1,0.2-0.1,0.2
						c0.2,2.4,0.1,4.7,0.2,7.1c0.1,3.7,0.2,7.4,0.3,11.1c0,2.4,0,4.8-0.3,7.3c-0.1,0.7,0,0.9,0.6,1.2c0.4,0.2,0.7,0.4,1,0.7
						c0.6,0.6,0.4,1.4-0.4,1.7c-0.5,0.2-1,0.2-1.4,0.2c-1.6,0.2-3.2,0.4-4.8,0.2c-0.2,0-0.5,0-0.7-0.1c-0.8-0.3-1-1-0.4-1.6
						c0.5-0.5,1.1-1,1.4-1.8c0.2-0.4,0.3-0.8,0.3-1.3c0-1.3,0-2.6,0-3.9c0-8.1,0.2-16.3,0.3-24.4c0-1-0.3-1.6-1.1-2.1
						c-0.3-0.2-0.6-0.4-0.9-0.5c-0.5-0.3-0.7-0.7-0.7-1.1c0.1-0.5,0.4-0.8,0.9-0.9c1.6-0.3,3.2-0.5,4.7-0.2c0.4,0.1,0.6,0.3,0.7,0.6
						c1.2,2.4,2.6,4.7,3.7,7.2c0.8,1.8,1.9,3.6,2.8,5.3C232.4,164.6,232.9,165.4,233.4,166.4z"/>
					<path class="st5" d="M259.3,167.5c0.7-2.6,1.2-5.2,1.6-7.8c0.4-2.4,1-4.8,1.9-7.1c0.2-0.6,0.2-1.1-0.2-1.7
						c-0.6-0.8-0.3-1.4,0.7-1.6c0.2,0,0.3,0,0.5,0c1.4,0,2.8,0,4.2,0c0.3,0,0.5,0,0.8,0.1c0.9,0.2,1.1,0.9,0.6,1.6
						c-0.4,0.5-0.8,0.9-1.2,1.3c-0.5,0.5-0.7,1-0.9,1.6c-0.8,3.3-1.6,6.7-2.4,10c-1,4.8-2.4,9.4-3.7,14.1c-0.7,2.3-1.2,4.7-1.6,7.1
						c-0.1,0.5,0.1,0.9,0.4,1.3c0.2,0.2,0.4,0.3,0.6,0.5c0.2,0.3,0.3,0.6,0.1,0.9c-0.1,0.3-0.4,0.4-0.7,0.4
						c-2.1,0.1-4.1,0.2-6.2,0.3c-0.1,0-0.2,0-0.3,0c-0.3-0.1-0.6-0.2-0.7-0.6c-0.1-0.4,0.1-0.7,0.4-0.8c0.3-0.1,0.6-0.3,0.9-0.4
						c0.4-0.2,0.6-0.4,0.8-0.9c0.5-1.4,0.9-2.7,1.2-4.1c0.6-2.6,1.1-5.1,1.7-7.7c0.1-0.3,0.1-0.5,0-0.7c-1.6-4-3.1-8-4.4-12
						c-0.8-2.4-1.8-4.6-2.9-6.9c-0.5-1.1-1.2-2.2-2.3-2.9c-0.7-0.5-0.6-1.2,0.3-1.5c0.9-0.4,1.8-0.3,2.7-0.2
						c0.7,0.1,1.4,0.1,2.1,0.2c1.1,0.1,1.5,0.9,0.8,1.8c-0.4,0.5-0.4,0.9-0.3,1.4c0.4,1.7,1,3.4,1.5,5c1,2.9,2.2,5.8,3.4,8.6
						C258.9,167,259,167.3,259.3,167.5z"/>
				</g>
			</g>
			<g>
				<path class="st5" d="M131.7,321.3c-1.7,0-3.5-0.3-5.4-0.4c-1.9-0.1-3.7-0.1-5.5,0.3c-0.7,0.2-1,0.1-1.2-0.3
					c-0.2-0.4,0-0.7,0.7-1.1c0.9-0.5,1.8-0.8,2.8-1c0.2,0,0.4-0.1,0.6-0.1c0.3,0,0.4-0.2,0.4-0.5c0-0.5,0-0.9,0-1.4
					c-0.3-5.5-0.2-11-0.5-16.5c-0.2-3.8-0.1-7.5-0.1-11.3c0-0.7,0.1-1.4,0.2-2.1c0-0.4,0-0.7-0.3-1c-0.2-0.2-0.3-0.5-0.5-0.7
					c-0.4-0.6-0.2-1.1,0.4-1.5c0.4-0.2,0.8-0.3,1.3-0.3c1.3-0.1,2.7,0.1,4,0.2c0.2,0,0.4,0.1,0.5,0.1c0.7,0.3,0.8,1.1,0.2,1.5
					c-0.4,0.3-0.8,0.7-1.1,1.1c-0.2,0.2-0.2,0.4-0.2,0.6c0.4,4,0.3,8.1,0.4,12.1c0,3.5-0.2,6.9-0.3,10.4c0,1.1,0,2.2,0,3.2
					c0,1.7,0,3.4-0.1,5.1c0,0.6,0,0.7,0.6,0.7c1.9,0.2,3.8,0.5,5.7,0.4c0.8,0,1.5-0.2,2.2-0.5c0.9-0.4,1.5-1.1,1.7-2
					c0.1-0.3,0.1-0.5,0.2-0.8c0.1-0.4,0.5-0.6,0.9-0.6c0.4,0.1,0.7,0.4,0.7,0.8c-0.1,1.5-0.5,2.9-1.7,3.8c-1.1,0.8-2.3,1.1-3.6,1.4
					C133.7,321.3,132.8,321.3,131.7,321.3z"/>
				<path class="st5" d="M152.7,311c-2,0-3.9,0-5.9,0c-0.6,0-0.6,0-0.7,0.7c-0.3,1.9-0.5,3.7-0.8,5.6c-0.1,0.4,0,0.7,0.4,0.9
					c0.5,0.3,0.9,0.7,1.3,1.1c0.3,0.3,0.5,0.6,0.3,1.1c-0.2,0.4-0.5,0.5-0.9,0.6c-1.6,0.2-3.2,0.1-4.9,0.1c-0.2,0-0.4-0.1-0.6-0.1
					c-0.4-0.1-0.7-0.4-0.7-0.8c-0.1-0.4,0.1-0.8,0.4-1c0.6-0.4,1.2-0.8,1.8-1.1c0.4-0.2,0.5-0.4,0.5-0.8c0.6-5.9,1.6-11.8,3.1-17.6
					c0.7-2.8,1.7-5.5,2.8-8.1c0.9-2.3,2.1-4.5,3.6-6.5c0.5-0.7,1-1.3,1.7-1.8c1.4-1.2,3.1-0.8,4.1,0.1c0.4,0.4,0.8,0.9,1.1,1.4
					c1.7,2.4,2.5,5.2,3,8c0.5,2.9,0.8,5.8,0.9,8.7c0.1,2.3,0.2,4.5,0.3,6.8c0,0.7,0.1,1.3,0.2,2c0.2,2,0.2,4.1,0.1,6.1
					c0,0.4,0.1,0.7,0.3,1c0.4,0.4,0.8,0.9,1.2,1.3c0.2,0.3,0.4,0.5,0.6,0.8c0.4,0.9,0,1.7-0.9,1.8c-0.5,0.1-0.9,0.1-1.4,0.1
					c-1.9,0-3.7,0-5.6,0c-0.3,0-0.7-0.1-1-0.2c-1.1-0.3-1.5-1.6-0.6-2.4c0.6-0.6,1.4-1.1,2.1-1.6c0.4-0.3,0.5-0.5,0.6-1
					c0.1-1.6,0.2-3.1,0.3-4.7c0-0.7,0-0.7-0.7-0.7C156.6,310.8,154.6,310.9,152.7,311z M146.4,309.2c0.3,0.1,0.6,0.1,0.9,0
					c2.3-0.2,4.7-0.2,7-0.3c1.3,0,2.7-0.2,4-0.3c0.8-0.1,0.8-0.1,0.7-0.8c-0.1-4.6,0-9.3-0.4-13.9c-0.2-2.3-0.4-4.5-0.9-6.7
					c-0.1-0.7-0.3-1.3-0.7-1.9c-0.3-0.5-0.7-0.6-1.2-0.2c-0.2,0.1-0.4,0.3-0.5,0.5c-0.6,0.6-1.1,1.2-1.6,1.9
					c-2.2,2.6-3.4,5.8-4.6,8.9C147.7,300.5,146.9,304.8,146.4,309.2z"/>
				<path class="st5" d="M176.7,291.6c0,0.8,0,1.5,0,2.2c0.1,3.8,0.2,7.6,0.3,11.4c0.1,2.4,0.1,4.9,0.3,7.3c0.1,1.2,0,2.3,0.2,3.5
					c0.1,0.9,0.3,1.7,0.9,2.4c0.1,0.1,0.2,0.3,0.3,0.5c0.4,0.8,0.1,1.4-0.8,1.7c-0.7,0.2-1.4,0.3-2.1,0.3c-1.1,0.1-2.2,0.4-3.3,0.4
					c-0.3,0-0.7,0-1-0.2c-0.6-0.3-0.7-0.6-0.4-1.3c0.1-0.3,0.3-0.5,0.4-0.8c0.4-0.9,0.5-1.9,0.4-2.9c-0.5-7.1-0.4-14.3-0.5-21.4
					c0-2.2,0-4.5,0-6.7c0-0.8-0.3-1.4-0.9-1.9c-0.4-0.3-0.8-0.6-1.2-0.9c-0.3-0.2-0.5-0.4-0.4-0.8c0.1-0.4,0.3-0.6,0.7-0.7
					c1.2-0.3,2.3-0.4,3.5-0.4c1.1-0.1,2.1,0,3.2,0c0.3,0,0.7,0,1-0.1c0.8-0.1,1.3,0.5,1,1.3c-0.1,0.2-0.2,0.4-0.3,0.5
					c-0.3,0.4-0.6,0.8-1,1.2c-0.4,0.4-0.4,0.8-0.2,1.3c0.7,1.5,1.4,3,2.1,4.6c2.9,6.4,5.7,12.9,8.5,19.4c0.1,0.3,0.3,0.7,0.4,1
					c0.3-0.1,0.2-0.3,0.2-0.4c0-3.3,0-6.6,0.1-9.9c0-2.4-0.2-4.8-0.4-7.2c-0.3-2.4-0.3-4.8-0.2-7.3c0-0.6,0-1.1-0.6-1.6
					c-0.4-0.3-0.6-0.8-0.6-1.4c0-0.6,0.2-1,0.8-1.2c0.4-0.2,0.9-0.2,1.3-0.2c0.8-0.1,1.5-0.2,2.3-0.3c0.2,0,0.5,0,0.7,0
					c0.6,0.1,0.9,0.4,1,1c0,0.4,0,0.9-0.2,1.3c-0.6,1.1-0.8,2.3-0.7,3.6c0.1,4.8-0.1,9.6,0,14.5c0,2.1,0.2,4.2,0.1,6.3
					c-0.1,1.6-0.1,3.2-0.1,4.9c0,0.8,0.1,1.6,0,2.4c-0.1,0.6,0.1,1.1,0.6,1.6c0.3,0.2,0.5,0.5,0.6,0.8c0.4,0.6,0.2,1.3-0.5,1.5
					c-1.4,0.3-2.8,0.6-4.2,0.2c-0.1,0-0.3-0.1-0.4-0.1c-0.8-0.3-1-1-0.5-1.7c0.2-0.2,0.4-0.4,0.6-0.6c0.5-0.5,0.5-0.5,0.3-1.1
					c-1.6-3.9-3.3-7.7-4.9-11.6c-1.9-4.5-3.9-9-5.7-13.6C177,292.1,177,291.8,176.7,291.6z"/>
				<path class="st5" d="M205.6,316.9c0.7,0.6,1.5,1.1,2.6,1.2c4.2,0.2,4.6-5.5,4.5-7.9c0-0.4-0.2-0.7-0.6-0.8
					c-0.5-0.2-1-0.4-1.5-0.8c-0.3-0.2-0.5-0.4-0.7-0.7c-0.3-0.5-0.2-1.1,0.4-1.3c0.2-0.1,0.4-0.1,0.7-0.2c1.1,0,2.2-0.1,3.2-0.3
					c0.5-0.1,1.1-0.2,1.5,0.4c0.4,0.5,0,1-0.3,1.4c-0.7,0.9-0.9,1.9-1,2.9c-0.3,2.3-0.6,10.4-6.7,10.4c-0.8,0-1.6-0.1-2.4-0.4
					c-11-4.3-12.5-26.7-4.8-34.8c5.3-5.6,9.4-2.3,12.6-2.7c0.8-0.1,1.3,0.3,1.2,1c-0.1,1.5,0.1,3-0.8,3.2c-0.4,0.1-0.6-0.2-0.8-0.5
					c-0.8-1.2-1.9-1.8-3.4-2.1c-0.9-0.2-1.7,0-2.6,0.3c-1,0.4-1.8,1-2.4,1.8c-1.2,1.5-2,3.1-2.5,4.9
					C199.1,301,200.8,312.8,205.6,316.9z"/>
				<path class="st5" d="M236.2,294.9c0-2.3,0-4.5,0-6.8c0-0.8-0.2-1.5-0.7-2.1c-0.3-0.4-0.7-0.8-0.8-1.3c-0.2-0.6,0-0.9,0.5-1.2
					c0.3-0.1,0.6-0.2,1-0.2c1.5-0.1,3.1-0.2,4.6-0.2c1,0,1.8,0.9,1.1,2c-0.3,0.5-0.6,1-1,1.5c-0.3,0.4-0.4,0.8-0.4,1.2
					c0.2,3.7,0.1,7.3-0.1,11c-0.1,3.2-0.3,6.4-0.9,9.5c-0.6,3.3-1.5,6.6-3.4,9.5c-0.6,0.9-1.3,1.6-2.2,2.2c-0.6,0.3-1.2,0.8-1.8,1.1
					c-0.9,0.4-1.9,0.5-2.9,0.3c-0.4-0.1-0.9,0-1.3-0.2c-2-0.5-3.5-1.7-4.7-3.3c-1.8-2.4-2.8-5-3.3-7.9c-0.7-4.8-1-9.6-0.7-14.4
					c0.2-2.7,0.3-5.5,0.6-8.2c0.1-0.9-0.3-1.8-0.9-2.5c-0.6-0.8-0.7-1.4,0.6-2c0.4-0.2,0.9-0.2,1.4-0.2c1.7-0.2,3.3-0.2,5-0.2
					c0.5,0,0.8,0.2,1.1,0.6c0.2,0.5,0.1,0.9-0.2,1.2c-0.4,0.5-0.9,0.8-1.3,1.2c-0.3,0.3-0.5,0.6-0.5,1c-0.1,1.5-0.3,2.9-0.5,4.4
					c-0.2,1.3-0.2,2.6-0.3,3.9c0,3.8-0.2,7.5,0,11.3c0.2,3.1,0.5,6.2,1.7,9.2c0.4,1.2,1,2.3,1.7,3.3c0.3,0.4,0.7,0.6,1.1,0.7
					c1.2,0.1,2.2-0.2,3.1-1c1.1-1,1.8-2.1,2.1-3.5c0.7-2.8,1.3-5.7,1.6-8.6C236.2,302.2,236.4,298.5,236.2,294.9z"/>
				<path class="st5" d="M255,311c-2,0-3.9,0-5.9,0c-0.6,0-0.6,0-0.7,0.7c-0.3,1.9-0.5,3.7-0.8,5.6c-0.1,0.4,0,0.7,0.4,0.9
					c0.5,0.3,0.9,0.7,1.3,1.1c0.3,0.3,0.5,0.6,0.3,1.1c-0.2,0.4-0.5,0.5-0.9,0.6c-1.6,0.2-3.2,0.1-4.9,0.1c-0.2,0-0.4-0.1-0.6-0.1
					c-0.4-0.1-0.7-0.4-0.7-0.8c-0.1-0.4,0.1-0.8,0.4-1c0.6-0.4,1.2-0.8,1.8-1.1c0.4-0.2,0.5-0.4,0.5-0.8c0.6-5.9,1.6-11.8,3.1-17.6
					c0.7-2.8,1.7-5.5,2.8-8.1c0.9-2.3,2.1-4.5,3.6-6.5c0.5-0.7,1-1.3,1.7-1.8c1.4-1.2,3.1-0.8,4.1,0.1c0.4,0.4,0.8,0.9,1.1,1.4
					c1.7,2.4,2.5,5.2,3,8c0.5,2.9,0.8,5.8,0.9,8.7c0.1,2.3,0.2,4.5,0.3,6.8c0,0.7,0.1,1.3,0.2,2c0.2,2,0.2,4.1,0.1,6.1
					c0,0.4,0.1,0.7,0.3,1c0.4,0.4,0.8,0.9,1.2,1.3c0.2,0.3,0.4,0.5,0.6,0.8c0.4,0.9,0,1.7-0.9,1.8c-0.5,0.1-0.9,0.1-1.4,0.1
					c-1.9,0-3.7,0-5.6,0c-0.3,0-0.7-0.1-1-0.2c-1.1-0.3-1.5-1.6-0.6-2.4c0.6-0.6,1.4-1.1,2.1-1.6c0.4-0.3,0.5-0.5,0.6-1
					c0.1-1.6,0.2-3.1,0.3-4.7c0-0.7,0-0.7-0.7-0.7C258.9,310.8,256.9,310.9,255,311z M248.8,309.2c0.3,0.1,0.6,0.1,0.9,0
					c2.3-0.2,4.7-0.2,7-0.3c1.3,0,2.7-0.2,4-0.3c0.8-0.1,0.8-0.1,0.7-0.8c-0.1-4.6,0-9.3-0.4-13.9c-0.2-2.3-0.4-4.5-0.9-6.7
					c-0.1-0.7-0.3-1.3-0.7-1.9c-0.3-0.5-0.7-0.6-1.2-0.2c-0.2,0.1-0.4,0.3-0.5,0.5c-0.6,0.6-1.1,1.2-1.6,1.9
					c-2.2,2.6-3.5,5.8-4.6,8.9C250,300.5,249.3,304.8,248.8,309.2z"/>
				<path class="st5" d="M281.2,316.9c0.7,0.6,1.5,1.1,2.6,1.2c4.2,0.2,4.6-5.5,4.5-7.9c0-0.4-0.2-0.7-0.6-0.8
					c-0.5-0.2-1-0.4-1.5-0.8c-0.3-0.2-0.5-0.4-0.7-0.7c-0.3-0.5-0.2-1.1,0.4-1.3c0.2-0.1,0.4-0.1,0.7-0.2c1.1,0,2.2-0.1,3.2-0.3
					c0.5-0.1,1.1-0.2,1.5,0.4c0.4,0.5,0,1-0.3,1.4c-0.7,0.9-0.9,1.9-1,2.9c-0.3,2.3-0.6,10.4-6.7,10.4c-0.8,0-1.6-0.1-2.4-0.4
					c-11-4.3-12.5-26.7-4.8-34.8c5.3-5.6,9.4-2.3,12.6-2.7c0.8-0.1,1.3,0.3,1.2,1c-0.1,1.5,0.1,3-0.8,3.2c-0.4,0.1-0.6-0.2-0.8-0.5
					c-0.8-1.2-1.9-1.8-3.4-2.1c-0.9-0.2-1.7,0-2.6,0.3c-1,0.4-1.8,1-2.4,1.8c-1.2,1.5-2,3.1-2.5,4.9
					C274.7,301,276.5,312.8,281.2,316.9z"/>
				<path class="st5" d="M301.8,301c-0.1,2.3-0.1,4.6-0.1,6.9c0,0.9,0,0.8,0.8,0.8c0.7,0,1.3,0.1,2,0.1c0.3,0,0.6-0.1,0.7-0.4
					c0.1-0.3,0.3-0.5,0.4-0.7c0.4-0.6,1.1-0.6,1.5,0.1c0.1,0.3,0.2,0.6,0.2,0.9c0,1,0,2-0.1,2.9c0,0.4-0.2,0.8-0.6,1
					c-0.4,0.2-0.8,0-1.1-0.3c-0.2-0.1-0.3-0.3-0.4-0.5c-0.3-0.5-0.6-0.7-1.2-0.6c-0.6,0.1-1.1,0-1.7,0c-0.4,0-0.5,0.1-0.5,0.5
					c0.1,0.9,0,1.9,0.1,2.8c0.1,1.4,0.3,2.8,0.4,4.2c0,0.4,0.2,0.5,0.5,0.5c2.2,0,4.3,0,6.5,0c0.6,0,0.6,0,0.7-0.6
					c0.2-0.8,0.2-1.6,0.2-2.4c0-0.4,0-0.8,0-1.2c0-0.3,0.2-0.5,0.5-0.6c0.3-0.1,0.5,0.1,0.7,0.3c0.1,0.1,0.2,0.3,0.2,0.5
					c0.3,1.4,0.4,2.8,0.2,4.2c-0.2,1.3-0.9,1.9-2.2,1.9c-2.5,0-4.9-0.2-7.4-0.3c-1.4-0.1-2.8-0.1-4.2,0.1c-0.6,0.1-1.2,0.1-1.9,0.1
					c-0.5,0-0.9-0.2-1.3-0.5c-0.5-0.4-0.5-1-0.1-1.4c0.2-0.2,0.4-0.4,0.7-0.5c0.7-0.4,1.2-1.1,1.3-1.9c0.3-1.2,0.3-2.3,0.4-3.5
					c0.2-2.3,0.4-4.6,0.7-6.9c0.5-4.4,0.7-8.8,0.5-13.3c-0.1-1.7-0.1-3.3-0.5-5c-0.2-1-0.6-1.9-1-2.8c-0.2-0.4-0.3-0.8-0.3-1.2
					c0-0.7,0.3-1.1,1-1.3c0.3-0.1,0.6-0.1,0.8-0.1c1.4-0.1,2.7-0.1,4.1,0c1.2,0.1,2.3,0,3.5,0c2,0,4,0,6,0c2.2,0,3.7,1.6,3.6,3.8
					c0,0.5-0.3,0.9-0.7,1.2c-0.6,0.3-1.2,0.2-1.5-0.4c-0.2-0.3-0.3-0.7-0.5-1c-0.2-0.3-0.4-0.5-0.7-0.7c-0.7-0.2-1.4-0.5-2.1-0.5
					c-2.3-0.1-4.6,0-6.9,0c-0.4,0-0.5,0.1-0.5,0.5c0,0.4-0.1,0.8-0.1,1.2c0,2.3-0.2,4.6-0.3,7c-0.1,1.2-0.1,2.3-0.1,3.5
					C301.9,298.6,301.8,299.8,301.8,301z"/>
			</g>
		</g>
	</g>
</g>
</svg>
