<?xml version="1.0" encoding="utf-8"?>
<!-- Generator: Adobe Illustrator 22.0.1, SVG Export Plug-In . SVG Version: 6.00 Build 0)  -->
<svg version="1.1" id="Calque_1" xmlns="http://www.w3.org/2000/svg" xmlns:xlink="http://www.w3.org/1999/xlink" x="0px" y="0px"
	 viewBox="0 0 432 432" style="enable-background:new 0 0 432 432;" xml:space="preserve">
<style type="text/css">
	.st0{fill:#B3A6AD;}
	.st1{fill:#B6B155;}
	.st2{fill:#990033;}
	.st3{fill:#660A1E;}
	.st4{fill:#A7A6AA;}
	.st5{fill:#EF798A;}
	.st6{fill:#FFB2B2;}
	.st7{fill:#A70808;}
	.st8{fill:#DF4646;}
	.st9{fill:#FF7878;}
	.st10{fill:#F2A297;}
	.st11{fill:#BA1717;}
	.st12{fill:#543A3C;}
	.st13{fill:#CA1542;}
	.st14{fill:#E74C6E;}
	.st15{fill:#006837;}
	.st16{fill:#004924;}
	.st17{fill:#D33757;}
	.st18{fill:#E06581;}
	.st19{fill:#014724;}
	.st20{fill:#E14666;}
	.st21{fill:#ABDFD3;}
	.st22{fill:#C5EFE4;}
	.st23{fill:#DC4160;}
	.st24{fill:#A888AD;}
	.st25{fill:#B99BBF;}
	.st26{fill:#F8A362;}
	.st27{fill:#F9B587;}
	.st28{fill:#F2F2F2;}
	.st29{fill:#FDFFFE;}
	.st30{fill:#F2D668;}
	.st31{fill:#F9E4A5;}
	.st32{fill:#F5A6DF;}
	.st33{fill:#F4CEEB;}
	.st34{fill:#CCCCCC;}
	.st35{fill:#FBB03B;}
	.st36{fill:#FFFFFF;}
	.st37{fill:#ECCDD2;}
	.st38{fill:#8AD7AB;}
	.st39{fill:#8FC8E2;}
	.st40{fill:#D3CE94;}
	.st41{fill:#F9CFCF;}
	.st42{fill:#EDE9C3;}
	.st43{fill:#9BD6EA;}
	.st44{fill:#F8D9C4;}
	.st45{fill:#EB678B;}
	.st46{fill:#A5394C;}
	.st47{fill:#DD726C;}
	.st48{fill:#E5847A;}
	.st49{fill:#EF8A7F;}
	.st50{fill:#3CBC91;}
	.st51{fill:#8CC63F;}
	.st52{fill:#B78D5C;}
	.st53{fill:#2A2A2B;}
	.st54{fill:#EBCEC6;}
	.st55{fill:#F49090;}
	.st56{fill:#B3D8E8;}
	.st57{fill:#EFE6E4;}
	.st58{fill:#FBD8E3;}
	.st59{fill:#E48397;}
	.st60{fill:#B2E6F9;}
	.st61{fill:#42210B;}
	.st62{fill:#E0E0E0;}
	.st63{fill:#9D6D47;}
	.st64{fill:#EFD1B4;}
	.st65{fill:#0071BC;}
	.st66{fill:#679CBA;}
	.st67{fill:#DBDCDD;}
	.st68{fill:#DDB28E;}
	.st69{fill:#C69C6D;}
	.st70{fill:#603813;}
	.st71{fill:#8C6239;}
	.st72{fill:#E9EAE4;}
	.st73{fill:#F7931E;}
	.st74{fill:#754C24;}
	.st75{fill:#A67C52;}
	.st76{fill:#9E1E28;}
	.st77{fill:#F15A24;}
	.st78{fill:#E04819;}
	.st79{fill:#009245;}
	.st80{fill:#00552B;}
	.st81{fill:#84821B;}
	.st82{fill:#CD271F;}
	.st83{fill:#BB8130;}
	.st84{fill:#BBBABF;}
	.st85{fill:#E0E0E2;}
	.st86{fill:#C79359;}
	.st87{fill:#BA844F;}
	.st88{fill:#29ABE2;}
	.st89{fill:#EEB752;}
	.st90{fill:#A8B0B2;}
	.st91{fill:#035684;}
	.st92{fill:#EFBF73;}
	.st93{fill:#D3A272;}
	.st94{fill:#C3C8C9;}
	.st95{fill:#EBDCC9;}
	.st96{fill:#EAD696;}
	.st97{fill:#E57ACC;}
	.st98{fill:#8D5F96;}
	.st99{fill:#FFD9E4;}
	.st100{fill:#60BA84;}
	.st101{fill:#CCEDE5;}
	.st102{fill:#E8E8E8;}
	.st103{fill:#F9D2D2;}
	.st104{fill:#B9B9BA;}
	.st105{fill:#939393;}
	.st106{fill:#62612A;}
	.st107{fill:#79484E;}
	.st108{fill:#C2BE5C;}
	.st109{fill:#F1C3A2;}
	.st110{fill:#B2625C;}
	.st111{fill:#E1AE9D;}
	.st112{fill:#7597A0;}
	.st113{fill:#F2DBD5;}
	.st114{fill:#B27C62;}
	.st115{fill:#E6E6E6;}
	.st116{fill:#AF8864;}
	.st117{fill:#F1E9DF;}
	.st118{fill:#9E6A56;}
	.st119{fill:#2E3192;}
	.st120{fill:#EAEAEA;}
	.st121{fill:#1B1464;}
	.st122{fill:#EAE5E6;}
	.st123{fill:#7F9BEA;}
	.st124{fill:#EEBCC5;}
	.st125{fill:#DB8E98;}
	.st126{fill:#B58187;}
	.st127{fill:#80424C;}
	.st128{fill:#F3EED0;}
	.st129{fill:#CCD8B0;}
	.st130{fill:#46653B;}
	.st131{fill:#345129;}
	.st132{fill:#C9A6AC;}
	.st133{fill:#D6B6BA;}
	.st134{fill:#DE7139;}
	.st135{fill:#F2CB56;}
	.st136{fill:#DE3A55;}
	.st137{fill:#CD9586;}
	.st138{fill:#B47468;}
	.st139{fill:#F5DCD8;}
	.st140{fill:#C4BCBF;}
	.st141{fill:#E0B182;}
	.st142{fill:#9B6B61;}
	.st143{fill:#DBB89B;}
	.st144{fill:#DED2D3;}
	.st145{fill:#7D6364;}
	.st146{fill:#F1A3A1;}
	.st147{fill:#B3B3B3;}
	.st148{fill:#F9CEBE;}
	.st149{fill:#142738;}
	.st150{fill:#911928;}
	.st151{fill:#A32F4E;}
	.st152{fill:#7A0118;}
	.st153{fill:#DAE576;}
	.st154{fill:#E87F38;}
	.st155{fill:#F47621;}
	.st156{fill:#BC5B1B;}
	.st157{fill:#E6EF6A;}
	.st158{fill:#7C0101;}
	.st159{fill:#6DA84A;}
	.st160{fill:#83AF6E;}
	.st161{fill:#39B54A;}
	.st162{fill:#812791;}
	.st163{fill:#FC540D;}
	.st164{fill:#DD4410;}
	.st165{fill:#D3CE6A;}
	.st166{fill:#F2C8AD;}
	.st167{fill:#EFB58E;}
	.st168{fill:#F27622;}
	.st169{fill:#8DA34F;}
	.st170{fill:#ACBF77;}
	.st171{fill:#D6C188;}
	.st172{fill:#E5CED4;}
	.st173{fill:#15104F;}
	.st174{fill:#E5E3E3;}
</style>
<g>
	<g>
		<g>
			<path d="M126.1,259.7c-0.9,0.7-1.4,1.5-1.8,2.4c-0.9,2-1.4,4-1.7,6.2c-0.4,3.2-0.7,6.4-1,9.6c-0.3,4.1-0.7,8.2-1.4,12.2
				c-0.1,0.8-0.3,1.5-0.6,2.2c-0.8,2.1-2.8,2.8-4.8,1.8c-0.9-0.4-1.6-1.1-2.2-1.9c-0.9-1.1-1.5-2.4-2.1-3.7c-0.1-0.3-0.2-0.6-0.4-1
				c-0.1,0.4-0.2,0.6-0.3,0.8c-0.6,1.6-1.2,3.2-1.9,4.8c-1,2.2-2.3,4-4.2,5.5c-3.6,2.8-8.1,2.8-11.7,0c-2.4-1.9-4.1-4.5-5.3-7.3
				c-0.6-1.4-1-2.8-1.5-4.3c-0.2,0.1-0.4,0.1-0.6,0.2c-1.3,0.6-2.5,1.3-3.6,2.3c-0.4,0.4-0.8,0.8-1.1,1.2c-0.2,0.3-0.5,0.5-0.9,0.4
				c-0.4-0.1-0.7-0.4-0.7-0.9c0-0.4,0.1-0.8,0.3-1.2c0.3-0.5,0.7-0.9,1.1-1.2c1-0.9,2.1-1.7,3.4-2.4c0.6-0.3,1.1-0.6,1.7-0.9
				c0-0.8-0.1-1.5-0.1-2.2c-0.2-3.1,0.3-6,1.4-8.9c0.7-1.9,1.8-3.7,3.2-5.2c1.3-1.4,2.8-2.4,4.7-2.9c3-0.8,6,0.8,6.9,3.8
				c0.7,2.3,0.4,4.6-0.8,6.7c-0.8,1.3-1.7,2.5-2.8,3.6c-1.1,1.1-2.3,2.1-3.7,3c-0.2,0.2-0.5,0.3-0.7,0.5c0.1,1.1,0.4,2.2,0.7,3.3
				c0.7,2,1.4,3.9,2.7,5.6c0.6,0.8,1.3,1.5,2,2.2c0.8,0.8,1.7,0.7,2.7,0.3c0.7-0.3,1.3-0.8,1.8-1.4c0.8-0.9,1.4-1.9,1.9-3.1
				c1.2-2.6,2.2-5.3,3.1-8.1c0.1-0.4,0.1-0.8,0-1.2c-1.9-6.2-3.5-12.5-4.7-18.9c-0.6-3-0.9-6-1.2-9c-0.3-3.4-0.4-6.9-0.2-10.3
				c0.1-3,0.7-5.8,1.8-8.6c0.5-1.3,1.2-2.5,2.1-3.5c0.9-1,2-1.7,3.4-1.9c1.2-0.2,2.3,0.2,3.2,1c1,0.9,1.6,1.9,2.1,3.1
				c0.8,1.7,1.2,3.6,1.5,5.5c0.7,3.8,0.7,7.6,0.5,11.4c-0.2,4-0.6,7.9-1,11.9c-0.4,3.2-0.9,6.3-1.3,9.4c0,0.3-0.1,0.7,0,1
				c1,4,2.1,7.9,3.1,11.9c0,0.1,0.1,0.3,0.2,0.6c0.1-0.6,0.2-1.1,0.3-1.6c0.4-3.3,0.8-6.6,1.1-9.8c0.4-3.7,0.8-7.5,1.8-11.1
				c0.5-1.8,1.1-3.6,1.7-5.4c0.3-0.8,0.6-1.5,1-2.2c1.9-3,5.6-3.5,8.3-1.3c1.1,0.9,1.9,2.1,2.6,3.3c1,1.9,1.6,3.9,2,5.9
				c0.6,3.1,1.1,6.1,1.6,9.2c0.5,3.1,0.9,6.2,1.4,9.3c0,0.3,0.1,0.6,0.3,1c0.2-0.3,0.3-0.5,0.3-0.7c0.4-1.3,0.7-2.5,1.1-3.8
				c0.6-2.2,1.2-4.4,1.8-6.6c0.3-1.2,0.2-2.3,0.2-3.5c0-0.2-0.3-0.4-0.5-0.5c-1.7-1.2-3.1-2.7-4.2-4.4c-2-3.3-2.7-6.8-2-10.6
				c0.3-2,0.9-3.9,1.9-5.6c1.5-2.6,3.6-4.4,6.6-5c2.3-0.5,4.5,0,6.5,1.2c1.4,0.8,2.6,2,3.6,3.3c2.1,2.7,3.4,5.8,4.3,9
				c0.6,2,1,4.1,1.5,6.2c0.6-0.1,2.6-1.7,3.3-2.7c-0.1-0.1-0.2-0.3-0.3-0.4c-1.8-2.2-2.8-4.8-3.1-7.5c-0.6-4.8,0.6-9.2,3.2-13.3
				c1.4-2.2,3.3-3.8,5.9-4.6c4.2-1.2,7.9-0.4,11,2.8c2.2,2.2,3.6,5,4.5,7.9c0.8,2.4,1.2,5,1.6,7.5c0.1,1.1,0.3,2.2,0.4,3.4
				c1.1-0.8,2.1-1.6,3.1-2.4c-0.1-0.3-0.2-0.5-0.4-0.8c-1.3-2.4-2.2-5-2.5-7.7c-0.3-2.3-0.3-4.7,0.6-6.9c1.2-3.3,3.3-5.6,6.8-6.4
				c1.7-0.4,3.5-0.4,5.2,0c2.6,0.6,5.4,3.4,4.6,7.3c-0.2,1.3-0.6,2.6-1.1,3.8c-0.9,2.1-2,4.1-3.4,5.9c-0.1,0.1-0.2,0.3-0.3,0.5
				c2.7,3.7,5.1,7.7,6.7,12.1c1.2-0.6,2.3-1.1,3.4-1.6c0.2-1.5,0.3-3,0.5-4.5c0.5-3,1.4-5.8,3.1-8.3c1.8-2.6,4.2-4.6,7.3-5.6
				c1.6-0.5,3.1-0.5,4.7-0.1c2.8,0.8,4.4,3.5,3.6,6.3c-0.4,1.5-1.3,2.9-2.3,4.1c-1.6,1.9-3.4,3.5-5.6,4.7c-0.6,0.3-1.2,0.7-1.7,1
				c-0.3,0.2-0.4,0.4-0.4,0.7c-0.2,2.8,0,5.6,0.6,8.3c0.3,1.7,0.8,3.3,1.5,4.9c0.2,0.4,0.5,0.9,0.7,1.3c0.6,1.1,1.9,1.6,3.2,1.2
				c1.8-0.5,3.4-1.4,4.8-2.5c2-1.6,3.9-3.2,5.9-4.7c0.4-0.3,0.8-0.6,1.3-0.8c0.5-0.3,1.1-0.2,1.6,0.2c0.5,0.4,0.6,0.9,0.5,1.5
				c-0.1,0.3-0.2,0.6-0.3,0.9c-0.1,0.3-0.3,0.5-0.5,0.8c-2.1,2.5-4,5.1-6.4,7.3c-1.2,1.1-2.5,2.1-3.9,3c-5,3.2-10.6,1-13.4-2.5
				c-1.5-2-2.4-4.2-3.2-6.5c-0.7-2.3-1.1-4.6-1.4-7c0-0.2-0.1-0.4-0.1-0.8c-0.5,0.2-0.9,0.4-1.3,0.6c-0.4,0.2-0.8,0.4-1.2,0.6
				c0.1,0.3,0.2,0.6,0.2,0.8c0.8,2.9,1.4,5.8,1.3,8.9c-0.1,4.3-1.3,8.3-4.2,11.6c-1.4,1.7-3.2,2.8-5.4,3.3c-2.9,0.7-6.6-0.2-8.1-4.1
				c-1.4-3.4-1.5-6.7,0.3-10c1.4-2.7,3.2-5.2,5.6-7.2c0.2-0.1,0.3-0.3,0.5-0.4c-1.5-3.5-3.1-7-5.3-10.2c-0.1,0.1-0.2,0.1-0.3,0.2
				c-1.4,0.9-2.7,1.8-4.1,2.7c-0.4,0.2-0.5,0.5-0.5,0.9c0,2.5-0.2,4.9-0.6,7.3c-0.8,4.5-2.3,8.7-4.6,12.6c-0.7,1.1-1.5,2.2-2.6,3
				c-2.3,1.8-5.9,2.1-8.6-0.3c-1.1-0.9-1.9-2.1-2.5-3.3c-1.2-2.6-1.9-5.3-2.1-8.1c-0.2-2.7-0.1-5.3,0.1-8c0-0.4,0-0.8,0.1-1.2
				c-0.1,0.1-0.2,0.1-0.3,0.1c-1.3,1.5-2.8,2.7-4.4,3.8c-0.4,0.3-0.6,0.6-0.6,1.2c0.4,4.2,0.3,8.4-0.7,12.5
				c-0.5,2.1-1.4,4.1-2.7,5.8c-1.1,1.4-2.5,2.4-4.3,2.6c-1.7,0.2-3.2-0.3-4.6-1.3c-1.4-1-2.4-2.4-3.2-4c-0.2-0.4-0.4-0.8-0.7-1.4
				c-0.1,0.4-0.2,0.6-0.2,0.8c-0.4,1.4-0.8,2.7-1.3,4.1c-0.3,1-0.9,1.8-1.5,2.6c-1.9,2.3-4.4,2.1-6.1,1.1c-1.4-0.8-2.5-2.1-3.3-3.5
				c-0.9-1.5-1.5-3.2-2-4.9c-1.1-3.6-1.8-7.4-2.5-11.1c-0.5-2.7-0.9-5.4-1.7-7.9C126.4,260.5,126.2,260.2,126.1,259.7z M167.1,254
				c0.2-0.5,0.4-0.9,0.6-1.2c0.1-0.4,0.2-0.8,0.3-1.2c0.4-1.1,0.7-2.3,1.3-3.3c1.2-2.2,3.9-2.2,5.2-0.1c0.3,0.5,0.5,1.1,0.7,1.7
				c0.4,1.7,0.4,3.4,0.2,5.2c-0.1,0.9-0.2,1.8-0.2,2.8c3-0.1,5.7-0.6,8.4-1.8c0-0.3,0-0.6,0-0.8c-0.1-1.4-0.1-2.7-0.2-4.1
				c-0.2-2.7-0.7-5.4-1.7-8c-1-2.7-2.5-5-4.7-6.8c-2.7-2.2-6.1-1.9-8.4,0.6c-0.8,0.9-1.4,1.9-1.9,3c-1.2,2.7-1.8,5.5-1.6,8.5
				C165.2,250.4,165.8,252.2,167.1,254z M157.7,262.7c-0.4-3.5-0.9-6.8-2.3-10c-1.1-2.5-2.5-4.7-4.6-6.6c-0.8-0.7-1.6-1.2-2.5-1.6
				c-2.1-0.8-4-0.3-5.5,1.2c-0.8,0.8-1.4,1.7-1.7,2.7c-0.6,1.7-0.9,3.5-0.9,5.4c0.1,2.7,1,5.1,2.8,7.2c0.1,0.1,0.3,0.3,0.5,0.4
				c0.1-0.4,0.3-0.8,0.4-1.2c0.3-0.9,0.8-1.8,1.5-2.5c1.4-1.3,3.3-1.1,4.3,0.5c0.3,0.5,0.6,1,0.7,1.6c0.2,1.2,0.3,2.4,0.5,3.6
				c0,0.3,0.1,0.7,0.1,1.1C153.4,264.6,155.6,263.9,157.7,262.7z M112,261.9C112.1,261.9,112.1,261.9,112,261.9
				c0.1-0.1,0.1-0.2,0.2-0.3c0.4-3.2,0.8-6.4,1.1-9.6c0.4-3.5,0.7-7.1,0.5-10.7c-0.1-1.8-0.3-3.5-0.8-5.3c-0.3-1.1-0.7-2.1-1.4-3
				c-0.3-0.3-0.5-0.7-1.1-0.8c-0.1,0.4-0.3,0.8-0.4,1.1c-0.1,0.7-0.3,1.5-0.3,2.2c-0.3,4.3-0.2,8.5,0.3,12.7c0.6,4.3,1.2,8.7,1.8,13
				C111.9,261.5,112,261.7,112,261.9z M183.4,260c-1.5,0.6-2.8,1.1-4.2,1.5c-1.4,0.4-2.9,0.6-4.3,0.9c-0.2,2.6-0.4,5.3-0.2,8
				c0.1,1.5,0.4,3,1.1,4.4c0.2,0.3,0.4,0.6,0.6,1c0.6-0.3,1.1-0.6,1.4-1.1c0.5-0.7,1-1.5,1.5-2.3c1.8-3.4,3-6.9,3.8-10.7
				C183.2,261.2,183.3,260.6,183.4,260z M198.5,267.7c-0.2,0.1-0.2,0.1-0.3,0.1c-2.2,1.9-3.8,4.2-4.8,6.9c-0.4,1-0.4,2-0.3,3.1
				c0.2,1.3,0.8,2.3,1.8,3c0.6,0.4,1,0.5,1.5,0c0.5-0.4,1-0.9,1.4-1.4c0.4-0.6,0.7-1.4,1-2.1c0.8-2.3,0.8-4.6,0.2-6.9
				C198.9,269.5,198.7,268.7,198.5,267.7z M154.2,279.2c0.3-0.3,0.5-0.6,0.7-0.8c0.8-1.1,1.4-2.3,1.8-3.7c0.5-1.8,0.9-3.5,1.1-5.4
				c0.1-0.8,0.1-1.5,0.2-2.4c-2.3,1.1-4.4,1.7-6.8,2.1c0.1,0.9,0.1,1.7,0.2,2.6c0.2,2,0.6,3.9,1.5,5.7
				C153.1,278,153.5,278.6,154.2,279.2z M92.5,280.5c0.7-0.5,1.2-0.8,1.6-1.2c0.6-0.5,1.2-1,1.7-1.6c1-1,1.7-2.2,2.2-3.5
				c0.5-1.2,0.5-2.5-0.1-3.7c-0.6-1.3-1.8-1.5-2.8-0.6c-0.8,0.7-1.3,1.5-1.6,2.5c-0.4,1.3-0.7,2.5-0.9,3.8
				C92.4,277.6,92.5,278.9,92.5,280.5z M197.5,243.3c0.9-1.3,1.7-2.6,2.1-3.9c0.4-1.2,0.8-2.4,0.7-3.7c0-0.8-0.7-1.7-1.4-1.9
				c-0.8-0.2-1.6,0-2.1,0.6c-0.3,0.3-0.5,0.7-0.6,1.1c-0.1,0.5-0.2,1-0.2,1.4C196,239.1,196.7,241.1,197.5,243.3z M219.5,251.8
				c0.2-0.1,0.3-0.2,0.4-0.3c0.9-0.7,1.8-1.3,2.6-2.1c0.8-0.8,1.5-1.6,2.2-2.5c0.4-0.5,0.6-1,0.8-1.6c0.1-0.4,0.1-0.9,0.1-1.4
				c-0.1-0.6-0.3-0.7-0.9-0.7c-1.1,0-1.9,0.6-2.6,1.5C220.5,246.8,219.8,249.2,219.5,251.8z"/>
			<path d="M342.4,266.1c-0.3-0.2-0.5-0.3-0.8-0.4c-1.7-0.9-3.1-2.1-4.2-3.7c-1.8-2.6-1.9-5.5-0.2-8.1c0.6-0.9,1.3-1.8,2.3-2.4
				c1.9-1.4,4.8-1.2,6.1,1.6c0.7,1.7,1,3.4,0.9,5.2c0,0.9-0.2,1.8-0.3,2.8c0.2,0.1,0.4,0.2,0.6,0.3c1.1,0.5,2.2,0.8,3.2,1.4
				c2.4,1.2,3.6,3.4,3.8,6c0.1,1.5-0.2,3-0.7,4.4c-0.8,2.3-1.9,4.5-3,6.7c-0.5,1-1,2-1.5,3c-1.1,2.1-1.8,4.4-2.6,6.7
				c0.3,0.1,0.6,0.2,0.9,0.2c1.1-0.1,2.1-0.1,3.1-0.5c0.1-0.1,0.3-0.1,0.4-0.2c0.4-0.1,0.8-0.1,1.1,0.3c0.3,0.3,0.4,0.7,0.3,1.2
				c-0.2,0.6-0.6,1.1-1.1,1.4c-0.3,0.2-0.6,0.3-1,0.5c-1.2,0.5-2.4,0.9-3.6,1.4c-2.7,1-5.1,0.1-6.5-2.4c-1.3-2.3-1.4-4.8-0.8-7.3
				c0.8-3.1,2.1-5.9,3.7-8.6c1.2-1.9,2.3-3.8,3.5-5.7c0.3-0.5,0.6-1,0.9-1.6c0.1-0.3,0.2-0.6,0.3-1c-0.8-0.2-1.6-0.4-2.4-0.7
				c-0.1,0.3-0.2,0.5-0.2,0.7c-1.2,3.8-2.6,7.5-4.3,11c-0.6,1.3-1.3,2.5-2,3.7c-1.2,1.9-2.8,3.4-4.8,4.4c-0.8,0.4-1.7,0.7-2.7,0.7
				c-2.4,0.1-4.2-1.2-5.1-3.4c-0.7-1.9-0.7-3.8-0.3-5.7c0.1-0.6,0.3-1.2,0.3-1.8c-0.2,0.2-0.3,0.4-0.5,0.6c-1.1,1.7-2.4,3.3-3.8,4.7
				c-1,1-2.1,1.9-3.4,2.5c-3.9,2.1-7.3-0.2-8.5-3.1c-0.6-1.6-0.8-3.2-0.6-4.9c0.3-3.1,1.1-6.1,2.2-9c0.7-1.9,1.4-3.8,2.1-5.7
				c0.1-0.2,0.1-0.4,0.2-0.7c-1,0.3-1.8,0.6-2.7,1c-0.2,0.1-0.3,0.4-0.4,0.6c-0.7,1.5-1.4,3-2.1,4.5c-1.5,2.9-3.4,5.4-5.7,7.7
				c-2.1,2-4.5,3.3-7.3,3.9c-4.5,0.9-7.7-2.2-8-6.1c-0.2-2.6,0.4-5,1.5-7.3c0.6-1.4,1.5-2.7,2.2-4.1c0.1-0.2,0.3-0.4,0.4-0.7
				c-0.1,0-0.2-0.1-0.2,0c-1.2,0.4-2.4,0.9-3.5,1.3c-0.4,0.1-0.4,0.5-0.5,0.8c-1.2,3.2-2.3,6.4-3.5,9.6c-1.6,4.2-3.4,8.3-5.4,12.3
				c-1.4,2.8-2.9,5.4-4.9,7.8c-1.4,1.7-3,3.2-4.9,4.4c-1.6,1-3.4,1.7-5.3,1.6c-5.6-0.2-8.3-3.8-8.9-7.8c-0.4-2.6,0.1-5,1-7.4
				c1-2.6,2.7-4.8,4.5-6.9c3.8-4.2,8.1-7.6,12.9-10.6c1.3-0.8,2.7-1.6,4-2.5c0.3-0.2,0.6-0.4,0.7-0.8c1.8-5.9,3.6-11.8,5.5-17.8
				c0-0.1,0.1-0.2,0-0.4c-0.2,0.2-0.3,0.4-0.5,0.6c-1.8,2.3-3.5,4.6-5.3,6.9c-1.5,1.8-3,3.6-4.6,5.4c-1.4,1.6-3,3-5,4
				c-0.7,0.3-1.5,0.7-2.2,0.9c-2.6,0.6-4.7-0.2-6.4-2.2c-1.1-1.3-1.6-2.8-1.8-4.4c-0.3-2.1-0.1-4.2,0.4-6.3c0.6-2.3,1.3-4.6,2.4-6.7
				c0.5-0.9,1.1-1.8,1.8-2.6c0.3-0.4,0.9-0.7,1.4-1c1.1-0.5,2.1,0,2.6,1.1c0.3,0.9,0.4,1.8,0.3,2.7c-0.2,1.8-0.5,3.6-0.7,5.4
				c-0.3,1.9-0.6,3.8-0.8,5.7c-0.1,0.7-0.1,1.4,0,2.1c0,0.6,0.2,0.8,0.8,0.6c0.6-0.1,1.3-0.3,1.8-0.6c1-0.6,1.9-1.2,2.8-1.9
				c1.1-0.9,2.1-1.8,3-2.8c2.8-2.9,5.4-5.9,7.9-9c1-1.2,2-2.4,3-3.6c0.5-0.7,1.1-1.3,1.6-2c1.5-2.2,4.3-2.3,6-0.2
				c0.8,0.9,1.1,2,1.2,3.2c0.2,1.8-0.1,3.5-0.4,5.2c-0.7,4-1.8,7.9-2.9,11.8c-0.1,0.2-0.1,0.5-0.2,0.9c0.9-0.3,1.8-0.6,2.5-0.9
				c0.1-0.9,0.1-1.8,0.2-2.6c0.2-1.4,0.7-2.7,1.5-3.9c1.4-2,2.9-3.9,4.7-5.5c1.8-1.6,3.8-2.8,6.1-3.3c4.4-1,8.5,1.7,9.4,6.1
				c0.5,2.3,0.4,4.5-0.1,6.8c-0.2,0.9-0.4,1.8-0.6,2.6c0,0.2-0.1,0.3-0.1,0.6c0.2-0.1,0.4-0.1,0.5-0.2c0.9-0.6,1.9-1.1,2.8-1.7
				c0.5-0.3,1-0.6,1.5-0.9c1.8-0.9,3.9-0.5,5.1,1.2c1,1.2,1.2,2.6,1.2,4.2c-0.1,2.3-0.7,4.5-1.4,6.7c-0.6,2-1.3,4-2,6
				c-0.3,1-0.6,1.9-0.8,2.9c-0.1,0.2-0.1,0.4-0.1,0.8c0.5-0.4,0.8-0.6,1.1-0.9c2.2-1.9,4.2-4,6.1-6.2c2.1-2.5,4.2-5,6-7.7
				c0.1-0.1,0.1-0.2,0.2-0.2c0.6-0.8,1.4-1.2,2.4-0.9c0.9,0.3,1.6,1.1,1.6,2.1c0,0.9,0,1.8-0.3,2.7c-0.7,2.6-1.5,5.2-2.3,7.7
				c-0.9,2.9-1.8,5.8-2.5,8.7c-0.1,0.5-0.2,1-0.3,1.6c0.4-0.1,0.7-0.1,0.9-0.2c0.8-0.3,1.4-0.7,2-1.3c1.3-1.3,2.4-2.7,3.3-4.2
				c1.2-2.1,2.2-4.3,3.1-6.6C341.2,269.1,341.7,267.6,342.4,266.1z M275.2,267.9c-0.2,0.1-0.4,0.2-0.5,0.3c-3,2-5.9,4.2-8.5,6.7
				c-1.9,1.8-3.8,3.6-5.3,5.8c-1.4,2-2.4,4.2-2.6,6.8c-0.1,1.1,0.1,2.1,0.5,3.1c0.5,1,1.3,1.5,2.4,1.6c0.9,0.1,1.7-0.2,2.4-0.7
				c0.8-0.7,1.7-1.4,2.4-2.2c1.7-1.9,2.8-4.1,3.8-6.3c2.2-4.7,3.8-9.5,5.4-14.4C275.1,268.3,275.1,268.1,275.2,267.9z M295.8,254.4
				c0.4-0.1,0.7-0.2,1-0.2c0.3,0,0.7-0.1,1,0c1.6,0.3,2.6,1.7,2.4,3.4c-0.1,1-0.5,1.9-0.7,2.9c0.7,0.3,1.5,0.3,2.4,0.3
				c1.8-0.1,3.5-0.5,5.1-1.1c0.3-0.1,0.5-0.3,0.6-0.6c0.6-1.6,1.3-3.2,1.8-4.9c0.6-2,0.6-4.1,0.1-6.2c-0.7-2.5-3-3.8-5.5-2.9
				c-0.8,0.3-1.5,0.6-2.2,1.1c-2.5,1.6-4.6,3.5-5.5,6.5C295.9,253.2,295.7,253.7,295.8,254.4z M304.7,264.2c0,0-0.1-0.1-0.1-0.1
				c-2.3,0.5-4.6,0.6-7,0c-1.1,2.5-2.3,5-2.5,7.9c0.4-0.1,0.6-0.1,0.9-0.1c0.9-0.2,1.7-0.6,2.4-1.1c1.6-1,2.9-2.4,4.2-3.8
				C303.3,266,304,265.1,304.7,264.2z M343.8,260.2c0-1,0.1-1.8,0.1-2.6c0-1-0.1-2-0.5-2.9c-0.1-0.3-0.2-0.5-0.4-0.8
				c-0.3-0.4-0.5-0.4-0.9,0c-0.6,0.6-0.9,1.3-1.1,2c-0.3,1-0.1,1.9,0.5,2.8C342,259.3,342.8,259.8,343.8,260.2z"/>
		</g>
		<g>
			<path class="st114" d="M131.3,334.7c-0.3,1.4-0.6,2.6-0.8,3.9c-1.5,7.2-3.1,14.3-5,21.4c-0.3,1-0.6,1.9-0.9,2.9
				c-0.1,0.4-0.4,0.8-0.6,1.1c-0.8,1-2.2,0.9-2.9-0.2c-0.2-0.4-0.4-0.8-0.5-1.3c-1.1-3.1-2-6.3-2.7-9.4c-2.7-11.2-5.6-22.4-8.7-33.6
				c-0.4-1.4-0.7-2.8-1-4.2c-0.1,0-0.3-0.1-0.4-0.1c-0.2-0.1-0.5-0.1-0.7-0.2c-0.6-0.3-0.7-0.9-0.1-1.3c0.3-0.2,0.7-0.4,1-0.5
				c2.2-0.7,4.6-1.1,6.9-1.5c0.7-0.1,1.5-0.3,2.2-0.4c0.5-0.1,1-0.1,1.5-0.1c0.6,0,0.9,0.4,1.1,0.9c0.1,0.5-0.1,1-0.6,1.2
				c-0.5,0.2-1,0.4-1.5,0.6c0.9,2.2,1.1,4.6,1.8,6.9c1.4,5,2.9,9.9,4.3,14.9c0.8,2.7,1.5,5.4,2.3,8.1c0,0.1,0.1,0.3,0.3,0.4
				c0.1-0.6,0.3-1.2,0.4-1.8c1.7-7.1,3.3-14.3,5-21.4c0.2-1.1,0.5-2.2,0.7-3.2c0.1-0.4,0.2-0.8,0.3-1.1c0.6-1.5,2.4-1.9,3.4-0.6
				c0.4,0.5,0.7,1.1,0.9,1.7c0.7,2.3,1.5,4.6,2,6.9c1.8,7.3,3.4,14.7,5.1,22c0.6,2.4,1.1,4.8,1.7,7.2c0,0.1,0.1,0.3,0.2,0.4
				c2.6-16.7,5.7-33.4,10.3-49.7c-0.3-0.1-0.5-0.1-0.7-0.2c-0.4-0.1-0.8-0.2-1.1-0.5c-0.6-0.4-0.5-1.1,0-1.5
				c0.2-0.2,0.6-0.3,0.9-0.3c1.6-0.3,3.3-0.2,4.9,0c0.4,0,0.7,0.3,1,0.5c0.7,0.6,0.6,1.5-0.2,1.8c-0.5,0.2-1.1,0.3-1.7,0.4
				c-0.1,0.6-0.2,1.3-0.4,2c-0.5,2.5-1.1,5-1.7,7.5c-1.6,7.2-3.1,14.5-4.3,21.8c-1.1,6.6-2.2,13.1-3.2,19.7
				c-0.4,2.2-0.7,4.4-1.1,6.6c0,0.1-0.1,0.3-0.1,0.4c-0.4,1.5-1.2,2.1-2.8,2.1c-0.6,0-1.2,0-1.9,0c-0.9,0-1.5-0.4-1.9-1.2
				c-0.6-1.4-1.2-2.7-1.8-4.1c-2.7-6.7-5.2-13.5-7.4-20.4c-0.4-1.2-0.8-2.4-1.2-3.6C131.6,335.1,131.5,335,131.3,334.7z"/>
			<path class="st114" d="M238,350.4c-0.1,4.2-0.2,8.3-0.3,12.5c0.4,0.1,0.9,0.1,1.4,0.2c0.3,0.1,0.5,0.1,0.7,0.2
				c0.5,0.2,0.8,0.5,0.7,1c0,0.4-0.3,0.8-0.8,0.9c-0.4,0.1-0.8,0.2-1.1,0.2c-1.9,0.1-3.8,0.1-5.7,0.1c-0.8,0-1.6-0.1-2.4-0.2
				c-0.2,0-0.3-0.1-0.4-0.1c-0.5-0.2-0.7-0.4-0.7-0.8c0-0.4,0.3-0.7,0.6-0.9c0.3-0.1,0.7-0.2,1.1-0.3c0-0.7-0.1-1.3-0.1-1.9
				c0-1.9-0.1-3.8-0.1-5.7c-0.1-5.6-0.1-11.2-0.2-16.8c0-5.3-0.1-10.6-0.1-16c0-4.1,0.1-8.1,0.3-12.2c0.2-4.3,0.7-8.6,1-13
				c0.1-0.8,0.3-1.6,0.4-2.4c0.5-2,1.6-3.5,3.4-4.6c2.2-1.3,4.5-1.7,7-1.5c2.8,0.2,5.2,1.5,7.1,3.5c2.1,2.1,3.7,4.7,4.8,7.4
				c1.1,2.5,1.6,5.2,2,7.9c0.9,7.4,0.3,14.7-1.8,21.8c-1.8,5.9-4.8,11-9.1,15.4c-1.2,1.2-2.5,2.4-4,3.3c-1,0.6-2,1-3,1.5
				C238.4,350.3,238.2,350.4,238,350.4z M238.1,346.7c0.3-0.2,0.6-0.3,0.8-0.4c2.9-1.9,5-4.5,5.9-8c0.6-2.2,1-4.4,1.2-6.7
				c0.6-5.5,0.9-11,0.9-16.5c0-2.7,0-5.4-0.1-8.1c-0.1-2.5-0.3-5-0.5-7.6c-0.1-1.2-0.3-2.3-0.8-3.4c-0.9-2.1-3.4-3.4-5.6-2.8
				c0,0.1-0.1,0.1-0.1,0.2c-1.2,15.7-1.3,31.5-1.8,47.2C238.1,342.6,238.1,344.6,238.1,346.7z"/>
			<path class="st114" d="M217.5,363.9c-0.7-3.6-1.4-7-2.1-10.5c-5.5-0.1-11-0.4-16.6-0.8c-0.2,3.5-0.4,7-0.5,10.6
				c0.5,0.1,1,0.2,1.4,0.2c0.6,0.1,0.8,0.3,0.9,0.8c0.1,0.5-0.2,0.9-0.7,1.1c-0.3,0.1-0.7,0.2-1,0.2c-1.2,0-2.4-0.1-3.6-0.2
				c-0.4,0-0.7-0.1-1-0.3c-0.7-0.4-0.7-1.1,0-1.5c0.3-0.2,0.7-0.3,1.2-0.4c0-1,0-2.1,0-3.2c0.1-3.3,0.3-6.7,0.4-10
				c0.1-2.6,0.2-5.2,0.4-7.7c0.2-3.2,0.5-6.4,0.7-9.6c0.2-2.7,0.5-5.5,0.7-8.2c0.5-6.3,1.3-12.6,3-18.7c0.5-1.7,1.1-3.3,1.7-5
				c0.7-1.6,1.7-3.1,3-4.2c1.1-0.9,2.4-1.4,3.8-1.2c1.1,0.2,2.1,0.7,2.9,1.4c0.8,0.8,1.4,1.7,1.9,2.7c1.3,2.7,2.2,5.5,2.8,8.4
				c0.7,3.4,1.3,6.8,1.9,10.2c0.6,3.7,1.2,7.5,1.8,11.2c0.5,3.6,1.1,7.3,1.5,10.9c0.5,4.5,0.9,8.9,1.4,13.4c0.3,2.5,0.6,4.9,1,7.4
				c0.1,0.8,0.1,1.5,0.2,2.4c0.4,0,0.9-0.1,1.3-0.1c0.7,0,1.2,0.3,1.3,0.9c0.2,0.7-0.2,1.3-1,1.5c-0.7,0.2-1.5,0.4-2.2,0.5
				c-1.9,0.2-3.8,0.6-5.7,0.5c-0.6,0-1.3,0-1.9,0c-0.3,0-0.6-0.1-0.8-0.2c-0.4-0.2-0.7-0.5-0.6-1c0-0.4,0.3-0.7,0.7-0.9
				c0.4-0.1,0.7-0.2,1.1-0.3C216.9,364,217.2,363.9,217.5,363.9z M205.7,302.3c-0.1,0-0.1,0-0.2,0c-0.1,0.1-0.1,0.2-0.2,0.3
				c-0.3,0.8-0.7,1.6-0.9,2.5c-1.4,4.6-2.2,9.4-2.8,14.2c-0.3,2.7-0.6,5.5-0.8,8.2c-0.4,3.8-0.7,7.6-1,11.4
				c-0.3,3.2-0.5,6.4-0.8,9.6c0,0.6-0.1,1.1-0.1,1.7c5.3-0.2,10.6-0.4,15.9-0.5c0-0.2,0-0.3,0-0.5c-1.2-6.2-2.3-12.4-3.5-18.6
				c-0.9-4.9-1.7-9.9-2.6-14.8c-0.7-4.4-1.7-8.7-2.8-13C205.9,302.7,205.8,302.5,205.7,302.3z"/>
			<path class="st114" d="M291.1,329.5c-0.1,1.4-0.3,2.8-0.3,4.2c-0.1,5.7-0.2,11.4-0.4,17c-0.1,3.2-0.3,6.4-0.5,9.6
				c-0.1,1.1-0.1,2.1-0.2,3.2c0,0.2,0,0.5,0,0.7c0.3,0,0.6,0,0.9,0c0.3,0,0.6,0,0.9,0.1c0.5,0.2,0.9,0.6,0.9,1.1
				c0,0.6-0.3,1-0.8,1.2c-0.2,0.1-0.5,0.2-0.7,0.2c-1.4,0-2.7,0-4.1,0c-0.4,0-0.8-0.1-1.1-0.3c-0.4-0.1-0.6-0.5-0.6-0.9
				c0-0.4,0.2-0.8,0.6-0.9c0.4-0.2,0.8-0.3,1.2-0.4c0.2,0,0.3-0.1,0.5-0.1c0-0.1,0-0.2,0-0.3c-0.3-3.2-0.1-6.5-0.1-9.7
				c0-3.6,0-7.1,0.1-10.7c0.1-3.9,0.1-7.9,0.3-11.8c0.2-3.8,0.5-7.6,1.5-11.3c0.2-0.7,0.4-1.4,0.7-2.1c0.9-2.1,2.9-2.5,4.7-1.2
				c0.8,0.6,1.3,1.4,1.8,2.2c1,1.8,1.9,3.6,2.6,5.5c1.3,3.5,2.4,7.1,3.4,10.7c1.6,5.8,3.2,11.6,4.8,17.5c0.5,1.8,1.1,3.5,1.7,5.3
				c0.1,0.2,0.2,0.4,0.4,0.6c0.1-1.2,0.1-2.4,0.2-3.7c0.2-2.5,0.4-5,0.5-7.5c0.1-2.3,0.3-4.5,0.4-6.8c0.2-3.7,0.4-7.4,0.6-11.1
				c0.1-1.9,0.2-3.8,0.3-5.6c0.2-2.7,0.4-5.5,0.6-8.2c-0.5-0.1-1-0.1-1.6-0.2c-0.4-0.1-0.8-0.2-1.1-0.3c-0.4-0.1-0.7-0.4-0.6-0.9
				c0-0.4,0.3-0.7,0.7-0.7c0.7-0.2,1.4-0.3,2.1-0.4c1.5-0.1,3.1-0.2,4.6-0.2c1,0,1.9,0.2,2.8,0.3c0.7,0.1,1,0.5,1,1
				c0,0.6-0.4,1-1.1,1.1c-0.6,0.1-1.2,0.1-1.8,0.2c-0.2,0-0.4,0.1-0.7,0.1c-0.1,0.9-0.1,1.7-0.2,2.6c-0.3,3.2-0.6,6.3-0.8,9.5
				c-0.3,3.6-0.6,7.1-0.9,10.7c-0.1,2-0.2,4-0.2,6c-0.1,3.7-0.2,7.4-0.3,11.1c-0.1,2.3-0.2,4.6-0.3,7c0,0.3-0.1,0.7-0.1,1
				c-0.1,1.7-1.6,2.8-2.9,3c-1.1,0.1-2.2,0.1-3.3,0.1c-1.3-0.1-2.3-0.7-2.9-1.8c-0.6-1.2-1.2-2.4-1.8-3.7c-3.2-7.9-6.2-16-8.7-24.2
				c-0.8-2.5-1.6-5-2.4-7.5c0-0.1-0.1-0.3-0.2-0.4C291.2,329.5,291.1,329.5,291.1,329.5z"/>
			<path class="st114" d="M185.5,296.7c0.1-0.4,0.1-0.7,0.2-1.1c0.2-0.6,0.6-1,1.1-1c0.5,0,1,0.3,1.2,0.9c0.5,1.6,0.6,3.1,0.2,4.7
				c-0.1,0.5-0.5,0.9-1,0.9c-0.5,0-0.9-0.2-1.1-0.7c-0.2-0.5-0.4-1-0.5-1.4c-4.1,0.6-8.1,1.1-11.9,2.7c-0.6,0.3-0.9,0.6-0.9,1.3
				c-0.2,6-0.3,12-0.2,18c0.1,4.6,0.2,9.2,0.3,13.8c0.1,3.5,0.3,7.1,0.4,10.6c0.1,1.2,0.1,2.3,0.2,3.6c0.3,0,0.6,0.1,0.8,0.1
				c2.3,0,4.6-0.1,6.9-0.1c0.8,0,1.6,0,2.5,0c0.1-0.3,0.1-0.5,0.2-0.8c0.2-0.7,0.6-1,1.2-1c0.6,0,1.1,0.4,1.2,1c0.2,1.3,0.4,2.7,0,4
				c-0.1,0.3-0.2,0.5-0.4,0.7c-0.5,0.5-1.3,0.3-1.6-0.3c-0.2-0.3-0.3-0.7-0.4-1.1c-3.3,0-6.7,0-10.1,0c0.1,3,0.3,5.9,0.4,9
				c4.8,0.4,9.7,0.1,14.7,0.6c0-0.2,0.1-0.4,0.1-0.6c0-0.3,0.1-0.6,0.1-0.8c0.2-0.6,0.6-0.9,1.1-1c0.5,0,1,0.3,1.3,0.9
				c0.1,0.2,0.1,0.3,0.2,0.5c0.2,1.6,0.3,3.2,0.2,4.9c0,0.2,0,0.3-0.1,0.5c-0.2,0.5-0.5,0.8-1.1,0.9c-0.5,0-0.9-0.2-1.2-0.6
				c-0.2-0.4-0.3-0.8-0.5-1.2c-0.2,0-0.4,0-0.6,0c-4.5,0.1-9.1,0.2-13.6,0.3c-1.6,0-3.3-0.1-4.9-0.3c-1.3-0.2-2.4-0.8-3.3-1.9
				c-0.7-0.9-0.9-1.9-0.9-3c-0.2-2.7-0.4-5.4-0.5-8.1c-0.2-5.8-0.4-11.7-0.6-17.5c-0.1-4.7-0.2-9.5-0.3-14.3
				c-0.1-3.5,0-6.9,0.4-10.4c0.2-1.6,0.4-3.2,0.9-4.8c0.6-1.9,1.8-3.4,3.7-4.2c3.3-1.4,6.7-2.7,10.3-3.3
				C181.5,296.6,183.4,296.5,185.5,296.7z"/>
			<path class="st114" d="M282.9,335.5c0,7-1,13.9-3,20.7c-0.5,1.7-1.1,3.4-2,4.9c-0.8,1.5-1.9,2.9-3.3,3.9c-2.1,1.6-4.5,2-7,1.1
				c-3.8-1.4-6.5-4.1-8.3-7.7c-1.1-2.2-1.6-4.4-1.9-6.8c-0.4-3.8-0.2-7.7,0.3-11.5c0.6-5.3,1.7-10.4,3.3-15.5c0.9-2.8,2-5.5,3.6-7.9
				c0.6-0.9,1.3-1.8,2-2.6c1-1.2,2.3-1.9,3.7-2.5c1.4-0.6,2.8-0.6,4.2-0.1c2,0.6,3.4,2,4.5,3.7c0.8,1.3,1.3,2.7,1.8,4.2
				c0.8,2.6,1.3,5.3,1.6,8C282.7,330,282.9,332.8,282.9,335.5z M268.1,345c0.1,2.2,0.1,3.8,0.2,5.3c0.1,2.5,0.3,5,0.8,7.5
				c0.3,1.5,0.7,3,1.6,4.3c0.5,0.7,0.6,0.7,1.3,0.4c1.2-0.6,2-1.5,2.8-2.5c0.9-1.3,1.5-2.6,2-4.1c1.7-4.6,2.4-9.4,2.8-14.3
				c0.2-2.8,0.2-5.6,0.1-8.4c-0.2-3.5-0.6-6.9-1.5-10.3c-0.5-1.8-1-3.6-2-5.3c-0.7-1.2-1.6-2-2.8-2.6c-0.7-0.3-0.8-0.3-1.3,0.3
				c-0.7,0.9-1,1.9-1.3,3c-0.7,2.5-0.9,5-1.2,7.6c-0.3,2.9-0.6,5.8-0.8,8.7C268.4,338.2,268.3,341.9,268.1,345z"/>
		</g>
	</g>
	<g>
		<path class="st114" d="M131,158.4c1-3.9-0.2-9.4-3.5-14.3c-4.9-7.2-12.6-10.6-17.1-7.5c-4.6,3.1-4.3,11.4,0.6,18.7
			c3.1,4.5,7.2,7.5,11,8.4c0.3,0.1,0.7,0.1,1,0.2c9.8,4.7,28.7,39.7,31.2,48.3c1.8,6.4,5.6,3.6,8.5,1.5c3.1-2,7-4.4,1.7-8.5
			C157.3,199.7,131.7,169.2,131,158.4z"/>
		<g>
			<path class="st114" d="M225.7,136l-4.1-0.4c-0.8-0.1-1.5,0.5-1.6,1.3l-6.6,77.4c-0.1,0.8,0.5,1.5,1.3,1.6l4.1,0.4
				c0.8,0.1,1.5-0.5,1.6-1.3l6.6-77.4C227,136.8,226.4,136.1,225.7,136z"/>
			<path class="st117" d="M233.9,137.3l-20.6-1.8c-0.8-0.1-1.4-0.8-1.3-1.6l2.8-32.9c0.1-0.8,0.8-1.4,1.6-1.3l20.6,1.8
				c0.8,0.1,1.4,0.8,1.3,1.6l-2.8,32.9C235.4,136.8,234.7,137.4,233.9,137.3z"/>
		</g>
		<g>
			<g>
				<path class="st118" d="M194.9,192.3c1.7,3.7,14.2,21.2,4.9,23.9c-9.3,2.7-6.3-20.3-7.2-23.2
					C192.6,192.8,194.9,192.3,194.9,192.3z"/>
				<path class="st118" d="M162,88.9c-1.7-3.7-14.2-21.2-4.9-23.9c9.3-2.7,6.3,20.3,7.2,23.2C164.3,88.5,162,88.9,162,88.9z"/>
			</g>
			<path class="st114" d="M198.7,193.1l-0.7-2.5l3.6-1c0.5-0.1,0.8-0.6,0.6-1.1l-29-101.1c-0.1-0.5-0.7-0.8-1.1-0.6l-3.6,1l-0.7-2.3
				c-0.1-0.5-0.6-0.8-1.1-0.6l-7.9,2.3c-0.5,0.1-0.8,0.6-0.6,1.1l0.7,2.3l-3.6,1c-0.5,0.1-0.8,0.6-0.6,1.1l29,101.1
				c0.1,0.5,0.7,0.8,1.1,0.6l3.6-1l0.7,2.5c0.1,0.5,0.6,0.8,1.1,0.6l7.9-2.3C198.6,194.1,198.9,193.5,198.7,193.1z"/>
		</g>
		<path class="st114" d="M309.9,132.9c-1.7,2.4-3.5,4.7-5.2,7.1c-0.6,0.8-1.3,1.7-1.8,2.5c-0.8,1.2-0.7,2.4,0.2,3
			c0.9,0.6,1.9,0.3,2.7-0.9c2.4-3.3,4.9-6.6,7.3-9.9c0.4-0.6,0.8-1.1,1.7-0.6c0.9,0.5,0.9,1.1,0.3,1.8c-2.4,3.2-4.7,6.4-7.1,9.6
			c-1.1,1.5-1.2,2.5-0.4,3.2c0.9,0.7,2,0.3,3.1-1.3c2.3-3.2,4.7-6.3,7-9.5c0.4-0.5,0.8-1.3,1.6-0.6c0.8,0.6,0.8,1.3,0.2,2.1
			c-2.5,3.3-4.9,6.6-7.3,9.9c-0.4,0.6-0.6,1.4-0.5,2.1c0.1,0.4,0.8,1.1,1.3,1.1c0.6,0,1.3-0.3,1.7-0.8c2.3-3,4.5-6,6.7-9
			c0.3-0.4,0.5-0.7,1-1.3c0.5,3.3,0,6.2-1.2,9c-2.5,5.7-6.7,9.5-12.9,10.9c-1.5,0.3-3,0.7-4.5,1.1c-2.2,0.6-3.9,1.8-5.3,3.7
			c-11.7,15.9-23.5,31.8-35.2,47.7c-0.4,0.6-1,1.2-1.6,1.7c-1.2,0.9-2.6,0.7-3.6-0.2c-0.9-0.9-1.1-2.3-0.5-3.5
			c0.2-0.4,0.5-0.8,0.8-1.1c11.6-15.7,23.2-31.5,34.8-47.2c2-2.8,2.8-5.7,2.5-9c-0.4-3.8-0.6-7.5,1.1-11c2.3-5,5.9-8.6,11.1-10.4
			c0.6-0.2,1.2-0.3,1.8-0.4C309.7,132.7,309.8,132.8,309.9,132.9z"/>
		<g>
			<g id="jMEmYU_5_">
				<g>
					<path class="st117" d="M295.8,92.4c-1.3-8.3-10.7-13.4-18.2-9.6c-5.6,2.8-8.1,7.7-9.4,13.4c-1.5,6.2-1.6,12.6-2,18.9
						c-0.4,6.9-0.5,13.9-2,20.7c-0.2,0.9-0.4,1.9-0.6,2.8l7.5,2.8c0.1-0.2,0.2-0.5,0.3-0.7c0.5-1.1,1.1-2.3,1.8-3.3
						c3.1-4.8,6.1-9.6,9.3-14.3c3.3-5,6.9-9.7,10-14.8C295.3,103.5,296.7,98.2,295.8,92.4z M267,129.3c0-0.8,0.3-4.9,0.4-5.7
						c0.5-7.7,1-15.5,1.7-23.2c0.4-4.1,1.5-8,4-11.4c1.6-2.2,3.7-3.7,6.4-4.8c-1.2,2.1-2.5,4-3.5,6c-2,4-3.4,8.2-4.2,12.5
						c-1.4,7.6-2.6,15.1-3.9,22.7C267.8,125.6,267.3,129.1,267,129.3z M266.7,138.9c-0.1,0-0.1,0-0.2,0c0.4-1.6,0.7-3.2,1.1-4.8
						c1.5-7.7,3-15.5,4.3-23.2c0.8-4.9,1.6-9.8,3.1-14.6c1.4-4.2,3.4-8,7.2-10.6c0.8-0.6,1.8-0.9,2.7-1.3c0.8-0.3,1,0.1,0.8,0.8
						c-0.1,0.4-0.2,0.7-0.4,1.1c-1.8,4.9-3.6,9.7-5.4,14.6c-4.4,12.6-7.8,22.6-12.2,35.2C267.7,136.1,266.7,138.7,266.7,138.9z
						 M269.3,138.1c-0.1,0.3-0.3,0.5-0.4,0.8c5.5-18.3,12.7-35.9,18.7-54c0.1,0,0.2-0.1,0.4-0.1c0.4,0.7,0.8,1.4,1.1,2.2
						c0.9,2.8,0.9,5.7,0.6,8.7c-0.5,4.7-2.5,8.9-4.7,12.9c-3.7,6.8-7.5,13.4-11.2,20.2C272.2,131.8,270.8,135,269.3,138.1z
						 M292,105.6c-3.2,6.5-7.6,12.3-11.9,18c-1.9,2.5-3.6,5.1-5.3,7.6c-0.2,0.2-0.3,0.5-0.5,0.7c-0.1,0-0.1-0.1-0.2-0.1
						c1.1-2,2.2-3.9,3.3-5.9c3.8-7,7.8-13.9,11.4-20.9c1.5-2.9,2.4-6,3.4-9.2c0.5-1.9,0.5-3.9,1-6c0.4,1.5,1.1,3,1.3,4.5
						C294.8,98.4,293.8,102.1,292,105.6z"/>
				</g>
			</g>
			<g>
				<path class="st114" d="M270.2,140.2l-5.1-1.9c-0.7-0.3-1.6,0.1-1.8,0.9L236.3,212c-0.3,0.7,0.1,1.6,0.9,1.8l5.1,1.9
					c0.7,0.3,1.6-0.1,1.8-0.9L271,142C271.3,141.3,270.9,140.4,270.2,140.2z"/>
			</g>
		</g>
	</g>
</g>
</svg>
