<?xml version="1.0" encoding="utf-8"?>
<!-- Generator: Adobe Illustrator 22.0.1, SVG Export Plug-In . SVG Version: 6.00 Build 0)  -->
<svg version="1.1" id="Calque_1" xmlns="http://www.w3.org/2000/svg" xmlns:xlink="http://www.w3.org/1999/xlink" x="0px" y="0px"
	 viewBox="0 0 432 432" style="enable-background:new 0 0 432 432;" xml:space="preserve">
<style type="text/css">
	.st0{fill:#B3A6AD;}
	.st1{fill:#B6B155;}
	.st2{fill:#990033;}
	.st3{fill:#660A1E;}
	.st4{fill:#A7A6AA;}
	.st5{fill:#EF798A;}
	.st6{fill:#FFB2B2;}
	.st7{fill:#A70808;}
	.st8{fill:#DF4646;}
	.st9{fill:#FF7878;}
	.st10{fill:#F2A297;}
	.st11{fill:#BA1717;}
	.st12{fill:#543A3C;}
	.st13{fill:#CA1542;}
	.st14{fill:#E74C6E;}
	.st15{fill:#006837;}
	.st16{fill:#004924;}
	.st17{fill:#D33757;}
	.st18{fill:#E06581;}
	.st19{fill:#014724;}
	.st20{fill:#E14666;}
	.st21{fill:#ABDFD3;}
	.st22{fill:#C5EFE4;}
	.st23{fill:#DC4160;}
	.st24{fill:#A888AD;}
	.st25{fill:#B99BBF;}
	.st26{fill:#F8A362;}
	.st27{fill:#F9B587;}
	.st28{fill:#F2F2F2;}
	.st29{fill:#FDFFFE;}
	.st30{fill:#F2D668;}
	.st31{fill:#F9E4A5;}
	.st32{fill:#F5A6DF;}
	.st33{fill:#F4CEEB;}
	.st34{fill:#CCCCCC;}
	.st35{fill:#FBB03B;}
	.st36{fill:#FFFFFF;}
	.st37{fill:#ECCDD2;}
	.st38{fill:#8AD7AB;}
	.st39{fill:#8FC8E2;}
	.st40{fill:#D3CE94;}
	.st41{fill:#F9CFCF;}
	.st42{fill:#EDE9C3;}
	.st43{fill:#9BD6EA;}
	.st44{fill:#F8D9C4;}
	.st45{fill:#EB678B;}
	.st46{fill:#A5394C;}
	.st47{fill:#DD726C;}
	.st48{fill:#E5847A;}
	.st49{fill:#EF8A7F;}
	.st50{fill:#3CBC91;}
	.st51{fill:#8CC63F;}
	.st52{fill:#B78D5C;}
	.st53{fill:#2A2A2B;}
	.st54{fill:#EBCEC6;}
	.st55{fill:#F49090;}
	.st56{fill:#B3D8E8;}
	.st57{fill:#EFE6E4;}
	.st58{fill:#FBD8E3;}
	.st59{fill:#E48397;}
	.st60{fill:#B2E6F9;}
	.st61{fill:#42210B;}
	.st62{fill:#E0E0E0;}
	.st63{fill:#9D6D47;}
	.st64{fill:#EFD1B4;}
	.st65{fill:#0071BC;}
	.st66{fill:#679CBA;}
	.st67{fill:#DBDCDD;}
	.st68{fill:#DDB28E;}
	.st69{fill:#C69C6D;}
	.st70{fill:#603813;}
	.st71{fill:#8C6239;}
	.st72{fill:#E9EAE4;}
	.st73{fill:#F7931E;}
	.st74{fill:#754C24;}
	.st75{fill:#A67C52;}
	.st76{fill:#9E1E28;}
	.st77{fill:#F15A24;}
	.st78{fill:#E04819;}
	.st79{fill:#009245;}
	.st80{fill:#00552B;}
	.st81{fill:#84821B;}
	.st82{fill:#CD271F;}
	.st83{fill:#BB8130;}
	.st84{fill:#BBBABF;}
	.st85{fill:#E0E0E2;}
	.st86{fill:#C79359;}
	.st87{fill:#BA844F;}
	.st88{fill:#29ABE2;}
	.st89{fill:#EEB752;}
	.st90{fill:#A8B0B2;}
	.st91{fill:#035684;}
	.st92{fill:#EFBF73;}
	.st93{fill:#D3A272;}
	.st94{fill:#C3C8C9;}
	.st95{fill:#EBDCC9;}
	.st96{fill:#EAD696;}
	.st97{fill:#E57ACC;}
	.st98{fill:#8D5F96;}
	.st99{fill:#FFD9E4;}
	.st100{fill:#60BA84;}
	.st101{fill:#CCEDE5;}
	.st102{fill:#E8E8E8;}
	.st103{fill:#F9D2D2;}
	.st104{fill:#B9B9BA;}
	.st105{fill:#939393;}
	.st106{fill:#62612A;}
	.st107{fill:#79484E;}
	.st108{fill:#C2BE5C;}
	.st109{fill:#F1C3A2;}
	.st110{fill:#B2625C;}
	.st111{fill:#E1AE9D;}
	.st112{fill:#7597A0;}
	.st113{fill:#F2DBD5;}
	.st114{fill:#B27C62;}
	.st115{fill:#E6E6E6;}
	.st116{fill:#AF8864;}
	.st117{fill:#F1E9DF;}
	.st118{fill:#9E6A56;}
	.st119{fill:#2E3192;}
	.st120{fill:#EAEAEA;}
	.st121{fill:#1B1464;}
	.st122{fill:#EAE5E6;}
	.st123{fill:#7F9BEA;}
	.st124{fill:#EEBCC5;}
	.st125{fill:#DB8E98;}
	.st126{fill:#B58187;}
	.st127{fill:#80424C;}
	.st128{fill:#F3EED0;}
	.st129{fill:#CCD8B0;}
	.st130{fill:#46653B;}
	.st131{fill:#345129;}
	.st132{fill:#C9A6AC;}
	.st133{fill:#D6B6BA;}
	.st134{fill:#DE7139;}
	.st135{fill:#F2CB56;}
	.st136{fill:#DE3A55;}
	.st137{fill:#CD9586;}
	.st138{fill:#B47468;}
	.st139{fill:#F5DCD8;}
	.st140{fill:#C4BCBF;}
	.st141{fill:#E0B182;}
	.st142{fill:#9B6B61;}
	.st143{fill:#DBB89B;}
	.st144{fill:#DED2D3;}
	.st145{fill:#7D6364;}
	.st146{fill:#F1A3A1;}
	.st147{fill:#B3B3B3;}
	.st148{fill:#F9CEBE;}
	.st149{fill:#142738;}
	.st150{fill:#911928;}
	.st151{fill:#A32F4E;}
	.st152{fill:#7A0118;}
	.st153{fill:#DAE576;}
	.st154{fill:#E87F38;}
	.st155{fill:#F47621;}
	.st156{fill:#BC5B1B;}
	.st157{fill:#E6EF6A;}
	.st158{fill:#7C0101;}
	.st159{fill:#6DA84A;}
	.st160{fill:#83AF6E;}
	.st161{fill:#39B54A;}
	.st162{fill:#812791;}
	.st163{fill:#FC540D;}
	.st164{fill:#DD4410;}
	.st165{fill:#D3CE6A;}
	.st166{fill:#F2C8AD;}
	.st167{fill:#EFB58E;}
	.st168{fill:#F27622;}
	.st169{fill:#8DA34F;}
	.st170{fill:#ACBF77;}
	.st171{fill:#D6C188;}
	.st172{fill:#E5CED4;}
	.st173{fill:#15104F;}
	.st174{fill:#E5E3E3;}
</style>
<g>
	<g>
		<g>
			<path d="M141.2,139.3c0.5-13.4,2.1-31.8,3.7-45.1c0.4-2.9,0.9-5.9,1.5-8.8c0.7-3.4,2.5-4.7,5.9-3.9c2.3,0.5,4.6,0.2,6.8,0.6
				c3.2,0.5,4.7,2.1,4.5,5.4c-0.2,4.1-2,13.2-2.6,17.3c-1,7.2-1.8,14.3-2.1,21.6c-0.5,10.2-0.1,20.4-0.3,30.6c0,0.3,0,0.6,0,0.9
				c-0.1,1.1,0.5,1.3,1.4,1.1c1.9-0.3,3.9-0.6,5.8-1c2.3-0.5,4,0.4,4.5,2.3c0.5,2.1-0.7,3.8-3.1,4.2c-2.9,0.5-5.9,1-8.8,1.2
				c-2.5,0.2-5,0.6-7.5,0.5c-1.3-0.1-2.6-0.2-3.8-0.5c-2.5-0.6-4-2.4-4.7-4.8c-0.9-3-1.1-6.1-1.2-9.3
				C141,147.6,141,143.5,141.2,139.3z"/>
			<path d="M174.5,127.2c-0.1-9.4,0.2-18.8,0.6-28.2c0.2-3.8,0.4-7.7,0.4-11.5c0.1-3.1,2.7-5.9,5.4-5.7c2.2,0.2,4.4,0.1,6.6,0.3
				c0.8,0.1,1.5,0.1,2.3,0.3c3.7,0.8,5.1,3,4.7,7.3c-1.7,15.8-2.1,31.7-1.5,47.6c0.2,6.8,0.6,13.7,0.8,20.5c0,1.3,0.1,2.6-0.1,3.8
				c-0.2,2.8-1.8,4.6-4.3,4.7c-2.8,0.1-5.6,0.1-8.4-0.3c-3.9-0.5-5.5-2.6-6.1-7c-0.3-2.8-0.4-5.6-0.4-8.5
				C174.5,142.8,174.5,135,174.5,127.2z"/>
			<path d="M198.6,123.9c0-12.3,0.6-22.4,1.9-32.5c0.2-1.3,0.4-2.5,0.8-3.7c1-3.5,3.3-5.1,7.1-5.6c5.1-0.7,10.2-0.3,15.2,0.6
				c1.3,0.2,2.6,0.4,3.8,0.7c1.7,0.5,2.6,1.9,2.4,3.4c-0.2,1.5-1.5,2.6-3.4,2.5c-2.6-0.2-5.1-0.7-7.7-1c-1.5-0.2-1.5-0.2-1.6,1.2
				c-1.2,9.3-2.2,18.7-2.2,28.1c0,7.3,0.3,14.6,0.9,21.8c0.2,1.8,0.2,1.7,2.1,1.9c0.8,0.1,1.7,0.2,2.5,0.4c1.7,0.4,2.7,1.8,2.5,3.3
				c-0.2,1.6-1.4,2.5-3.3,2.6c-0.9,0-2-0.6-2.5,0.3c-0.4,0.6,0.1,1.5,0.2,2.3c0.4,2.9,0.9,5.7,1.1,8.6c0.3,3.5-0.7,4.7-4.2,5.8
				c-1.5,0.5-3,1-4.6,1.4c-3.2,0.8-5.1-0.2-6.2-3.1c-1.8-5.1-2.7-10.4-3.4-15.8C199,138.7,198.5,130.2,198.6,123.9z"/>
			<path d="M233.7,114.1c0-7.5,0.3-15.6,2.2-23.7c0.4-1.6,0.9-3.2,1.7-4.7c1.3-2.4,3.3-3.7,6.1-4c5.2-0.6,10.3-0.1,15.5,0.2
				c0.5,0,1.1,0.2,1.5,0.4c1.5,0.5,2.3,1.8,2.1,3.2c-0.1,1.4-1.3,2.5-2.8,2.7c-1,0.1-2.1,0-3.2-0.1c-0.5,0-0.9-0.1-1.4-0.2
				c-2.8-0.2-2.8-0.2-3.2,2.5c-0.9,5.2-1.7,10.4-2.4,15.7c-1.3,9.4-1.7,18.9-0.8,28.4c0.1,1.2,0.2,2.3,0.2,3.5
				c0,0.9,0.4,1.3,1.4,1.2c1.3-0.1,2.6,0,3.9,0c0.9,0,1.7,0.2,2.4,0.7c1.2,0.8,1.7,2.1,1.3,3.4c-0.4,1.4-1.8,2.3-3.5,2.3
				c-1,0-2-0.2-3-0.2c-1.5,0-1.6,0.2-1.5,1.5c0.4,3.7,0.8,7.3,1.2,11c0.2,1.4,0.3,1.5,1.7,1.2c1.6-0.3,3.3-0.5,4.9-1
				c2.2-0.7,4,0.2,4.6,2c0.5,1.7-0.6,3.6-2.7,4.2c-1.3,0.4-2.7,0.6-4,0.8c-3.8,0.6-7.6,1.3-11.5,1.4c-3.8,0.1-4.9-0.6-6.4-4.5
				c-0.8-2-0.9-4.2-1.2-6.4c-0.9-6-1.4-12.1-2-18.1C234.1,129.8,234,122.3,233.7,114.1z"/>
		</g>
		<g>
			<path d="M182.3,224.5c-0.1,0.2-0.2,0.4-0.3,0.5c-0.4,0.6-0.8,1.3-1.3,1.8c-1.1,1.2-2.6,1.3-3.9,0.4c-0.7-0.5-1.3-1.2-1.7-1.9
				c-0.6-1.1-0.9-2.2-1.1-3.4c-0.4-2.4-0.7-4.8-0.7-7.2c0-0.4,0-0.8,0.1-1.2c0.1-0.4,0.2-0.6,0.6-0.7c0.4-0.1,0.7,0.1,0.9,0.4
				c0.2,0.4,0.4,0.8,0.5,1.2c0.3,1.4,0.5,2.8,0.8,4.2c0.3,1.8,0.6,3.6,1.2,5.3c0.2,0.5,0.4,0.9,0.6,1.3c0.5,0.8,1,0.8,1.6,0.1
				c0.5-0.6,0.9-1.2,1.2-1.9c0.8-1.6,1.2-3.3,1.5-5c0.2-0.9,0.2-1.8,0.2-2.7c0-0.7,0-1.4,0-2.1c0.1-0.8,0.5-1.4,1.2-1.6
				c0.8-0.3,1.5-0.1,2.1,0.5c0.4,0.4,0.7,0.8,0.8,1.3c0.2,0.9,0.4,1.8,0.5,2.7c0.3,4.4,0.5,8.8,0.4,13.2c-0.1,2-0.3,4-1.1,5.9
				c-0.5,1.1-1.1,2.2-1.9,3c-0.5,0.5-0.9,0.9-1.4,1.4c-0.6,0.6-1.3,0.9-2.1,1.1c-0.5,0.1-0.9,0.1-1.4-0.1c-0.8-0.3-1.1-1.1-0.7-1.9
				c0.2-0.4,0.5-0.8,0.8-1.2c0.3-0.4,0.6-0.9,1-1.3c0.5-0.7,0.8-1.5,1.1-2.4c0.4-1.5,0.6-3.1,0.6-4.7c0-1.6,0-3.2,0-4.8
				c0-0.1,0-0.2,0-0.3C182.4,224.6,182.3,224.5,182.3,224.5z"/>
			<path d="M207.2,222.7c0,1.8,0,3.7,0,5.5c0,1.8,0.3,3.6,0.8,5.3c0.1,0.4,0.3,0.8,0.6,1.2c0.3,0.4,0.7,0.5,1.2,0.2
				c0.7-0.4,1.1-1,1.5-1.7c0.8-1.6,1.4-3.3,1.8-5c0.5-2.3,0.8-4.6,0.9-7c0.1-2.2,0.2-4.4,0.3-6.6c0-0.3,0.1-0.6,0.1-1
				c0.1-0.5,0.4-0.8,0.8-0.8c0.4,0,0.7,0.3,0.7,0.8c0.1,0.3,0.1,0.7,0.1,1c0,2.5,0,5-0.1,7.5c-0.2,3.4-0.6,6.7-1.5,10
				c-0.2,0.7-0.5,1.5-0.8,2.2c-0.3,0.8-0.8,1.6-1.4,2.2c-2.2,2.6-5.4,2-7.2,0.3c-0.8-0.8-1.4-1.8-1.7-2.9c-0.6-1.9-0.9-3.9-0.9-6
				c0-3.9,0.1-7.8,0.7-11.7c0.1-0.6,0.2-1.2,0.4-1.8c0.1-0.4,0.3-0.7,0.5-1.1c0.7-1.1,2.1-1.1,2.7,0.1c0.3,0.6,0.5,1.3,0.5,1.9
				c0.1,1.3,0.2,2.6,0.2,3.9C207.2,220.4,207.2,221.6,207.2,222.7C207.2,222.7,207.2,222.7,207.2,222.7z"/>
			<path d="M189.3,228.7c0.2-3.4,0.4-6.7,1.2-9.9c0.2-1,0.5-1.9,0.9-2.8c0.2-0.6,0.6-1.2,0.9-1.7c1-1.4,3.2-2.1,5-0.7
				c1.2,0.9,1.9,2.1,2.3,3.5c0.5,1.5,0.8,3.1,0.9,4.7c0.2,4.2-0.3,8.4-1.3,12.6c-0.2,1-0.6,2-1,2.9c-0.3,0.7-0.7,1.3-1.3,1.8
				c-1.3,1.1-2.7,1.2-4,0.2c-0.9-0.6-1.5-1.5-2-2.4c-0.6-1.2-0.9-2.4-1.1-3.7C189.4,231.6,189.3,230.1,189.3,228.7z M195.4,236.5
				c0.6-0.4,0.9-1,1.1-1.5c0.4-1,0.8-2.1,1.1-3.2c0.6-1.9,0.8-3.9,1-5.9c0.1-1.8,0.2-3.6-0.1-5.5c-0.2-1.2-0.5-2.4-1.1-3.5
				c-0.3-0.5-0.6-0.9-1.1-1.2c-0.2-0.1-0.4-0.2-0.6-0.2c-0.4-0.1-0.6,0.1-0.6,0.5c-0.1,0.5-0.2,1-0.2,1.5c-0.3,3.4-0.5,6.8-0.7,10.2
				c-0.1,1.8,0,3.6,0.3,5.5C194.5,234.3,194.8,235.4,195.4,236.5z"/>
		</g>
		<g>
			<path d="M166.9,193.4c-0.1,0.3-0.2,0.5-0.3,0.8c-0.7,2-1.4,4.1-2.2,6.1c-0.3,0.8-0.6,1.6-1,2.4c-0.5,1-1.3,1.4-2.3,1.2
				c-0.7-0.1-1.2-0.4-1.6-0.9c-0.5-0.6-0.9-1.3-1.1-2c-0.4-1.4-0.8-2.8-1-4.3c-0.7-4.1-1.3-8.1-1.7-12.2c-0.1-1.2-0.3-2.4-0.1-3.6
				c0.1-0.2,0.1-0.5,0.2-0.7c0.5-1,1.7-1.2,2.5-0.4c0.3,0.4,0.6,0.8,0.8,1.3c0.4,1.1,0.7,2.3,0.9,3.5c0.6,3.1,1,6.1,1.6,9.2
				c0.3,1.5,0.5,3,0.8,4.6c0,0.1,0.1,0.2,0.1,0.4c0.1-0.2,0.2-0.3,0.3-0.4c1-2.3,1.9-4.5,2.8-6.8c0.1-0.4,0.2-0.7,0.3-1.1
				c0.5-2,2.4-2.1,3.5-1.3c0.4,0.4,0.9,0.8,1.1,1.3c0.4,0.7,0.8,1.5,1.1,2.3c0.4,1.1,0.8,2.1,1.2,3.2c0.1,0.2,0.2,0.4,0.3,0.8
				c0.1-0.4,0.2-0.6,0.3-0.9c1-3.6,2.1-7.1,3.1-10.7c0.5-1.6,1-3.2,1.5-4.9c0.1-0.4,0.3-0.8,0.5-1.1c0.2-0.4,0.6-0.5,1-0.5
				c0.4,0.1,0.7,0.4,0.7,0.9c-0.1,0.9-0.2,1.8-0.3,2.7c-1.2,5.9-2.5,11.7-4,17.5c-0.2,0.6-0.3,1.3-0.5,1.9c-0.1,0.3-0.2,0.7-0.4,1
				c-0.7,1.3-2.3,1.7-3.6,1c-0.6-0.3-1.1-0.8-1.4-1.4c-0.4-0.7-0.8-1.5-1.1-2.3c-0.6-1.9-1.1-3.8-1.7-5.7c-0.1-0.2-0.1-0.4-0.2-0.7
				C167,193.4,167,193.4,166.9,193.4z"/>
			<path d="M187,195.7c1.7,0,3.2,0,4.8,0c0-0.2,0.1-0.3,0.1-0.5c-0.1-3.1-0.1-6.1-0.2-9.2c0-2.4,0-4.7,0.4-7.1
				c0.1-0.4,0.2-0.7,0.3-1c0.6-1.1,1.8-1.2,2.6-0.4c0.4,0.4,0.6,0.9,0.7,1.5c0.2,1,0.4,1.9,0.5,2.9c0.5,5.4,0.8,10.9,0.9,16.3
				c0,0.6,0,1.3-0.1,1.9c-0.1,1.1-0.7,1.9-1.6,2.5c-0.4,0.3-0.9,0.3-1.4,0.1c-0.9-0.4-1.6-1.1-1.8-2.1c-0.1-0.6-0.2-1.3-0.3-2
				c0-0.3-0.1-0.7-0.1-1c-1.7-0.1-3.3-0.1-4.9-0.2c0,0.2,0,0.4,0,0.6c0,0.9,0,1.7-0.1,2.6c-0.1,1.3-0.7,2.3-1.9,2.8
				c-0.6,0.3-1.2,0.2-1.8-0.1c-1.1-0.7-1.6-1.6-1.6-2.9c0.1-2.3,0.1-4.6,0.2-6.9c0.1-1.4,0.1-2.7,0.2-4.1c0.2-3.2,0.4-6.4,0.6-9.6
				c0-0.5,0.1-0.9,0.3-1.4c0.1-0.4,0.3-0.7,0.5-1c0.6-0.9,1.8-0.9,2.5-0.1c0.5,0.5,0.7,1.1,0.8,1.7c0.2,1.3,0.3,2.6,0.4,3.8
				c0,2.5,0,5.1,0,7.6c0,1.5-0.1,3-0.1,4.6C187,195.3,187,195.5,187,195.7z"/>
			<path d="M207.8,197.6c-2.2,0.2-4.4,0.2-6.7-0.2c-0.1,0.9-0.3,1.8-0.4,2.7c0,0.3-0.1,0.5-0.2,0.8c-0.1,0.3-0.3,0.5-0.6,0.5
				c-0.3,0-0.6-0.2-0.7-0.5c-0.1-0.4-0.2-0.8-0.2-1.1c0.1-1,0.2-1.9,0.3-2.9c0.1-1.3,0.2-2.6,0.3-3.9c0.4-4.2,0.7-8.3,1.8-12.4
				c0.3-1,0.7-2,1.1-2.9c0.2-0.5,0.6-1,0.9-1.4c0.9-0.9,2.1-1.2,3.2-0.6c0.8,0.4,1.4,0.9,2,1.6c0.8,1,1.3,2.1,1.8,3.3
				c0.7,2,1.2,4,1.5,6.1c0.5,3.2,1,6.4,1.4,9.6c0.2,1.4,0.3,2.9,0,4.3c-0.1,0.3-0.1,0.6-0.2,0.9c-0.5,1.1-1.4,1.6-2.6,1.3
				c-1-0.2-1.7-0.8-2-1.8c-0.3-0.8-0.5-1.6-0.7-2.4C207.9,198.3,207.9,198,207.8,197.6z M204.7,178.9c-0.2,0.3-0.4,0.5-0.5,0.7
				c-0.2,0.5-0.5,1-0.6,1.5c-0.7,2-1,4.2-1.3,6.3c-0.3,2.1-0.5,4.2-0.8,6.3c0,0.4-0.1,0.8-0.1,1.3c2-0.1,4-0.3,6.1-0.4
				c0-0.5-0.1-1-0.1-1.5c-0.2-2.3-0.3-4.7-0.8-7c-0.4-1.8-0.7-3.5-1-5.3C205.4,180.2,205.2,179.6,204.7,178.9z"/>
			<path d="M217.3,180.6c-1-0.2-2-0.3-2.9-0.5c-0.4-0.1-0.9-0.2-1.3-0.4c-0.5-0.2-0.7-0.4-0.7-0.7c0.1-0.4,0.4-0.6,0.8-0.7
				c0.7-0.1,1.4-0.2,2-0.2c1.8,0,3.6,0,5.4-0.1c1.7,0,3.5-0.1,5.2-0.2c0.4,0,0.7,0.1,0.9,0.5c0.2,0.4,0.2,0.7-0.1,1
				c-0.2,0.4-0.6,0.5-1,0.6c-0.7,0.1-1.5,0.2-2.2,0.3c-0.2,0-0.5,0-0.7,0.1c0,0.2-0.1,0.3-0.1,0.4c0,2.3,0,4.6,0,7
				c0.1,3.5,0.2,7.1,0.3,10.6c0,1.2,0.1,2.3-0.1,3.5c-0.3,1.4-1.4,2.3-2.8,2.1c-0.9-0.1-1.5-0.6-1.9-1.4c-0.3-0.7-0.5-1.4-0.6-2.1
				c-0.1-1.7-0.1-3.3-0.2-5c-0.1-3.2-0.2-6.4-0.2-9.6c0-1.7,0.1-3.3,0.1-5C217.4,180.8,217.4,180.7,217.3,180.6z"/>
			<path d="M147.8,198.7c0,1.9-0.5,3.2-1.7,4.3c-0.8,0.7-1.8,1.1-2.8,1.3c-0.9,0.2-1.6-0.3-1.8-1.2c-0.2-0.6,0.1-1,0.7-1.2
				c0.2-0.1,0.4-0.2,0.5-0.3c0.6-0.6,0.9-1.4,0.7-2.2c-0.1-0.7-0.3-1.3-0.6-1.9c-0.8-1.5-1.6-3.1-2.4-4.5c-1-1.8-2-3.6-2.6-5.6
				c-0.5-1.6-0.6-3.1,0.1-4.7c0.9-2.1,2.5-3.2,4.8-3.3c0.4,0,0.8,0.1,1.1,0.1c0.2,0,0.4,0.1,0.6,0.3c0.3,0.2,0.5,0.5,0.5,0.9
				c-0.1,0.3-0.3,0.5-0.8,0.5c-0.5,0-1.1,0.1-1.6,0.3c-0.5,0.2-0.8,0.6-0.9,1.2c0,0.5,0,1,0.1,1.5c0.1,0.5,0.4,1.1,0.6,1.5
				c0.9,1.6,1.7,3.2,2.7,4.8c1.2,2,2.1,4,2.6,6.3C147.7,197.7,147.8,198.4,147.8,198.7z"/>
			<path d="M130.6,191.9c0-2.2,0-4.5,0.1-6.8c0-1.2,0.2-2.3,0.4-3.5c0-0.4,0.2-0.7,0.4-1.1c0.6-1.1,1.9-1.1,2.5-0.1
				c0.3,0.4,0.5,0.8,0.5,1.3c0.2,1.3,0.4,2.7,0.5,4c0.1,1.6,0.1,3.2,0.2,4.8c0.1,3.2,0.1,6.4,0.2,9.6c0,1.2-0.1,2.3-0.4,3.5
				c-0.2,0.9-0.7,1.5-1.5,1.7c-0.8,0.1-1.5-0.3-1.9-1.2c-0.4-1-0.8-2.1-0.8-3.2C130.7,197.9,130.7,195,130.6,191.9z"/>
		</g>
		<g>
			<path d="M127.6,263.5c0-0.2,0.1-0.3,0.1-0.5c0.2-2.5,0.4-4.9,0.7-7.4c0.7-6.5,1.8-12.9,3.9-19.1c1.5-4.3,3.6-8.2,6.2-11.9
				c0.9-1.3,1.9-2.4,3.1-3.4c1-0.8,2-1.4,3.3-1.6c2.3-0.4,4.2,0.3,6,1.7c1.4,1.2,2.3,2.8,2.9,4.5c0.8,2.2,1,4.5,1.1,6.8
				c0.1,4.8-0.7,9.5-1.9,14.1c-0.3,1.1-0.6,2.2-0.9,3.3c-0.1,0.2-0.1,0.4-0.2,0.8c0.4-0.3,0.6-0.6,0.9-0.8c2.6-2.3,5.4-4.3,8.7-5.5
				c2.5-0.9,5.1-1.5,7.8-1.5c5.2,0.1,9.2,2.3,12.1,6.7c1.3,2,2.1,4.3,2.6,6.7c0.8,3.6,0.7,7.3,0.1,10.9c-0.3,1.7-0.7,3.5-1.1,5.2
				c0,0.2-0.1,0.4-0.1,0.7c0.3-0.1,0.5-0.2,0.6-0.3c1-0.5,2-1,3-1.4c0.4-0.2,0.6-0.5,0.8-0.9c1-2.7,2.4-5.3,4.1-7.7
				c2.6-3.5,5.8-6.4,9.5-8.7c1.8-1.1,3.7-1.9,5.8-2.1c0.7-0.1,1.5-0.1,2.2-0.1c0.1-0.7,0.2-1.4,0.4-2.1c0.1-0.6,0.3-1.3,0.5-1.9
				c0.3-1.1,1-1.9,2-2.5c1.6-0.9,3.3-1.3,5.1-1.2c1.3,0.1,2.2,0.8,2.8,1.9c0.7,1.1,1.1,2.4,1.3,3.8c0.3,1.9,0.5,3.9,0.7,5.8
				c0.2,2.8,0.2,5.6,0.3,8.4c0.1,2.5,0.2,4.9,0.3,7.4c0.2,3.7,0.6,7.4,0.9,11.1c0.1,0,0.1,0,0.2,0.1c0.1-0.1,0.3-0.3,0.4-0.4
				c2-3,3.4-6.2,4.6-9.5c0.7-2,1.4-3.9,2.1-5.9c0.2-0.5,0.3-1,0.2-1.5c-0.3-2.6-0.6-5.2-0.8-7.8c-0.2-1.9-0.4-3.7-0.5-5.6
				c-0.2-3.3-0.5-6.7-0.7-10c-0.2-4.1-0.2-8.3,0-12.4c0.3-6.8,0.9-13.6,1.9-20.3c0.7-4.6,1.4-9.2,2.5-13.8c0.8-3.2,1.8-6.3,3.1-9.3
				c1.3-2.8,2.8-5.4,5-7.6c1.3-1.3,2.7-2.3,4.5-2.8c3-0.9,5.7-0.2,8,1.9c1.1,1,1.9,2.3,2.6,3.7c1.1,2.3,1.6,4.7,2,7.2
				c0.7,4.9,0.4,9.7-0.4,14.6c-1.8,10.7-5.3,20.9-9.7,30.7c-2,4.4-4.1,8.7-6.5,12.9c-0.2,0.4-0.3,0.7-0.3,1.1
				c0.1,1.3,0.2,2.6,0.3,3.9c0,0.1,0,0.1,0.1,0.2c0.3-0.2,0.3-0.5,0.4-0.7c1.8-4.3,4-8.3,6.8-12c2.7-3.6,5.9-6.7,9.6-9.3
				c1.6-1.1,3.2-2,5-2.5c3.4-0.9,6.4,0.6,7.8,3.7c0.9,1.9,0.9,3.9,0.7,6c-0.4,2.7-1.3,5.1-2.5,7.5c-1.8,3.6-4.1,6.9-6.8,10
				c-1.1,1.3-2.2,2.5-3.4,3.7c-0.2,0.2-0.3,0.3-0.5,0.6c0.3,0.1,0.5,0.2,0.8,0.3c2.4,0.9,4.1,2.4,5.1,4.7c0.9,2,1.4,4.2,1.7,6.3
				c0.4,2.9,0.7,5.9,1,8.8c0.4,3.8,0.7,7.6,1,11.4c0.2,2.3,0.3,4.5,0.5,6.8c0.2,2.7,0.5,5.3,0.8,7.9c0,0.4,0.1,0.9,0.2,1.5
				c0.2-0.3,0.3-0.4,0.3-0.6c1.2-3.6,2.3-7.2,3.5-10.8c0.1-0.3,0.1-0.6-0.1-0.9c-1.3-2.1-2-4.5-2.3-6.9c-1-7.9,0-15.6,2.8-23
				c1.3-3.4,3.2-6.4,5.7-8.9c1.8-1.8,3.8-3.1,6.4-3.7c5.1-1.1,10,2.5,10.4,7.7c0.3,2.9-0.5,5.6-1.7,8.2c-1.9,4.3-5.2,7.1-9.4,9
				c-0.2,0.1-0.5,0.2-0.8,0.3c0.1,0.8,0.2,1.6,0.3,2.4c0.3,2.4,1,4.7,2.2,6.8c0.4,0.7,0.9,1.4,1.6,1.7c2.1,0.9,2.8,0.6,4.3-0.7
				c0.6-0.5,1-1.1,1.6-1.7c2.9-3.2,5.8-6.4,9-9.4c0.5-0.5,1.1-1,1.7-1.5c0.3-0.2,0.5-0.4,0.8-0.6c0.7-0.5,1.4-0.5,2,0
				c0.6,0.5,0.8,1.3,0.4,2.1c-0.2,0.5-0.5,0.9-0.9,1.3c-1.2,1.4-2.4,2.7-3.6,4.1c-2.5,2.8-5,5.6-7.5,8.4c-1.9,2.1-3.9,4.2-6.2,6
				c-0.9,0.7-1.9,1.5-3,2.1c-3.8,2.1-7.6,2.1-11.2-0.5c-0.1-0.1-0.3-0.2-0.5-0.3c-0.2,0.8-0.4,1.5-0.5,2.2
				c-0.9,4.2-1.9,8.3-3.3,12.3c-0.3,0.9-0.7,1.8-1.2,2.6c-1.6,2.7-4.5,3.2-7,1.3c-1-0.8-1.7-1.7-2.4-2.8c-1.3-2-2-4.3-2.6-6.6
				c-0.9-3.5-1.5-7-2-10.6c-0.5-3.3-0.9-6.6-1.4-9.9c-0.3-2.3-0.4-4.6-0.7-6.9c-0.3-3-0.7-6.1-1.1-9.1c-0.1-0.6-0.3-1.1-0.5-1.7
				c-0.2-0.7-0.5-0.8-1.2-0.7c-0.5,0.1-1,0.2-1.4,0.4c-1,0.5-2.1,1-3.1,1.6c-1.1,0.7-2,1.4-3.1,2.2c-0.3,0.2-0.4,0.4-0.3,0.8
				c0.5,3.3,1.1,6.6,1.6,10c0.4,2.5,0.6,5,0.9,7.5c0.1,1.3,0.2,2.6,0.1,3.8c0,0.9-0.2,1.8-0.5,2.7c-0.8,2.4-2.5,3.8-5,4.2
				c-2.1,0.3-3.5-0.5-4.2-2.2c-0.6-1.5-1.1-3.1-1.5-4.6c-1.7-5.9-2.6-11.9-3.5-17.9c-0.1-0.7-0.2-1.3-0.3-2.1
				c-0.4,0.2-0.4,0.5-0.5,0.8c-0.7,2.1-1.4,4.1-2,6.2c-0.8,2.4-1.8,4.8-3,7.1c-0.4,0.8-0.9,1.6-1.5,2.4c-2.5,3.2-6.6,3.4-9.4,0.5
				c-1-1-1.8-2.2-2.3-3.5c-1-2.3-1.6-4.6-2.2-7c-0.6-2.5-0.9-5-1.1-7.5c-0.1-0.5-0.1-1-0.3-1.5c-0.1,0.2-0.2,0.5-0.2,0.7
				c-1.1,3.9-2.2,7.8-3.7,11.5c-0.7,1.7-1.5,3.3-2.3,4.9c-1.1,2-2.6,3.7-4.6,5c-2,1.4-4.2,1.6-6.5,0.8c-3.1-1.2-5.1-3.4-6.2-6.5
				c-0.9-2.6-1-5.4-0.7-8.1c0.1-1.1,0.3-2.2,0.5-3.3c0-0.1,0-0.3,0-0.5c-0.2,0.1-0.3,0.1-0.5,0.1c-1.2,0.6-2.4,1.2-3.6,1.8
				c-0.4,0.2-0.5,0.5-0.6,0.8c-1.4,3.8-3,7.4-4.9,11c-2.8,5.3-6,10.3-10.1,14.8c-2,2.1-4.1,4.1-6.6,5.6c-1.8,1.1-3.7,2-5.9,2.3
				c-1.6,0.2-3.2,0.2-4.7-0.3c-2.6-0.8-4.3-2.6-5.3-5.1c-1.1-2.8-1.1-5.7-0.4-8.6c0.5-2.1,1.4-3.9,2.6-5.6c3-4.1,6.8-7,11.4-9.1
				c3.2-1.5,6.6-2.7,10-3.8c0.2-0.1,0.4-0.1,0.6-0.2c0.4-0.1,0.6-0.3,0.7-0.7c0.2-1.2,0.4-2.5,0.6-3.7c0.3-2.3,0.4-4.6,0.3-6.9
				c-0.1-2.5-0.6-4.9-1.5-7.2c-0.3-0.7-0.7-1.4-1.1-2.1c-1.7-2.6-4.3-3.6-7.4-2.8c-2.1,0.5-4,1.5-5.7,2.8c-0.7,0.6-1.4,1.1-2.1,1.8
				c-2,1.9-4,3.8-6.1,5.7c-0.3,0.3-0.7,0.6-1.1,0.9c-1.1,0.7-2.2,0.8-3.3,0.1c-1.1-0.7-1.5-1.8-1.3-3.1c0.2-1.1,0.5-2.1,0.8-3.2
				c0.8-2.4,1.6-4.7,2.4-7c0.8-2.4,1.2-4.8,1.6-7.3c0.3-2,0.4-4,0.3-6c-0.1-1.6-0.3-3.1-0.9-4.6c-0.9-2-2.2-2.5-4-1.2
				c-0.6,0.4-1.2,1-1.7,1.6c-1.2,1.4-2,3-2.4,4.8c-0.8,3-1.2,6.1-1.6,9.3c-0.9,8.9-1,17.7-0.8,26.6c0.1,4,0.3,7.9,0.5,11.9
				c0.2,2.9,0.5,5.8,0.7,8.7c0.1,0.7,0.2,1.5,0.1,2.2c-0.6,3.2-4.4,4.6-7,2.5c-0.6-0.5-1.1-1.1-1.5-1.7c-1.2-1.7-2-3.5-2.8-5.4
				c-2-4.6-3.6-9.4-5.1-14.1c-2.2-6.8-4.1-13.8-5.6-20.8c-0.6-2.7-1.3-5.4-1.8-8.1c-0.4-2.3-0.6-4.7-0.9-7c-0.1-1.1,0-2.2,0.3-3.3
				c0.7-2.5,3.1-4.4,5.7-4.6c1.4-0.1,2.7,0.4,3.7,1.4c0.8,0.8,1.4,1.7,1.9,2.8c0.9,2.2,1.8,4.5,2.5,6.8c1.3,4,2.1,8.1,3,12.2
				c0.2,1,0.4,1.9,0.6,2.9c0,0.1,0.1,0.2,0.1,0.3C127.5,263.5,127.5,263.5,127.6,263.5z M241.4,240.3c0.1,0,0.1,0,0.2,0
				c0.1-0.3,0.2-0.5,0.4-0.8c2.7-5.8,4.9-11.9,6.8-18c2.4-7.4,4.1-15,4.6-22.8c0.2-3.4,0-6.7-0.8-10c-0.3-1.2-0.8-2.4-1.2-3.6
				c-0.3-0.8-0.8-0.8-1.3-0.2c-0.5,0.6-0.9,1.4-1.2,2.1c-0.5,1.5-1,2.9-1.3,4.4c-1.1,5.3-2.1,10.6-3.1,16c-0.9,4.7-1.5,9.4-1.9,14.2
				c-0.2,2.3-0.4,4.6-0.7,6.9c-0.4,3.8-0.6,7.6-0.6,11.4C241.3,240,241.4,240.2,241.4,240.3z M242.9,263.6c0.3-0.3,0.5-0.4,0.7-0.6
				c5.1-4.9,10-10.2,14.5-15.7c1.9-2.3,3.5-4.7,4.9-7.3c0.8-1.5,1.5-3,1.9-4.7c0.1-0.6,0.2-1.2,0.2-1.8c0-1.1-0.5-1.5-1.5-1.3
				c-0.6,0.1-1.1,0.2-1.6,0.5c-1,0.5-1.9,1-2.8,1.6c-3.5,2.4-6.4,5.5-8.9,8.9c-3.6,4.9-5.9,10.5-7.8,16.3c-0.1,0.3-0.1,0.6-0.1,0.9
				c0.1,0.8,0.2,1.6,0.3,2.4C242.8,263.1,242.9,263.2,242.9,263.6z M166.9,283.1c-0.3,0.1-0.4,0.1-0.5,0.1c-2.7,1-5.3,2-7.8,3.3
				c-2.6,1.4-5,3-7.1,5.1c-1.8,1.9-3.3,4-4,6.6c-0.5,1.6-0.5,3.3,0.2,4.8c0.7,1.5,1.8,2,3.3,1.4c0.5-0.2,0.9-0.4,1.3-0.7
				c0.5-0.3,1-0.7,1.5-1.1c1.8-1.5,3.3-3.2,4.8-5.1c3.2-4.1,6-8.4,7.8-13.3C166.7,283.8,166.8,283.5,166.9,283.1z M197.8,287
				c0.1,0,0.2,0,0.2,0.1c0.3-0.5,0.7-0.9,1-1.4c1.4-2.6,2.7-5.3,3.7-8.1c2.1-5.9,3.5-11.9,4.8-18c0-0.1,0-0.3,0-0.6
				c-0.5,0.3-1,0.6-1.4,0.9c-2.1,1.6-3.8,3.6-5.2,5.8c-1.2,2-2.1,4.2-2.7,6.5c-1,3.7-1.6,7.4-1,11.2
				C197.3,284.6,197.6,285.8,197.8,287z M284.9,273.4c1.3-0.7,2.3-1.4,3.1-2.2c2.8-2.7,4-6.1,3.6-9.9c-0.1-0.6-0.3-1.2-0.6-1.7
				c-0.5-0.9-1.1-0.9-1.8-0.1c-0.7,0.7-1.2,1.5-1.6,2.4c-1.3,2.9-2.1,6-2.5,9.2C285,271.7,284.9,272.4,284.9,273.4z"/>
			<g>
				<path d="M226.2,309.5c-0.3,1.8-0.5,3.4-0.8,5.1c-0.8,4.4-1.6,8.7-2.5,13.1c-1,5.3-2.1,10.6-2.7,16c-0.4,3.5-0.7,7-0.5,10.6
					c0.1,1.3,0.2,2.5,0.6,3.8c0.2,0.7,0.6,1.4,1.2,1.9c0.4,0.4,0.7,0.4,1.1,0.1c0.8-0.6,1.7-1.2,2.5-1.9c1.6-1.4,2.8-3,4-4.7
					c3.4-4.7,6.9-9.3,10.4-14c0.4-0.5,0.8-1.1,1.3-1.6c0.4-0.4,0.9-0.7,1.5-1c0.5-0.2,0.9-0.1,1.3,0.3c0.4,0.3,0.5,0.8,0.3,1.3
					c-0.2,0.6-0.5,1.1-0.8,1.6c-1.3,2-2.5,4-3.8,5.9c-2.5,3.8-4.9,7.5-7.4,11.2c-0.9,1.3-1.9,2.5-2.8,3.7c-1.7,2.1-3.8,3.7-6.2,5
					c-1.3,0.7-2.6,1.2-4.1,1.4c-2.4,0.3-4.5-0.5-6.3-2.1c-1.7-1.5-2.8-3.5-3.5-5.7c-0.6-2-1-4.1-1.2-6.2c-0.3-3-0.1-6,0-9
					c0-0.2,0-0.5,0-0.7c0,0-0.1-0.1-0.1-0.2c-0.1,0.3-0.3,0.5-0.4,0.7c-2,4.2-4.1,8.3-6.7,12.1c-0.9,1.3-1.8,2.6-3.1,3.7
					c-0.8,0.7-1.7,1.3-2.8,1.5c-1.5,0.3-3,0-4.2-0.9c-1.2-0.8-2-2-2.7-3.2c-1-1.8-1.7-3.7-2-5.7c-0.4-2.3-0.8-4.6-1.1-7
					c-0.3-2.4-0.5-4.7-0.7-7.1c-0.3-4.9-0.2-9.8,0-14.6c0.1-1.1,0.2-2.2,0.5-3.3c0.4-1.9,1.6-3.1,3.5-3.4c1.2-0.2,2.4-0.4,3.7-0.3
					c1.7,0.1,2.8,1,3.5,2.5c0.4,0.9,0.6,1.8,0.7,2.8c0.3,3.1,0.3,6.3,0.3,9.4c0,2.1-0.1,4.2-0.1,6.3c0,4.2,0.2,8.3,0.7,12.4
					c0.2,1.1,0.4,2.2,1.1,3.3c0.2-0.3,0.4-0.5,0.6-0.7c1.7-2.2,3.2-4.5,4.5-7c1.7-3.4,3.5-6.7,5.2-10.1c0.3-0.5,0.4-1,0.5-1.6
					c0.7-5,1.5-10,2.2-15c0.4-2.8,0.9-5.6,1.3-8.4c0-0.2,0-0.4,0.1-0.6c-0.3,0-0.6-0.1-0.9-0.1c-2.5-0.2-5-0.3-7.5-0.5
					c-6.1-0.7-12-2-17.7-4.3c-2.3-0.9-4.3-2.2-6.1-3.9c-1.1-1-1.8-2.3-2.1-3.8c-0.2-0.8-0.2-1.5,0.2-2.2c0.2-0.4,0.5-0.8,1.1-0.8
					c0.5,0,0.8,0.4,0.9,0.8c0.2,0.7,0.7,1.2,1.3,1.5c1.1,0.7,2.3,1.5,3.5,2.2c4.5,2.5,9.3,3.9,14.2,4.9c4.2,0.8,8.4,1.4,12.6,1.8
					c0.4,0,0.9,0.1,1.4,0.1c0.2-0.8,0.3-1.5,0.5-2.2c0.2-0.7,0.3-1.4,0.5-2.1c0.3-0.8,0.6-1.6,1.1-2.3c1.1-1.7,2.6-2.7,4.7-2.6
					c0.7,0,1.4,0,2,0.2c2.6,0.5,4.1,2.1,4.5,4.7c0.2,1.5,0.2,2.9,0.2,4.4c0,0.3,0,0.5,0,0.8c0.5,0,0.9,0.1,1.3,0.1
					c3.9,0.3,7.7,0.6,11.5,1.6c3.4,0.8,6.8,1.9,9.8,3.8c2.4,1.5,4.4,3.3,5.6,5.9c0.6,1.2,0.9,2.6,1.3,3.8c0,0.1,0,0.3,0,0.4
					c0,0.8-0.3,1.5-0.9,1.7c-0.6,0.3-1.5,0.1-2-0.5c-0.4-0.5-0.7-1-1-1.6c-0.4-0.6-0.7-1.3-1.1-1.9c-1.4-2.3-3.3-4-5.7-5.3
					c-2.8-1.4-5.7-2.4-8.8-3.1c-3.2-0.7-6.4-1.1-9.6-1.3C226.7,309.5,226.5,309.5,226.2,309.5z"/>
				<path d="M187.7,307.3c1.8,0,3.2,1.5,3.1,3.3c0,1.8-1.5,3.1-3.3,3.1c-1.7-0.1-3.1-1.5-3.1-3.2C184.5,308.7,186,307.3,187.7,307.3
					z"/>
			</g>
		</g>
	</g>
	<g>
		<g>
			<path class="st75" d="M294.6,149.1c4.3-1,13.6,0,16.7,0c3,0,12.8,5.5,15.4,10c2.6,4.5,5.6,6.5,5.3,15.4
				c-0.3,8.9,0.2,16.4-3.2,21.7c-3.4,5.3-6.1,8.1-12.7,10s-11.8,3.5-17.6,3.9c-5.7,0.4-12.2-0.8-15.9-4.8c-3.6-4-7.6-7.8-8.2-17.5
				s-2.4-13-0.5-18.7s3.5-5.4,4.9-7.8c1.4-2.4,4.2-7.1,7.3-9.7S290.6,150,294.6,149.1z"/>
			<path class="st116" d="M295.9,154.5c3.6-0.8,11.4,0,13.9,0s10.8,4.6,12.9,8.4c2.2,3.8,4.7,5.5,4.5,12.9
				c-0.3,7.5,0.2,13.7-2.7,18.2c-2.9,4.5-5.1,6.8-10.7,8.4c-5.5,1.6-9.9,2.9-14.7,3.3c-4.8,0.3-10.3-0.7-13.3-4
				c-3-3.4-6.4-6.6-6.9-14.6c-0.5-8.1-2-10.9-0.4-15.6c1.6-4.7,2.9-4.5,4.1-6.6c1.2-2,3.5-6,6.1-8.2
				C291.4,154.5,292.5,155.2,295.9,154.5z"/>
			<g>
				<path class="st61" d="M292.3,167.8c-2.3,0.1-1.9-4.1,0-4.7c1.9-0.6,1.8,0.9,1.9,2.4S294.2,167.7,292.3,167.8z"/>
				<path class="st61" d="M304,187.1c0.2-2.3,4.3-1.4,4.7,0.6s-1.1,1.7-2.6,1.6S303.9,189,304,187.1z"/>
				<path class="st61" d="M299.7,174.8c1.1-1.1,3.8-3.5,4.7-1c0.9,2.5-1.4,2.8-2.4,3.2C301.1,177.4,298.6,175.8,299.7,174.8z"/>
				<path class="st61" d="M294.2,195.6c1.1,1,3.7,3.6,1.3,4.7c-2.5,1-2.9-1.3-3.3-2.2C291.7,197.2,293,194.6,294.2,195.6z"/>
				<path class="st61" d="M319.5,170.3c1.1,1,3.7,3.6,1.3,4.7c-2.5,1-2.9-1.3-3.3-2.2C317,171.9,318.4,169.3,319.5,170.3z"/>
				<path class="st61" d="M285,182.1c1.4-0.5,3,3.3,2.7,4.4c-0.3,1.1-3.3,1.5-4.1,1.7C282.8,188.4,281.5,183.4,285,182.1z"/>
				<path class="st61" d="M312,163.1c-0.8,1.3-4.4-0.6-4.9-1.6c-0.5-1,1.6-3.3,2.1-4C309.6,156.9,313.8,159.9,312,163.1z"/>
			</g>
		</g>
		<g>
			<g>
				<path class="st76" d="M111.2,203.1c0.6,4,7.7,24.2-1.9,24.2s-0.5-21.1-0.5-24.2C108.8,202.9,111.2,203.1,111.2,203.1z"/>
				<path class="st76" d="M108.1,95.2c-0.6-4-7.7-24.2,1.9-24.2s0.5,21.1,0.5,24.2C110.4,95.4,108.1,95.2,108.1,95.2z"/>
			</g>
			<path class="st71" d="M114.6,204.9v-2.6h3.8c0.5,0,0.9-0.4,0.9-0.9V96.7c0-0.5-0.4-0.9-0.9-0.9h-3.8v-2.4c0-0.5-0.4-0.9-0.9-0.9
				h-8.2c-0.5,0-0.9,0.4-0.9,0.9v2.4h-3.8c-0.5,0-0.9,0.4-0.9,0.9v104.7c0,0.5,0.4,0.9,0.9,0.9h3.8v2.6c0,0.5,0.4,0.9,0.9,0.9h8.2
				C114.2,205.8,114.6,205.4,114.6,204.9z"/>
		</g>
		<g>
			<g>
				<g>
					<path class="st96" d="M316.9,102.9c-1.4,5.6-10.1,10.2-23.1,10.2c-13,0-21.9-4.9-23.5-10.2c-1.4-4.8,10.5-16.8,23.5-16.8
						C306.7,86.1,318.1,97.9,316.9,102.9z"/>
					<g>
						<path class="st74" d="M294.3,98.5c-17.5,2-37.1,8.3-7.1-21.3c13.5-13.5,0.1-9.2-1.8-7.4c3-6,8.2-5.6,10.5-4.1
							c3.6,2.6,28.8,32.9,15.3,33.5C302.5,99.6,300.8,97.8,294.3,98.5z"/>
					</g>
				</g>
				<g>
					<path class="st76" d="M316.9,102.9c-2.8,9.9-3.8,17.4-6.9,26.2c-11.1,5.2-28.7,3.6-31.5-1c-4.2-11.1-5.3-16.4-8.2-25.1H316.9z"
						/>
				</g>
			</g>
		</g>
		<path class="st76" d="M151.6,328.7c0.1-0.3,0.2-0.5,0.3-0.7c0.9-2.1,2.1-4,3.7-5.7c1.8-1.9,3.9-3.2,6.4-3.9
			c2.6-0.8,5.1-0.5,7.3,1.3c1.1,0.9,2,2,2.7,3.3c1.2,2.3,1.7,4.8,1.6,7.4c-0.2,2.8-1.1,5.4-2.3,8c-1.6,3.3-3.6,6.3-6.1,8.9
			c-2,2.1-4,4.2-6.1,6.2c-1.5,1.4-3.1,2.7-4.8,3.9c-0.7,0.5-1.5,0.7-2.4,0.4c-0.7-0.2-1.4-0.5-2-0.8c-1.7-0.7-3.3-1.8-4.8-2.9
			c-3.6-2.6-7-5.4-10.1-8.7c-1.9-2.1-3.6-4.3-4.9-6.8c-1.1-2.1-1.7-4.2-1.8-6.6c-0.1-3.5,1.2-6.5,3.9-8.8c2.6-2.2,5.6-3.1,9-2.8
			c2.7,0.2,5,1.3,7,3.1c1.4,1.3,2.5,2.8,3.3,4.6C151.4,328.3,151.4,328.5,151.6,328.7z"/>
	</g>
</g>
</svg>
