<?xml version="1.0" encoding="utf-8"?>
<!-- Generator: Adobe Illustrator 21.1.0, SVG Export Plug-In . SVG Version: 6.00 Build 0)  -->
<svg version="1.1" id="Calque_1" xmlns="http://www.w3.org/2000/svg" xmlns:xlink="http://www.w3.org/1999/xlink" x="0px" y="0px"
	 viewBox="0 0 432 432" style="enable-background:new 0 0 432 432;" xml:space="preserve">
<style type="text/css">
	.st0{fill:#AE3034;}
	.st1{fill:#3E904D;}
	.st2{fill:#F7EB5B;}
	.st3{fill:#221F20;}
	.st4{fill:#BC9A72;}
	.st5{fill:#FFFFFF;}
	.st6{fill:#E9963E;}
	.st7{fill:#EFB156;}
	.st8{fill:#5EB057;}
	.st9{fill:#A27D56;}
	.st10{fill:#BD8346;}
	.st11{fill:#DD658D;}
	.st12{fill:#404041;}
	.st13{fill:#81BF8E;}
	.st14{fill:#ED7E87;}
	.st15{fill:#B0202B;}
	.st16{fill:#BA9453;}
	.st17{fill:#B99352;}
	.st18{fill:#45A49C;}
	.st19{fill:#59B178;}
	.st20{fill:#C9A25F;}
	.st21{fill:#BCBDBF;}
	.st22{fill:#C7345D;}
	.st23{fill:#2E3192;}
	.st24{fill:#8CC63F;}
	.st25{fill:#22B573;}
	.st26{fill:#333333;}
	.st27{fill:#B1A097;}
	.st28{fill:#574B43;}
	.st29{fill:#85328A;}
	.st30{fill:#53A7DB;}
	.st31{fill:#912D61;}
	.st32{fill:#835F41;}
	.st33{fill:#929496;}
	.st34{fill:#808080;}
	.st35{fill:#6F4E2F;}
	.st36{fill:#A6A8AA;}
	.st37{fill:#DF643A;}
	.st38{fill:#98C355;}
	.st39{fill:#D35998;}
	.st40{fill:#6F665A;}
	.st41{fill:#BFB49D;}
	.st42{fill:#AE82B3;}
	.st43{fill:#B3B3B3;}
	.st44{fill:#5E328B;}
	.st45{fill:#DA404D;}
	.st46{fill:#A994C1;}
	.st47{fill:#8B575B;}
	.st48{fill:#C9C0AF;}
	.st49{fill:#A67C52;}
	.st50{fill:#86A391;}
	.st51{fill:#6595A9;}
	.st52{fill:#483E49;}
	.st53{fill:#F6BA00;}
	.st54{fill:#FC8080;}
	.st55{fill:#1A1A1A;}
	.st56{fill:#749FA8;}
	.st57{fill:#ABC337;}
	.st58{fill:#F67E20;}
	.st59{fill:#52A9B2;}
	.st60{fill:#925A8B;}
	.st61{fill:#DD8383;}
	.st62{fill:#929C3B;}
	.st63{fill:#4D4D4D;}
	.st64{fill:#C69C6D;}
	.st65{fill:#DBB753;}
	.st66{fill:#9EB9B4;}
	.st67{fill:#F2F2F2;}
	.st68{fill:#E2C87F;}
	.st69{fill:#E8BDC4;}
	.st70{fill:#D86D29;}
	.st71{fill:#E0CDAD;}
	.st72{fill:#E6E6E6;}
	.st73{fill:#CCD6CE;}
	.st74{fill:#9FD3C7;}
	.st75{fill-rule:evenodd;clip-rule:evenodd;}
	.st76{fill:#E5BE51;}
	.st77{fill:#B3A693;}
	.st78{fill:#717370;}
	.st79{fill:#9FB14D;}
	.st80{fill:#736357;}
	.st81{fill:#51642D;}
	.st82{fill:#743315;}
	.st83{fill:#0071BC;}
	.st84{fill:#9C1B20;}
	.st85{fill:#009245;}
	.st86{fill:#F6E6CC;}
	.st87{fill:#84CBCB;}
	.st88{fill:#7D9B39;}
	.st89{fill:#3C4E5C;}
	.st90{fill:#998675;}
	.st91{fill:#C7B299;}
	.st92{fill:#9B2F10;}
	.st93{fill:#E7A136;}
	.st94{fill:#978E43;}
	.st95{fill:#7D5E18;}
	.st96{fill:#F2C545;}
	.st97{fill:#E07D28;}
	.st98{fill:#E0D2BE;}
	.st99{fill:#C4A18D;}
	.st100{fill:#BCBD84;}
	.st101{fill:#5F645E;}
	.st102{fill:#CAC2C2;}
	.st103{fill:#959736;}
	.st104{fill:#B0D24A;}
	.st105{fill:#754C24;}
	.st106{fill:#603813;}
	.st107{fill:#8C4A33;}
	.st108{fill:#0B493A;}
	.st109{fill:#C17953;}
	.st110{fill:#F7C64D;}
	.st111{fill:#005371;}
	.st112{fill:#D3E2DC;}
	.st113{fill:#3E8A64;}
	.st114{fill:#299798;}
	.st115{fill:#731115;}
	.st116{fill:#4F4544;}
	.st117{fill:#4C6047;}
	.st118{fill:#4C301C;}
	.st119{fill:#867274;}
	.st120{fill:#C13F47;}
	.st121{fill:#BC8AA8;}
	.st122{fill:#634E42;}
	.st123{fill:#E1B8D7;}
	.st124{fill:#6D866B;}
	.st125{fill:#422918;}
	.st126{fill:#925F36;}
	.st127{fill:#1D1D1B;}
	.st128{fill:#00A099;}
	.st129{fill:#F8B133;}
	.st130{fill:#006633;}
	.st131{fill:#683B11;}
	.st132{fill:#B17F49;}
	.st133{fill:#A3897A;}
	.st134{fill:#E488B5;}
	.st135{fill:#93C01F;}
	.st136{fill:#EDE287;}
	.st137{fill:#E9CB9A;}
	.st138{fill:#EAB8CC;}
	.st139{fill:#7E4E24;}
	.st140{fill:#E5332A;}
	.st141{fill:#F29100;}
</style>
<g>
	<g>
		<path d="M309.4,196.3c-0.4,0.3-0.6,0.7-0.7,1c-1.4,2.4-2.8,4.7-4.4,7c-1,1.5-2.1,3-3.5,4.2c-3.6,3.2-8.9,3.7-12.7,1.1
			c-0.5-0.3-0.9-0.7-1.4-1.1c-0.4,1-0.6,2-0.8,3c-1.3,5.7-3.1,11.3-5.6,16.7c-0.3,0.6-0.6,1.2-0.9,1.7c-3.1,5.5-9.4,5.4-13,3
			c-1-0.7-1.9-1.5-2.7-2.4c-3.3-4-5.2-8.5-5.7-13.7c-0.4-4.1-0.2-8.1,0.3-12.2c0.9-7.1,2.5-13.9,4.3-20.8c0.3-1,0.6-1.9,0.9-2.9
			c0.1-0.4,0.2-0.7-0.3-0.8c-1.3-0.5-2.6-1-3.8-1.6c-0.3-0.1-0.5,0-0.6,0.2c-0.2,0.4-0.4,0.7-0.6,1.1c-3.3,5.4-7.6,9.9-12.6,13.8
			c-0.9,0.7-1.1,1.2-0.9,2.3c1.3,5.4,1,10.7-0.8,15.9c-1.5,4.2-3.8,7.9-7.7,10.3c-3.4,2.2-7.2,3.3-11.3,2.7
			c-4.4-0.7-7.5-3.8-7.3-8.8c0.1-2.7,1.1-5,2.7-7.2c1.3-1.8,3-3.3,4.8-4.7c2.7-2.1,5.6-3.9,8.5-5.7c0.9-0.5,1.1-1.1,0.9-2.1
			c-0.4-2.7-1-5.4-1.9-7.9c-0.3-0.8-0.6-1.7-1-2.4c-1.6-3.1-4.5-4.2-7.8-3.2c-1.7,0.5-3.3,1.4-4.8,2.5c-3.6,2.8-6.1,6.5-7.9,10.6
			c-0.3,0.7-0.5,1.4-0.8,2.1c-0.6,1.7-0.9,3.5-0.7,5.3c0.2,2.8,0.1,5.6,0,8.4c0,0.8,0,1.6-0.1,2.4c-0.1,1.4-0.8,2.2-2.2,2.4
			c-1.9,0.3-3.5-0.4-4.6-2c-0.5-0.8-0.9-1.7-1.2-2.6c-1.2-3.2-2.3-6.5-2.9-9.9c-0.2-1.5-0.5-3-0.5-4.5c0-0.6-0.1-1.2-0.1-1.9
			c-0.5,0.2-0.6,0.5-0.8,0.8c-2.2,3-4.4,5.9-6.7,8.8c-1.8,2.3-3.7,4.6-5.9,6.6c-4.7,4.3-10.2,6.8-16.8,6.2c-3.8-0.4-7-2.1-9.7-4.7
			c-3.2-3.1-5.4-6.9-6.5-11.3c-2-7.9-2.2-15.8-0.2-23.7c0.7-2.8,1.8-5.5,3.5-8c1.8-2.7,4.3-4.7,7.5-5.6c6.7-1.8,13.2,2.3,14.1,8.9
			c0.6,4.6-0.7,8.6-4.4,11.6c-3,2.4-6.6,3.7-10.5,3.6c-0.8,0-0.8,0-0.8,0.8c-0.1,4.2,0.4,8.3,1.7,12.2c0.8,2.5,1.5,5.1,2.7,7.5
			c0.5,1,1,1.9,1.7,2.8c1.3,1.6,3.1,2.1,5.1,2c1.3-0.1,2.5-0.4,3.7-0.8c2.2-0.8,4.1-2.1,5.9-3.6c2.8-2.4,5.2-5.1,7.5-8
			c2.8-3.5,5.4-7.1,8-10.7c0.4-0.6,0.5-1.3,0.5-2c0-2.4,0.1-4.9,0.2-7.3c0.5-8.7,2-17.3,5-25.5c0.1-0.2,0.1-0.3,0.2-0.5
			c0.2-0.4,0-0.5-0.3-0.7c-5.4-2.7-10.2-6.2-15.1-9.6c-1.8-1.2-3.5-2.4-5.4-3.4c-2.4-1.3-4.9-2.3-7.6-2.7c-3-0.4-6,0-8.8,1.2
			c-3,1.2-5.7,3-8,5.3c-1.1,1.1-2.1,2.2-2.5,3.7c-0.1,0.4-0.4,0.6-0.8,0.7c-1,0.2-2.4-0.5-2.2-1.9c0.1-0.5,0.3-1,0.5-1.5
			c0.5-0.9,1.1-1.8,1.8-2.6c3.7-3.9,8.1-6.6,13.4-7.7c4.4-0.9,8.6-0.3,12.7,1.4c2.5,1,4.8,2.3,7,3.7c2.8,1.9,5.6,3.8,8.4,5.7
			c2.4,1.6,4.8,3.1,7.3,4.5c0.7,0.4,0.7,0.5,1-0.4c1.9-4.2,4.2-8.1,7.2-11.6c3-3.5,6.5-6.4,10.5-8.7c3.4-2,7.1-3.2,11.1-3.3
			c3.2-0.1,6.2,0.6,8.9,2.4c3.6,2.5,5,5.9,4.5,10.2c-0.4,4-2.3,7.2-5.1,10c-3.6,3.7-8,6-12.9,7.4c-4.8,1.3-9.7,1.8-14.6,1
			c-0.8-0.1-0.8-0.1-1.1,0.6c-1.7,5-2.9,10.1-3.6,15.4c-0.7,5.2-1,10.3-0.9,15.5c0,0.3,0,0.6,0,0.9c0,0.1,0.1,0.1,0.1,0.2
			c0.3-0.1,0.4-0.5,0.6-0.7c2.2-3.6,4.9-6.7,8.3-9.1c2-1.5,4.2-2.5,6.7-3c2-0.4,4.1-0.2,6,0.4c4.1,1.2,7.3,3.8,9.8,7.2
			c1,1.4,1.9,2.8,2.6,4.4c0.1,0.2,0.1,0.5,0.4,0.7c0.2,0.1,0.3,0,0.4-0.1c4.7-3.7,8.7-7.9,11.8-13c0.7-1.2,0.7-1.2-0.5-1.9
			c-2-1.1-3.8-2.5-5.2-4.3c-1.2-1.5-2-3.2-2.2-5.1c-0.3-2.8,0.5-5.3,2.5-7.3c2.5-2.6,6.7-2.4,9.3,0.4c1.6,1.7,2.4,3.8,2.6,6.1
			c0.3,2.9-0.3,5.6-1.3,8.3c-0.1,0.4-0.3,0.7-0.4,1.1c0.3,0.3,0.6,0.4,1,0.5c2,0.7,4.1,1.2,6.3,1.6c2.8,0.5,4.7,2.3,5.4,5.1
			c0.3,1.3,0.2,2.5,0,3.8c-0.5,3.3-1.3,6.6-2,9.8c-1,4.8-1.8,9.6-2,14.5c-0.2,3.1,0.2,6.2,0.6,9.3c0.2,2,0.4,4,0.9,6
			c0.3,1.1,0.7,2.1,1.2,3.1c0.5,0.9,1,1,1.9,0.4c0.6-0.4,1.1-1,1.6-1.6c0.7-1,1.3-2.1,1.8-3.3c1.4-3,2.5-6.1,3.5-9.2
			c1.2-3.7,2.3-7.4,3.3-11.1c0.2-0.6,0.2-1.1,0-1.7c-0.8-2.7-0.9-5.5-0.7-8.4c0.4-4,1.2-7.9,3-11.6c0.8-1.8,1.9-3.4,3.1-4.9
			c5.2-6.3,12.8-6,18-2.1c2.2,1.6,3.8,3.7,5,6.1c0.1,0.2,0.2,0.5,0.4,0.7c0,0.1,0.1,0.1,0.2,0.1c0.3-0.4,0.3-0.8,0.5-1.2
			c0.3-0.8,0.6-1.7,1-2.5c1.1-2.2,3.1-3,5.5-2.2c2.2,0.7,3.5,2.5,3.6,4.8c0.1,1.9-0.3,3.7-0.7,5.6c-1.1,5.4-2.3,10.8-3.2,16.2
			c-1.4,8.4-2.4,16.8-2.2,25.4c0.1,2.1-0.1,4.3,0,6.4c0.1,2.1,0.2,4.3,0.9,6.3c0.1,0.4,0.2,0.8,0.5,1.1c0.4-0.2,0.6-0.7,0.8-1.1
			c1-1.7,1.7-3.6,2.4-5.5c2.2-6.4,4.1-12.9,6.1-19.4c1.3-4.2,2.5-8.4,3.8-12.6c0.2-0.6,0.3-1.1,0.3-1.7c0.1-6,0.6-12,1.2-18
			c0.7-7.5,1.8-15,2.9-22.4c0-0.1,0-0.2,0-0.3c0.1-0.5,0-0.8-0.6-0.9c-1.1-0.2-2.2-0.6-3.3-0.9c-6.1-1.6-12.1-3.8-18.1-5.9
			c-4.2-1.5-8.5-2.9-12.9-3.8c-4.9-1-9.8-1.3-14.8-0.3c-6.4,1.3-11.9,4.3-16.4,9c-0.4,0.4-0.8,0.8-1.2,1.2c-0.5,0.4-1,0.6-1.6,0.5
			c-1-0.1-1.6-0.8-1.5-1.8c0.1-0.9,0.4-1.7,0.9-2.4c1-1.6,2.2-2.8,3.6-4c3.7-3,8-4.9,12.5-6.2c6.7-1.9,13.3-1.9,20.1-0.5
			c5.4,1.1,10.6,2.9,15.7,4.8c5.7,2.1,11.5,4.2,17.3,5.9c0.3,0.1,0.6,0.2,1,0.2c0.3-1.2,0.4-2.5,0.7-3.7c0.6-3.3,1-6.6,1.8-9.9
			c0.2-0.9,0.5-1.8,0.9-2.6c1.4-2.8,4.2-3,6.4-1c0.8,0.8,1.3,1.8,1.6,2.9c0.5,2.1,0.4,4.2,0.3,6.4c-0.2,3.1-0.5,6.3-0.9,9.4
			c0,0.2,0,0.4,0,0.7c0.9,0,1.8,0,2.7,0c3.1-0.1,6.2-0.5,9.2-1.6c5.8-2.1,9.5-6.1,11.2-12.1c0.7-2.4,0.6-4.8-0.2-7.2
			c-0.4-1.1-1-2.1-1.8-3.1c-1.5-1.7-3.3-2.3-5.5-1.9c-1.2,0.2-2.4,0.7-3.5,1.4c-1.7,1.1-2.9,2.5-3.5,4.5c-0.2,0.5-0.3,1.1-0.6,1.6
			c-0.2,0.6-0.7,0.8-1.3,0.8c-1.1,0-2.1-1-2.1-2.1c-0.1-2.7,0.7-4.9,2.8-6.6c3.6-2.8,7.5-3.9,11.9-2.3c3.3,1.2,5.5,3.7,6.8,6.9
			c1.8,4.3,1.5,8.6-0.5,12.8c-2.8,6-7.5,9.5-13.8,11.2c-3.7,1-7.5,1.4-11.3,1.5c-0.1,0-0.3,0-0.4,0c-0.8,0-0.8,0-0.9,0.7
			c-0.3,2.6-0.7,5.1-1,7.7c-0.5,4.1-1,8.1-1.5,12.2c-0.3,2.9-0.6,5.9-0.8,8.8c-0.5,5.5-0.6,10.9-0.6,16.4c0,2.9-0.2,5.7-0.2,8.6
			c-0.1,2.9-0.1,5.8,0.4,8.7c0.1,0.4,0.1,0.9,0.4,1.4c0.4-0.4,0.6-0.9,0.8-1.4c1.1-2.3,1.9-4.6,2.6-7c1.9-6.8,3.8-13.7,5.7-20.5
			c0.6-2,0.7-4,1-6c0.7-5.6,1.4-11.1,2.6-16.6c0.2-1.1,0.6-2.2,1.1-3.3c0.4-0.9,1-1.7,2-2.1c0.1,0,0.2-0.1,0.3-0.1
			c0.9-1.1,2.2-1.2,3.5-1.3c2.1-0.2,4.2-0.5,6.4-0.5c1.3,0,2.6-0.1,3.9-0.1c1.1,0,2.1,0.1,3.1,0.5c0.5,0.2,0.9,0.5,1.2,0.9
			c0.5,0.7,0.4,1.4-0.3,1.9c-0.6,0.5-1.4,0.7-2.1,0.7c-2.8,0.2-5.6,0.4-8.3,0.8c-0.2,0-0.4,0-0.6,0.1c-0.3,0-0.4,0.2-0.3,0.5
			c0.6,2.7,0.2,5.4,0,8.1c-0.3,4.1-0.8,8.1-1.3,12.1c-0.4,3.8-0.9,7.5-1.3,11.3c-0.3,2.8-0.5,5.7-0.7,8.5c0,0.3-0.1,0.6,0.1,0.9
			c1.2-0.1,2.4-0.3,3.6-0.4c0.4-0.1,0.9,0,1.3,0.1c0.5,0.2,0.8,0.4,0.9,0.9c0.1,0.5-0.2,0.9-0.7,1.1c-0.8,0.5-1.7,0.8-2.6,1
			c-0.6,0.1-1.2,0.3-1.8,0.4c-0.9,0.2-0.9,0.2-0.9,1.1c0,2-0.2,4-0.3,6c-0.2,2.7-0.6,5.4-0.9,8.1c-0.1,0.6-0.1,1.1-0.1,1.7
			c0,0.6,0.1,0.7,0.7,0.6c1.2-0.1,2.3-0.3,3.5-0.6c0.9-0.2,1.9-0.5,2.8-0.5c0.4,0,0.7-0.2,1-0.3c0.7-0.3,1.4-0.3,2.1-0.1
			c0.5,0.2,1,0.4,1.2,1.1c0.1,0.7-0.3,1.1-0.7,1.5c-0.4,0.3-0.8,0.5-1.3,0.7c-2.7,1.2-5.5,1.8-8.4,2.2c-1.2,0.2-2.4,0.3-3.6,0
			c-2.2-0.4-3.6-1.6-4.4-3.6c-0.7-1.7-1-3.5-1.4-5.2c-1-4.4-1.2-8.9-1-13.4c0-0.5,0-1,0-1.6c-0.2,0.4-0.3,0.8-0.4,1.1
			c-0.6,2.4-1.1,4.9-2,7.2c-0.7,1.9-1.5,3.7-2.8,5.3c-1.1,1.4-2.5,2.2-4.3,2.1c-1.5-0.1-2.7-0.9-3.6-2c-0.8-0.9-1.5-2-2-3.2
			c-1.8-3.7-2.9-7.6-3.7-11.6c0-0.2-0.1-0.5-0.1-0.7c0-0.1-0.1-0.2-0.2-0.4c-0.1,0.4-0.2,0.7-0.3,1c-1.9,6.5-3.8,12.9-5.7,19.4
			c-0.8,2.8-1.9,5.5-3.2,8.2c-0.5,1-1,1.9-1.7,2.8c-1.9,2.3-4.8,2.9-7.4,1.3c-1.2-0.7-2.1-1.6-2.9-2.7c-2.4-3.3-4.1-7-4.9-11
			c-0.4-1.7-0.5-3.4-0.5-5.2c-0.1-5.2,0.3-10.3,0.9-15.4C307.6,206.6,308.4,201.5,309.4,196.3z M214.7,155.9
			c2.3,0.4,4.5,0.4,6.7,0.3c5.4-0.4,10.3-2,14.8-5.2c2.7-1.9,4.9-4.4,6.3-7.4c0.9-2.1,1.3-4.2,0.9-6.5c-0.5-2.6-2.3-4.3-4.9-4.6
			c-2-0.2-3.9,0.2-5.8,0.9c-3.5,1.4-6.3,3.8-8.6,6.7c-3.5,4.3-6.4,9.1-8.7,14.3C215.2,154.8,215,155.3,214.7,155.9z M293.8,200
			c0,0.6,0,1.2,0,1.8c0,1.5-0.1,3,0.2,4.4c0.2,1,0.5,1.2,1.5,1c1-0.2,1.8-0.7,2.6-1.3c1.1-0.9,2.1-2,2.9-3.2
			c2.9-3.8,5.3-7.9,7.8-11.9c0.2-0.3,0.3-0.6,0.2-1c-0.5-2.3-1.3-4.5-2.7-6.5c-0.8-1.1-1.7-2.1-2.9-2.8c-0.7-0.4-1.4-0.4-2.1,0
			c-0.9,0.5-1.7,1.2-2.4,2c-2.1,2.4-3.4,5.3-4.2,8.4C294,193.9,293.9,197,293.8,200z M161.1,185.4c0.4,0.2,0.7,0.1,1.1,0.1
			c2.4-0.3,4.7-1,6.8-2.5c3.1-2.2,4.3-5.2,4-8.9c-0.1-1.5-0.7-2.9-1.9-3.9c-1.1-0.9-2.2-1-3.4-0.2c-0.4,0.3-0.8,0.6-1.2,1
			c-0.6,0.7-1.2,1.5-1.7,2.4c-1.2,2.3-2.1,4.6-2.8,7.1C161.6,182.2,161.3,183.8,161.1,185.4z M234.5,201.7c-0.3-0.1-0.5,0.1-0.6,0.2
			c-1.7,1.2-3.4,2.3-5.1,3.5c-1.3,0.9-2.5,2-3.6,3.1c-1.1,1.2-2,2.5-2.6,4c-0.7,1.8-0.7,3.7,0.3,5.4c0.8,1.5,1.5,1.7,3,0.9
			c1.4-0.7,2.5-1.8,3.5-3c2-2.6,3.4-5.5,4.3-8.6C234.1,205.5,234.4,203.6,234.5,201.7z M257.2,174.5c0.7-1.5,1-2.9,1.3-4.3
			c0.3-2.1,0.3-4.1-0.4-6.1c-0.3-0.9-0.8-1.7-1.5-2.3c-0.6-0.5-1.2-0.6-1.9-0.3c-0.3,0.2-0.6,0.3-0.9,0.6c-1.6,1.6-2.4,3.5-2.2,5.8
			C252,171.2,254.5,172.9,257.2,174.5z"/>
		<path d="M105.1,198.5c-0.1,2.8-0.1,5.4,0.2,8.1c0.5,5,2,9.8,4.5,14.2c0.5,1,1.1,1.9,1.9,2.8c0.8,0.8,1.1,0.9,2.1,0.4
			c1.2-0.6,2.2-1.5,3.1-2.5c1.3-1.4,2.3-3.1,3.1-4.8c2.3-4.7,4-9.6,5.5-14.5c2.2-7.3,3.9-14.7,5.5-22.1c0.2-0.9,0.3-1.7,0.6-2.6
			c0.8-2.8,0.6-5.7,0.8-8.5c0.5-7.6,1-15.1,2.4-22.6c0.4-2.3,0.9-4.6,1.7-6.9c0.3-1,0.8-1.9,1.4-2.7c0.7-1,1.7-1.5,3-1.4
			c2.3,0.1,4.1,1.7,4.5,3.9c0.2,1.2,0.3,2.5,0.2,3.7c-0.2,2.5-0.4,4.9-0.6,7.4c-0.3,3.6-0.7,7.1-0.9,10.7c-0.3,4.6-0.5,9.1-0.7,13.7
			c-0.1,2.4-0.2,4.7-0.3,7.1c-0.2,6.9-0.4,13.9-0.5,20.8c-0.1,4.7,0.1,9.5,0.1,14.2c0,2.7-0.2,5.4-0.5,8.1c-0.2,1.6-0.4,3.1-0.3,4.7
			c0,0.3-0.1,0.7,0.2,1c1.5-0.3,2.9-0.6,4.4-0.9c1.5-0.4,3-0.6,4.5-0.9c0.7-0.1,1.3,0,1.9,0.3c0.9,0.5,1,1.4,0.3,2.1
			c-0.3,0.3-0.7,0.6-1.2,0.7c-1,0.3-1.9,0.8-2.9,1c-2.6,0.6-5.1,1.3-7.8,1.8c-0.9,0.2-1.8,0.1-2.6,0c-1.9-0.4-3.2-1.4-4-3.2
			c-0.7-1.8-1.2-3.6-1.7-5.5c-0.8-3.2-1.4-6.4-1.5-9.7c-0.3-7.6-0.2-15.2,0-22.7c0-1,0-2.1,0-3.3c-0.4,1-0.5,1.9-0.7,2.7
			c-1.5,6.4-3.1,12.8-5,19c-0.8,2.8-1.8,5.5-3.1,8.1c-1.3,2.6-2.9,5.1-5.2,7c-3.8,3.1-8.4,3.5-12.7,1c-2.5-1.4-4.4-3.4-5.9-5.8
			c-1.4-2.2-2.4-4.7-3.1-7.2c-0.1-0.3-0.2-0.5-0.2-0.8c-0.4,0.2-0.4,0.5-0.6,0.8c-1.5,2.8-3.1,5.5-5,8.1c-1.8,2.5-4,4.7-6.6,6.4
			c-3.7,2.5-7.5,2.7-11.5,0.8c-2.7-1.3-4.9-3.2-6.9-5.4c-4.2-4.5-6.9-9.9-8.4-15.8c-1.3-5.1-2.1-10.4-2.4-15.6
			c-0.3-4.5-0.2-9,0.1-13.5c0.8-11.6,3.6-22.7,8.9-33.1c2-4,4.5-7.6,7.7-10.7c5.1-4.9,11.2-7.5,18.3-7.8c5.1-0.2,9.3,1.8,12.7,5.7
			c2.8,3.3,4.4,7.1,4.9,11.3c0.7,7.6-0.1,14.9-3.4,21.9c-1.8,3.9-4.3,7.3-7.2,10.4c-0.7,0.8-1.5,1.5-2.4,2.1
			c-0.7,0.5-1.5,0.6-2.2,0.1c-0.7-0.4-0.8-1-0.3-1.7c1.1-1.4,2.3-2.7,3.3-4.1c3-3.9,5.6-8.2,7.1-13c1.6-5.4,2.2-10.9,1.3-16.4
			c-0.5-3.1-1.7-5.8-3.7-8.1c-0.3-0.3-0.6-0.7-0.9-1c-2.2-2.2-4.9-2.7-7.8-1.9c-3.2,0.8-5.9,2.5-8.2,4.8c-3.5,3.4-6.2,7.4-8.4,11.7
			c-3.9,7.5-6.4,15.5-7.7,23.9c-1,6.5-1.2,13.1-0.9,19.6c0.3,6.3,1.4,12.5,3.5,18.5c1.3,3.8,2.6,7.5,4.3,11.1c0.6,1.1,1.2,2.3,2,3.3
			c1.8,2.2,3.3,2.5,5.8,1.2c2-1,3.7-2.4,5.1-4.1c2.5-2.9,4.5-6.1,6.3-9.4c0.7-1.3,1.4-2.7,2.1-4c0.2-0.4,0.3-0.8,0.2-1.2
			c-0.7-5.8-0.8-11.5,0.3-17.3c0.6-3.1,1.6-6,3.4-8.5c3.3-4.7,8.3-5.9,12.7-4.9c1.6,0.4,3.1,1.1,4.3,2.3c3.2,2.8,5.1,6.3,5.6,10.5
			c0,0.1,0,0.1,0,0.2c0.4,4-1.2,6.5-5,7.8c-3.2,1.1-6.3,0.9-9.5-0.1C105.9,198.7,105.6,198.4,105.1,198.5z M111.6,195.9
			c1.3,0,2.4-0.2,3.4-0.6c1.4-0.6,2.1-1.6,2.3-3.1c0.3-2.7-0.6-5-2.2-7.1c-0.5-0.7-1.1-1.3-1.8-1.8c-1.1-0.7-1.9-0.6-2.9,0.2
			c-0.8,0.7-1.5,1.6-2.1,2.5c-1.5,2.4-2.2,4.9-2.7,7.6c-0.1,0.5,0.1,0.6,0.5,0.8C107.9,195.4,109.8,195.9,111.6,195.9z"/>
	</g>
	<g>
		<path class="st20" d="M145,247.7c-2.2-2.3-4.8-1.8-10-1.8c-21.7,0.1-18.3-1.7-16,8.9c2.1,9.6-0.4,31.3-1,36.6
			c-0.8,8.9-1.3,5.7-3.4,8.2c-1,1.2-0.8,2.6,0.3,3.4c2.4,1.8,2.2,0.3,14.6,0.9c8.9,0.4,14,1.4,11.5-9.9c-0.6-2.6-4.2-3.3-3.9,1.8
			c0.1,1.3-0.1,2.2-0.3,3.3c-1.1,0-6.6,0-9.5-0.1c-0.5-5.7-0.4-2.6-0.8-9.7c4.7,0.1,1.8-0.5,4,1.3c1.9,1.6,3.9,0.3,4-1.7
			c0.2-4.1,0.2-5.2-0.2-6.1c-0.8-1.6-2.7-1.8-3.8-0.3c-0.3,0.4-0.5,0.8-0.9,1.3c-1.7-0.1-3-0.2-3.2-0.2c0-18.7,0.6-18.4,1-32.4
			c13.5-0.1,12.2-0.5,14,2.7c0.8,1.3,2.2,1.7,3.5,0.9C147.5,253.6,146.9,249.6,145,247.7z"/>
		<path class="st20" d="M180.7,273.7c-0.4-8.1-1.4-18.4-6-25.1c-3-4.3-6.5-4.4-9-2.3c-13.9,11.7-15.9,50.3-16.9,50.8
			c-11.8,6.5,7.2,8,8.5,4.6c0.7-1.7-1.3-3.5-2.9-4.3c1.6-10.6,1.2-7.8,1.3-8.6c19.2,0,3,0,17.4-0.2c-0.4,8-0.3,7.3-0.8,7.6
			c-7.1,5-3.4,7.7-0.2,7.7c0.2,0,3.4,0,3.2,0c4.1,0,11.6,0.7,9.2-4.3C180.1,290.9,182.5,307.6,180.7,273.7z M173,283.8
			c-5.5,0.6-4,0.2-16.7,0.8c3.3-27.4,13.6-33.5,13.7-33.7C173.1,253,173,283.2,173,283.8z"/>
		<path class="st20" d="M201.1,251.7c2.3-2.2,5.6-1,6.9,1.6c0.1,0.1,0.1,0.2,0.1,0.2c-7.2,6.6,9.8,7.1,7.3,1.4
			c-0.6-1.2-1.8-1.4-2.4-2.8c-5.7-14.2-21.2-6.3-23,7.2c-2.5,18.6,19.8,15,20.3,27.1c0.3,7.7-5.8,15.5-13.3,11.5
			c-9.4-5.1,4.7-9.2-8.1-10.4c-4.3-0.5-5.1,4.4-1.5,5.4c0.5,0.1,0.6,0.8,1.3,2.8l0,0c4.6,13.7,24.4,8.9,29.2-3.4
			C226.5,271,183.8,268.4,201.1,251.7z"/>
		<path class="st20" d="M247.6,246.8c-2.2-0.3-7.7-0.7-12.1-0.7c-4.4-0.1-9,0.6-13.6,1.2c-2.3,0.3-4.5,1.3-4.7,3.7
			c-0.5,8.4,4.2,7.3,4.2,3.1c5.1-0.5,0.8-0.3,8.7-0.8c0,0.4,0.1,1.6-0.1,8.4c-0.7,34.1,0.8,35.3-2.2,37.2c-2.8,1.9-1.8,5,1.5,5.1
			c4.8,0.1,15.2,1.4,10.1-4.9c-3.2-4-1.1-4.3-1.6-34.3c-0.1-3.3-0.1-8.7,0.3-12c8.9-0.2,8.2,0.2,8.6,0.2c0.1,0.6,0.3,1.1,0.5,1.5
			c0.4,0.9,0.6,2.3,2.4,2.3c1.8-0.6,1.8-0.7,2.1-1.5c0.7-2,1.2-3.8,0-6.1C251.2,247.8,249.2,247,247.6,246.8z"/>
		<path class="st20" d="M273.1,245.8c-3.4,0-2.9,0-4.9,0c-4.4,0.1-5.2-0.3-9.5-0.1c-2.1,0.1-3.6,0.7-3.5,3c0,1.6,1.3,3.1,1.9,5.9
			c2.2,10.1-0.6,33.3-1.1,37.8c-0.8,8.4-4.3,5.6-3.9,8.9c0.3,2.6,3.7,2.6,6.1,2.3c3.7-0.5,10.4,0.3,16.3,0.3
			c7.5,0,4.8-10.4,4.1-11.2c-1.3-1.6-3.4-0.7-3.4,1c-0.1,2,0.3,2.6-0.2,5.2c-1.1,0-6.3,0-9.5-0.1c-0.5-5.3-0.5-3.2-0.8-9.7
			c2.8,0.1,2.8-0.3,3.2,0.3c0.4,0.9,1.9,2.1,3.3,1.5c2.2-0.9,2.9-9.4-0.5-9.6c-1.6-0.1-2.1,1.3-2.8,2.3c-1.7-0.1-2.9-0.2-3.2-0.2
			c0-14.2,0.9-28.3,1-32.4c3.6,0,6.7-0.1,9.9,0c0.8,0,3,0.5,3.3,1.2l0.2,0.4c2.1,4.5,5.5,1.9,5.6-0.4c0.1-1.9-0.5-3.6-1.6-4.8
			C280.9,245.4,278.3,245.8,273.1,245.8z"/>
		<path class="st20" d="M316.1,298.3c-1.9-1.6-1.9-3.2-2.2-4.6c-1.4-6.4-5-11.2-10.6-14.4c18.5-9.6,11.9-33.6-3.6-33.4
			c-1.3,0-2.6,0-3.9,0c-1.6-0.1-3.1-0.3-4.7-0.2c-1.7,0-3.4,0.5-3.8,2.1c-0.3,1.3,0.5,2.3,1.5,3.1l0.3,0.3
			c1.3,1.2,2.7,39.2,1.9,44.6c-0.7,4.8-4.1,4.1-2.6,7c1.3,2.4,3.9,0.8,11.1,0.6c1.8-0.1,2.8-1.9,2-3.5c-0.8-1.5-3.8-1.8-3.6-16.8
			c5.8,1.6,11.3,13.7,8,16.8c-4.8,4.6,11.1,5.3,12.1,2C318.2,301.2,317.2,299.3,316.1,298.3z M297.7,251.4c2.6,0.4,4.4-0.7,6.6,2.1
			c5.8,7,5.1,16.9-6.8,22.7C297.4,266.8,298.1,261.1,297.7,251.4z"/>
	</g>
	<g>
		<path d="M362.6,270.3c1.1-0.2,2.2-0.3,3.4-0.1c3.1,0.5,5.6,1.9,7.6,4.3c2.5,2.9,3.9,6.3,4,10.1c0.2,6.2-4,11.7-10.5,12.5
			c-6.1,0.8-10.7-3.4-11.6-7.7c-0.7-3.3-0.2-6.3,2.5-8.7c1.5-1.3,3.2-1.7,5.1-1.1c0.8,0.2,1.5,0.7,2,1.4c0.6,0.8,0.3,1.7-0.8,1.9
			c-0.6,0.1-1.2-0.1-1.7-0.4c-0.7-0.5-1.2-0.4-1.9,0.2c-0.8,0.7-1.3,1.5-1.5,2.5c-0.5,2.3,0.2,4.3,1.9,5.8c0.8,0.7,1.7,0.8,2.7,0.4
			c0.6-0.3,1.1-0.6,1.6-1.1c2.6-2.6,4.2-5.6,4.7-9.2c0.1-0.8,0-1.5-0.2-2.2c-0.3-1.3-0.9-2.5-1.6-3.6c-0.7-1-1.7-1.6-3-1.7
			c-1.7-0.1-3.3,0.1-4.8,0.7c-0.4,0.2-0.7,0.4-1,0.7c-3.3,3.8-7.5,6.1-12.2,7.4c-2.9,0.8-5.8,1.5-8.8,1.8c-2.6,0.2-5.1,0.1-7.6-0.7
			c-0.8-0.3-1.6-0.6-2.2-1.2c-0.6-0.5-0.9-1.1-0.7-1.6c0.2-0.5,0.8-0.8,1.7-0.6c1.3,0.3,2.5,0.5,3.8,0.7c3.6,0.4,7-0.3,10.4-1.1
			c2.4-0.6,4.8-1.4,7-2.5c4.1-2.1,7.1-5.3,9.2-9.4c1.5-3,1.9-6.2,0.9-9.4c-1-3.3-4.1-5.7-7.5-5.9c-1.3-0.1-2.4,0.3-3.5,0.9
			c-0.8,0.5-1.5,1.1-2.1,1.8c-2.7,3.4-4.1,7.3-4,11.7c0.1,1.6,0.8,2.6,2.1,3.4c0.7,0.4,1.4,0.4,2-0.1c0.7-0.5,1.2-1.1,1.5-1.9
			c0.2-0.5,0.5-1,0.8-1.4c0.4-0.7,1-0.8,1.8-0.6c0.8,0.3,1.3,1,1.2,1.7c-0.5,3.4-4.5,6.4-7.9,5.7c-4.2-0.8-6.9-3.3-8.2-7.4
			c-0.7-2.4-0.6-4.9,0-7.3c1-3.8,3-6.9,6.1-9.3c3-2.3,6.3-3,9.9-2c5.5,1.5,9.4,4.8,11,10.3c1.2,3.9,0.5,7.8-1.1,11.4
			c-0.1,0.3-0.3,0.6-0.4,0.8C362.6,270.1,362.6,270.2,362.6,270.3z"/>
		<path d="M69.4,270.3c-1.1-0.2-2.2-0.3-3.4-0.1c-3.1,0.5-5.6,1.9-7.6,4.3c-2.5,2.9-3.9,6.3-4,10.1c-0.2,6.2,4,11.7,10.5,12.5
			c6.1,0.8,10.7-3.4,11.6-7.7c0.7-3.3,0.2-6.3-2.5-8.7c-1.5-1.3-3.2-1.7-5.1-1.1c-0.8,0.2-1.5,0.7-2,1.4c-0.6,0.8-0.3,1.7,0.8,1.9
			c0.6,0.1,1.2-0.1,1.7-0.4c0.7-0.5,1.2-0.4,1.9,0.2c0.8,0.7,1.3,1.5,1.5,2.5c0.5,2.3-0.2,4.3-1.9,5.8c-0.8,0.7-1.7,0.8-2.7,0.4
			c-0.6-0.3-1.1-0.6-1.6-1.1c-2.6-2.6-4.2-5.6-4.7-9.2c-0.1-0.8,0-1.5,0.2-2.2c0.3-1.3,0.9-2.5,1.6-3.6c0.7-1,1.7-1.6,3-1.7
			c1.7-0.1,3.3,0.1,4.8,0.7c0.4,0.2,0.7,0.4,1,0.7c3.3,3.8,7.5,6.1,12.2,7.4c2.9,0.8,5.8,1.5,8.8,1.8c2.6,0.2,5.1,0.1,7.6-0.7
			c0.8-0.3,1.6-0.6,2.2-1.2c0.6-0.5,0.9-1.1,0.7-1.6c-0.2-0.5-0.8-0.8-1.7-0.6c-1.3,0.3-2.5,0.5-3.8,0.7c-3.6,0.4-7-0.3-10.4-1.1
			c-2.4-0.6-4.8-1.4-7-2.5c-4.1-2.1-7.1-5.3-9.2-9.4c-1.5-3-1.9-6.2-0.9-9.4c1-3.3,4.1-5.7,7.5-5.9c1.3-0.1,2.4,0.3,3.5,0.9
			c0.8,0.5,1.5,1.1,2.1,1.8c2.7,3.4,4.1,7.3,4,11.7c-0.1,1.6-0.8,2.6-2.1,3.4c-0.7,0.4-1.4,0.4-2-0.1c-0.7-0.5-1.2-1.1-1.5-1.9
			c-0.2-0.5-0.5-1-0.8-1.4c-0.4-0.7-1-0.8-1.8-0.6c-0.8,0.3-1.3,1-1.2,1.7c0.5,3.4,4.5,6.4,7.9,5.7c4.2-0.8,6.9-3.3,8.2-7.4
			c0.7-2.4,0.6-4.9,0-7.3c-1-3.8-3-6.9-6.1-9.3c-3-2.3-6.3-3-9.9-2c-5.5,1.5-9.4,4.8-11,10.3c-1.2,3.9-0.5,7.8,1.1,11.4
			c0.1,0.3,0.3,0.6,0.4,0.8C69.4,270.1,69.4,270.2,69.4,270.3z"/>
	</g>
</g>
</svg>
