<?xml version="1.0" encoding="utf-8"?>
<!-- Generator: Adobe Illustrator 21.1.0, SVG Export Plug-In . SVG Version: 6.00 Build 0)  -->
<svg version="1.1" id="Calque_1" xmlns="http://www.w3.org/2000/svg" xmlns:xlink="http://www.w3.org/1999/xlink" x="0px" y="0px"
	 viewBox="0 0 432 432" style="enable-background:new 0 0 432 432;" xml:space="preserve">
<style type="text/css">
	.st0{fill:#1B1B1B;}
	.st1{fill:#C58772;}
	.st2{fill:#D6B970;}
	.st3{fill:#D87C50;}
	.st4{fill:#C45C77;}
	.st5{fill:#7FAADB;}
	.st6{fill:#343434;}
	.st7{fill:#BF7861;}
	.st8{fill:#868E99;}
	.st9{fill:#BFBB60;}
	.st10{fill:#DCB583;}
	.st11{fill:#936660;}
	.st12{fill:#CCAEA3;}
	.st13{fill:#434552;}
	.st14{fill:#CDCCCC;}
	.st15{fill:#D4B0A5;}
	.st16{fill:#779AC5;}
	.st17{fill:#469A5F;}
	.st18{fill:#746458;}
	.st19{fill:#8A4F3B;}
	.st20{fill:#020203;}
	.st21{fill:#808955;}
	.st22{fill:#92634B;}
	.st23{fill:#DDB459;}
	.st24{fill:#C1292E;}
	.st25{fill:#5A8A70;}
	.st26{fill:#CC8F7A;}
	.st27{fill:#778092;}
	.st28{fill:#BE7D67;}
	.st29{fill:#67734A;}
	.st30{fill:#C7A866;}
	.st31{fill:#B78675;}
	.st32{fill:#CEB961;}
	.st33{fill:#9699AA;}
	.st34{fill:#9B637F;}
	.st35{fill:#C5809F;}
	.st36{fill:#D1A0A2;}
	.st37{fill:#CE7C61;}
	.st38{fill:#D69883;}
	.st39{fill:#598684;}
	.st40{fill:#AFD9C7;}
	.st41{fill:#CF6185;}
	.st42{fill:#F6B8C6;}
	.st43{fill:#E98652;}
	.st44{fill:#E8AF53;}
	.st45{fill:#ED9E84;}
	.st46{fill:#E97853;}
	.st47{fill:#EE7093;}
	.st48{fill:#F5A579;}
	.st49{fill:#FED385;}
	.st50{fill:#1B2C4D;}
	.st51{fill:#65C2CB;}
	.st52{fill:#93C243;}
	.st53{fill:#EDBA66;}
	.st54{fill:#A0AB7B;}
	.st55{fill:#EE7238;}
	.st56{fill:#0C4687;}
	.st57{fill:#92A8D1;}
	.st58{fill:#EE8E6E;}
	.st59{fill:#E8423E;}
	.st60{fill:#ADCFD4;}
	.st61{fill:#EE7488;}
	.st62{fill:#86506E;}
	.st63{fill:#D9CFC3;}
	.st64{fill:#808477;}
	.st65{fill:#EB774A;}
	.st66{fill:#B3C1B1;}
	.st67{fill:#9F573E;}
	.st68{fill:#493944;}
	.st69{fill:#793D45;}
	.st70{fill:#ED9278;}
	.st71{fill:#FBC685;}
	.st72{fill:#B2654B;}
	.st73{fill:#E7E6E6;}
	.st74{fill:#F9B03D;}
	.st75{fill:#C69C6C;}
	.st76{fill:#EDB83C;}
	.st77{fill:#EF7D57;}
	.st78{fill:#6EAA4D;}
	.st79{fill:#F08556;}
	.st80{fill:#D34550;}
	.st81{fill:#E1E2E5;}
	.st82{fill:#F09F56;}
	.st83{fill:#77B4C9;}
	.st84{fill:#CD684D;}
	.st85{fill:#B4B4B4;}
	.st86{fill:#C19446;}
	.st87{fill:#C38FA6;}
	.st88{fill:#D3A698;}
	.st89{fill:#A3A3CD;}
	.st90{fill:#E6C04C;}
	.st91{fill:#C26647;}
	.st92{fill:#CA8399;}
	.st93{fill:#7397A4;}
	.st94{fill:#9F8777;}
	.st95{fill:#AC654E;}
	.st96{fill:#E5874C;}
	.st97{fill:#7AA87A;}
	.st98{fill:#D3AAB1;}
	.st99{fill:#CA8D78;}
	.st100{fill:#8CAAB5;}
	.st101{fill:#A1A0A0;}
	.st102{fill:#32353E;}
	.st103{fill:#537791;}
	.st104{fill:#4C4B3D;}
	.st105{fill:#C1BD99;}
	.st106{fill:#908E60;}
	.st107{fill:#EAB96A;}
	.st108{fill:#B6654F;}
	.st109{fill:#EE9070;}
	.st110{fill:#708772;}
	.st111{fill:#F08219;}
	.st112{fill:#FFD207;}
	.st113{fill:#34B9C5;}
	.st114{fill:#C24E57;}
	.st115{fill:#9A9999;}
	.st116{fill:#90C9BB;}
	.st117{fill:#95B877;}
	.st118{fill:#9BD3D2;}
	.st119{fill:#7AAD9E;}
	.st120{fill:#754D24;}
	.st121{fill:#48AE4D;}
	.st122{fill:#458562;}
	.st123{fill:#B13741;}
	.st124{fill:#544842;}
	.st125{fill:#D39842;}
	.st126{fill:#528E71;}
	.st127{fill:#63A3A4;}
	.st128{fill:#BF924C;}
	.st129{fill-rule:evenodd;clip-rule:evenodd;fill:#BF924C;}
	.st130{fill:#67A07F;}
	.st131{fill:#A67D52;}
</style>
<g>
	<g>
		<path class="st18" d="M179.3,176.1c0.5,0.2,0.9,0.5,1.1,1c0.2,0.5,0.3,1,0.1,1.5c-0.1,0.6-0.4,1.1-0.8,1.4
			c-0.4,0.3-0.9,0.5-1.4,0.6c-0.5,0.1-1.2,0.1-1.8,0.1c-0.7,0-1.4,0-2.1,0v-0.1c-0.5,0-1.1,0-1.6,0c-0.5,0-1,0-1.6-0.1
			c-1,0-1.8-0.2-2.3-0.5c-0.5-0.3-0.9-0.7-1-1.1c-0.2-0.4-0.2-0.9,0-1.3c0.2-0.4,0.4-0.8,0.8-1.2c0.2-0.2,0.4-0.3,0.6-0.4
			c0.2-0.1,0.4-0.3,0.6-0.5c0.2-0.2,0.3-0.5,0.4-0.9c0.1-0.4,0.2-1,0.2-1.8c0-1,0-2.4-0.1-4.1c-0.1-1.7-0.2-3.5-0.3-5.4
			c-0.1-1.9-0.2-3.8-0.3-5.7c-0.1-1.9-0.3-3.6-0.4-5.2c-0.1-1.6-0.2-2.9-0.3-3.9c-0.1-1-0.1-1.6-0.1-1.7c-0.1-0.5-0.1-1.1-0.1-1.6
			c0-0.5-0.3-0.9-0.8-1.1c-0.6-0.3-1-0.7-1.3-1.2c-0.2-0.5-0.3-1-0.3-1.6c0-0.5,0.1-0.8,0.2-1c0.1-0.2,0.5-0.4,1-0.4
			c0.7-0.2,1.4-0.3,1.9-0.3c0.5,0,1.1-0.1,1.9-0.1c1.6,0,3.2,0.3,4.8,0.6c0.5,0.1,0.9,0.3,1.3,0.6c0.3,0.3,0.6,0.6,0.7,1
			c0.1,0.4,0.2,0.8,0.1,1.2c-0.1,0.4-0.3,0.8-0.6,1.2c-0.5,0.6-0.9,1.2-1,1.8c-0.1,0.6-0.2,1.3-0.1,1.9c0,0.3,0,1,0.1,2.1
			c0,1.1,0.1,2.4,0.1,3.9c0.1,1.5,0.1,3.2,0.2,5c0.1,1.8,0.2,3.6,0.3,5.4c0.1,1.8,0.2,3.5,0.3,5.1c0.1,1.6,0.2,3,0.3,4.1
			c0.1,0.5,0.2,1,0.4,1.4C178.3,175.5,178.7,175.8,179.3,176.1z"/>
		<g>
			<path class="st82" d="M208.5,176.9c0,0.5,0.1,0.9,0.1,1.3c0,0.4,0,0.7-0.1,1c-0.1,0.3-0.3,0.5-0.5,0.7c-0.2,0.2-0.6,0.3-1,0.3
				c-0.6,0.1-1.2,0.1-1.7,0.2c-0.6,0-1.1,0.1-1.7,0.1c-0.9,0-1.5-0.2-1.9-0.6c-0.4-0.4-0.6-1-0.7-1.9c0-0.2-0.1-1.2-0.1-3
				c0-1.8-0.1-4.1-0.1-6.7c-0.1-2.6-0.1-5.5-0.2-8.5c-0.1-3-0.1-5.9-0.1-8.5c0-2.6-0.1-4.9-0.1-6.7c0-1.8,0-2.8,0-3
				c0.1-0.9,0.6-1.5,1.5-1.6c1.5-0.2,2.7-0.2,3.6-0.2c0.9,0,1.5,0.4,1.9,1c0.4,0.7,0.7,1.8,0.8,3.3s0.1,3.7,0.1,6.5s0,6.3,0,10.6
				C208.3,165.5,208.4,170.7,208.5,176.9z"/>
			<path class="st82" d="M231.2,143.6c0.7,1.9,1.1,4.1,1.4,6.8c0.3,2.7,0.4,5.5,0.3,8.4c0,2.9-0.2,5.8-0.4,8.7
				c-0.2,2.9-0.5,5.4-0.7,7.7c-0.2,1.4-0.6,2.5-1.3,3.2c-0.7,0.7-1.5,1.3-2.5,1.6c-1,0.3-2.2,0.5-3.5,0.6c-1.3,0-2.7,0.1-4.2,0.1
				c-1.4,0-2.6-0.3-3.6-1c-1-0.6-1.8-1.6-2.3-3c-0.3-0.9-0.6-2.2-0.8-3.8c-0.2-1.6-0.4-3.4-0.6-5.4c-0.2-2-0.3-4.1-0.4-6.2
				c-0.1-2.2-0.1-4.3-0.1-6.3c0-1.7,0.1-3.5,0.3-5.1c0.2-1.7,0.3-3.4,0.5-5.1c0.1-1.2,0.5-2.1,1.2-2.7c0.7-0.7,1.6-1.2,2.7-1.5
				c1.1-0.3,2.3-0.5,3.5-0.6c1.3,0,2.5,0,3.7,0.1c0.9,0.1,1.6,0.2,2.4,0.3c0.7,0.1,1.4,0.3,1.9,0.6c0.6,0.3,1.1,0.6,1.5,1.1
				C230.6,142.2,231,142.8,231.2,143.6z M226,171.1c0.1-0.7,0.2-1.7,0.2-3c0.1-1.3,0.1-2.7,0.1-4.2c0-1.5,0-3.1,0-4.7
				c0-1.6,0-3.2-0.1-4.7s-0.1-2.8-0.2-4c-0.1-1.2-0.2-2.1-0.4-2.8c-0.2-0.7-0.6-1.1-1.3-1.3c-0.7-0.1-1.4-0.2-2.2-0.1
				c-0.6,0-1.1,0.1-1.4,0.4c-0.3,0.3-0.6,0.7-0.7,1.4c-0.2,0.9-0.4,2-0.5,3.3c-0.1,1.3-0.1,2.7-0.1,4.2c0,1.5,0,3,0.1,4.6
				c0.1,1.6,0.1,3.1,0.2,4.5c0.1,1.4,0.2,2.7,0.3,3.8c0.1,1.1,0.2,2,0.2,2.6c0.1,0.9,0.4,1.5,1,1.9c0.6,0.4,1.2,0.6,1.9,0.5
				c0.7,0,1.3-0.3,1.9-0.7C225.6,172.4,225.9,171.8,226,171.1z"/>
			<path class="st82" d="M249,167.2c0.5-4.6,0.9-8.5,1.1-11.7c0.2-3.2,0.4-5.8,0.6-7.8c0.2-2,0.4-3.6,0.6-4.7c0.2-1.1,0.5-1.9,1-2.4
				c0.4-0.5,1.1-0.7,1.9-0.8c0.8,0,1.9,0,3.2,0.1c0.9,0,1.4,0.5,1.5,1.4c0,0.4,0,1.5-0.3,3.4c-0.2,1.9-0.5,4.1-0.8,6.7
				c-0.3,2.6-0.7,5.4-1.2,8.3s-0.8,5.7-1.2,8.3c-0.4,2.6-0.7,4.7-1,6.5c-0.3,1.8-0.5,2.8-0.6,3.1c-0.2,0.9-0.6,1.5-1,1.9
				c-0.4,0.4-1.1,0.6-2,0.7c-1.6,0.2-2.9,0.2-3.8,0.1c-1-0.1-1.7-0.7-2.1-1.6c-0.3-0.8-0.7-2-1.2-3.7s-0.9-3.5-1.4-5.7
				c-0.5-2.2-1-4.5-1.5-6.9c-0.5-2.5-1-4.9-1.4-7.2c-0.5-2.4-0.9-4.6-1.3-6.7c-0.4-2.1-0.7-3.9-1-5.4c-0.1-0.5-0.1-0.9-0.1-1.3
				s0.1-0.7,0.3-1c0.2-0.3,0.6-0.5,1.2-0.6c0.5-0.2,1.3-0.3,2.2-0.3c0.8,0,1.4,0,1.9,0.1c0.5,0.1,0.9,0.4,1.2,0.9
				c0.3,0.5,0.6,1.3,0.8,2.4c0.2,1.1,0.5,2.6,0.8,4.6c0.3,2,0.7,4.4,1.2,7.4c0.5,3,1.1,6.7,1.9,11c0,0.2,0.1,0.4,0.1,0.5
				c0.1,0.1,0.1,0.3,0.2,0.4C248.8,167.2,248.9,167.2,249,167.2z"/>
			<path class="st82" d="M285.8,175.9c0.1,0.9,0.1,1.5,0,2.1c-0.1,0.5-0.2,0.9-0.4,1.2s-0.4,0.5-0.8,0.6c-0.3,0.1-0.6,0.2-1,0.3
				c-1.5,0.3-2.9,0.5-4.4,0.5c-1.5,0-2.9,0-4.4-0.1c-1.2-0.1-2.3-0.2-3.4-0.4s-2.1-0.5-3-0.9c-0.9-0.4-1.7-1-2.4-1.7
				c-0.7-0.7-1.2-1.6-1.5-2.8c-0.4-1.8-0.8-3.9-1-6.3c-0.3-2.4-0.5-4.8-0.6-7.3c-0.1-2.5-0.2-4.9-0.2-7.2c0-2.3,0.1-4.3,0.2-5.8
				c0.1-1.7,0.6-3.2,1.5-4.5c0.9-1.2,2.3-2.2,4-2.7c2-0.7,3.9-1,5.8-1.1c1.9-0.1,3.9,0.2,5.8,0.9c2,0.7,3.3,1.8,4.1,3.3
				c0.8,1.5,1.2,3.7,1.3,6.5c0,1,0.1,2.2,0.1,3.5c0,1.3,0,2.6-0.1,3.9c-0.1,1.3-0.2,2.6-0.4,3.9c-0.2,1.3-0.5,2.4-1,3.5
				c-0.4,1-1,1.9-1.7,2.6c-0.7,0.7-1.6,1.1-2.6,1.3c-2,0.3-3.6,0.4-4.9,0.5c-1.2,0.1-2.2,0.1-2.8,0.1c-0.7,0-1.1,0.1-1.3,0.3
				c-0.2,0.2-0.3,0.5-0.3,1c0,1.3,0.3,2.1,1,2.6c0.7,0.4,1.6,0.7,2.7,0.7s2.3-0.1,3.6-0.3c1.3-0.2,2.5-0.4,3.6-0.4
				c1.1-0.1,2.1,0,2.9,0.3C285.2,174.2,285.7,174.9,285.8,175.9z M269.7,162.3c0.1,0.7,0.3,1.3,0.8,1.6c0.5,0.3,1,0.5,1.7,0.6
				c0.7,0.1,1.4,0.1,2.2,0c0.8-0.1,1.6-0.2,2.3-0.2c1.5-0.2,2.3-1,2.5-2.6c0-0.5,0.1-1.3,0.1-2.4c0-1.1,0.1-2.3,0.1-3.5
				c0-1.3,0-2.5-0.1-3.6s-0.2-2-0.3-2.6c-0.5-1.9-1.7-3-3.7-3.3c-1.1-0.2-2-0.2-2.7,0c-0.7,0.1-1.2,0.3-1.5,0.6
				c-0.4,0.3-0.6,0.6-0.8,1c-0.1,0.4-0.2,0.8-0.3,1.2c-0.4,2.2-0.6,4.4-0.7,6.5C269.3,157.9,269.5,160.1,269.7,162.3z"/>
		</g>
		<g>
			<path class="st18" d="M147.2,238.4c-0.7,0-1.3-0.2-1.8-0.6c-0.5-0.3-0.9-0.8-1.2-1.3c-0.3-0.5-0.5-1.2-0.6-1.8
				c-0.1-0.7,0-1.4,0.3-2.1c0.2-0.5,0.5-0.8,1-0.9c0.5-0.2,1-0.3,1.7-0.3c0.7,0,1.4-0.1,2.3-0.1c0.9,0,1.8-0.1,2.8-0.3
				c1.4-0.2,2.2-0.9,2.7-1.9c0.4-1.1,0.5-2.3,0.3-3.7c-0.3-1.4-0.8-2.8-1.6-4.2c-0.8-1.4-1.8-2.6-2.9-3.5c-0.9-0.8-1.9-1.6-2.9-2.5
				s-1.8-1.9-2.5-3.1c-0.7-1.2-1.1-2.7-1.4-4.4c-0.3-1.7-0.1-3.8,0.3-6.3c0.2-0.9,0.5-1.6,1.1-2.2s1.3-0.9,2.2-0.9
				c1.6-0.1,3.2-0.1,4.7-0.1c1.5,0.1,3.1,0.3,4.6,0.6c0.7,0.2,1.2,0.5,1.5,0.9c0.3,0.4,0.5,1,0.6,1.7c0.1,1-0.1,1.7-0.4,2.2
				c-0.3,0.5-0.8,0.8-1.3,0.9c-0.5,0.2-1.1,0.2-1.8,0.3c-0.6,0-1.2,0.1-1.7,0.2s-0.9,0.4-1.2,0.8c-0.3,0.4-0.4,1-0.2,1.9
				c0.1,0.8,0.3,1.5,0.6,2c0.3,0.5,0.7,1,1.2,1.6c0.5,0.5,1.2,1.1,1.9,1.8c0.8,0.7,1.8,1.5,2.9,2.6c1.2,1.2,2,2.6,2.6,4
				c0.5,1.4,0.9,2.8,1.1,4.1c0.2,1.3,0.3,2.6,0.2,3.7s0,1.9,0,2.5c0.1,2.4-0.4,4.4-1.6,5.9c-1.2,1.6-3.1,2.4-5.8,2.7
				c-0.2,0-0.7,0.1-1.4,0.1c-0.7,0-1.4,0-2.2-0.1c-0.8,0-1.6-0.1-2.3-0.1C148.2,238.4,147.6,238.4,147.2,238.4z"/>
			<path class="st18" d="M190,202.6c0.1,5,0.2,9.3,0.3,12.7c0.1,3.5,0.2,6.4,0.3,8.8c0.1,2.3,0.1,4.2,0.2,5.6
				c0.1,1.4,0.1,2.5,0.1,3.4c0,0.8,0,1.5,0,1.9c0,0.4,0,0.9-0.1,1.3c-0.2,1.2-0.7,2-1.6,2.2c-0.9,0.2-2.1,0.3-3.5,0.2
				c-0.7-0.1-1.1-0.2-1.3-0.4c-0.2-0.2-0.3-0.7-0.4-1.4c0-0.1,0-0.3,0-0.5c0-0.2,0-0.4,0-0.6c0-0.2,0-0.3-0.1-0.4
				c0-0.1-0.1-0.1-0.2-0.1c-0.3,0.2-0.8,0.5-1.5,1c-0.7,0.5-1.5,0.9-2.4,1.4c-1,0.4-2.1,0.8-3.3,1c-1.3,0.2-2.6,0.2-4.2-0.2
				c-0.7-0.2-1.4-0.4-1.9-0.8c-0.6-0.4-1-1-1.5-1.9c-0.4-0.9-0.8-2.1-1-3.8c-0.3-1.6-0.5-3.7-0.8-6.4c-0.2-2.6-0.4-5.9-0.6-9.7
				c-0.2-3.9-0.3-8.5-0.5-13.9c0-0.9,0-1.7,0.3-2.6c0.2-0.8,0.7-1.3,1.5-1.4c1.3-0.2,2.4-0.2,3.1-0.3c0.8,0,1.3,0.2,1.7,0.8
				c0.4,0.5,0.6,1.4,0.8,2.6c0.1,1.2,0.2,2.9,0.3,5.1c0.1,2.2,0.1,5.1,0.2,8.5c0.1,3.4,0.3,7.6,0.6,12.6c0.1,1.1,0.4,2,0.8,2.7
				c0.5,0.7,1.3,1.1,2.4,1.2c1.6,0.1,2.7-0.5,3.3-1.8c0.6-1.3,1.1-3.2,1.3-5.7c0.2-2.5,0.3-5.6,0.2-9.3c0-3.7,0.1-7.8,0.3-12.5
				c0.1-1.4,0.4-2.5,1.1-3.1c0.6-0.6,1.3-0.9,2.1-1s1.5,0.1,2.2,0.5c0.7,0.4,1.1,0.9,1.2,1.4c0.1,0.5,0.2,0.9,0.3,1.4
				C189.9,201.7,190,202.2,190,202.6z"/>
			<path class="st18" d="M230.2,205.2c0.3,2.1,0.6,4.3,0.9,6.7c0.3,2.3,0.5,4.7,0.6,7c0.2,2.3,0.3,4.5,0.4,6.6
				c0.1,2.1,0.1,4,0.2,5.6c0.1,1.6,0.1,2.9,0.1,3.9c0,1,0,1.5,0,1.6c-0.1,0.7-0.3,1.3-0.7,1.6c-0.3,0.3-0.7,0.5-1.3,0.6
				c-0.5,0.1-1.1,0.1-1.7,0.1c-0.7,0-1.4-0.1-2.2-0.1c-0.5,0-1-0.2-1.2-0.5c-0.3-0.3-0.4-0.8-0.5-1.3c0-0.1,0-0.8-0.1-2.1
				c0-1.3-0.1-2.9-0.1-4.8c0-1.9-0.1-4-0.1-6.2c-0.1-2.2-0.1-4.3-0.2-6.3c-0.1-2-0.2-3.7-0.3-5.1c-0.1-1.4-0.2-2.3-0.3-2.6
				c-0.3-1-0.7-1.8-1.3-2.4c-0.6-0.6-1.4-0.8-2.4-0.6c-0.6,0.1-1.2,0.4-1.7,1.1c-0.6,0.7-0.9,1.3-1,1.9c-0.1,0.7-0.1,1.8-0.2,3.3
				c0,1.5-0.1,3.2-0.1,5.1c0,1.9,0,3.9,0,5.9c0,2,0,3.9,0,5.6c0,1.7,0,3.2,0,4.4c0,1.2,0,1.9-0.1,2.2c-0.1,0.8-0.2,1.3-0.3,1.7
				c-0.1,0.3-0.3,0.6-0.6,0.7c-0.3,0.1-0.7,0.2-1.3,0.1c-0.6,0-1.4,0-2.5,0c-1.1,0-1.8-0.6-2.1-1.8c-0.3-1.2-0.5-3-0.6-5.5
				c0-2.4,0-5.4,0-9c0-3.5-0.1-7.7-0.5-12.3c-0.1-0.9-0.4-1.7-1-2.2c-0.6-0.6-1.3-0.9-2.1-1c-0.8-0.1-1.5,0.1-2.1,0.6
				c-0.7,0.4-1.1,1.2-1.2,2.3c0,0.1,0,0.8,0,1.9s0.1,2.6,0.1,4.4c0.1,1.7,0.1,3.7,0.2,5.8c0.1,2.1,0.1,4.1,0.2,6.1
				c0.1,1.9,0.1,3.7,0.1,5.2s0.1,2.7,0.1,3.3c0,1.5-0.7,2.2-2.2,2.3c-1.5,0.1-2.7,0-3.6-0.2c-0.9-0.2-1.4-0.8-1.6-1.8
				c0-0.2-0.1-0.8-0.1-1.9s-0.1-2.5-0.1-4.2c-0.1-1.7-0.1-3.6-0.2-5.8c-0.1-2.1-0.1-4.3-0.2-6.5c-0.1-2.2-0.1-4.3-0.2-6.4
				c-0.1-2.1-0.1-3.9-0.1-5.6c0-1.6-0.1-3.5-0.1-5.5c0-0.7,0.1-1.3,0.3-1.7c0.2-0.4,0.5-0.7,0.9-0.9c0.4-0.2,1-0.3,1.6-0.3
				c0.6,0,1.4-0.1,2.2-0.1c0.4,0,0.7,0,0.9,0.1c0.2,0.1,0.4,0.2,0.5,0.4s0.2,0.4,0.3,0.8c0.1,0.3,0.2,0.7,0.4,1.2c1-1,2.2-1.7,3.3-2
				s2.3-0.4,3.4-0.1c1.1,0.3,2.1,0.9,3,1.8c0.9,0.9,1.6,2.1,2,3.5c1-1.7,2.2-3,3.3-3.9c1.2-0.9,2.3-1.5,3.5-1.7
				c1.2-0.3,2.3-0.2,3.3,0.1c1.1,0.3,2,0.8,2.9,1.5c0.9,0.7,1.6,1.5,2.2,2.5C229.7,203.1,230.1,204.1,230.2,205.2z"/>
			<path class="st18" d="M271.7,205.2c0.3,2.1,0.6,4.3,0.9,6.7c0.3,2.3,0.5,4.7,0.6,7c0.2,2.3,0.3,4.5,0.4,6.6
				c0.1,2.1,0.1,4,0.2,5.6c0.1,1.6,0.1,2.9,0.1,3.9c0,1,0,1.5,0,1.6c-0.1,0.7-0.3,1.3-0.7,1.6c-0.3,0.3-0.7,0.5-1.3,0.6
				c-0.5,0.1-1.1,0.1-1.7,0.1c-0.7,0-1.4-0.1-2.2-0.1c-0.5,0-1-0.2-1.2-0.5c-0.3-0.3-0.4-0.8-0.5-1.3c0-0.1,0-0.8-0.1-2.1
				c0-1.3-0.1-2.9-0.1-4.8c0-1.9-0.1-4-0.1-6.2c-0.1-2.2-0.1-4.3-0.2-6.3c-0.1-2-0.2-3.7-0.3-5.1c-0.1-1.4-0.2-2.3-0.3-2.6
				c-0.3-1-0.7-1.8-1.3-2.4c-0.6-0.6-1.4-0.8-2.4-0.6c-0.6,0.1-1.2,0.4-1.7,1.1c-0.6,0.7-0.9,1.3-1,1.9c-0.1,0.7-0.1,1.8-0.2,3.3
				c0,1.5-0.1,3.2-0.1,5.1c0,1.9,0,3.9,0,5.9c0,2,0,3.9,0,5.6c0,1.7,0,3.2,0,4.4c0,1.2,0,1.9-0.1,2.2c-0.1,0.8-0.2,1.3-0.3,1.7
				c-0.1,0.3-0.3,0.6-0.6,0.7c-0.3,0.1-0.7,0.2-1.3,0.1c-0.6,0-1.4,0-2.5,0c-1.1,0-1.8-0.6-2.1-1.8c-0.3-1.2-0.5-3-0.6-5.5
				c0-2.4,0-5.4,0-9c0-3.5-0.1-7.7-0.5-12.3c-0.1-0.9-0.4-1.7-1-2.2c-0.6-0.6-1.3-0.9-2.1-1c-0.8-0.1-1.5,0.1-2.1,0.6
				c-0.7,0.4-1.1,1.2-1.2,2.3c0,0.1,0,0.8,0,1.9s0.1,2.6,0.1,4.4s0.1,3.7,0.2,5.8c0.1,2.1,0.1,4.1,0.2,6.1c0.1,1.9,0.1,3.7,0.1,5.2
				s0.1,2.7,0.1,3.3c0,1.5-0.7,2.2-2.2,2.3c-1.5,0.1-2.7,0-3.6-0.2c-0.9-0.2-1.4-0.8-1.6-1.8c0-0.2-0.1-0.8-0.1-1.9
				s-0.1-2.5-0.1-4.2s-0.1-3.6-0.2-5.8c-0.1-2.1-0.1-4.3-0.2-6.5c-0.1-2.2-0.1-4.3-0.2-6.4c-0.1-2.1-0.1-3.9-0.1-5.6
				c0-1.6-0.1-3.5-0.1-5.5c0-0.7,0.1-1.3,0.3-1.7c0.2-0.4,0.5-0.7,0.9-0.9c0.4-0.2,1-0.3,1.6-0.3s1.4-0.1,2.2-0.1
				c0.4,0,0.7,0,0.9,0.1c0.2,0.1,0.4,0.2,0.5,0.4c0.1,0.2,0.2,0.4,0.3,0.8c0.1,0.3,0.2,0.7,0.4,1.2c1-1,2.2-1.7,3.3-2
				c1.2-0.3,2.3-0.4,3.4-0.1c1.1,0.3,2.1,0.9,3,1.8c0.9,0.9,1.6,2.1,2,3.5c1-1.7,2.2-3,3.3-3.9c1.2-0.9,2.3-1.5,3.5-1.7
				c1.2-0.3,2.3-0.2,3.3,0.1c1.1,0.3,2,0.8,2.9,1.5c0.9,0.7,1.6,1.5,2.2,2.5C271.1,203.1,271.5,204.1,271.7,205.2z"/>
			<path class="st18" d="M300.9,234.1c0.1,0.9,0.1,1.5,0,2.1c-0.1,0.5-0.2,0.9-0.4,1.2c-0.2,0.3-0.4,0.5-0.8,0.6
				c-0.3,0.1-0.6,0.2-1,0.3c-1.5,0.3-2.9,0.5-4.4,0.5c-1.5,0-2.9,0-4.4-0.1c-1.2-0.1-2.3-0.2-3.4-0.4s-2.1-0.5-3-0.9
				c-0.9-0.4-1.7-1-2.4-1.7c-0.7-0.7-1.2-1.6-1.5-2.8c-0.4-1.8-0.8-3.9-1-6.3c-0.3-2.4-0.5-4.8-0.6-7.3c-0.1-2.5-0.2-4.9-0.2-7.2
				c0-2.3,0.1-4.3,0.2-5.8c0.1-1.7,0.6-3.2,1.5-4.5c0.9-1.2,2.3-2.2,4-2.7c2-0.7,3.9-1,5.8-1.1c1.9-0.1,3.9,0.2,5.8,0.9
				c2,0.7,3.3,1.8,4.1,3.3c0.8,1.5,1.2,3.7,1.3,6.5c0,1,0.1,2.2,0.1,3.5c0,1.3,0,2.6-0.1,3.9c-0.1,1.3-0.2,2.6-0.4,3.9
				c-0.2,1.3-0.5,2.4-1,3.5c-0.4,1-1,1.9-1.7,2.6c-0.7,0.7-1.6,1.1-2.6,1.3c-2,0.3-3.6,0.4-4.9,0.5c-1.2,0.1-2.2,0.1-2.8,0.1
				c-0.7,0-1.1,0.1-1.3,0.3c-0.2,0.2-0.3,0.5-0.3,1c0,1.3,0.3,2.1,1,2.6c0.7,0.4,1.6,0.7,2.7,0.7s2.3-0.1,3.6-0.3
				c1.3-0.2,2.5-0.4,3.6-0.4c1.1-0.1,2.1,0,2.9,0.3C300.3,232.4,300.8,233.1,300.9,234.1z M284.8,220.5c0.1,0.7,0.3,1.3,0.8,1.6
				c0.5,0.3,1,0.5,1.7,0.6c0.7,0.1,1.4,0.1,2.2,0c0.8-0.1,1.6-0.2,2.3-0.2c1.5-0.2,2.3-1,2.5-2.6c0-0.5,0.1-1.3,0.1-2.4
				c0-1.1,0.1-2.3,0.1-3.5c0-1.3,0-2.5-0.1-3.6c-0.1-1.2-0.2-2-0.3-2.6c-0.5-1.9-1.7-3-3.7-3.3c-1.1-0.2-2-0.2-2.7,0
				c-0.7,0.1-1.2,0.3-1.5,0.6c-0.4,0.3-0.6,0.6-0.8,1c-0.1,0.4-0.2,0.8-0.3,1.2c-0.4,2.2-0.6,4.4-0.7,6.5
				C284.4,216.1,284.5,218.3,284.8,220.5z"/>
			<path class="st18" d="M311.9,199.3c0.2,0.3,0.3,0.4,0.5,0.3c0.2-0.1,0.4-0.2,0.7-0.4s0.6-0.4,0.9-0.7c0.3-0.2,0.7-0.4,1-0.4
				c1,0,1.9,0,2.9,0.1c1,0.1,1.9,0.3,2.7,0.6c0.8,0.3,1.6,0.8,2.2,1.4s1,1.4,1.2,2.3c0.3,1.6,0.5,3.2,0.6,4.7c0,1.5-0.2,2.8-0.6,3.9
				c-0.4,1.1-1,1.8-1.9,2.2s-2,0.2-3.4-0.6c-0.4-0.2-0.7-0.5-0.8-1c-0.1-0.5-0.1-1,0-1.6c0.1-0.6,0.2-1.2,0.3-1.9
				c0.1-0.7,0.2-1.3,0.3-1.9c0-0.6,0-1.1-0.1-1.5c-0.1-0.4-0.5-0.7-1-0.8c-0.6-0.2-1.2-0.3-1.8-0.3c-0.6,0-1.2,0-1.7,0.2
				c-0.5,0.2-1,0.4-1.3,0.8c-0.4,0.4-0.6,0.8-0.7,1.4c-0.2,0.7-0.2,1.9-0.2,3.5c0,1.7,0.1,3.6,0.2,5.7c0.1,2.2,0.2,4.4,0.3,6.7
				c0.1,2.3,0.3,4.5,0.4,6.5c0.1,2,0.2,3.7,0.3,5c0.1,1.4,0.1,2.2,0.1,2.4c-0.1,0.9-0.3,1.6-0.6,2c-0.3,0.4-1,0.7-1.8,0.9
				c-1,0.2-1.9,0.1-2.7-0.1c-0.8-0.3-1.3-0.8-1.6-1.8c-0.1-0.5-0.2-1.3-0.3-2.6c-0.1-1.2-0.2-2.7-0.3-4.4c-0.1-1.7-0.2-3.5-0.3-5.5
				c-0.1-2-0.1-4-0.2-6.1c-0.1-2-0.1-4-0.1-5.9c0-1.9-0.1-3.6-0.1-5.1c0-1.5,0-2.8,0-3.7s0-1.5,0-1.6c0.1-1.5,0.4-2.5,1-3.1
				c0.6-0.6,1.6-0.8,3-0.8c0.5,0,1.1,0,1.7,0.1C311.2,198.2,311.6,198.6,311.9,199.3z"/>
		</g>
	</g>
	<g>
		<path class="st82" d="M377.4,159.8c-0.7-6.7-1.8-13.2-4.4-19.1c-0.7-1.5-1.4-2.9-2.3-4.2c-2.7-3.8-6.4-4-9.8-0.6
			c-0.3,0.3-0.6,0.6-0.8,0.9c-2,2.3-3.8,4.9-5.3,7.7c-6.2,11.3-11.1,23.4-14.8,36c-3.8,12.8-6.4,25.9-7.5,39.3
			c-0.4,4.6-0.3,9.2,0.3,13.7c0.3,2.2,0.9,4.3,2,6.2c0.8,1.3,1.8,2.3,3.1,2.7c2.2,0.7,4.4,0.5,6.5-1c1.1-0.8,2.1-1.6,3.1-2.4
			c0.4-0.3,0.8-0.7,1.3-1.1c0.6,0.6,1.2,1.1,1.7,1.7c0.8,1,1.6,2.1,2.4,3.1c1.7,2.1,3.7,3.9,5.9,5.2c3.9,2.1,6.6,1,8.8-3.6
			c1.5-3.1,2.5-6.3,3.4-9.7c1.5-6.3,2.4-12.8,3.3-19.2c1.4-10.5,2.6-21,3.2-31.5C378.1,175.7,378.2,167.7,377.4,159.8z M360.5,153.6
			c-1,3.3-2,6.6-2.9,9.9c-1.3,4.5-2.5,8.9-3.7,13.4c-1.5,6.2-3,12.4-4.3,18.6c-1.1,5.6-2,11.3-2.9,17c-0.6,4-1,7.9-1.5,11.9
			c-0.1,1-0.4,2-0.6,3c-0.3,1.1-0.8,1.6-1.5,1.6c-0.8,0-1.3-0.6-1.3-1.9c0-1.8,0-3.6,0.2-5.3c0.6-4.8,1.3-9.7,1.9-14.5
			c0.6-5.4,1.8-10.7,3-16c2-9.2,4.1-18.4,6.9-27.3c1.1-3.5,2.4-7,3.7-10.5c0.3-0.7,0.6-1.4,1-2c0.3-0.6,0.8-0.9,1.4-0.7
			c0.6,0.3,0.7,0.9,0.6,1.6C360.5,152.9,360.4,153.3,360.5,153.6C360.4,153.6,360.4,153.6,360.5,153.6z"/>
		<g>
			<path class="st117" d="M127.2,149.9c0.6-0.1,1.2-0.3,1.7-0.4c7.9-1.3,15.6-0.6,23.1,2.4c3.5,1.4,6.6,3.5,9.2,6.3
				c0.2,0.2,0.4,0.4,0.6,0.6c0.9,1.1,0.5,2.4-0.9,2.6c-0.8,0.2-1.6,0.2-2.4,0.2c-4.8-0.1-9.5,0.1-14.3,0.6c-1.9,0.2-3.7,0.6-5.7,0.9
				c0.2,0.3,0.3,0.6,0.5,0.7c2.5,3.2,3.8,7,4.4,11c0.6,3.8-0.2,7.4-1,11.1c-0.2,0.8-0.7,1.3-1.6,1.5c-0.9,0.2-1.5-0.1-2-0.8
				c-0.7-1-1.5-2.1-2.1-3.1c-3.5-5.4-8.1-9.6-13.9-12.5c-3.2-1.6-6.6-2.3-10-2.9c-5-0.8-10.1-0.6-15,0.7c-2.2,0.6-4.2,1.6-6,3.1
				c-4,3.2-7.2,7-9.4,11.7c-0.1,0.3-0.3,0.6-0.6,0.9c-0.8,0.8-1.9,0.5-2.2-0.5c-0.1-0.5-0.1-1.1-0.1-1.6c0.1-2.9,0.5-5.8,1.1-8.7
				c0.8-3.8,1.9-7.5,3.7-11c0.1-0.2,0.1-0.4,0.2-0.6c-1.3-0.6-2.7-0.9-4.1-1.1c-3.8-0.5-7.4,0.2-11,1.6c-4.7,1.8-8.5,4.8-11.8,8.5
				c-0.3,0.4-0.7,0.7-1,1.1c-0.5,0.4-1,0.6-1.7,0.3c-0.6-0.3-0.8-0.9-0.6-1.6c0.1-0.8,0.3-1.7,0.5-2.5c2.2-6.7,5.3-12.8,10.3-17.8
				c5-4.9,10.7-8.7,17.5-10.7c3.9-1.1,7.9-1.5,11.9-1.1c0.2,0,0.3,0,0.7,0c-0.2-0.3-0.4-0.5-0.6-0.7c-1.7-1.6-3.8-2.7-6-3.5
				c-3.4-1.3-6.9-2.1-10.6-2c-0.3,0-0.6,0-0.8,0c-0.7-0.1-1.2-0.3-1.5-1c-0.2-0.7,0.1-1.2,0.6-1.6c1.2-1.1,2.6-2.1,4.1-2.8
				c3-1.4,6.1-2,9.3-2.2c5.4-0.3,10.5,0.7,15.6,2.4c4.6,1.6,8.6,4.1,12.1,7.6c0.1,0.1,0.2,0.2,0.4,0.3c0.3-0.2,0.5-0.4,0.8-0.7
				c3.6-3.1,7.7-5,12.4-5.9c0.6-0.1,1.3-0.2,1.9-0.1c1.2,0.1,1.9,0.9,1.7,2.1c-0.1,0.6-0.3,1.2-0.5,1.7c-1.4,3.3-2.9,6.6-4.2,9.9
				c-0.8,2.2-1.4,4.4-2.1,6.6C127.3,149.3,127.3,149.6,127.2,149.9z"/>
			<path class="st18" d="M97.7,173.1c0.5-1,1.2-1.6,2-1.7c2.2-0.3,4.3-0.8,6.5-0.7c3.1,0.1,6.3,0.5,9.4,1c1.3,0.2,2.6,1,3.9,1.5
				c0.8,0.4,1.2,1.2,1.1,2.5c-0.1,2.2-0.2,4.4-0.3,6.6c-0.2,4.8-0.5,9.6-0.6,14.4c-0.2,6.8-0.4,13.6-0.4,20.4
				c0,12.4,1.2,24.5,3.3,36.6c0.1,0.6,0.1,1.2,0.2,1.8c-0.3,0.1-0.5,0.1-0.7,0.1c-1.9,0-3.7,0.3-5.5,1.2c-0.7,0.3-1.1,0.2-1.5-0.7
				c-1.2-2.8-2.4-5.6-3.6-8.3c0.3-1.3,0.7-2.4,0.9-3.5c0.2-0.8,0.4-1.7,0.4-2.5c0.1-1.9-0.5-3.1-1.8-3.3c-0.9-0.1-1.8-0.2-2.7-0.3
				c-0.6-2.2-1.3-4.4-1.9-6.7c-1.1-4.4-2.1-8.9-3.2-13.3c-0.2-1-0.1-1.6,0.3-2.4c0.5-1.1,1.1-2.2,1.5-3.4c0.8-2.4,0.4-4.2-1.1-5.6
				c-0.8-0.7-1.7-1.3-2.5-1.8c-0.6-0.3-0.9-0.8-1.1-1.8c-0.7-4.9-1.4-9.9-2.2-14.8c-0.1-0.8,0-1.4,0.4-2c0.8-1.3,1.5-2.6,2.1-4.1
				c0.7-1.8,0.5-3.6-0.4-5.2C99.5,175.9,98.7,174.6,97.7,173.1z"/>
		</g>
		<g>
			<path class="st82" d="M257.7,269.7c-2.6-1.2-5.5-1.4-8.3-1.9c-1-0.2-1.9-0.3-2.9-0.5c0,0-0.1,0-0.1,0c-2-0.1-4.1-0.2-6.1-0.2
				c-1.9,6.4-0.6,12.5,3.7,18.4c0.2,0.3,0.5,0.6,0.9,0.9c3.9-5.1,8.2-9.7,13.8-12.7c-0.2-0.4-0.4-0.6-0.5-0.8
				C257.4,272,257.2,270.8,257.7,269.7z"/>
			<path class="st118" d="M264.7,260.5c-2-2.8-4.4-5.2-7.2-7.3c-0.9-0.7-1.8-0.8-2.8-0.5c-4.4,1.5-8.1,4.2-11.1,7.8
				c-0.5,0.6-1,1.4-1.4,2.1c-0.4,0.7-0.6,1.3-0.9,2c4.9,0.4,9.8,1.4,14.6,2.5c1.3,0.3,2.5,0.5,3.8,0.9c1.1-0.5,2.4-0.8,3.6-1
				c1.7-0.2,3.5-0.2,5.6-0.3C267.3,264.4,266.1,262.4,264.7,260.5z"/>
			<path class="st82" d="M323.8,302.4c-2.7-5.9-5.4-11.7-10.1-16c0.4-0.7,1-1.3,0.9-1.9c0-0.8-0.4-1.6-0.9-2.3c-0.7-1-1.6-2-2.5-3
				c4.5-3.2,9-6.4,13.5-9.5c0.2,0,0.4,0,0.4,0.1c3.9,3.7,7.1,7.9,8.3,13.3c1.6,6.9-0.3,12.6-6,17
				C326.4,300.8,325.1,301.5,323.8,302.4z"/>
			<path class="st82" d="M269.7,302.1c1.3-8.4,3.2-15.5,4.9-18.2c5.2,1.4,10.3,2.8,15.7,4.2c1.8,5.9,2.9,12.1,3.2,18.6
				C285.4,306.2,277.5,304.7,269.7,302.1z"/>
			<path class="st82" d="M292.4,270.2c-0.5-0.1-0.8-0.2-1.1-0.2c-5.7-1.6-11.6-2.6-17.6-3.1c-0.8-0.1-1.3-0.4-1.7-1.1
				c-1.1-1.7-2.2-3.4-3.4-5.1c-2.2-3.1-4.7-6-7.7-8.3c-0.2-0.1-0.3-0.3-0.7-0.7c11.6-0.9,22.6,1.5,33.8,3.3
				C293.4,260.1,292.9,265.1,292.4,270.2z"/>
			<path class="st118" d="M298.4,307c-0.4-3.3-0.7-6.4-1.3-9.4c-0.6-3-1.5-5.9-2.4-9.1c0.9,0,1.7,0,2.5,0.1
				c3.9,0.3,7.7,0.3,11.5-0.7c0.8-0.2,1.4,0,1.9,0.6c1.2,1.5,2.5,2.9,3.6,4.5c2.2,3.5,4.3,7,6.6,10.8
				C313.3,306.5,305.9,307.2,298.4,307z"/>
			<path class="st118" d="M261,275.9c1.7,1.2,3.2,2.5,4.9,3.6c1.7,1.1,3.4,1.9,5.1,2.8c-1.1,3.1-2.3,6-3.1,9.1c-0.8,3-1.3,6.1-2,9.3
				c-7.1-2.7-13.3-6.7-18.9-11.8C251.4,282.7,257.2,277.5,261,275.9z"/>
			<path class="st118" d="M322.1,267.4c-4.5,3.2-9,6.4-13.7,9.7c-4-2.4-8.3-4.7-13.2-5.9c0.8-5,1.6-9.9,2.4-14.8
				C302.3,256.6,319,264.1,322.1,267.4z"/>
		</g>
		<g>
			<path class="st118" d="M187.8,269.8c-4.1,4.3-8.2,8.5-12.2,12.9c-2.4,2.6-4.3,5.5-5.7,8.7c-1,2.2-1.1,4.5-0.6,6.9
				c0.4,1.8,1.6,2.9,3.3,3.3c2.1,0.5,4,0,5.7-1.2c1.2-0.9,2.4-1.9,3.5-3.1c3.5-4,5.7-8.6,7-13.7c1.3-5.1,1.6-10.3,1.6-15.6
				c0-0.3,0-0.5,0.1-0.8c-0.1,0-0.2,0-0.3,0C189.4,268.1,188.6,269,187.8,269.8z"/>
			<path class="st118" d="M183.9,253.8c0.1-0.1,0-0.2,0.1-0.5c-0.3,0-0.5,0.1-0.7,0.1c-2.3,0.2-4.6,0.4-6.9,0.4
				c-4.1,0.1-8.3,0.1-12.3,0.9c-1.4,0.3-2.9,0.6-4.3,1.1c-1.6,0.5-2.9,1.4-4,2.7c-1.2,1.5-2,3.1-1.9,5c0.3,3.9,2.9,6.5,6.9,6.7
				c1.9,0.1,3.7-0.2,5.5-0.8c2.2-0.8,4.2-1.9,6.1-3.1C177.3,263,180.8,258.6,183.9,253.8z"/>
			<path class="st118" d="M219.1,281.6c-0.4-1.9-1.1-3.7-2.2-5.2c-1.8-2.6-3.7-5-6-7.2c-2.5-2.3-4.9-4.6-6.9-7.4
				c-0.1-0.2-0.3-0.3-0.6-0.6c-0.7,2.5-0.9,4.9-1.1,7.3c-0.3,5,1.2,9.7,3.3,14.1c1.2,2.5,3.3,4.4,5.8,5.6c2.1,1,4,0.8,5.8-0.7
				C219.1,285.9,219.6,283.9,219.1,281.6z"/>
		</g>
		<g>
			<path class="st118" d="M298.7,159.8c1.2-2.9,4.5-3.8,7-1.9c1.5,1.2,2.7,3.1,3.4,5.1c1.3-2.3,3.4-4.3,5.7-5.1
				c3.9-1.3,6.9,2.8,6.6,6.3c-0.3,4.3-3.7,8.2-6.5,11.3c-2.7,2.9-5.9,5.8-9.4,7.8c-0.7,0.4-1.8,0.2-1.9-0.6c-0.9-4-2.7-7.9-4-11.8
				C298.6,167.5,297.3,163.2,298.7,159.8z"/>
			<path class="st82" d="M335.9,139.8c-0.8-1.8-2.9-2.4-4.4-1.2c-1,0.8-1.7,1.9-2.2,3.2c-0.8-1.5-2.1-2.7-3.6-3.2
				c-2.5-0.8-4.4,1.8-4.2,4c0.2,2.8,2.4,5.2,4.1,7.1c1.7,1.9,3.7,3.7,5.9,5c0.4,0.2,1.1,0.1,1.2-0.4c0.6-2.6,1.7-5,2.5-7.5
				C336,144.7,336.8,142,335.9,139.8z"/>
		</g>
	</g>
</g>
</svg>
