<?xml version="1.0" encoding="utf-8"?>
<!-- Generator: Adobe Illustrator 22.0.0, SVG Export Plug-In . SVG Version: 6.00 Build 0)  -->
<svg version="1.1" id="Calque_1" xmlns="http://www.w3.org/2000/svg" xmlns:xlink="http://www.w3.org/1999/xlink" x="0px" y="0px"
	 viewBox="0 0 432 432" style="enable-background:new 0 0 432 432;" xml:space="preserve">
<style type="text/css">
	.st0{fill:#020203;}
	.st1{fill:#F3D4AA;}
	.st2{fill:#C1292E;}
	.st3{fill:#E7E6E6;}
	.st4{fill:#A81922;}
	.st5{fill:#D6A14D;}
	.st6{fill:#E580A9;}
	.st7{fill:#FFF0BA;}
	.st8{fill:#972021;}
	.st9{fill:#D06C5D;}
	.st10{fill:#36502D;}
	.st11{fill:#79986F;}
	.st12{fill:#EB5B28;}
	.st13{fill:#A67D52;}
	.st14{fill:#F2F2F2;}
	.st15{fill:#066938;}
	.st16{fill:#009245;}
	.st17{fill:#CDCCCC;}
	.st18{fill:#AE8864;}
	.st19{fill:#412413;}
	.st20{fill:#8C633A;}
	.st21{fill:#F39323;}
	.st22{fill:#F9B03D;}
	.st23{fill:#C69C6C;}
	.st24{fill:#2FBAD7;}
	.st25{fill:#DAA405;}
	.st26{fill:#808181;}
	.st27{fill:#8E3089;}
	.st28{fill:#1861A9;}
	.st29{fill:#D4175B;}
	.st30{fill:#E3D65E;}
	.st31{fill:#C7B29A;}
	.st32{fill:#603914;}
	.st33{fill:#998675;}
	.st34{fill:#746458;}
	.st35{fill:#EAA35C;}
	.st36{fill:#A3282E;}
	.st37{fill:#DC7B18;}
	.st38{fill:#B88E5C;}
	.st39{fill:#C67B3E;}
	.st40{fill:#C74A54;}
	.st41{fill:#48AE4D;}
	.st42{fill:#9A9999;}
	.st43{fill:#6F1131;}
	.st44{fill:#EFAE5D;}
	.st45{fill:#BB7E28;}
	.st46{fill:#C8904C;}
	.st47{fill:#BB7926;}
	.st48{fill:#C68448;}
	.st49{fill:#D79A5D;}
	.st50{fill:#82171C;}
	.st51{fill:#754D24;}
	.st52{fill:#EAD797;}
	.st53{fill:#B4B4B4;}
	.st54{fill:#4E4D4D;}
	.st55{fill:#014837;}
	.st56{fill:#28285B;}
	.st57{fill:#8EC045;}
	.st58{fill:#6BC4CD;}
	.st59{fill:#699CBB;}
	.st60{fill:#6D8E5F;}
</style>
<g>
	<g>
		<path class="st8" d="M111.3,120.4c0.3-0.4,0.5-0.6,0.7-0.9c4.5-5.9,8.5-12.3,12.5-18.6c2.4-3.8,5-7.6,7.5-11.4
			c0.2-0.4,0.5-0.7,0.8-1c1.1-1.1,2.7-0.8,3.4,0.5c0.3,0.6,0.5,1.2,0.5,1.9c0.2,2.2,0.2,4.3,0.4,6.5c0.2,3.6,0.4,7.1,0.5,10.7
			c0.1,2.4,0.2,4.7,0.3,7.1c0.1,4.1,0.2,8.2,0.4,12.3c0.2,5.2,0.5,10.4,0.8,15.6c0.2,4.6,0.4,9.2,0.6,13.8c0,0.6,0.1,1.2,0.1,2
			c0.4,0,0.7,0,1.1,0c1.1,0,2.2,0,3.2,0c0.2,0,0.5,0,0.7,0.1c0.6,0.2,0.9,0.6,1,1.2c0.1,0.6-0.2,1.1-0.9,1.4
			c-0.3,0.1-0.6,0.2-0.9,0.3c-3.6,0.5-7.2,1.1-10.8,1.3c-0.9,0.1-1.8,0-2.7,0c-1.1,0-1.6-0.5-1.8-1.6c-0.1-0.5,0.2-1,0.9-1.2
			c1-0.3,2.1-0.5,3.1-0.7c1.1-0.2,2.3-0.3,3.5-0.5c-0.9-10.9-1.5-21.9-2.2-32.8c-0.7-10.9-0.5-21.8-0.7-32.7c-0.1,0-0.1,0-0.2,0
			c-0.2,0.2-0.3,0.4-0.5,0.7c-3.3,5.2-6.5,10.3-9.7,15.5c-2.9,4.7-6.1,9.1-9.4,13.4c-0.3,0.3-0.5,0.7-0.9,0.9
			c-1.2,1-2.6,0.8-3.3-0.5c-0.3-0.5-0.5-1.1-0.7-1.6c-2.3-5.9-4.6-11.9-6.8-17.8c-0.1-0.3-0.3-0.7-0.5-1c0,0.2-0.1,0.5-0.1,0.7
			c0,5.4,0,10.8-0.1,16.2c-0.1,9.7-0.2,19.5-0.3,29.2c0,3.3-0.2,6.7-0.2,10c0,0.4-0.1,0.7-0.1,1.1c-0.1,1.6-1.2,2.3-2.4,2.4
			c-1.6,0.2-3.3,0.2-4.9,0.3c-0.5,0-1-0.2-1.5-0.4c-0.7-0.3-1.1-0.9-1.3-1.6c-0.1-0.5-0.1-1-0.2-1.5c-0.2-8.8-0.4-17.6-0.5-26.4
			c-0.1-8.5-0.1-17-0.2-25.6c-0.1-4.3-0.3-8.6-0.5-13c0-0.6,0-1.1,0-1.7c-0.1-1.3,0.5-2.2,1.7-2.8c0.7-0.4,1.5-0.6,2.3-0.8
			c1.3-0.3,2.6-0.5,3.9-0.7c1.6-0.3,2.4,0.1,3,1.6c1.7,4.2,3.4,8.4,5,12.6c2.1,5.5,4.1,11,6.1,16.5C111,119.7,111.1,120,111.3,120.4
			z"/>
		<path class="st8" d="M300.5,91.6c3.3,4.2,6.3,8.5,9.3,12.8c3,4.4,6,8.7,9,13c0.5,0.7,0.9,1.3,1.4,2.1c0.2-0.4,0.3-0.6,0.4-0.8
			c1.6-4.6,3.3-9.2,4.9-13.8c1.5-4.1,3-8.2,4.4-12.3c0.9-2.5,1.7-5,2.5-7.5c0.7-2.3,1.3-2.8,3.8-3c0.9-0.1,1.9,0,2.8,0.2
			c1,0.2,2,0.4,3,0.7c0.8,0.2,1.6,0.5,2.3,0.9c1.9,1,2.7,2.8,2.2,4.9c-0.2,0.8-0.5,1.5-0.8,2.3c-3.5,8.5-7.1,17-10.5,25.6
			c-5.6,14.2-10.9,28.4-16.4,42.7c-0.8,2.2-1.8,4.3-2.7,6.4c-0.4,0.8-0.9,1.6-1.5,2.3c-1.1,1.3-2.5,1.7-4.2,1.1
			c-0.9-0.4-1.9-0.7-2.7-1.2c-0.6-0.3-1.3-0.8-1.8-1.2c-1.2-1-1.6-2.3-1.1-3.8c0.7-2.1,1.4-4.3,2.2-6.4c4.3-10.7,7.9-21.6,11.7-32.5
			c0.2-0.5,0.3-0.9-0.1-1.3c-5.2-7.1-9.9-14.5-14.8-21.8c-1.6-2.4-3.2-4.7-4.9-7.1c-0.2-0.3-0.4-0.5-0.6-0.8
			c-0.2,0.1-0.5,0.2-0.7,0.3c-1.1,0.6-2.2,1.2-3.3,1.8c-0.3,0.2-0.6,0.3-1,0.4c-0.5,0.1-0.9,0-1.2-0.5c-0.3-0.4-0.2-0.8,0.1-1.2
			c0.2-0.3,0.4-0.5,0.7-0.7c0.5-0.4,1-0.8,1.6-1.1c4.1-2.4,8.3-4.9,12.5-7.3c0.3-0.2,0.7-0.3,1.1-0.4c0.6-0.1,1.1,0.3,1.3,0.8
			c0.2,0.5,0.1,1-0.4,1.4c-0.2,0.2-0.5,0.3-0.7,0.5c-2.3,1.4-4.5,2.7-6.8,4.1C301.2,91.2,300.9,91.4,300.5,91.6z"/>
		<path class="st10" d="M262.3,137.2c0,0.3,0,0.7,0,1c0,5.4,0,10.8,0,16.1c0,2.5-0.2,5-0.4,7.6c-0.1,0.8-0.3,1.6-0.5,2.4
			c-0.3,0.8-0.9,1.3-1.8,1.3c-2.1,0-4.1,0.1-6.2-0.4c-2.1-0.5-3-1.6-3.1-3.7c-0.4-9.9-0.5-19.8-0.4-29.7c0-3.6-0.1-7.1-0.2-10.7
			c-0.2-6.9-0.2-13.9,0.2-20.8c0.2-4.3,0.7-8.6,1.1-12.8c0.1-1,0.4-2,1.2-2.7c0.5-0.5,1.1-0.7,1.8-0.8c3.9-0.2,7.8,0.2,11.4,1.6
			c6,2.3,9.8,6.7,10.9,13.1c0.6,3.1,0.1,6.1-0.8,9.1c-2,6.2-5.7,11-11.2,14.5c-0.4,0.2-0.7,0.5-1.1,0.7c-1.3,0.8-1.3,0.8-1.2,2.2
			c0,2.2,0.1,4.3,0.1,6.5c0,0.5,0.1,0.9,0.4,1.3c5,6.2,10.1,12.4,15.1,18.6c1.4,1.7,2.8,3.5,4.2,5.2c0.1,0.1,0.3,0.3,0.4,0.5
			c0.6-1.1,1.2-2.1,1.9-3.1c0.2-0.4,0.5-0.7,0.8-1c0.4-0.4,1-0.5,1.5-0.3c0.5,0.2,0.7,0.7,0.6,1.3c-0.1,0.5-0.3,0.9-0.5,1.4
			c-2.3,4.2-4.5,8.4-6.8,12.5c-0.1,0.3-0.3,0.5-0.5,0.7c-0.4,0.4-0.9,0.6-1.4,0.3c-0.5-0.2-0.8-0.7-0.6-1.3c0.1-0.5,0.3-1,0.5-1.5
			c1-2.2,2-4.4,3.1-6.7c0,0-0.1-0.1-0.1-0.2c-3.8-3.7-6.8-7.9-10-12.1c-2.5-3.2-5-6.4-7.5-9.6c-0.2-0.2-0.4-0.5-0.6-0.7
			C262.4,137.2,262.4,137.2,262.3,137.2z M262,119.4c0.2,0,0.3,0,0.3,0c0.1-0.1,0.3-0.1,0.4-0.2c6.1-4,9.9-9.6,10.6-17
			c0.4-4.4-1.1-8.2-4.3-11.2c-1.8-1.7-3.9-2.8-6.3-3.5c-0.3-0.1-0.6-0.1-1.1-0.2C261.7,98.1,261.8,108.8,262,119.4z"/>
		<path class="st8" d="M215.8,121.9c0.1,2.4,0.2,4.7,0.3,7c0,1,0.1,2,0.2,3c0,0.4,0.2,0.8,0.4,1.1c3.3,4.4,6.6,8.7,9.9,13.1
			c3.3,4.4,6.8,8.5,10.4,12.5c0.3,0.4,0.8,0.7,1.2,1.1c0.2-0.2,0.4-0.4,0.6-0.5c0.6-0.6,1.2-1.2,1.8-1.8c0.4-0.3,0.8-0.6,1.3-0.7
			c1-0.2,1.6,0.6,1.2,1.5c-0.2,0.4-0.4,0.7-0.6,1c-0.8,0.9-1.5,1.8-2.3,2.7c-0.3,0.3-0.5,0.6-0.7,0.9c-0.1,0.1-0.2,0.3-0.3,0.4
			c-1.1,0.7-1.8,1.9-2.7,2.8c-0.3,0.3-0.6,0.5-0.9,0.8c-0.6,0.4-1.3,0.4-1.7,0c-0.4-0.4-0.4-0.9,0-1.6c0.4-0.7,0.9-1.3,1.4-1.9
			c0.2-0.3,0.4-0.5,0.6-0.9c-0.2-0.3-0.4-0.5-0.7-0.8c-3.6-4.2-7.3-8.4-10.6-13c-2.4-3.3-4.7-6.6-7.1-9.9c-0.3-0.4-0.5-0.7-0.9-1.3
			c0,0.5-0.1,0.7-0.1,0.9c0.1,2.7,0.2,5.4,0.3,8.2c0.1,4.7,0.3,9.4,0.4,14.1c0,0.6,0,1.1-0.2,1.7c-0.2,0.8-0.7,1.3-1.6,1.4
			c-1.7,0.2-3.3,0.3-5,0.4c-0.5,0-1.1,0-1.7-0.2c-1.1-0.3-1.7-0.9-1.8-2.1c-0.2-2.4-0.5-4.9-0.6-7.4c-0.2-4.8-0.3-9.6-0.4-14.4
			c-0.2-5.3-0.4-10.5-0.5-15.8c-0.1-4.3-0.2-8.7-0.3-13c0-5,0-10,0-14.9c0-2.3-0.2-4.6-0.3-7c0-0.7,0-1.4,0.1-2.1
			c0.1-1.1,0.8-1.8,1.9-2c2.3-0.5,4.7-0.6,7-0.2c2.4,0.4,4.8,1,7.1,2c4.9,2.2,7.7,6,8.8,11.1c0.6,2.7,0.3,5.3-0.4,8
			c-1.4,5.1-3.9,9.4-8.3,12.5c-1.3,0.9-2.7,1.6-4.1,2.4C216.7,121.5,216.3,121.7,215.8,121.9z M215.8,118.1c0.2,0,0.3,0,0.3-0.1
			c6.5-3.2,9.9-8.5,10.8-15.6c0.6-4.8-2.2-10.4-7-12.4c-1.2-0.5-2.5-0.9-3.8-1.4c-0.1-0.1-0.3,0-0.6-0.1
			C215.6,98.4,215.7,108.2,215.8,118.1z"/>
		<path class="st10" d="M189.7,86.5c0-0.4,0-0.8,0.1-1.1c0-0.3,0-0.5,0.1-0.8c0.2-0.7,0.5-1,1.1-1c0.5,0,0.9,0.4,1,1
			c0.1,1,0.2,2.1,0.2,3.1c0.1,1.7,0.1,3.5,0.1,5.2c0,0.2,0,0.3,0,0.5c0,0.6-0.3,1-0.8,1.1c-0.5,0.1-1-0.1-1.2-0.7
			c-0.2-0.5-0.3-0.9-0.3-1.4c-0.1-1.1-0.2-2.2-0.3-3.4c-7.5,0.6-14.9,0.4-22.5,0.5c0.2,0.8,0.4,1.4,0.5,2.1c0.4,2.8,0.5,5.7,0.4,8.5
			c-0.1,5.3-0.3,10.7-0.4,16c0,1.4,0,2.8,0.1,4.2c0.3,0,0.4,0.1,0.5,0.1c3.5,0,6.9,0,10.4,0c3.2-0.1,6.4-0.2,9.6-0.3
			c1.1,0,2.2,0,3.3,0c0.3,0,0.6,0.1,0.9,0.2c0.6,0.3,0.9,0.8,0.8,1.4c-0.1,0.6-0.6,1-1.3,1.1c-1,0.1-2,0.2-2.9,0.2
			c-4.7,0.1-9.4,0.1-14.1,0.1c-2,0-4-0.1-6-0.1c-0.3,0-0.7,0-1.1,0.1c0.1,12.2,1,24.4,0.6,36.6c0.2,0,0.3,0.1,0.4,0.1
			c2.3-0.1,4.6-0.2,7-0.4c3.6-0.3,7.2-0.6,10.9-0.9c1-0.1,2-0.1,3-0.1c0.3,0,0.5,0,0.8,0.1c0.7,0.2,1.2,0.8,1.2,1.4
			c0,0.7-0.4,1.2-1.1,1.4c-0.2,0.1-0.4,0.1-0.7,0.1c-2.6,0.3-5.3,0.6-7.9,0.9c-3.2,0.4-6.5,0.6-9.7,0.8c-1.7,0.1-3.3,0.1-5,0.2
			c-1.4,0-2.8,0.2-4.2,0.2c-1.1,0-2.2-0.2-3.2-0.9c-0.5-0.4-0.8-0.8-0.6-1.4c0.1-0.2,0-0.5,0-0.8c-0.7-5.3-1.1-10.6-1.4-16
			c-0.3-6.2-0.4-12.4-0.7-18.7c-0.2-4.6-0.3-9.1-0.5-13.7c-0.1-2.5-0.1-4.9-0.1-7.4c-0.1-4.4-0.1-8.9-0.2-13.3c0-0.4,0-0.8,0.1-1.2
			c0.2-0.9,0.7-1.6,1.6-1.9c2.3-0.9,4.7-1.3,7.2-1.4c3.5-0.1,6.9-0.1,10.4-0.2c3-0.1,6-0.2,9-0.3c1.3,0,2.7,0.1,4,0.2
			C189.1,86.5,189.4,86.5,189.7,86.5z"/>
	</g>
	<path class="st8" d="M198.4,198.1c0.1-0.1,0.3-0.3,0.4-0.4c1.2-1.7,2.2-3.4,2.9-5.4c0.4-1,0.7-2.1,0.6-3.3
		c-0.1-1.4-0.1-2.7-0.2-4.1c0-0.2,0-0.3-0.1-0.5c-0.7,0-1.4,0.5-2.2,0c0.1-0.3,0.2-0.6,0.4-0.9c0.1-0.2,0.3-0.4,0.5-0.5
		c2.1-1.5,3.3-3.8,4.6-6c0,0,0-0.1,0-0.1c0.3-0.6,0.6-0.8,0.8-0.7c0.4,0.3,0.3,0.7,0.3,1.1c0,0.1,0,0.3-0.1,0.4
		c-0.5,0.9-0.4,1.8-0.3,2.7c0,0.5,0.1,1,0.1,1.5c0.1,0,0.1,0.1,0.2,0.1c0.1-0.2,0.3-0.4,0.4-0.6c1-1,2.1-1.8,3.4-2.3
		c0.8-0.3,1.7-0.4,2.5-0.2c1.2,0.3,2,1.1,2.5,2.3c0.5,1.2,0.7,2.4,0.8,3.7c0.1,2.3,0.2,4.6,0.3,7c0.1,2.5,0.1,5,0.1,7.6
		c0,0.1,0,0.3,0,0.4c0.5,0,0.8-0.3,1.1-0.6c0.8-0.9,1.4-2,1.9-3.1c0.5-1.1,0.5-2.2,0.4-3.4c-0.2-2.9,0.1-5.7,1-8.5
		c0.3-0.8,0.7-1.5,1.1-2.2c1-1.4,2.3-1.6,3.8-0.7c0.8,0.5,1.4,1.1,1.9,1.9c0.3,0.4,0.5,0.8,0.9,1.2c0-1.1,0.1-2.2,0.1-3.3
		c0.1-1.7,0.2-3.4,0.3-5.2c0-0.4,0-0.7-0.4-1c-0.2-0.2-0.4-0.4-0.5-0.6c-0.1-0.1-0.1-0.4,0-0.5c0.1-0.1,0.4-0.1,0.5-0.1
		c0.2,0,0.3,0.2,0.5,0.3c0.8,0.7,1.8,0.9,2.9,0.8c0.8-0.1,1.6-0.2,2.4-0.3c0.3,0,0.6-0.1,0.8,0c0.2,0,0.4,0.2,0.4,0.4
		c0,0.1-0.2,0.4-0.3,0.4c-0.4,0.1-0.9,0.2-1.3,0.3c-0.3,0.1-0.5,0.1-0.8,0.2c-0.1,1.7-0.1,3.3-0.2,5c-0.2,3.5-0.4,7.1-0.6,10.6
		c-0.1,2.8-0.2,5.6-0.3,8.3c0,0.2,0,0.5,0,0.7c0,0.9-0.4,1.3-1.4,1.2c-0.6,0-1.1-0.1-1.7-0.1c-0.7-0.1-0.9-0.3-1-1
		c-0.1-0.6-0.1-1.1-0.2-1.7c0,0,0,0-0.1-0.1c-1,1.1-2.1,1.8-3.6,1.8c-1.5,0-2.6-0.8-3.4-2.1c-0.4,0.5-0.7,0.9-1,1.3
		c-0.9,1-2,1.3-3.3,1.4c-0.8,0.1-1.5,0.1-2.3,0.2c-0.9,0-1.9,0.1-2.8,0.1c-0.4,0-0.7,0-1.1-0.1c-0.3-0.1-0.5-0.3-0.5-0.7
		c0-0.4,0.2-0.6,0.5-0.7c0.3-0.1,0.5-0.1,0.9-0.2c-0.1-1-0.2-2.1-0.2-3.1c-0.1-2.5-0.1-5-0.2-7.5c-0.1-2.2-0.4-4.4-0.6-6.6
		c0-0.2-0.1-0.4-0.1-0.6c-0.3-0.9-0.5-1.1-1.3-0.5c-0.9,0.5-1.6,1.2-2.4,1.9c-0.2,0.1-0.3,0.4-0.3,0.7c0,2.6,0,5.2,0.1,7.8
		c0,1.2,0.1,2.4,0.1,3.6c0.1,1.4,0.2,2.8,0.2,4.3c0.2,0,0.4,0.1,0.6,0.1c0.2,0,0.3,0,0.5,0c0.3,0,0.6,0.1,0.8,0.4
		c0.1,0.3-0.1,0.6-0.5,0.7c-0.3,0.1-0.7,0.2-1,0.2c-0.7,0-1.4,0-2.1,0c-0.9,0-1.8-0.1-2.6-0.1c-0.2,0-0.4,0-0.5,0
		c-0.2-0.1-0.5-0.2-0.5-0.4c-0.1-0.3,0.2-0.5,0.5-0.5c0.4-0.1,0.7-0.1,1.1-0.2c-0.1-1.5-0.1-2.9-0.2-4.4c0,0-0.1,0-0.1,0
		c-0.1,0.2-0.2,0.4-0.4,0.6c-0.6,1-1.2,2-1.8,3c-0.7,1-1.6,1.7-2.8,2.1c-1.4,0.5-2.8,0.1-3.8-1c-0.1-0.1-0.2-0.3-0.4-0.5
		c-0.9,0.2-1.8,0.5-2.7,0.6c-1.3,0.2-2.7,0.2-4.1-0.1c-1.7-0.4-3-1.4-3.9-2.9c-0.7-1.2-0.8-2.4-0.5-3.8c0.4-1.7,1.5-3,2.8-4.1
		c1.3-1.1,2.7-2,4.2-2.7c0.8-0.4,1.6-0.9,2.5-1.4c0.3-0.2,0.4-0.4,0.4-0.8c-0.1-0.8-0.1-1.7-0.3-2.5c-0.1-1-0.6-1.3-1.6-1
		c-2.2,0.6-3.7,2.1-4.5,4.1c-0.1,0.2-0.1,0.4-0.2,0.6c-0.1,0.3-0.3,0.5-0.6,0.5c-0.4-0.1-0.5-0.3-0.5-0.7c0-0.3,0-0.6,0.1-0.9
		c0.3-1.1,0.9-2,1.6-2.8c0.8-1,1.9-1.7,3.1-2.3c2.5-1.1,5.7,0,7.2,2.6c0.9,1.5,1.2,3.1,1.4,4.8c0.5,3.3,0.4,6.7,0.5,10.1
		c0,0.3,0,0.7,0.1,1C198.3,198.1,198.4,198.1,198.4,198.1z M225.8,199.2c1.1-0.7,1.7-1.8,2.4-2.8c0.1-0.1,0-0.3,0.1-0.4
		c0.1-2.6,0.2-5.3,0.3-7.9c0-0.3,0-0.6-0.1-0.8c-0.4-1.2-0.9-2.4-1.7-3.4c-0.1-0.2-0.2-0.4-0.4-0.6c-0.9,0.9-1.2,1.8-1.3,2.7
		c-0.5,2.6-0.6,5.3-0.6,7.9c0,1.4,0.1,2.7,0.4,4C225,198.4,225.1,198.9,225.8,199.2z M192.6,197.4c0.1-2.3-0.2-8.1-0.6-9.6
		c-2.4,1.4-4.3,8.1-3,10.5C190.3,198.2,191.5,197.9,192.6,197.4z"/>
	<g>
		<path class="st5" d="M111.8,178.2c-4.1,0-8.2,0.2-12.3,0.1c-5.3-0.1-10.5-0.5-15.7-1.9c-4.5-1.2-8.7-3.1-12.3-6.3
			c-3.6-3.2-5.8-7.2-6.6-12c-0.4-2.2,0-4.3,1-6.3c1.4-2.6,5.6-4.7,9.3-2.3c1.4,0.9,2.2,2.3,2.7,3.9c0.1,0.2,0.1,0.5,0,0.8
			c-0.1,0.6-0.4,1.1-1,1.2c-0.6,0.1-1.1-0.2-1.4-0.7c-0.2-0.3-0.3-0.6-0.4-0.9c-0.4-0.9-0.9-1.6-1.7-2.1c-2-1.1-3.6-0.1-4.3,1.3
			c-0.7,1.3-0.9,2.7-0.7,4.2c0.7,5.5,3.5,9.6,8.3,12.5c3.2,1.9,6.7,3.1,10.3,3.7c6,1.1,12,1.3,18,1c2.1-0.1,4.2-0.2,6.3-0.3
			c3.3-0.1,6.6-0.3,9.9-0.4c4.7-0.1,9.4,0,14.1,0.6c6.1,0.7,12,2.1,17.6,4.5c5.1,2.3,9.6,5.5,13.5,9.5c2.9,3.1,4.8,6.7,5.5,10.9
			c0.6,4,0.3,7.9-1.5,11.6c-1.9,4-4.9,6.8-9.3,7.5c-4.5,0.8-8.6-0.1-12-3.4c-1-1-1.7-2.2-2-3.6c-0.5-2.7,1.2-5.6,3.8-6.3
			c1.4-0.4,2.7-0.1,3.8,1c0.2,0.2,0.4,0.6,0.5,0.9c0.1,0.2-0.1,0.5-0.3,0.6c-0.1,0.1-0.4,0-0.6,0c-0.1,0-0.2-0.2-0.3-0.3
			c-1-0.9-2.5-0.8-3.5,0.1c-1.2,1.1-1.6,2.8-0.7,4.3c0.4,0.6,0.9,1.3,1.4,1.8c4,3.6,11.8,3.3,14.9-2.5c1.5-2.8,2-5.9,1.7-9
			c-0.4-4.5-2.3-8.3-5.5-11.4c-4.5-4.4-9.7-7.5-15.7-9.4c-4-1.3-8-2.1-12.1-2.6c-5.7-0.7-11.4-0.7-17.2-0.6
			C115.4,178,113.6,178.1,111.8,178.2C111.8,178.2,111.8,178.2,111.8,178.2z"/>
		<path class="st5" d="M135.2,319.1c7.7,0,14.6,2.7,21,6.9c4.7,3.1,9.4,6.2,14.2,9.2c3.6,2.3,7.4,4.3,11.4,5.7
			c2.9,1,5.9,1.7,9.1,1.5c2.6-0.2,5.1-0.6,7.5-1.7c1.5-0.7,2.9-1.6,4-2.8c2.4-2.4,1.8-6.3-1.1-8c-0.4-0.2-0.9-0.3-1.4-0.4
			c-0.2-0.1-0.5,0-0.7,0c-0.2-0.1-0.5-0.3-0.6-0.4c0-0.2,0.1-0.6,0.3-0.8c0.3-0.2,0.7-0.3,1.1-0.4c1.2-0.2,2.2,0.1,3.2,0.8
			c2.1,1.6,3.4,3.7,3.4,6.5c0,1.9-0.9,3.3-2.1,4.6c-1.5,1.5-3.2,2.7-5.1,3.6c-3.4,1.6-7,2.3-10.8,2.2c-4.3,0-8.4-1.3-12.3-3
			c-5-2.1-9.6-4.8-14.1-7.8c-3.6-2.3-7.2-4.7-10.8-7c-3.6-2.3-7.6-3.9-11.8-4.6c-4.5-0.8-9-0.7-13.3,1.1c-4.4,1.8-7.8,4.6-9.8,9
			c-0.9,1.9-1,3.9-0.5,6c0.9,3.5,4.5,5,6.9,5.1c2.2,0,5.8-2.5,6-5.5c0-0.6,0.1-1.2,0.1-1.8c0.1-1.1,0.4-1.6,1.2-1.6
			c0.8,0,1.3,0.5,1.5,1.5c0.5,2.3-0.1,4.4-1.5,6.2c-1.2,1.7-2.8,2.9-4.8,3.7c-1.8,0.7-3.7,0.6-5.5,0.1c-7.1-1.9-9.3-8.9-7-14.5
			c1.4-3.4,3.6-6.2,6.5-8.4c4.2-3.1,8.8-4.8,14-5C133.9,319.2,134.6,319.1,135.2,319.1z"/>
		<path class="st5" d="M322.5,334.2c-2.3-0.1-4.5,0-6.8-0.3c-3.7-0.4-7.3-0.9-11-1.5c-8.1-1.3-15.8-4.1-23-8.1
			c-3.1-1.7-6.1-3.5-9.1-5.3c-2.3-1.3-4.6-2.5-7.1-3.3c-1.6-0.5-3.2-0.8-4.9-0.6c-3.4,0.5-5.6,2.6-6.2,6c-0.2,1.3-0.2,2.6,0.3,3.8
			c0.8,1.9,2.3,3.1,4.3,3.5c1.2,0.3,2.3,0,3.4-0.6c0.1-0.1,0.2-0.2,0.3-0.2c0.6-0.4,0.9-0.5,1.2-0.2c0.4,0.4,0.2,0.9,0,1.3
			c-0.3,0.7-0.9,1.1-1.5,1.4c-1.2,0.6-2.5,0.8-3.8,0.6c-4.4-0.7-6.6-4.1-7-7.3c-0.2-1.5,0-3.1,0.5-4.6c1.4-4.7,5.8-6.7,9-7
			c3.4-0.3,6.7,0.5,9.7,1.9c2.5,1.1,4.9,2.5,7.3,3.8c3.8,2,7.6,4.1,11.4,5.9c5,2.4,10.3,3.8,15.8,4.8c3.9,0.7,7.8,1.3,11.7,1.6
			c3.2,0.2,6.5,0.3,9.7,0c4.1-0.3,8.1-1.1,12.1-2c2.3-0.5,4.5-1.1,6.8-1.6c0.5-0.1,1-0.1,1.5-0.1c0.7,0,1.2,0.5,1.4,1.1
			c0.2,0.6,0,1.3-0.7,1.7c-0.4,0.3-0.9,0.4-1.3,0.6c-4.2,1.4-8.4,2.5-12.7,3.4C330.1,333.5,326.3,334.1,322.5,334.2z"/>
		<path class="st5" d="M260.4,170.2c3.1,0.1,6.2,0.7,9,1.9c4,1.6,7.9,3.3,11.8,4.9c4.3,1.9,8.6,3.8,12.9,5.6
			c1.8,0.8,3.7,1.3,5.7,1.6c1.1,0.2,2.3,0.2,3.4-0.1c1.2-0.3,2.3-0.9,3.1-1.9c0.4-0.4,0.7-0.9,1.1-1.3c0.6-0.6,1.4-0.6,2-0.2
			c0.5,0.4,0.7,1.1,0.2,1.9c-0.5,0.8-1,1.6-1.6,2.4c-1.5,1.9-3.7,2.6-6.1,2.9c-2,0.2-4-0.2-5.9-0.7c-4.5-1.2-8.8-3.1-13-5
			c-4.6-2.1-9.2-4.1-13.9-6c-2.3-1-4.7-1.7-7.2-1.9c-2.1-0.2-4.1-0.2-6.2,0.3c-1.2,0.3-2.3,0.9-3.3,1.7c-1,0.9-1.6,2.1-1.5,3.5
			c0.1,1.2,0.8,2.2,2,2.5c1.1,0.3,2-0.1,2.8-1.1c0.3-0.4,0.5-0.7,1-0.6c0.4,0.1,0.8,0.6,0.8,1.1c-0.1,0.4-0.2,0.9-0.4,1.3
			c-0.5,0.8-1.3,1.3-2.2,1.5c-3.6,0.8-6.1-1.5-6.7-4.1c-0.6-2.5,0.2-4.7,2-6.5c1.6-1.6,3.5-2.6,5.7-3
			C257.4,170.5,258.9,170.4,260.4,170.2z"/>
	</g>
	<g>
		<path class="st5" d="M126.7,237.2c0.1,0.1,0.2,0.2,0.3,0.3c3.6,2.6,5.6,6.2,6.7,10.4c0.6,2.5,0.9,5,1.1,7.5
			c0.2,2.1,0.4,4.1,0.3,6.2c0,2.7-0.1,5.4-0.4,8.1c-0.6,5.6-1.5,11.2-2.9,16.7c-0.4,1.4-0.7,2.8-1.1,4.4c0.4-0.1,0.7-0.1,1-0.1
			c3.3-0.7,6.5-1.6,9.2-3.7c3-2.3,5.2-5.1,6.8-8.4c2.2-4.6,3.6-9.4,4-14.5c0.3-3.6-0.3-7.1-1.3-10.5c-0.1-0.4-0.3-0.8-0.5-1.3
			c-0.7,0.2-1.4,0.3-2,0.5c-2.2,0.4-4.1-0.2-5.8-1.6c-1.9-1.5-2.3-4.1-1.1-6.1c0.8-1.4,2.4-2.1,3.9-1.8c1.9,0.4,3.7,1.3,4.9,2.8
			c0.5,0.6,1,1.2,1.5,1.9c0.4-0.4,0.9-0.8,1.3-1.2c1.8-2,3.6-4,5.4-6c2.7-3.2,5.4-6.4,8.1-9.6c1-1.2,2.2-2.3,3.5-3.1
			c0.8-0.5,1.6-0.9,2.6-0.9c1.5,0,2.5,0.6,3.3,1.8c0.7,1.2,1.1,2.5,1.1,3.9c-0.1,1.9-0.2,3.9-0.5,5.8c-0.9,5.3-2,10.5-2.9,15.8
			c-0.9,4.7-1.6,9.4-2.5,14.1c-0.6,3.3-1.3,6.6-1.8,10c-0.5,3.2-0.9,6.5-1.3,9.7c-0.5,3.6-1,7.2-1.5,10.8c-0.2,1.9-0.4,3.8-0.6,5.7
			c0,0.3,0,0.7,0,1.3c0.6-0.6,1.1-0.9,1.5-1.4c2.1-2.1,3.9-4.3,5.7-6.7c3.5-4.7,7-9.3,10.5-14c0.2-0.3,0.4-0.7,0.4-1.1
			c0.5-4.5,1-9.1,1.5-13.6c0.3-3,0.6-6,0.9-9c0.7-6.5,1.5-13,3.1-19.3c0.5-1.8,1-3.5,2-5.1c0.4-0.7,0.9-1.4,1.5-2.1
			c0.8-0.9,1.8-1.3,3-1.3c1.6-0.1,2.8,0.7,3.4,2.2c0.3,1,0.6,2,0.6,3.1c0,1.8-0.1,3.7-0.2,5.5c-0.5,4.4-1,8.7-1.5,13.1
			c-0.6,5-1.2,10-1.7,14.9c-0.5,4.5-0.8,8.9-1.3,13.4c-0.5,4.9-0.7,9.7-0.9,14.6c-0.1,3.1,0,6.3,0.5,9.4c0.1,0.7,0.3,1.5,1,2.1
			c0.3-0.4,0.6-0.8,0.9-1.3c1.6-2.8,3.3-5.6,4.9-8.4c2.9-5,5.9-10.1,8.8-15.1c0.8-1.4,1.8-2.8,2.7-4.2c0.2-0.3,0.3-0.7,0.3-1.1
			c-0.2-2.7-0.1-5.4,0-8.2c0.4-6.5,1.7-12.9,3.5-19.1c1-3.4,1.9-6.8,3.5-9.9c0.8-1.6,1.7-3.2,2.7-4.7c0.8-1.2,1.8-2.2,3-3.1
			c2.2-1.7,4.6-1.8,7-0.6c1.6,0.8,3,2,4.2,3.4c1.9,2.2,3.5,4.6,4.4,7.4c0.1,0.2,0.1,0.4,0.3,0.7c0.1-0.3,0.2-0.5,0.3-0.7
			c1-4.3,1.9-8.6,3-12.8c0.4-1.4,1-2.8,1.6-4.2c0.4-0.9,1.1-1.7,2-2.2c1.4-0.9,3-0.5,3.8,1c0.4,0.8,0.7,1.7,0.6,2.6
			c-0.1,1.9-0.2,3.8-0.5,5.7c-0.6,3.8-1.4,7.5-1.9,11.2c-0.7,4.6-1.4,9.1-1.9,13.7c-0.6,5.1-1,10.2-1.5,15.4
			c-0.2,2.4-0.3,4.8-0.5,7.2c-0.2,4.4-0.4,8.7-0.6,13.1c0,0.5,0,1,0,1.5c1.4-0.3,2.7-0.6,4.1-0.8c3-0.5,6-0.8,9.1-0.7
			c2.6,0.1,5.1,0.6,7.6,1.2c6.1,1.4,11.9,3.6,17.6,6.1c6.5,2.8,13,5.6,19.8,7.7c5,1.6,10.1,2.8,15.3,3.6c3,0.4,5.9,0.5,8.9,0.2
			c2.4-0.3,4.8-0.5,7-1.3c4.9-1.6,9.2-4.3,12.7-8.2c1-1.1,1.6-2.4,2.4-3.7c0.2-0.3,0.3-0.6,0.5-0.8c0.3-0.5,0.8-0.6,1.2-0.4
			c0.5,0.2,0.6,0.6,0.5,1.1c-0.2,0.9-0.5,1.8-0.8,2.7c-0.9,2.6-2.7,4.4-4.8,6.1c-3.5,2.8-7.5,4.5-11.8,5.7c-5,1.4-10,1.5-15.1,0.9
			c-3.9-0.5-7.8-1.2-11.7-2.2c-5.3-1.3-10.3-3.2-15.3-5.3c-5-2.1-10-4.2-15.1-6.2c-4.9-1.9-10-3.4-15.2-4.3
			c-3.2-0.6-6.3-0.5-9.5-0.2c-2.3,0.3-4.7,0.6-7,1.2c-0.2,0.1-0.4,0.1-0.6,0.2c0,0.2-0.1,0.4-0.1,0.7c-0.1,2.6-0.1,5.2-0.2,7.8
			c-0.1,3.4-0.3,6.8-0.5,10.2c-0.1,2.7-0.3,5.5-0.4,8.2c-0.3,5.1-1.3,10.1-3.4,14.8c-0.7,1.6-1.6,3.1-2.8,4.5
			c-2.4,2.8-5.8,3.8-9.3,2.6c-2.8-1-5.2-2.7-7.2-5c-3.4-3.9-5.6-8.4-6.4-13.5c-0.5-3.1-0.3-6.1,0.7-9.1c1.5-5,4.5-9.1,8.4-12.6
			c2.8-2.6,6-4.6,9.4-6.2c1.2-0.6,1.5-1.2,1.6-2.5c0.1-5.9,0.4-11.7,0.6-17.6c0.1-2,0.3-4,0.5-6.2c-0.3,0.3-0.4,0.5-0.6,0.7
			c-1.2,1.8-2.4,3.7-3.7,5.4c-1.2,1.5-2.4,3-3.8,4.4c-1.4,1.5-3.2,2.6-5.2,3.3c-4,1.4-7.8-0.4-9.4-4.4c-0.1-0.3-0.2-0.6-0.4-1
			c-0.2,0.3-0.3,0.4-0.4,0.6c-4.6,7.7-9.1,15.5-13.2,23.5c-1.4,2.7-3,5.4-4.9,7.8c-0.6,0.8-1.3,1.6-2.1,2.2
			c-2.1,1.7-4.5,1.5-6.4-0.6c-1.1-1.3-1.8-2.8-2.1-4.5c-0.5-2.6-0.7-5.3-0.8-8c-0.3-5.7,0-11.4,0.3-17.1c0-0.2,0-0.3,0-0.7
			c-0.3,0.3-0.4,0.5-0.6,0.7c-1.9,2.8-3.7,5.6-5.6,8.3c-2.1,3-4.3,6.1-6.5,9c-0.8,1.1-1.9,2.1-3,3c-0.6,0.6-1.4,1-2.2,1.3
			c-2.4,1.1-5,0.1-6-2.4c-0.5-1.2-0.9-2.6-1-3.9c-0.2-2.8-0.2-5.6-0.2-8.3c0.1-2.6,0.2-5.1,0.5-7.7c0.4-4.1,0.8-8.2,1.3-12.3
			c0.4-3.7,1-7.3,1.5-11c0.9-6.6,1.8-13.2,2.7-19.8c0.3-2.4,0.5-4.8,0.7-7.2c0-0.4,0-0.9-0.1-1.5c-0.3,0.3-0.5,0.4-0.6,0.6
			c-1.5,1.8-2.9,3.6-4.4,5.3c-1.9,2.1-3.8,4.2-5.8,6.3c-0.6,0.7-1.4,1.3-2.1,2c0,0.2,0.1,0.3,0.2,0.5c1.2,2.7,1.6,5.5,1.6,8.3
			c0.1,6.1-1,12-3.1,17.7c-1.2,3.4-3.1,6.3-5.6,9c-1.3,1.4-2.8,2.7-4.4,3.7c-1.6,1-3.4,1.8-5.3,2.3c-2,0.5-4,1-6.1,1.5
			c-0.1,0.4-0.3,0.9-0.5,1.4c-1.2,3.7-2.4,7.3-4.2,10.8c-0.8,1.5-1.6,3-2.6,4.4c-2,2.9-5,4.3-8.4,4.6c-3.1,0.2-6.2-1.9-7.2-5
			c-1.2-3.6-0.6-6.8,1.5-9.9c1.6-2.4,3.6-4.2,6.2-5.5c2.9-1.4,5.8-2.6,9-2.9c0.7-0.1,1-0.4,1.1-1c0.4-2.5,0.9-5,1.3-7.5
			c0.7-4.6,1.1-9.3,1.3-14c0.1-2.8-0.1-5.6-0.3-8.4c-0.2-3.4-0.8-6.8-1.7-10.2c-0.6-2.2-1.6-4.2-2.8-6.1c-0.1-0.2-0.3-0.4-0.4-0.6
			c-0.1-0.1-0.2-0.1-0.2-0.1c-1,0.8-2,1.6-3.1,2.4c-3.2,2.1-6.7,3.3-10.6,3.4c-1.3,0-2.5-0.4-3.6-1.1c-1.5-1-2.2-2.9-1.8-4.7
			c0.4-2,1.6-3.5,3.3-4.4c4.2-2.5,8.6-4.3,13.6-4.1c0.1,0,0.3,0,0.5,0c0.3-0.8,0.6-1.6,0.9-2.4c0.5-1.9,0.9-3.8,1.4-5.7
			c0-0.1,0-0.3,0.1-0.4c0.2-4.4,0.2-8.8-1-13.1c-0.5-1.9-1.3-3.6-2.5-5.1c-2.4-2.8-5.9-3.7-9.3-2.6c-0.5,0.2-1,0.4-1.4,0.8
			c-1.8,1.5-3.5,3.2-4.9,5.1c-2.5,3.4-4.6,7-6.1,11c-1.2,3.2-2.2,6.5-3.3,9.8c-0.6,1.6-0.7,3.3-0.5,5c0.4,3,0.6,5.9,0.9,8.9
			c0.4,3.4,0.7,6.8,1.1,10.2c0.3,3,0.6,5.9,0.9,8.9c0.4,4.2,0.9,8.4,1.3,12.6c0.3,3,0.6,5.9,0.9,8.9c0.4,4.2,0.9,8.5,1.3,12.7
			c0.3,3.2,0.6,6.5,0.8,9.7c0.1,2.2,0,4.5-0.8,6.6c-0.3,1-0.8,2-1.3,2.8c-1.3,1.9-3.2,2.4-5.3,1.9c-2.6-0.6-4.5-2.2-5.8-4.5
			c-1.4-2.4-2.2-5-2.6-7.8c-0.8-4.7-1.2-9.4-1.1-14.2c0-3.1,0-6.2,0.2-9.2c0.5-7.1,1-14.1,2-21.1c0.4-2.8,0.8-5.6,1.2-8.5
			c0.1-0.6,0.1-1.2,0.1-1.9c-0.2-3.4-0.5-6.8-0.8-10.2c-0.4-5.4-0.7-10.9-1-16.3c-0.2-4.1-0.4-8.1-0.6-12.2
			c-0.1-2.7-0.2-5.4-0.2-8.2c0-0.2,0-0.4,0-0.8c-0.2,0.2-0.3,0.3-0.3,0.4c-2.5,6.6-6.3,12.4-10.7,17.9c-0.9,1.1-1.7,2.1-2.5,3.3
			c-1.4,2-2.3,4.3-2.1,6.8c0.1,1.6,0.7,2.9,2,3.9c0.1,0.1,0.2,0.1,0.3,0.3c0.1,0.3,0.3,0.6,0.2,0.8c-0.1,0.2-0.5,0.5-0.7,0.5
			c-0.6,0.1-1.1-0.2-1.6-0.6c-0.9-0.8-1.6-1.8-2-2.9c-0.8-2.3-0.6-4.5,0.2-6.7c0.5-1.4,1.2-2.7,2.1-3.9c2-2.8,4.1-5.5,6.1-8.3
			c2.5-3.4,4.5-7.1,5.9-11.1c0.5-1.4,0.7-2.9,1.1-4.4c0.5-1.7,0.9-3.3,1.4-5c0.4-1.2,1.1-2.1,2-2.8c1.1-0.9,2.4-0.7,3.1,0.6
			c0.3,0.5,0.5,1.1,0.6,1.7c0.5,2.7,1,5.5,1.3,8.3c0.4,3.8,0.5,7.6,0.8,11.5c0.3,3.6,0.6,7.2,1.1,10.9c0.1-0.2,0.2-0.4,0.3-0.7
			c1.6-5.2,3.9-10.1,6.9-14.6c2.1-3.1,4.5-5.9,7.5-8.1c2.2-1.6,4.5-2.9,7.2-3.4c4.7-0.9,9,0,12.6,3.3c1.9,1.7,3.1,3.9,3.9,6.3
			c1,3.1,1.3,6.2,1.1,9.4c-0.5,6.2-2.3,11.9-5.3,17.3C127,236.7,126.9,237,126.7,237.2z M224.1,276.3c0,0.9,0,2.2,0.2,3.6
			c0.1,0.8,0.4,1.7,0.7,2.4c0.3,0.7,0.7,0.8,1.4,0.4c0.4-0.2,0.8-0.5,1.2-0.8c1.9-1.5,3.4-3.4,4.8-5.4c1.7-2.3,3.3-4.6,4.9-7
			c0.2-0.3,0.4-0.7,0.4-1.1c1-4.9,2-9.8,2.9-14.7c0.1-0.5,0.1-1,0-1.5c-0.5-2.2-1.2-4.2-2.1-6.2c-1.1-2.3-2.5-4.3-4.4-5.9
			c-0.8-0.7-1.1-0.7-1.9,0c-0.4,0.3-0.8,0.7-1,1.2c-0.5,0.8-1,1.6-1.3,2.5c-0.8,2.1-1.6,4.1-2.1,6.2
			C225.6,258.4,224.4,267.1,224.1,276.3z M235.3,305.7c-0.2,0-0.2,0-0.3,0c-0.8,0.5-1.6,1-2.4,1.5c-4.6,2.9-8.2,6.8-10.8,11.6
			c-1.9,3.5-2.5,7.3-1.8,11.2c0.7,4,2.4,7.5,5.1,10.6c1.5,1.7,3.3,2.9,5.5,3.6c1.6,0.5,2.7,0.1,3.4-1.4c0.5-1,0.9-2.1,1.1-3.2
			c0.3-2,0.6-4.1,0.6-6.1c0-3.7-0.1-7.5-0.2-11.2c-0.1-5.2-0.2-10.4-0.3-15.6C235.3,306.4,235.3,306.1,235.3,305.7z M88.5,267.4
			c-0.1,0-0.1,0-0.2,0c-0.1,0.8-0.2,1.6-0.3,2.3c-0.9,6-1.4,12.1-1.5,18.2c-0.1,4.5-0.2,9,0.4,13.4c0.4,3.3,1,6.5,2.3,9.5
			c0.5,1.3,1.3,2.4,2.2,3.5c0.5,0.5,1,0.9,1.7,1c0.6-0.4,0.6-1.1,0.6-1.7c-0.1-1.3-0.1-2.6-0.3-3.9c-0.3-2.2-0.6-4.4-0.9-6.6
			c-0.6-5.1-1.2-10.2-1.8-15.3c-0.7-5.8-1.3-11.6-2-17.5C88.7,269.4,88.6,268.4,88.5,267.4z M123.4,294.7c-0.3,0-0.4,0-0.6,0.1
			c-3.1,0.6-6,1.7-8.7,3.3c-1.6,1-2.8,2.3-3.8,3.9c-0.7,1.3-1.1,2.7-1,4.2c0.2,1.6,0.6,3.1,2,4.1c0.8,0.6,1.7,0.8,2.7,0.3
			c0.7-0.4,1.4-0.7,1.9-1.3c1-1.1,1.9-2.2,2.6-3.4c1.6-2.6,2.7-5.5,3.8-8.4C122.8,296.6,123.1,295.8,123.4,294.7z M117.2,240.3
			c-2.9-0.6-4-0.4-7.1,0c-1.4,0.2-2.5,0.8-3.4,1.7c-0.5,0.5-1,1.2-1.3,1.8c-0.6,1.5,0.3,2.7,1.9,2.7c1.6,0,3.1-0.4,4.4-1.2
			c1.2-0.8,2.4-1.7,3.5-2.6C116,242,116.7,241.2,117.2,240.3z M148.5,249.7c-0.6-1.1-1.3-2.1-2.2-2.7c-0.6-0.4-1.3-0.7-1.9-0.9
			c-0.4-0.1-0.7,0-0.9,0.4c-0.4,0.7-0.3,1.9,0.3,2.5C144.9,250.1,146.9,250.5,148.5,249.7z"/>
		<path class="st5" d="M302.5,280.4c-0.3,0.4-0.5,0.6-0.7,0.8c-2.8,3.5-5.6,7.1-8.5,10.6c-1.1,1.3-2.3,2.5-3.7,3.5
			c-1.1,0.7-2.2,1.2-3.5,1.2c-1.6,0-3-0.6-3.9-1.9c-0.5-0.6-0.9-1.4-1.1-2.2c-1-2.8-1.5-5.6-1.8-8.5c-0.5-5.1-0.3-10.2-0.1-15.2
			c0.1-5.2,0.5-10.5,0.7-15.7c0.1-2.6,0.2-5.1,0.2-7.7c0-1.2-0.1-2.4-0.4-3.5c-0.2-0.8-0.5-1.6-1-2.3c-1.2-1.8-3.5-2-5.1-0.5
			c-1.4,1.3-2.6,2.9-3.5,4.6c-1.9,3.5-3.2,7.3-4.3,11.2c-2.1,7-3.6,14.2-4.9,21.4c-0.6,3.4-1.5,6.7-2.2,10.1
			c-0.1,0.5-0.1,1.1-0.2,1.6c-0.2,1.9-1.5,3.1-3.3,2.9c-1.3-0.1-2.3-1.1-2.4-2.3c-0.1-1.3-0.2-2.7-0.1-4c0.3-5.9,0.5-11.8,1-17.7
			c0.5-6.4,1.3-12.7,2.2-19c1.5-9.9,3.4-19.7,5.5-29.5c0-0.2,0.1-0.4,0.1-0.8c-0.4,0.1-0.7,0.1-1,0.2c-4,1.2-8,2.1-12.2,2.4
			c-4.1,0.3-8.3,0.1-12.3-0.8c-3.3-0.8-6.3-2-9-4c-1.3-0.9-2.4-2-3.1-3.4c-0.1-0.2-0.2-0.4-0.3-0.6c-0.2-0.5-0.1-0.9,0.3-1.1
			c0.4-0.2,0.8-0.1,1.1,0.2c2.8,3.5,6.8,5,11,6.1c4.1,1.1,8.3,1.2,12.6,0.9c4.4-0.4,8.7-1.5,12.9-2.9c0.2-0.1,0.5-0.2,0.8-0.3
			c0.3-1.5,0.5-2.9,0.8-4.4c0.7-3.9,1.6-7.8,3.2-11.4c0.6-1.5,1.4-2.9,2.3-4.2c2.9-3.8,7.6-5.3,12.4-3.7c1.5,0.5,2.7,1.4,3.6,2.6
			c1.2,1.6,1.4,3.4,1,5.2c-0.2,1.4-0.8,2.7-1.7,4c-2.5,3.6-5.6,6.5-9.2,9c-1.1,0.8-2.3,1.4-3.4,2.1c-0.4,0.2-0.7,0.5-0.8,1
			c-2.9,9.5-5.5,19.1-7,29c-0.8,5.4-1.7,10.9-2.5,16.3c0,0.3,0,0.6,0,1.1c0.5-2.1,1-3.9,1.5-5.8c1.3-4.4,2.7-8.8,4.8-12.9
			c1.6-3,3.5-5.6,6.3-7.6c1.6-1.1,3.2-2,5.1-2.4c3.4-0.7,6.8,0.7,8.7,3.6c1.1,1.7,1.8,3.6,2,5.7c0.3,3.2,0.2,6.4-0.1,9.5
			c-0.5,5.7-1.2,11.3-1.8,17c-0.4,3.8-0.6,7.7-0.9,11.6c-0.2,2.5-0.3,5-0.3,7.6c0,1.1,0.1,2.2,0.3,3.2c0,0.4,0.3,0.7,0.4,1.1
			c1-0.2,1.7-0.7,2.3-1.3c1.7-1.7,3.5-3.4,5.1-5.2c2.6-3,5.2-6,7.8-9c0.3-0.4,0.5-0.8,0.5-1.3c0.1-7.6,0.7-15.2,1.7-22.7
			c0.9-6.4,2-12.7,3-19c0.3-2.2,0.7-4.3,1.1-6.5c0-0.2,0-0.3,0.1-0.6c-0.4,0.1-0.7,0.1-1,0.2c-4.4,1.3-8.8,1.9-13.4,1.8
			c-3.6,0-7.2-0.7-10.6-2c-2.1-0.8-4-2-5.6-3.6c-0.6-0.6-1-1.4-1.4-2.1c-0.2-0.3-0.2-0.6-0.1-0.9c0.1-0.6,0.7-0.7,1.1-0.4
			c0.1,0.1,0.1,0.1,0.2,0.2c1.7,2.3,4.2,3.7,6.8,4.6c3.8,1.3,7.6,1.5,11.5,1.1c4.3-0.4,8.4-1.5,12.5-2.8c0.4-0.1,0.7-0.3,0.8-0.9
			c1-6.4,2.5-12.6,4-18.8c0.9-4,1.9-8,2.9-11.9c0.2-0.8,0.6-1.6,1-2.3c0.4-0.7,1.1-1.1,2-0.9c0.8,0.2,1.3,0.8,1.3,1.6
			c0.1,1.2,0.2,2.4,0,3.6c-1,8-2.1,16-3.2,24c-0.1,0.8-0.2,1.6-0.3,2.4c0.4-0.1,0.6-0.2,0.9-0.3c6.8-2.4,13.8-4.3,20.9-5.7
			c5.1-1,10.3-1.4,15.6-1c2.3,0.1,4.6,0.5,6.9,1.1c1.9,0.6,3.6,1.6,5.1,2.9c0.6,0.5,0.7,1,0.4,1.6c-0.3,0.6-1,0.9-1.7,0.6
			c-0.8-0.4-1.6-0.8-2.5-1.2c-0.7-0.3-1.4-0.7-2.2-0.9c-2.6-0.8-5.2-1.2-7.8-1.2c-7.4-0.1-14.6,1-21.7,3.3c-4.6,1.5-9.1,3-13.6,4.8
			c-0.3,0.1-0.6,0.2-0.9,0.4c-0.3,1.8-0.5,3.7-0.8,5.5c-0.6,4.4-1.2,8.8-1.7,13.2c-0.5,3.6-0.8,7.3-1.2,10.9
			c-0.4,3.3-0.8,6.6-1.1,9.9c-0.7,7.4-1.4,14.8-1.2,22.2c0.1,3.6,0.5,7.1,1.3,10.6c0.2,0.9,0.6,1.9,1,2.8c0.2,0.6,0.7,0.8,1.3,1
			c1.6,0.4,3.1,0,4.6-0.7c1.9-0.9,3.8-2,5.4-3.3c1.8-1.4,3.6-2.8,5.3-4.3c4.7-4.3,9.4-8.6,14.1-12.9c5.5-5,10.9-10.1,16.4-15.2
			c0.2-0.2,0.3-0.3,0.5-0.4c0.5-0.3,1-0.2,1.4,0.2c0.3,0.3,0.4,0.8,0.1,1.3c-0.2,0.4-0.5,0.7-0.8,1c-1.9,1.9-3.8,3.7-5.7,5.6
			c-5.8,5.8-11.6,11.6-17.4,17.4c-2.8,2.8-5.7,5.5-8.6,8.3c-2.4,2.3-5,4.3-7.7,6.1c-2.1,1.4-4.4,2.3-7,2.4c-2.7,0.1-5-0.9-6.9-2.7
			c-2-1.9-3.1-4.3-3.8-6.9c-0.7-2.5-1-5.1-1.2-7.8c-0.1-1.9-0.2-3.7-0.3-5.6C302.6,280.9,302.6,280.7,302.5,280.4z M272.1,209
			c0.1,0,0.1,0,0.2,0c0.1-0.1,0.3-0.2,0.4-0.3c2.5-1.8,4.9-3.8,6.8-6.2c0.7-0.8,1.3-1.8,1.9-2.7c0.6-0.9,0.8-1.9,0.7-3
			c-0.1-1.1-0.6-2-1.5-2.7c-0.5-0.3-0.9-0.4-1.4,0c-1,0.7-1.8,1.4-2.5,2.4c-1,1.4-1.8,2.8-2.3,4.4c-0.9,2.6-1.6,5.2-2.5,7.9
			C272.1,208.9,272.1,209,272.1,209z"/>
		<path class="st5" d="M201.8,220.3c0,1.9-1.3,3.7-3,4.5c-2.4,1-5.6-0.7-5.4-4.2c0-0.8,0.4-1.6,0.8-2.3c0.7-1.2,1.8-1.9,3.2-1.8
			c0.7,0,1.4,0.2,2.1,0.4C200.9,217.1,201.8,218.6,201.8,220.3z"/>
	</g>
</g>
</svg>
