<?xml version="1.0" encoding="utf-8"?>
<!-- Generator: Adobe Illustrator 22.0.1, SVG Export Plug-In . SVG Version: 6.00 Build 0)  -->
<svg version="1.1" id="Calque_1" xmlns="http://www.w3.org/2000/svg" xmlns:xlink="http://www.w3.org/1999/xlink" x="0px" y="0px"
	 viewBox="0 0 432 432" style="enable-background:new 0 0 432 432;" xml:space="preserve">
<style type="text/css">
	.st0{fill:#B78D5C;}
	.st1{fill:#EBCEC6;}
	.st2{fill:#D4B67E;}
	.st3{fill:#EF798A;}
	.st4{fill:#FBD8E3;}
	.st5{fill:#660A1E;}
	.st6{fill:#990033;}
	.st7{fill:#07512C;}
	.st8{fill:#8CC63F;}
	.st9{fill:#006837;}
	.st10{fill:#CCCCCC;}
	.st11{fill:#FFFFFF;}
	.st12{fill:#8A1A31;}
	.st13{fill:#A7A6AA;}
	.st14{fill:#D3A9B2;}
	.st15{fill:#2A2A2B;}
	.st16{fill:#DDC090;}
	.st17{fill:#AF434B;}
	.st18{fill:#62A581;}
	.st19{fill:#94C16C;}
	.st20{fill:#B9011B;}
	.st21{fill:#BABABA;}
	.st22{fill:#754C24;}
	.st23{fill:#A67C52;}
	.st24{fill:#8C6239;}
	.st25{fill:#C69C6D;}
	.st26{fill:#9E1E28;}
	.st27{fill:#D6C188;}
	.st28{fill:#BF364A;}
	.st29{fill:#A1272D;}
	.st30{fill:#BFA76B;}
	.st31{fill:#DCDEDD;}
	.st32{fill:#D89A5D;}
	.st33{fill:#F5EDDB;}
	.st34{fill:#603813;}
	.st35{fill:#4A7575;}
	.st36{fill:#7F3244;}
	.st37{fill:#9E7E5E;}
	.st38{fill:#C1272D;}
	.st39{fill:#561217;}
	.st40{fill:#C49F7A;}
	.st41{fill:#534741;}
	.st42{fill:#999999;}
	.st43{fill:#A80031;}
	.st44{fill:#1A1A1A;}
	.st45{fill:#333333;}
	.st46{fill:#B3B3B3;}
	.st47{fill:#B3A6AD;}
	.st48{fill:#B6B155;}
	.st49{fill:#679CBA;}
	.st50{fill:#0071BC;}
	.st51{fill:#F7931E;}
	.st52{fill:#821119;}
	.st53{fill:#39B54A;}
	.st54{fill:#1B1464;}
	.st55{fill:#FAF3E3;}
	.st56{fill:#DCD2BD;}
	.st57{fill:#F5EDDA;}
	.st58{fill:#815D3C;}
	.st59{fill:#F69331;}
	.st60{fill:#BCA791;}
	.st61{fill:#F9D51D;}
	.st62{fill:#704638;}
	.st63{fill:#A7DBD7;}
	.st64{fill:#DED7CD;}
	.st65{fill:#E89024;}
	.st66{fill:#EACAAC;}
	.st67{fill:#D8B195;}
	.st68{fill:#A50423;}
	.st69{fill:#CC7312;}
	.st70{fill:#9EC5FF;}
	.st71{fill:#6D86B4;}
	.st72{fill:#2E363A;}
	.st73{fill:#FFCC00;}
	.st74{fill:#B58847;}
	.st75{fill:#563315;}
	.st76{fill:#ED0A3A;}
	.st77{fill:#A62714;}
	.st78{fill:#247E5B;}
	.st79{fill:#176041;}
	.st80{fill:#61B756;}
	.st81{fill:#EDDBAE;}
	.st82{fill:#3F3F3F;}
	.st83{fill:#595959;}
	.st84{fill:#484849;}
	.st85{fill:#EFD1B4;}
	.st86{fill:#E0E0E2;}
	.st87{fill:#CCCCCE;}
	.st88{fill:#CEC76B;}
	.st89{fill:#42210B;}
	.st90{fill:#FCACBC;}
	.st91{fill:#D6B994;}
	.st92{fill:#F8C2C2;}
	.st93{fill:#E4D48E;}
	.st94{fill:#A57C53;}
	.st95{fill:#96704B;}
	.st96{fill:#9D6D47;}
	.st97{fill:#591427;}
	.st98{fill:#7CCC71;}
	.st99{fill:#C7B299;}
	.st100{fill:#998675;}
	.st101{fill:#7DC34D;}
	.st102{fill:#80694F;}
	.st103{fill:#FF1C2E;}
	.st104{fill:#A51B29;}
	.st105{fill:#00673B;}
	.st106{fill:#B88464;}
	.st107{fill:#CA986F;}
	.st108{fill:#3F2316;}
	.st109{fill:#F1F1F2;}
	.st110{fill:#00924A;}
	.st111{fill:#C7202F;}
	.st112{fill:#BBBDBF;}
	.st113{fill:#58595B;}
	.st114{fill:#D0D2D3;}
	.st115{fill:#6C6E70;}
	.st116{fill:#663818;}
	.st117{fill:#FF9134;}
	.st118{fill:#AC8D6B;}
	.st119{fill:#CE1F32;}
	.st120{fill:#00B252;}
	.st121{fill:#804D34;}
	.st122{fill:#61A6AF;}
	.st123{fill:#4C838D;}
	.st124{fill:#E6E6E6;}
	.st125{fill:#E6E7E7;}
	.st126{fill:#55396B;}
	.st127{fill:#6F4696;}
	.st128{fill:#9C2D8C;}
	.st129{fill:#915D3F;}
	.st130{fill:none;}
	.st131{fill:#00BCB9;}
	.st132{fill:#00BBB8;}
	.st133{fill:#6C328D;}
	.st134{fill:#5D4A42;}
	.st135{fill:#746559;}
	.st136{fill:#009245;}
	.st137{fill:#808184;}
	.st138{fill:#00A69C;}
	.st139{fill:#0078B8;}
	.st140{fill:#9F847A;}
	.st141{fill:#EECCB3;}
	.st142{fill:#241F20;}
	.st143{fill:#0D5408;}
	.st144{fill:#C9800A;}
	.st145{fill:#083A04;}
	.st146{fill:#BF001A;}
	.st147{fill:#AA0012;}
	.st148{fill:#9E620B;}
	.st149{fill:#A80E28;}
	.st150{fill:#0C3A1F;}
	.st151{fill:#C10A0A;}
	.st152{fill:#0A3D06;}
	.st153{fill:#A30738;}
	.st154{fill:#7F0A2E;}
	.st155{fill:#D8712B;}
	.st156{fill:#C15105;}
	.st157{fill:#F4A00B;}
	.st158{fill:#10440A;}
	.st159{fill:#A00E0E;}
	.st160{fill:#0F230D;}
	.st161{fill:#B20B33;}
	.st162{fill:#E5E5E5;}
	.st163{fill:#11722D;}
	.st164{fill:#0B281A;}
	.st165{fill:#E59D1F;}
	.st166{fill:#C60924;}
	.st167{fill:#960820;}
	.st168{fill:#AD1431;}
	.st169{fill:#E24756;}
	.st170{fill:#CE364C;}
	.st171{fill:#A50707;}
	.st172{fill:#4A9B29;}
	.st173{fill:#468E24;}
	.st174{fill:#AF0E22;}
	.st175{fill:#EDECE6;}
	.st176{fill:#54220E;}
	.st177{fill:#592C1C;}
	.st178{fill:#EFEAC7;}
	.st179{fill:#042111;}
	.st180{fill:#A80C0C;}
</style>
<g>
	<g>
		<g>
			<path d="M147.1,163.7c-0.3,0.3-0.6,0.4-0.8,0.7c-1,1-1.8,2.1-2.5,3.3c-1.5,2.7-2.7,5.6-3.7,8.5c-1.3,3.8-2.3,7.7-3.1,11.6
				c-0.1,0.5-0.1,0.9-0.1,1.4c0,1.6,0,3.2-0.1,4.7c0,0.7-0.3,1.4-0.6,2c-1.2,2.3-4.1,2.6-5.8,0.6c-0.7-0.9-1.1-1.9-1.2-3.1
				c-0.1-0.9-0.2-1.7-0.3-2.6c0-0.1,0-0.2-0.1-0.5c-0.2,0.3-0.3,0.5-0.4,0.7c-1.2,2.8-2.7,5.4-4.2,8c-0.7,1.2-1.5,2.3-2.3,3.4
				c-1.6,2-3.7,3.3-6.2,3.6c-2.7,0.4-5.2-0.3-7.2-2.2c-2.1-1.9-3.5-4.4-4.4-7.1c-0.9-2.9-1.5-5.8-1.7-8.9c-0.3-4.2,0-8.4,0.5-12.6
				c0.4-3.5,1.2-6.8,2.6-10c1.2-2.8,3-5.1,5.5-6.9c2.6-2,5.6-2.8,8.8-2.2c3.3,0.5,5.5,2.5,6.7,5.5c1.1,2.7,1.3,5.5,0.3,8.2
				c-0.2,0.5-0.4,1-0.7,1.5c-0.2,0.3-0.5,0.6-0.8,0.9c-0.5,0.3-1,0.4-1.5,0.1c-0.5-0.3-0.7-0.7-0.6-1.3c0-0.5,0.1-1,0.2-1.5
				c0.2-1.4-0.1-2.8-0.6-4.1c-0.2-0.5-0.5-0.9-0.8-1.3c-0.8-1-1.9-1.4-3.2-1.1c-0.9,0.2-1.7,0.6-2.4,1.2c-2.4,1.8-3.6,4.3-4.4,7.2
				c-0.5,1.9-0.9,3.9-1.1,5.9c-0.3,2.6-0.5,5.2-0.4,7.9c0.1,2.8,0.4,5.5,1.1,8.3c0.7,2.6,2.2,4.5,4.2,6.2c1,0.8,2.2,1,3.5,0.6
				c0.8-0.3,1.5-0.8,2.1-1.4c0.9-0.9,1.7-1.9,2.3-3c1-1.8,2-3.6,3-5.4c0.6-1.1,1.2-2.3,1.8-3.5c0.2-0.3,0.2-0.6,0.2-1
				c-0.2-8.2-0.2-16.4-0.1-24.7c0-2.7,0.1-5.3,0.1-8c0-1.2,0.1-2.4,0.1-3.6c0-0.2,0-0.4,0-0.7c-0.2,0-0.4,0-0.5,0.1
				c-3.5,0.9-7,1.7-10.6,2.6c-3.1,0.7-6.2,1.6-9.2,2.7c-1.7,0.7-3.3,1.6-4.7,2.8c-0.6,0.5-1.1,1-1.3,1.7c-0.1,0.4-0.5,0.6-0.9,0.4
				c-0.4-0.1-0.6-0.5-0.4-0.9c0.1-0.4,0.3-0.7,0.5-1.1c0.4-0.7,1-1.4,1.6-1.9c1.7-1.4,3.5-2.5,5.5-3.4c3.5-1.4,7.1-2.3,10.7-3.3
				c2.8-0.7,5.6-1.5,8.4-2.2c0.3-0.1,0.6-0.2,0.9-0.3c0-0.1,0-0.3,0.1-0.4c0.2-3.9,0.4-7.8,0.7-11.8c0.3-3.6,0.6-7.1,1.2-10.6
				c0.7-4.4,2.1-8.7,4.3-12.6c1-1.7,2.1-3.3,3.6-4.5c1.7-1.4,3.6-2.3,5.8-2.4c2.9-0.2,5.2,1,6.7,3.5c0.8,1.3,1.3,2.8,1.5,4.3
				c0.3,2.2,0.2,4.4-0.1,6.6c-1,8.3-4.6,15.4-9.7,21.8c-1.5,1.9-3.3,3.4-5.4,4.7c-0.4,0.3-0.5,0.5-0.5,1c-0.1,5.5-0.2,11-0.3,16.4
				c-0.1,4.6-0.1,9.2-0.1,13.8c0,0.5,0,0.9,0.2,1.5c0.1-0.2,0.2-0.3,0.2-0.5c0.9-2.2,1.7-4.3,2.6-6.5c0.9-2.1,2-4,3.2-5.9
				c0.6-0.9,1.4-1.9,2.2-2.6c0.6-0.5,1.2-0.9,1.8-1.2c1.4-0.7,2.8-0.4,4,0.5c0.7,0.6,1.3,1.3,1.7,2.1c0.8,1.4,1.1,3,1.3,4.6
				c0.4,3.5,0.3,6.9,0.1,10.4c-0.1,2.6-0.4,5.1-0.5,7.7c-0.1,2.1-0.2,4.1-0.2,6.2c0,0.9,0.1,1.9,0.4,2.8c0.2,0.7,0.6,1.3,1.3,1.7
				c0.2-0.2,0.4-0.3,0.5-0.5c0.5-0.6,0.9-1.2,1.2-2c0.8-1.8,1.3-3.8,1.8-5.7c0.6-2.6,1.2-5.3,1.8-7.9c0.8-4.2,1.7-8.4,2.4-12.6
				c0.2-1.2,0.3-2.4,0.4-3.5c0.2-2,0.3-4.1,0.4-6.1c0-0.3,0-0.6,0-0.9c-1-0.2-1.9-0.3-2.9-0.5c-1.2-0.2-2.3-0.6-3.3-1.2
				c-1.9-1.2-2.9-2.8-2.9-5c0-1.2,0.3-2.3,1.1-3.3c1.7-2.2,4.5-2.8,7-1.1c1.6,1.1,2.5,2.8,3,4.6c0.1,0.5,0.2,0.9,0.3,1.4
				c0,0.2,0.1,0.4,0.2,0.7c1-0.1,1.9-0.2,2.8-0.3c0.7-0.1,1.3-0.2,2-0.2c2.5-0.1,4.2,1.1,5.3,3.2c0.5,1,0.7,2.1,0.8,3.2
				c0.1,2-0.2,4-0.6,5.9c-0.5,2.8-1.1,5.5-1.6,8.3c-0.4,2.4-0.8,4.9-0.8,7.3c0,0.5,0.1,0.9,0.1,1.4c0.1,0,0.2,0,0.2,0
				c1.2-0.7,2.6-1.3,3.7-2.2c0.3-0.2,0.3-0.5,0.3-0.8c0.1-0.8,0.1-1.7,0.2-2.5c0.2-2.7,0.4-5.3,0.7-8c0.2-1.9,0.6-3.8,1-5.7
				c0.2-0.8,0.5-1.6,0.9-2.3c0.4-0.8,1-1.3,1.9-1.6c1.1-0.3,2.3,0.1,3.1,1.2c0.6,0.8,0.9,1.8,1.1,2.9c0.3,1.8,0.2,3.6,0.1,5.5
				c-0.2,2.2-0.3,4.4-0.5,6.6c-0.2,2.9-0.3,5.8-0.5,8.8c-0.1,2.1,0,4.2,0.5,6.3c0.1,0.3,0.2,0.5,0.3,0.8c0,0.1,0.1,0.1,0.2,0.2
				c0.6-0.3,1.2-0.7,1.6-1.2c0.9-1,1.8-2,2.5-3.1c1.6-2.3,3-4.8,4.2-7.3c1.2-2.4,2.4-4.8,3.6-7.2c0.2-0.5,0.3-0.9,0.1-1.3
				c-1.5-4-2.6-8.1-3.7-12.2c-0.5-2.1-0.9-4.2-0.8-6.4c0.2-4,1.8-7.3,5.3-9.6c3.2-2.1,6.8-1.1,8.8,1.2c1.6,1.8,2.2,3.8,2.1,6.2
				c-0.2,3.3-1,6.4-2.2,9.4c-0.8,2-1.7,4.1-2.6,6.1c-0.1,0.3-0.2,0.6,0,0.9c1.8,4.3,3.3,8.8,4.2,13.4c0,0.1,0,0.2,0.1,0.3
				c0,0,0.1,0.1,0.1,0.1c0.8-0.7,1.6-1.3,2.4-2c0.9-0.7,1.7-1.5,2.6-2.2c0.3-0.2,0.4-0.5,0.4-0.9c0.1-3.5,0.1-6.9,0.3-10.4
				c0.2-4.1,0.4-8.1,0.7-12.2c0.3-4.4,0.8-8.8,1.2-13.2c0.1-1.7,0.3-3.4,0.4-5.1c0.1-1.1,0.3-2.3,0.4-3.4c0-0.2,0.1-0.5,0.1-0.8
				c-1.2-0.3-2.4-0.7-3.6-1c-2.3-0.5-4.6-0.7-6.9-0.8c-5.1-0.3-10.1,0.5-15.1,1.6c-2.6,0.6-5.3,1.2-7.8,2.2c-1.3,0.5-2.5,1-3.8,1.5
				c-0.8,0.3-1.7,0.5-2.5,0.7c-0.3,0.1-0.7,0-1-0.1c-0.7-0.2-1-0.9-0.7-1.5c0.2-0.4,0.4-0.7,0.7-1c1-0.9,2.1-1.7,3.2-2.4
				c3.7-2.2,7.6-3.9,11.7-5.2c3.4-1.1,6.9-2,10.5-2.6c2.2-0.3,4.4-0.4,6.6-0.4c6.8,0.1,13.1,2.2,18.9,5.6c3.3,1.9,6.4,4,9.7,6
				c3.2,2,6.5,3.9,10.1,5.4c3.1,1.2,6.2,2.1,9.5,2.5c1.8,0.2,3.6,0.2,5.3-0.4c0.5-0.2,0.9-0.2,1.4-0.3c0.1,0,0.1,0,0.2,0
				c0.5,0,1,0.1,1.2,0.6c0.3,0.5,0.1,0.9-0.2,1.3c-0.7,0.8-1.5,1.4-2.4,1.9c-2.2,1.1-4.5,1.7-7,1.8c-3.9,0.1-7.7-0.7-11.3-2
				c-3.5-1.2-6.8-2.9-10-4.7c-2.8-1.6-5.6-3.2-8.4-4.8c-0.2-0.1-0.4-0.2-0.7-0.4c0,0.5-0.1,0.9-0.1,1.3c-0.4,4.5-0.8,9.1-1.1,13.6
				c-0.3,3.6-0.6,7.2-0.7,10.8c-0.3,5.5-0.5,11-0.6,16.6c-0.1,3,0.1,6,0.5,9c0,0.1,0,0.2,0.1,0.3c0.3-0.2,0.4-0.5,0.5-0.7
				c1.5-2.7,2.6-5.6,3.7-8.5c1-2.6,1.9-5.2,2.9-7.8c0.9-2.3,2-4.5,3.2-6.7c0.1-0.3,0.3-0.5,0.5-0.8c1.2-1.9,3.5-2.4,5.4-1.2
				c1.2,0.7,1.9,1.8,2.4,3.1c0.4,1.2,0.6,2.4,0.7,3.6c0,0.4,0.1,0.8,0.2,1.3c0.1-0.2,0.2-0.4,0.3-0.6c1.6-3.2,3.3-6.4,5.2-9.4
				c0.4-0.7,0.9-1.4,1.5-2c0.8-1,1.8-1.6,3.1-1.8c1.7-0.2,3.1,0.4,4.3,1.7c0.9,1.1,1.4,2.4,1.6,3.7c0.2,1.1,0.4,2.3,0.6,3.5
				c0.3-0.1,0.3-0.3,0.4-0.5c1.2-2.8,2.7-5.5,4.5-8c0.8-1.1,1.7-2.2,2.6-3.3c0.6-0.7,1.4-1.4,2.2-1.8c2.3-1.2,4.6-0.7,6.2,1.3
				c1.1,1.4,1.7,2.9,2.1,4.6c0.6,2.3,0.8,4.7,0.9,7.1c0.1,4.5-0.1,9-0.6,13.5c-0.4,3.7-0.8,7.3-1.2,11c-0.3,2.9-0.5,5.8-0.8,8.7
				c-0.1,1-0.1,2-0.1,2.9c0,0.2,0,0.3,0,0.7c0.2-0.2,0.4-0.4,0.5-0.5c1-1.5,2-2.9,2.9-4.4c0.1-0.2,0.2-0.4,0.1-0.6
				c-1-2.9-1-5.8-0.6-8.8c0.4-3.5,1.4-6.8,2.9-10c1.1-2.2,2.4-4.3,4.3-6c2-1.9,4.4-3.1,7.1-3.5c1.2-0.1,2.4,0,3.6,0.4
				c0.3,0.1,0.5,0.2,0.8,0.3c0.1-0.2,0.1-0.4,0.2-0.6c0.4-0.9,0.7-1.7,1.2-2.5c0.3-0.5,0.8-1,1.3-1.3c1.1-0.7,2.3-0.5,3.2,0.4
				c0.8,0.8,1.1,1.9,1.3,3c0.3,1.9,0.2,3.8-0.1,5.7c-0.5,4.1-1.1,8.2-1.5,12.3c-0.2,1.7-0.2,3.4-0.3,5.1c0,0.3,0.1,0.6,0.1,1.1
				c0.4-0.4,0.7-0.7,1-1.1c0.7-1,1.5-1.9,2.2-2.9c3.7-5.2,6.9-10.6,10-16.2c0.2-0.4,0.2-0.7,0.1-1c-1-2.4-2.1-4.8-3.1-7.3
				c-0.7-1.7-1.3-3.5-1.6-5.4c-0.4-2.4-0.4-4.7,0.5-7c0.6-1.6,1.6-3,3.1-4c2.5-1.8,5.6-1.6,7.8,0.6c1.6,1.6,2.5,3.5,2.6,5.8
				c0.1,1.7-0.1,3.3-0.7,4.8c-0.7,1.9-1.4,3.8-2.2,5.7c-0.2,0.4-0.2,0.7,0,1.1c2,4.6,3.6,9.4,5.2,14.2c1,3,1.5,6.1,1.8,9.2
				c0.2,2.2,0.4,4.4,0.2,6.6c-0.5,5.9-2.4,11.3-6.2,15.9c-1,1.2-2.1,2.3-3.5,3.1c-2.4,1.5-4.9,2-7.7,1.2c-3.1-1-5.2-3.8-5.4-7
				c-0.1-2,0.3-3.8,1.3-5.5c0.8-1.4,1.7-2.8,2.8-3.9c1.8-1.9,3.8-3.6,6.1-5c1.4-0.9,2.9-1.7,4.5-2.7c0-0.3-0.1-0.8-0.1-1.3
				c-0.3-4-1.3-7.9-2.7-11.7c-0.4-1.2-0.8-2.3-1.2-3.5c-0.1-0.2-0.2-0.5-0.3-0.8c-0.2,0.3-0.3,0.5-0.4,0.7
				c-3.1,5.4-6.2,10.7-9.2,16.1c-1,1.7-1.9,3.3-2.9,5c-0.4,0.6-0.8,1.2-1.2,1.7c-1.7,2-4.4,2.2-6.4,0.4c-1.2-1-1.8-2.4-2.1-3.8
				c0-0.2-0.1-0.4-0.2-0.7c-0.2,0.3-0.3,0.5-0.4,0.7c-1.2,2.1-2.4,4.1-4.2,5.7c-0.9,0.8-1.8,1.5-2.9,1.8c-2.2,0.5-4.2-0.1-5.9-1.6
				c-0.2-0.2-0.3-0.3-0.5-0.5c-0.1-0.1-0.3-0.3-0.5-0.5c-0.6,1.1-1.1,2.2-1.7,3.2c-1.1,2.1-2.2,4.2-3.4,6.2
				c-0.8,1.4-2.6,1.9-4.2,1.3c-1.3-0.5-2.2-1.5-2.8-2.8c-0.5-1.1-0.7-2.3-0.8-3.6c-0.1-3.1,0-6.1,0.3-9.2c0.2-2.4,0.5-4.9,0.7-7.3
				c0.2-2.2,0.5-4.3,0.7-6.5c0.2-1.7,0.3-3.4,0.5-5c0.2-3.2,0.4-6.3,0.3-9.5c-0.1-2.2-0.2-4.5-0.3-6.7c0-0.5-0.1-1.1-0.1-1.6
				c0-0.2,0-0.3-0.1-0.5c-0.6,0.3-1,0.8-1.3,1.3c-0.6,1.1-1.3,2.2-1.8,3.4c-1.7,3.7-2.8,7.6-3.7,11.5c-0.8,3.3-1.4,6.7-1.9,10.1
				c-0.2,1.6-0.3,3.2-0.5,4.8c-0.1,0.5-0.1,1.1-0.2,1.6c-0.4,1.9-2.1,3.3-4,3.3c-2,0-3.6-1.5-4-3.5c-0.1-0.4-0.1-0.8-0.1-1.2
				c-0.1-4.2-0.2-8.5-0.3-12.7c-0.1-3.5-0.3-7.1-0.8-10.6c0-0.2-0.1-0.4-0.2-0.7c-0.2,0.3-0.4,0.4-0.5,0.7c-0.7,1.2-1.4,2.4-2.1,3.6
				c-1.4,2.8-2.3,5.8-3.2,8.7c-0.9,3.3-1.9,6.5-2.8,9.8c-0.5,1.7-0.8,3.5-1,5.2c-0.2,2.2-2,3.8-4.2,3.7c-2.1-0.1-3.8-1.9-3.8-4.1
				c0-1.1,0.1-2.2,0.2-3.4c0.1-2.1,0.3-4.1,0.4-6.2c0.2-2.7,0.4-5.4,0.5-8.1c0.1-1.7,0.1-3.4-0.1-5.2c-0.2,0.2-0.3,0.4-0.4,0.5
				c-1,1.5-1.8,3.2-2.4,4.9c-1.3,3.3-2.5,6.5-3.7,9.8c-1,2.8-2,5.6-3,8.4c-0.3,0.7-0.6,1.5-1,2.2c-1.3,2.3-3.9,2.3-5.5,1.2
				c-1.4-1-2.4-2.4-2.8-4.1c-0.3-1.6-0.5-3.3-0.7-4.9c-0.2-1.5-0.2-3-0.3-4.6c-0.1,0.1-0.2,0.1-0.3,0.2c-1.5,1.4-2.9,2.8-4.4,4.1
				c-0.2,0.2-0.3,0.4-0.2,0.7c0.2,1.3,0.4,2.7,0.5,4c0.4,4.3,0.4,8.6-0.5,12.8c-0.6,2.8-1.5,5.5-3.2,7.9c-1.2,1.8-2.8,3.2-4.9,4
				c-1.8,0.7-3.6,0.9-5.4,0.3c-2.8-1-4.4-3-4.9-5.9c-0.4-2.7,0-5.3,1.2-7.7c0.9-2,2.1-3.8,3.5-5.6c1.7-2.1,3.5-4.1,5.5-6
				c0.3-0.3,0.5-0.7,0.4-1.1c-0.4-3.2-1.1-6.4-2-9.6c0-0.1-0.1-0.3-0.2-0.5c-0.2,0.3-0.3,0.5-0.4,0.7c-1.8,3.4-3.5,6.8-5.3,10.1
				c-1.1,2.2-2.4,4.3-3.9,6.2c-0.5,0.7-1.1,1.3-1.7,1.8c-2.6,2.3-6.3,2-8.6-0.6c-1.1-1.2-1.7-2.6-2.1-4.2c-0.4-1.6-0.7-3.3-0.7-5
				c0-0.2,0-0.5-0.1-0.7c0-0.1,0-0.1-0.1-0.3c-0.2,0.2-0.4,0.4-0.5,0.6c-1,1.1-2,2.1-3.4,2.7c-3,1.3-6.2,0.1-7.5-3
				c-0.4-0.9-0.6-1.8-0.7-2.7c-0.2-1.5-0.1-3,0.1-4.4c0.4-4.7,1.4-9.2,2.3-13.8c0.4-2.1,0.7-4.1,1.1-6.2c0-0.3,0-0.5,0-0.9
				c-1,0-2,0.2-2.9,0.3c0,0.2,0,0.4,0,0.6c0,3.2-0.4,6.4-0.8,9.6c-0.6,3.8-1.5,7.6-2.2,11.4c-0.6,2.9-1.2,5.8-1.8,8.7
				c-0.5,2.5-1,5.1-1.6,7.6c-0.2,0.9-0.5,1.8-0.8,2.7c-0.2,0.7-0.6,1.4-0.9,2.1c-1.5,2.7-4.6,3.5-7.1,2.6c-1.6-0.6-2.8-1.6-3.7-2.9
				c-1.3-1.8-1.9-3.9-2.2-6.1c-0.2-1.9-0.1-3.9,0-5.8c0.3-4.4,0.7-8.8,1.1-13.2c0.3-2.9,0.6-5.8,0.9-8.7
				C147.2,165.4,147.3,164.6,147.1,163.7z M137.2,142.2c0.2-0.2,0.4-0.3,0.6-0.4c0.9-0.9,1.9-1.7,2.7-2.7c4.7-5.6,7.8-11.9,9.2-19
				c0.5-2.4,0.7-4.7,0.3-7.1c-0.2-1.2-0.5-2.3-1.3-3.3c-0.7-0.9-1.6-1.3-2.7-1.2c-0.7,0.1-1.3,0.4-1.8,0.8c-0.7,0.6-1.2,1.2-1.6,2
				c-0.9,1.6-1.6,3.2-2,5c-1.4,5.3-2.3,10.6-2.7,16c-0.2,2.8-0.4,5.5-0.6,8.3C137.2,141.2,137.2,141.7,137.2,142.2z M289,192.7
				c0.4-0.2,0.8-0.4,1.2-0.6c0.9-0.6,1.8-1.4,2.4-2.3c1.1-1.7,2.2-3.4,3.2-5.1c0.1-0.2,0.2-0.4,0.2-0.6c0.1-1,0.1-1.9,0.3-2.9
				c0.4-3.4,0.9-6.7,1.3-10.1c0-0.3,0.1-0.5,0.1-0.8c-0.5-0.1-1,0.1-1.3,0.3c-0.7,0.5-1.5,1-2.1,1.6c-1.6,1.6-2.9,3.4-3.9,5.4
				c-1.5,3.1-2.4,6.3-2.6,9.7c-0.1,1.5,0,3.1,0.7,4.5C288.6,192.1,288.8,192.4,289,192.7z M203.7,162.8c0.1-0.2,0.2-0.2,0.2-0.3
				c1.2-2.4,2.1-4.9,2.7-7.4c0.4-1.8,0.7-3.5,0.6-5.4c-0.1-1.7-0.9-3-2.6-3.7c-1-0.4-1.9-0.3-2.8,0.4c-0.7,0.5-1.1,1.2-1.5,1.9
				c-0.7,1.6-0.8,3.2-0.5,4.9c0.3,1.7,0.9,3.3,1.5,5C202,159.7,202.8,161.2,203.7,162.8z M322.9,191.1c-0.1,0-0.1-0.1-0.2-0.1
				c-0.2,0.1-0.4,0.3-0.6,0.4c-1.3,1.1-2.6,2.3-3.8,3.5c-1.5,1.5-2.7,3.1-3.6,5c-0.4,0.8-0.6,1.6-0.8,2.4c-0.2,0.8-0.1,1.6,0.2,2.3
				c0.3,0.7,0.6,0.8,1.3,0.5c0.3-0.1,0.5-0.3,0.8-0.4c1.5-0.9,2.6-2.1,3.5-3.6c1.5-2.4,2.5-5,2.9-7.8
				C322.7,192.7,322.8,191.9,322.9,191.1z M203.3,191.8c-0.1,0-0.1-0.1-0.2-0.1c0,0.1-0.1,0.2-0.1,0.2c-1.5,1.9-3,3.8-4.2,5.8
				c-0.7,1.3-1.4,2.6-1.8,4c-0.3,1.1-0.4,2.3-0.2,3.5c0.1,0.5,0.2,0.9,0.5,1.3c0.4,0.7,1.1,0.8,1.8,0.3c0.3-0.2,0.5-0.5,0.7-0.7
				c1.6-2,2.6-4.2,3.1-6.7c0.5-2.4,0.5-4.8,0.5-7.3C203.4,192,203.3,191.9,203.3,191.8z M322,158.1c0.5-1.5,0.9-2.9,1.1-4.4
				c0.1-0.9,0.2-1.9,0.1-2.9c-0.1-1.4-0.8-2.4-2-3.1c-0.8-0.4-1.4-0.2-1.8,0.6c-0.1,0.2-0.2,0.4-0.2,0.6c-0.3,1-0.1,2.1,0.2,3
				c0.7,2,1.5,3.9,2.3,5.8C321.9,157.9,321.9,158,322,158.1z M163.3,153.6c-0.1-0.6-0.2-1.1-0.3-1.7c-0.2-1-0.6-1.9-1.3-2.8
				c-0.4-0.5-0.9-0.7-1.4-0.9c-0.9-0.2-1.5,0-2,0.8c-1,1.5-0.6,3.3,1.1,4.1C160.5,153.8,161.8,153.8,163.3,153.6z"/>
			<path d="M183.8,154.2c-0.4-0.1-0.8-0.2-1.3-0.3c-1.5-0.4-2.9-3.1-2.7-4.6c0.5-2.8,3.3-4.4,5.9-3.1c1.8,0.9,2.7,2.7,2.2,4.7
				C187.6,152.9,185.8,154.2,183.8,154.2z"/>
		</g>
		<g>
			<path d="M166.1,91.9c-0.1,0.3-0.3,0.7-0.4,1c-0.7,1.9-1.1,4-1.4,6c-0.5,2.9-0.6,5.9-0.8,8.8c-0.1,1.5-0.2,2.9-0.3,4.4
				c0,0.3-0.1,0.6-0.1,0.9c-0.5,1.7-2.4,2.3-3.7,1.2c-0.4-0.4-0.7-0.8-0.9-1.3c-0.6-1.4-0.8-2.8-1.1-4.3c-0.6-3.7-1-7.5-1.2-11.3
				c-0.1-1.3-0.1-2.5,0-3.8c0-0.4,0.1-0.8,0.3-1.2c0.3-0.7,0.8-1.3,1.6-1.3c0.8-0.1,1.5,0.3,1.9,1c0.2,0.4,0.4,0.8,0.5,1.3
				c0.4,1.8,0.8,3.7,1.2,5.5c0.1,0.6,0.2,1.3,0.3,2c0.1-0.3,0.2-0.4,0.2-0.5c0.8-3.7,1.7-7.3,2.8-10.9c0.1-0.4,0.2-0.8,0.4-1.2
				c0.6-1.3,1.8-1.8,3.2-1.3c0.8,0.3,1.4,0.8,1.8,1.5c0.8,1.1,1.3,2.4,1.7,3.7c0.4,1.3,0.6,2.6,1,3.9c0,0.1,0.1,0.2,0.2,0.4
				c0.1-0.3,0.1-0.5,0.2-0.8c0.8-3.2,1.7-6.4,3-9.5c0.3-0.8,0.7-1.5,1.1-2.2c0.1-0.2,0.3-0.5,0.4-0.7c1.2-1.9,3.1-1.5,4.2-0.1
				c0.7,1,1.2,2.1,1.6,3.3c0.7,2.2,1.1,4.4,1.4,6.6c0.3,3.2,0.6,6.4,0.8,9.6c0.1,1,0.2,2.1,0.4,3.2c0.2-0.2,0.4-0.3,0.5-0.5
				c1.2-1.5,2.4-3.1,3.6-4.6c0,0,0-0.1,0-0.1c-0.3-0.8-0.7-1.6-1-2.4c-0.4-1.3-0.6-2.6-0.6-4c-0.1-3.1,0-6.3,0.8-9.3
				c0.2-0.7,0.4-1.3,0.7-1.9c0.2-0.4,0.6-0.8,0.9-1.2c0.6-0.5,1.3-0.4,1.8,0.1c0.5,0.5,0.8,1.1,0.9,1.7c0.1,0.9,0.3,1.8,0.3,2.7
				c0.1,2.1,0.1,4.2,0.1,6.3c0,1.6,0.2,3.1,0.6,4.7c0.2,0.9,0.6,1.8,1.4,2.5c0.7,0.6,1.4,0.6,2.1,0c0.4-0.4,0.7-0.8,1.1-1.2
				c1.2-1.6,1.9-3.5,2.4-5.4c0.1-0.3,0.1-0.7,0.1-1.1c-0.2-3.4-0.1-6.7,0.3-10c0.1-0.6,0.2-1.1,0.4-1.6c0.7-1.4,2.3-1.5,3.1-0.2
				c0.3,0.5,0.6,1.1,0.7,1.7c0.3,1.7,0.6,3.4,0.8,5.1c0.3,2.3,0.5,4.6,0.6,7c0.2,4,0.4,7.9,0.2,11.9c-0.2,2.6-0.6,5.1-1.8,7.4
				c-0.9,1.9-2.1,3.6-3.9,4.8c-1.5,1-3.2,1.5-5,1.9c-2.5,0.4-5,0.3-7.5,0.2c-2.9-0.1-5.9-0.2-8.8-0.2c-3.9,0-7.7,0.6-11.4,1.8
				c-3.4,1.1-6.3,3.1-8.9,5.5c-0.3,0.2-0.5,0.5-0.8,0.7c-0.4,0.3-0.8,0.4-1,0.1c-0.3-0.2-0.3-0.7,0-1.1c0.3-0.4,0.6-0.7,1-1.1
				c3.4-3.3,7.4-5.7,12-6.9c2.5-0.6,5-1.1,7.6-1.3c4-0.3,8.1-0.6,12.1-0.9c1.8-0.1,3.6-0.4,5.3-0.9c2-0.6,3.4-1.9,4.1-3.8
				c0.5-1.2,0.7-2.4,0.8-3.7c0.3-3.2,0.4-6.4,0.2-9.6c0-0.4,0-0.9,0-1.3c0,0-0.1,0-0.1,0c-0.1,0.1-0.2,0.3-0.2,0.4
				c-0.4,0.9-0.8,1.8-1.3,2.6c-0.6,1.1-1.4,1.9-2.5,2.5c-1.6,0.8-3.2,0.8-4.8-0.1c-0.6-0.3-1.1-0.7-1.8-1.1
				c-0.1,0.1-0.2,0.2-0.3,0.4c-0.7,1.1-1.5,2.2-2.2,3.3c-0.4,0.6-0.8,1.3-1.3,1.9c-0.4,0.5-0.8,1.1-1.2,1.5c-1.3,1.3-3,1.3-4.4,0
				c-0.9-0.9-1.5-2-1.7-3.2c-0.2-1.1-0.3-2.2-0.4-3.3c-0.4-4.9-0.7-9.7-0.7-14.6c0-0.7-0.1-1.5-0.1-2.4c-0.2,0.3-0.3,0.4-0.4,0.5
				c-0.8,1.5-1.4,3.1-1.7,4.7c-0.8,3.4-1.4,6.8-1.7,10.3c-0.2,2.5-0.4,5-0.5,7.4c0,0.4-0.1,0.7-0.2,1.1c-0.5,1.6-2.4,2.3-3.9,1.4
				c-0.6-0.4-1-0.9-1.3-1.5c-0.4-0.9-0.7-1.9-0.8-3c-0.4-2.6-0.7-5.3-1.1-7.9c-0.3-2-0.7-4-1-6c0-0.1-0.1-0.2-0.1-0.4
				C166.2,91.9,166.1,91.9,166.1,91.9z"/>
			<g>
				<path d="M259.8,107.3c0.4-0.3,0.9-0.5,1.3-0.8c1.2-0.9,2.1-2,2.9-3.2c0.9-1.3,1.8-2.7,2.7-4.1c0.8-1.3,1.6-2.7,2.4-4.1
					c-0.1-0.2-0.2-0.4-0.4-0.6c-0.6-1-1.3-2-1.9-3.1c-0.6-1.1-1-2.3-1.2-3.6c-0.3-2.6,1.2-5.4,4-6.2c3.1-0.8,6.1,0.9,6.8,4
					c0.2,0.9,0.1,1.8-0.1,2.7c-0.4,1.3-1.1,2.5-2.1,3.5c2.4,3.5,4.4,7.2,5.1,11.5c0.2-0.1,0.3-0.1,0.4-0.1c1.5-0.7,2.9-1.4,4.4-2.1
					c0.4-0.2,0.6-0.4,0.7-0.8c1-3.4,2.4-6.7,3.9-9.9c0.9-1.9,1.8-3.7,3-5.5c0.1-0.2,0.2-0.3,0.3-0.6c-0.3-0.1-0.6-0.2-0.9-0.3
					c-1.4-0.5-2.8-1.1-4.2-1.7c-1.2-0.5-2.3-1.3-3.2-2.2c-1.1-0.9-1.9-2-2.4-3.4c-0.4-0.9-0.6-1.9-0.3-2.9c0.1-0.4,0.3-0.7,0.5-1
					c0.5-0.6,1.2-0.6,1.7-0.1c0.3,0.3,0.5,0.6,0.7,0.9c0.8,1.6,2.1,2.6,3.6,3.5c1.7,0.9,3.5,1.5,5.3,2.1c2.6,0.7,5.2,1.4,7.7,2.5
					c2.2,0.9,4.3,2,6.2,3.5c1.9,1.5,3.5,3.3,4.5,5.5c0.3,0.7,0.6,1.4,0.8,2.2c0.2,0.4,0.3,0.9,0.4,1.3c0.3,0.9,0,1.7-0.8,2
					c-0.7,0.4-1.6,0.2-2.1-0.5c-0.5-0.6-0.9-1.2-1.3-1.8c-1.9-2.8-4.5-4.9-7.5-6.4c-1.2-0.6-2.5-1.2-3.8-1.7
					c-0.1,0.1-0.2,0.2-0.2,0.3c-1.4,3.7-2.9,7.4-4.3,11c-2.5,6.6-4.4,13.4-5.5,20.3c-0.4,2.4-0.5,4.7-0.3,7.1
					c0.1,1.1,0.2,2.2,0.6,3.2c0.3,0.7,0.7,1,1.4,1.2c0.8,0.2,1.5,0.1,2.2-0.1c1.6-0.5,2.9-1.3,4.3-2.2c0.6-0.4,1.3-0.9,1.9-1.3
					c0.5-0.4,0.9-0.4,1.1-0.1c0.2,0.3,0.1,0.7-0.4,1c-1.9,1.4-3.5,3.1-5.5,4.3c-1.4,0.8-2.8,1.5-4.4,1.6c-2,0.2-3.8-0.5-5.1-2.1
					c-1-1.2-1.6-2.7-1.9-4.3c-0.4-2-0.4-4-0.2-6.1c0.5-5.5,1.7-10.9,3.3-16.1c0.1-0.2,0.1-0.5,0.2-0.7c0,0,0-0.1-0.1-0.2
					c-1.4,0.8-2.9,1.6-4.3,2.3c0,0.4,0,0.7,0,1.1c0,2.3-0.3,4.5-1.2,6.5c-0.8,1.8-1.9,3.3-3.5,4.5c-1.1,0.8-2.3,1.4-3.8,1.4
					c-0.8,0-1.5-0.2-2.2-0.6c-1.5-0.8-2.1-2.4-1.8-4.2c0.2-1.2,0.7-2.3,1.5-3.3c1.1-1.5,2.6-2.7,4.2-3.7c0.2-0.1,0.3-0.2,0.5-0.3
					c0.3-0.1,0.4-0.4,0.3-0.7c-0.2-2.1-0.7-4.1-1.6-6c-0.5-1-1.1-2-1.7-3.2c-0.2,0.3-0.3,0.4-0.4,0.6c-1.7,2.8-3.3,5.6-5,8.4
					c-1,1.6-2.2,3-3.5,4.3c-0.8,0.7-1.6,1.3-2.7,1.5c-1.8,0.4-3.7-0.5-4.5-2.2c-0.4-0.9-0.6-1.8-0.6-2.7c-0.1-2,0.2-4,0.6-5.9
					c0.7-3.6,1.8-7,2.9-10.5c0.2-0.8,0.4-1.6,0.7-2.4c0.1-0.5,0-0.8-0.4-1.1c-0.4-0.3-0.9-0.5-1.4-0.8c-0.1,0.2-0.2,0.4-0.2,0.5
					c-1.1,5.9-3.2,11.4-6.2,16.5c-0.5,0.9-1.2,1.7-1.9,2.5c-0.7,0.9-1.7,1.6-2.8,2c-1.7,0.7-3.3,0.3-4.6-0.9c-1.1-1-1.7-2.2-1.9-3.6
					c-0.3-1.8-0.2-3.5,0.1-5.3c0.1-0.5,0.2-1,0.3-1.7c-1.9,1.5-3.7,3-6,3.9c0.1,0,0.2,0.1,0.3,0.1c2.6,2.3,4.3,5.1,4.8,8.6
					c0.5,3.6-0.2,6.9-2.5,9.8c-1.4,1.7-3.2,2.6-5.4,2.4c-1.7-0.2-3-1-4.1-2.3c-1.2-1.5-1.8-3.2-2.2-5.1c-0.5-2.3-0.5-4.7-0.5-7
					c0-2.8,0.2-5.6,0.5-8.4c0.3-2.2,0.6-4.5,0.9-6.7c0-0.3,0.1-0.6,0.1-1c-0.3,0-0.6,0-0.8,0c-0.6-0.1-1.3-0.2-1.9-0.3
					c-0.2,0-0.4-0.1-0.6-0.2c-0.3-0.1-0.4-0.3-0.3-0.7c0.1-0.3,0.3-0.4,0.7-0.3c0.9,0.1,1.8,0.1,2.7,0.1c0.1,0,0.3-0.1,0.4-0.1
					c0.3-1.2,0.5-2.4,0.8-3.6c0.9-4,2-7.9,3.7-11.6c0.8-1.9,1.8-3.7,3.1-5.3c0.7-0.9,1.6-1.8,2.5-2.5c1-0.7,2-1.1,3.2-1.1
					c1.7,0,3,0.8,3.9,2.2c0.8,1.4,1,2.9,0.9,4.4c-0.2,2.9-1.2,5.5-2.8,7.8c-2.2,3.4-5.1,6.2-8.5,8.4c-0.5,0.3-0.8,0.6-0.8,1.2
					c-0.4,2.9-0.8,5.9-1.3,8.8c0,0.1,0,0.3,0,0.5c0.5,0.3,1.1,0.3,1.8,0.3c1.6-0.2,3-0.8,4.4-1.7c1.1-0.7,2.1-1.5,3.1-2.3
					c0.2-0.2,0.3-0.5,0.4-0.7c0.5-1.4,0.9-2.8,1.4-4.2c0.3-0.9,0.7-1.8,1.3-2.5c0.4-0.4,0.8-0.8,1.3-1.1c0.7-0.4,1.2-0.2,1.7,0.4
					c0.5,0.6,0.7,1.3,0.6,2.1c-0.1,1.2-0.1,2.5-0.3,3.7c-0.4,2.5-0.8,5-1.2,7.5c-0.2,1.2-0.2,2.4,0.1,3.6c0,0.2,0.1,0.3,0.1,0.4
					c0.4,0.2,0.8,0,1.1-0.2c0.5-0.3,1-0.7,1.4-1.1c0.7-0.8,1.5-1.7,2.1-2.6c2.7-4.1,4.3-8.5,5.2-13.3c0-0.2,0-0.5,0.1-0.8
					c-0.4-0.1-0.7-0.3-1-0.4c-0.8-0.3-1.6-0.8-2.2-1.5c-0.6-0.8-1-1.6-0.8-2.7c0.2-1,0.8-1.7,1.8-2c1-0.3,1.9-0.1,2.7,0.6
					c0.9,0.8,1.2,1.8,1.4,3c0.1,0.4,0.1,0.8,0.1,1.2c0.2,0.1,0.4,0.2,0.7,0.3c0.8,0.3,1.6,0.6,2.5,0.8c1.5,0.5,2.4,1.6,2.9,3
					c0.4,1.2,0.4,2.4,0.3,3.6c-0.1,1.9-0.6,3.7-1.1,5.5c-0.6,2.2-1.2,4.3-1.5,6.5c-0.1,0.8-0.2,1.7-0.2,2.5c0,0.4,0,0.8,0.1,1.1
					C259.7,107.3,259.7,107.3,259.8,107.3z M229.5,100.3c0,0.1-0.1,0.3-0.1,0.4c-0.1,2-0.3,4-0.3,5.9c-0.1,2.2,0,4.3,0.3,6.5
					c0.2,1.2,0.5,2.3,1.3,3.3c0.7,0.9,1.5,1.1,2.5,0.6c0.9-0.5,1.6-1.2,2.1-2.1c0.8-1.6,1.2-3.3,1.1-5.2c-0.1-3.2-1.5-5.9-3.8-8.2
					C231.7,100.7,230.8,100,229.5,100.3z M231.6,85.7c0.3-0.2,0.4-0.2,0.6-0.4c0.8-0.7,1.7-1.4,2.4-2.1c2.1-2,3.9-4.3,5.1-7
					c0.7-1.6,1.1-3.2,1-5c0-0.8-0.2-1.6-0.6-2.3c-0.5-1-1.2-1.1-2-0.4c-0.4,0.3-0.7,0.7-0.9,1.1c-0.6,0.9-1.1,1.8-1.6,2.8
					c-1.6,3.3-2.6,6.8-3.4,10.4C232.1,83.7,231.9,84.7,231.6,85.7z M273.3,90.8c0.6-0.9,0.9-1.8,0.9-2.8c0.1-1-0.4-1.8-1.2-2.4
					c-0.5-0.3-1-0.5-1.5-0.1c-0.4,0.3-0.6,0.9-0.4,1.5c0,0.1,0.1,0.2,0.1,0.3C271.7,88.5,272.5,89.6,273.3,90.8z M273.5,109.2
					c-1,0.7-2.4,2.2-2.8,3.3c-0.3,0.6-0.4,1.2-0.6,1.8c-0.1,0.2,0,0.5,0.1,0.7C271.9,114.7,273.7,111.7,273.5,109.2z M254,83.1
					c-0.1-0.8-0.3-1.5-0.8-2c-0.3-0.3-0.6-0.3-0.9-0.1c-0.3,0.2-0.4,0.5-0.2,0.9c0.1,0.2,0.3,0.4,0.5,0.6
					C252.9,82.8,253.4,83,254,83.1z"/>
				<path d="M244.9,82.8c-1.3,0-2.1-0.9-2.2-2.4c0-1.3,1.4-2.6,2.4-2.6c1.3,0.1,2.4,1.2,2.4,2.5C247.5,81.7,246.4,82.8,244.9,82.8z"
					/>
			</g>
		</g>
	</g>
	<g>
		<g>
			<g>
				<g>
					<path class="st70" d="M233.7,220c-0.2,0.2-0.4,0.3-0.7,0.4c-0.7,0.3-1.4,0.6-2.2,0.7c-0.6,0.1-0.8,0.4-1,0.9
						c-0.4,1.6-0.9,3.2-1.3,4.8c-1,3.5-2.1,7.1-3.4,10.5c-0.7,2-1.6,3.9-2.6,5.7c-2.3,4.2-5.5,7.5-9.6,10c-1.3,0.8-2.6,1.5-3.9,2.2
						c-0.2,0.1-0.4,0.2-0.6,0.3l0,0c0.1,0.5,0.2,0.9,0.3,1.3c0,0.1,0,0.2,0.1,0.3c1.1,5,1,9.9-0.9,14.6c-1.1,2.7-2.5,5.2-4.4,7.5
						c-0.2,0.3-0.3,0.5-0.2,0.9c0.4,1.9,1.1,3.7,1.8,5.5c0.4,1.2,0.8,2.5,1.2,3.7c0.2,0.7,0.2,1.5,0.1,2.2c-0.3,1.5-1.1,2.5-2.5,3
						c-0.9,0.3-1.8,0.5-2.7,0.7c-1.1,0.3-2.2,0.5-3.2,0.8c-1.8,0.4-3.6,0.7-5.5,0.6c-0.4,0-0.8-0.1-1.2-0.1
						c-1.4-0.2-2.4-1.1-2.8-2.5c-0.4-1.1-0.5-2.2-0.6-3.3c0-0.3-0.1-0.6-0.1-0.9c-2.9,1-5.8,1.8-8.8,2.2c-3,0.4-6,0.5-9.1,0.4
						c0,0.1-0.1,0.3-0.1,0.4c-0.1,0.8-0.3,1.6-0.4,2.5c-0.2,0.9-0.6,1.8-1.1,2.6c-0.8,1.3-2,2-3.5,2c-1.6,0-3.3-0.1-4.9-0.1
						c-0.9,0-1.8,0-2.8,0c-1.2,0.1-2.4,0.1-3.6-0.1c-0.4-0.1-0.8-0.2-1.2-0.4c-0.7-0.3-1.1-0.8-1.1-1.6c0-0.6,0.1-1.1,0.1-1.7
						c0.1-1.3,0.2-2.7,0.2-4c0-0.9-0.1-1.8-0.2-2.7c0-0.3-0.1-0.5-0.2-0.8c-0.4-0.7-0.7-1.4-1.2-2c-0.9-1.3-1.9-2.6-2.9-3.8
						c-1.9-2.3-3.3-4.8-4.4-7.5c-0.1-0.2-0.1-0.3-0.2-0.6c-0.2,0.2-0.3,0.4-0.4,0.5c-1.2,1.7-2.4,3.3-3.7,5
						c-0.6,0.8-1.2,1.5-1.8,2.3c-0.2,0.3-0.7,0.4-1.1,0.2c-0.4-0.2-0.5-0.7-0.3-1.1c0.1-0.2,0.2-0.4,0.4-0.5c2-2.1,3.5-4.4,4.9-6.9
						c0.4-0.7,0.7-1.4,1-2.1c0.1-0.2,0.1-0.4,0-0.5c-1.4-6.9-0.8-13.7,1.7-20.3c0.5-1.4,1.2-2.9,1.8-4.2c0.9-1.8,1.7-3.6,2.7-5.3
						c2.5-4.4,6-7.8,10.2-10.5c4.2-2.7,8.7-4.7,13.5-6c2.3-0.6,4.7-1,7.1-1.1c2.3-0.1,4.5,0.1,6.7,0.7c2.3,0.7,4.4,1.8,6.1,3.5
						c2.1,2,3.7,4.4,5,7c0.6,1.2,1.3,2.4,1.9,3.5c0.8,1.4,1.8,2.6,3.1,3.6c0.5,0.4,1,0.7,1.6,0.8c0.3,0.1,0.6,0.1,0.9,0
						c2.4-0.5,4.6-1.5,6.6-2.9c3.7-2.5,6.6-5.8,8.8-9.7c1.8-3,2.9-6.3,3.5-9.7c0-0.2,0-0.4-0.1-0.6c-0.2-0.3-0.3-0.5-0.4-0.8
						c-0.3-0.7-0.1-1.4,0.4-1.9c0.4-0.4,0.9-0.6,1.4-0.7c0.6-0.1,1.2-0.3,1.8-0.3c2.1-0.2,4.1-0.2,6.2,0.2c0.6,0.1,1.1,0.3,1.6,0.6
						C234.5,218,234.6,219.2,233.7,220z"/>
					<g>
						<g>
							<path class="st71" d="M166.5,254.4c-0.8,0.1-1.6,0.3-2.4,0.4c-3.8,0.3-7.2-2.2-8-5.9c-0.3-1.4-0.2-2.8,0.2-4.2
								c0.9-2.9,2.7-5.1,5.3-6.7c1.4-0.9,3-1.4,4.6-1.8c1.4-0.3,2.8-0.6,4.2-0.7c3.3-0.3,6.6-0.4,9.9-0.1c1.4,0.1,2.8,0.4,4.2,0.9
								c0.4,0.2,0.9,0.3,1.3,0.5c0.5,0.2,0.9,0.6,1.1,1.2c0.1,0.3,0.1,0.6,0.1,0.9c-0.3,2.3-0.5,4.6-0.9,6.9
								c-0.7,4.7-2,9.3-3.3,13.8c-0.6,2-1.1,4-1.7,6c-0.6,2.2-1.5,4.4-2.7,6.4c-0.7,1.1-1.4,2.1-2.4,3c-0.8,0.8-1.8,1.3-2.9,1.6
								c-1.3,0.3-2.5,0.1-3.6-0.5c-1.4-0.8-2.5-1.9-3.3-3.3c-1.2-2.1-1.8-4.4-1.9-6.8c-0.1-2.3,0.1-4.6,0.6-6.9
								c0.3-1.4,0.8-2.8,1.4-4.2C166.3,254.7,166.4,254.5,166.5,254.4z"/>
							<path class="st71" d="M157.3,296.7c0.6-0.9,1.5-1.6,2.6-1.6c1.2,0,1.9,0.7,2.6,1.7c0.3-0.3,0.5-0.5,0.7-0.7
								c0.4-0.4,0.9-0.7,1.5-0.8c0.9-0.2,1.6,0.1,2.3,0.6c0.8,0.7,1.3,1.5,1.4,2.6c0,0.6,0,1.2-0.1,1.7c-0.1,0.5-0.4,0.7-0.9,0.9
								c-0.7,0.3-1.3,0.4-2.1,0.4c-2,0-4.1,0-6.1,0c-1.4,0-2.9,0-4.3-0.1c-0.5,0-1-0.1-1.4-0.2c-0.4-0.1-0.8-0.2-1.1-0.3
								c-0.9-0.4-1.4-1.1-1.3-2.1c0-1.1,0.4-2.1,1.2-2.8c0.4-0.4,0.8-0.8,1.4-1c1.2-0.4,2.1-0.2,3,0.7
								C156.8,296,157,296.3,157.3,296.7z"/>
							<path class="st71" d="M195.1,291.4c0.6-1.3,1.5-2.3,2.9-2.6c1.5-0.3,2.6,0.4,3.6,1.5c0.3-0.4,0.5-0.7,0.7-1.1
								c0.4-0.6,1-1.1,1.6-1.4c1-0.4,2-0.3,3,0.2c1.1,0.6,2,1.6,2.3,2.9c0.2,0.7,0.2,1.4,0.2,2.2c0,0.6-0.4,1-0.9,1.3
								c-0.8,0.5-1.6,0.8-2.5,1c-2.5,0.5-5.1,1-7.6,1.5c-1.8,0.3-3.6,0.6-5.4,0.9c-0.6,0.1-1.2,0.1-1.8,0.1c-0.5,0-1,0-1.5-0.2
								c-1.2-0.3-2-1-2.1-2.3c-0.2-1.4,0-2.7,0.9-3.8c0.4-0.6,0.8-1.2,1.5-1.5c1.4-0.8,2.6-0.8,3.9,0.2
								C194.3,290.6,194.6,291,195.1,291.4z"/>
							<path class="st71" d="M129.9,287.5c-0.3,0-0.6,0.1-0.9,0c-0.5,0-0.8-0.4-0.7-0.9c0.2-0.5,0.4-1,0.7-1.5
								c0.6-1.1,1.4-2.1,2.3-2.9c0.7-0.7,1.5-1.2,2.5-1.5c1.1-0.3,2-0.1,2.7,0.7c0.5,0.5,0.6,1.2,0.5,1.9c-0.3,1.1-0.9,1.9-1.9,2.5
								c-1.1,0.7-2.4,1.1-3.7,1.4C130.9,287.3,130.4,287.4,129.9,287.5z"/>
							<path class="st71" d="M208.9,257.3c-0.8,0.2-1.5,0.4-2.4,0.5c-2.4,0.1-4.6-0.3-6.8-1.3c-0.5-0.2-1-0.5-1.5-0.8
								c-0.3-0.2-0.5-0.4-0.7-0.6c-0.2-0.3-0.2-0.6-0.1-0.9c0.2-0.3,0.5-0.4,0.8-0.3c0.2,0,0.3,0.1,0.5,0.2c0.5,0.2,0.9,0.4,1.4,0.7
								c1.4,0.8,2.9,1.2,4.6,1.3c1.2,0.1,2.3,0,3.4-0.3c0.1,0,0.3-0.1,0.4-0.1c0.1,0.5,0.2,0.9,0.3,1.3
								C208.8,257.1,208.9,257.2,208.9,257.3z"/>
						</g>
						<path class="st72" d="M194.5,239.9c0.2,1.4-1.2,2.8-2.6,2.6c-0.8-0.1-1.5-0.7-1.7-1.5c-0.2-0.9,0.2-1.9,1-2.4
							c0.8-0.5,1.9-0.4,2.6,0.2C194.2,239,194.5,239.4,194.5,239.9z"/>
					</g>
				</g>
			</g>
			<g>
				<path class="st38" d="M148.1,210.3c-5.2,0.6-9.4,2.4-13.1,5.4c-1.8,1.5-3.3,3.2-4.8,5c-5,6.5-8.5,13.7-10.7,21.5
					c-0.2,0.7-0.4,1.4-0.4,2.2c-0.2,2.3,1.6,3.8,3.8,3.2c0.6-0.2,1.3-0.4,1.8-0.8c1.7-1.2,3.7-1.8,5.6-2.4c1.4-0.4,2.7-0.8,4.1-1
					c1.6-0.3,3.3-0.3,4.9-0.1c1.3,0.2,2.3,0.8,3,2c0.2,0.4,0.4,0.7,0.6,1c0.6,0.8,1.2,1.6,2,2.2c1.4,1.1,3,1.3,4.6,0.4
					c1.7-1,3.4-2,5-3.1c2.4-1.6,4.9-2.9,7.6-4c2.5-1.1,4.9-2.3,7.3-3.6c4.6-2.4,9.3-4.4,14.2-6c1.7-0.6,3.3-1.4,4.6-2.7
					c1.2-1.2,1.6-2.5,0.9-4c-0.5-1-1.2-1.9-2-2.5c-1.8-1.3-3.6-2.6-5.5-3.6c-4.7-2.4-9.5-4.6-14.5-6.4c-4.2-1.5-8.4-2.5-12.9-2.5
					C151.9,210.2,149.8,210.2,148.1,210.3z"/>
				<g>
					<path class="st33" d="M187.6,223.7c-3.5,0.2-6.9,1.2-10.2,2.4c-8.2,3-15.8,7.1-23.2,11.7c-2.4,1.5-4.9,3-7.3,4.6
						c-1.5,1-3,2.2-4.5,3.3c-1.3,1-2.1,2.3-2.5,3.9c-0.8,3.5,1.9,6.7,5.4,6.5c1.6-0.1,3-0.7,4.3-1.6c5.9-4.3,12.1-8.1,18.4-11.6
						c6.5-3.6,13.3-6.4,20.4-8.5c1.5-0.4,2.9-1,4.1-1.9c1.3-0.9,2.2-2.1,2.4-3.7c0.3-2-0.9-4-2.8-4.7c-0.7-0.2-1.4-0.3-2.1-0.3
						C189.3,223.6,188.4,223.7,187.6,223.7z"/>
					<path class="st33" d="M118.4,241.7c-3.3,0.3-5.7,3.3-5.4,6.6c0.3,3.3,3.3,5.8,6.5,5.5c3.2-0.3,5.8-3.5,5.4-6.7
						C124.6,244.2,121.5,241.2,118.4,241.7z"/>
				</g>
			</g>
		</g>
		<g>
			<g>
				<path class="st73" d="M250.8,242.3c-0.1-0.3-0.3-0.6-0.5-0.9c-0.5-1.2-1.1-2.3-1.6-3.5c-0.2-0.5-0.4-1.1-0.4-1.7
					c-0.2-1.7,1-3.1,2.7-3.1c0.7,0,1.4,0.1,2.1,0.3c1.5,0.5,2.8,1.2,4,2.2c0.2,0.1,0.3,0.2,0.5,0.4c0.9-0.4,1.7-0.9,2.6-1.2
					c2.1-0.8,4.3-1.1,6.6-1.1c1.9,0,3.9,0.1,5.7,0.8c1.1,0.4,2.1,1,3.1,1.5c0.6-0.4,1.3-0.8,2-1.2c1.4-0.7,2.9-0.8,4.4-0.5
					c1.6,0.3,2.6,1.9,2.3,3.6c-0.2,1-0.6,2-1.1,2.9c-0.3,0.6-0.6,1.1-1,1.7c0.3,0.7,0.7,1.5,1,2.2c1.6,3.7,2.3,7.5,2.1,11.5
					c-0.3,4.8-2.3,8.6-6.3,11.3c0,0-0.1,0.1-0.1,0.1c-2.2,1.9-4.8,2.3-7.5,2.3c-0.8,0-1.5-0.1-2.4-0.1c-0.2,0.7-0.4,1.4-0.6,2
					c-1.3,3.7-2.6,7.4-3.8,11.2c-1.6,4.8-3,9.6-4.6,14.3c-1.5,4.4-3,8.8-4.6,13.1c-2.9,8.3-5.9,16.5-8.9,24.8
					c-0.7,1.8-1.3,3.6-1.9,5.5c-0.3,1.1-0.5,2.2-0.7,3.2c-1,4.9-1.7,9.8-2.4,14.7c-0.2,1.4-0.6,2.8-0.9,4.1
					c-0.1,0.4-0.4,0.9-0.6,1.2c-0.6,1-1.5,1.5-2.6,1.5c-1.8,0.1-3.5-0.2-5.3-0.7c-0.6-0.2-1.2-0.4-1.8-0.6c-1.5-0.6-2.4-1.7-2.7-3.3
					c-0.3-1.5-0.3-3,0-4.4c0.5-2.4,1-4.8,1.5-7.2c0.1-0.4,0.1-0.8,0.1-1.2c-1.4,0-2.9,0.1-4.3,0.1c-1.5,0-2.9-0.1-4.4-0.3
					c-1.5-0.2-2.9-0.4-4.3-0.7c-1.4-0.3-2.8-0.8-4.3-1.2c0,0.3,0,0.6,0,0.9c0,2.5,0.1,5.1,0.1,7.6c0,1.3-0.3,2.6-0.6,3.9
					c-0.8,2.4-2,3.5-4.6,3.6c-2,0.1-4,0-6-0.4c-0.8-0.2-1.6-0.5-2.3-1.1c-1.1-0.8-1.6-1.8-1.4-3.1c0.3-1.8,0.6-3.7,0.8-5.5
					c0.3-1.9,0.6-3.7,0.7-5.6c0.1-1.9,0.1-3.8,0.1-5.7c0-0.8-0.1-1.5-0.4-2.2c-0.6-1.4-1.2-2.8-2-4.1c-1.4-2.2-2.5-4.7-3-7.3
					c0-0.2-0.2-0.5-0.3-0.8c-0.2,0.1-0.4,0.2-0.6,0.4c-1.4,0.9-2.8,1.8-4.2,2.7c-0.7,0.4-1.4,0.7-2.2,1c-1.2,0.4-2-0.4-1.7-1.7
					c0.2-0.8,0.8-1.3,1.4-1.8c1.3-0.9,2.7-1.8,4-2.8c1.5-1.1,2.9-2.2,4.1-3.5c0.2-0.2,0.4-0.5,0.6-0.7c2.7-5.2,7-8.1,12.8-8.8
					c2.5-0.3,4.9,0,7.3,0.5c2.4,0.5,4.8,1,7.3,1.4c2.6,0.5,5.2,0.6,7.8,0.2c0.6-0.1,1.1-0.2,1.7-0.4c2.6-0.7,4.4-2.4,5.5-4.7
					c0.9-1.8,1.5-3.7,2-5.6c1.2-4.4,2.1-8.9,2.8-13.4c1-5.9,1.8-11.7,2.8-17.6c0.4-2.1,0.5-4.2,0.7-6.4c0.2-2.6,0.4-5.3,0.7-7.9
					c0.6-4.4,1.7-8.7,3.8-12.7C249.9,243.7,250.4,243,250.8,242.3z"/>
				<g>
					<g>
						<path class="st74" d="M278.8,271.1c-2.1-0.3-4.2-0.8-6.1-1.8c-0.4-0.2-0.8-0.5-1.2-0.8c-1.6-1.1-2.2-2.7-2.2-4.6
							c0-1.8,0.6-3.4,1.3-5c1.3-3,3.3-5.6,5.7-7.8c1.2-1.1,2.5-1.9,4-2.5c2.3-1,4.5-0.7,6.6,0.8c1.5,1.1,2.6,2.5,3.4,4.1
							c1.5,2.9,2.2,6.1,2.3,9.4c0,2.3-0.8,4.2-2.6,5.6c-1.9,1.5-4.2,2.3-6.6,2.7C281.8,271.3,280.3,271.3,278.8,271.1z"/>
						<g>
							<path class="st74" d="M204.9,355.9c1.4,0.2,2.8,0.3,4.2,0.5c0.8,0.1,1.6,0.4,2.3,0.8c1,0.6,1.3,1.5,1,2.6
								c-0.3,0.8-0.8,1.5-1.5,2c-1.6,1.3-3.4,2-5.5,2c-2.5,0-4.8-0.7-6.9-2.2c-0.8-0.5-1.4-1.2-1.9-2c-0.5-0.7-0.6-1.5-0.6-2.3
								c0-0.9,0.5-1.4,1.3-1.6c0.7-0.1,1.3-0.2,2-0.2c1.9,0.1,3.7,0.2,5.6,0.3C204.9,355.8,204.9,355.9,204.9,355.9z"/>
							<path class="st74" d="M234.5,359.3c1.4,0.2,2.8,0.4,4.2,0.6c0.8,0.1,1.6,0.4,2.3,0.8c1,0.6,1.3,1.5,0.9,2.6
								c-0.3,0.8-0.9,1.4-1.6,2c-1.6,1.3-3.5,1.9-5.5,1.8c-2.5,0-4.8-0.9-6.8-2.4c-0.8-0.6-1.3-1.3-1.8-2.1
								c-0.5-0.7-0.5-1.5-0.5-2.3c0.1-0.9,0.5-1.4,1.4-1.6c0.7-0.1,1.3-0.2,2-0.2c1.9,0.1,3.7,0.3,5.6,0.5
								C234.5,359.2,234.5,359.3,234.5,359.3z"/>
						</g>
						<g>
							<path class="st74" d="M223.2,319.4c1-0.5,2-0.9,2.9-1.3c1-0.4,2.1-0.5,3.3-0.3c1.9,0.3,2.9,1.9,2.5,3.8
								c-0.2,1-0.7,1.8-1.2,2.6c-1.1,1.5-2.4,2.8-4.1,3.7c-1.6,0.9-3.2,1.7-4.8,2.5c-1.4,0.7-2.5,0.4-3.5-0.7
								c-2.2-2.4-3.4-5.2-3.7-8.5c-0.1-1.2-0.1-2.4,0.3-3.5c0.5-1.5,1.4-2.6,3.1-2.8c1-0.1,1.9,0.2,2.7,0.8c1.1,0.8,1.8,1.8,2.3,3.1
								C223.1,318.9,223.1,319.2,223.2,319.4z"/>
							<path class="st74" d="M209.1,332.3c0-0.4,0.1-0.8,0.1-1.1c0.1-0.9,0.5-1.6,1-2.3c1.1-1.4,2.8-1.5,4.1-0.4
								c0.8,0.7,1.3,1.5,1.5,2.4c0.2,0.8,0.4,1.7,0.4,2.5c0.1,1.8-0.3,3.6-1,5.3c-0.1,0.2-0.2,0.4-0.3,0.6c-0.9,1.5-2,2-3.6,1.4
								c-1.8-0.6-3.5-1.3-5.2-2c-0.6-0.2-1.1-0.6-1.6-1c-0.2-0.2-0.4-0.4-0.6-0.6c-1.7-1.9-1.1-4.5,1.3-5.4c1.1-0.4,2.2-0.4,3.3,0.1
								C208.6,332.1,208.8,332.2,209.1,332.3z"/>
							<path class="st74" d="M208,319.3c0.6,0,1.2,0,1.7,0c0.6,0,1.1,0.2,1.6,0.5c0.9,0.6,1.3,1.6,0.8,2.5c-0.2,0.5-0.6,0.9-1,1.3
								c-1.1,1.1-2.5,1.6-4,1.8c-2.5,0.4-4.9,0.1-7.3-0.5c-0.4-0.1-0.8-0.3-1.1-0.6c-0.6-0.5-0.8-1.2-0.4-1.9
								c0.2-0.3,0.4-0.6,0.6-0.8c1.2-1.5,2.4-3,3.6-4.5c0.4-0.5,0.9-1.1,1.4-1.5c0.4-0.4,0.9-0.7,1.4-0.9c1.1-0.4,2,0,2.5,1
								c0.4,0.9,0.4,1.8,0.3,2.7C208,318.7,208,319,208,319.3z"/>
							<path class="st74" d="M250,270.2c0.4-0.5,0.7-1.1,1.1-1.6c0.5-0.6,1.1-1.1,1.9-1.3c1.1-0.3,2.1,0,2.7,1
								c0.5,0.8,0.7,1.7,0.7,2.6c0,1-0.2,1.9-0.6,2.9c-0.4,0.9-0.8,1.7-1.2,2.6c-0.5,0.9-1.3,1.2-2.3,1c-0.3-0.1-0.5-0.1-0.7-0.2
								c-1.7-0.8-3.3-1.7-4.6-3c-0.5-0.5-0.8-1.1-1.1-1.7c-0.6-1.4,0.3-2.8,1.8-2.9c0.6,0,1.2,0.1,1.8,0.4
								C249.6,270,249.8,270.1,250,270.2z"/>
							<path class="st74" d="M250.1,281.8c0.4-0.1,0.8-0.3,1.2-0.4c0.5-0.1,1-0.1,1.5,0.1c0.7,0.3,1.1,0.8,1,1.6
								c0,0.6-0.3,1.1-0.7,1.6c-0.4,0.5-0.9,1-1.4,1.3c-0.5,0.3-1.1,0.6-1.7,0.9c-0.6,0.3-1.2,0.2-1.6-0.4c-0.1-0.1-0.2-0.3-0.3-0.4
								c-0.6-1.1-1.1-2.2-1.2-3.4c-0.1-0.4,0-0.9,0.1-1.3c0.2-1,1.2-1.4,2.1-0.8c0.3,0.2,0.6,0.5,0.8,0.9
								C250,281.6,250.1,281.7,250.1,281.8z"/>
							<path class="st74" d="M245.8,291.1c0.3-0.3,0.5-0.5,0.7-0.7c0.3-0.3,0.7-0.5,1.1-0.5c0.6-0.1,1.1,0.2,1.3,0.8
								c0.2,0.5,0.2,0.9,0.1,1.4c-0.1,0.5-0.3,1-0.6,1.4c-0.3,0.4-0.6,0.8-0.9,1.2c-0.3,0.4-0.8,0.5-1.3,0.3
								c-0.1-0.1-0.3-0.1-0.4-0.2c-0.8-0.6-1.6-1.2-2.1-2c-0.2-0.3-0.3-0.6-0.4-1c-0.2-0.8,0.4-1.4,1.2-1.3c0.3,0,0.6,0.2,0.9,0.4
								C245.6,291,245.7,291.1,245.8,291.1z"/>
							<path class="st74" d="M266.4,236.1c0.3-0.3,0.5-0.5,0.7-0.7c0.3-0.3,0.7-0.5,1.1-0.5c0.6-0.1,1.1,0.2,1.3,0.8
								c0.2,0.5,0.2,0.9,0.1,1.4c-0.1,0.5-0.3,1-0.6,1.4c-0.3,0.4-0.6,0.8-0.9,1.2c-0.3,0.4-0.8,0.5-1.3,0.3
								c-0.1-0.1-0.3-0.1-0.4-0.2c-0.8-0.6-1.6-1.2-2.1-2c-0.2-0.3-0.3-0.6-0.4-1c-0.2-0.8,0.4-1.4,1.2-1.3c0.3,0,0.6,0.2,0.9,0.4
								C266.3,236,266.3,236.1,266.4,236.1z"/>
							<path class="st74" d="M263,240.4c0.2,0,0.3-0.1,0.5-0.1c0.2,0,0.4,0,0.6,0.1c0.3,0.1,0.4,0.4,0.4,0.6c0,0.2-0.1,0.4-0.3,0.6
								c-0.2,0.2-0.4,0.3-0.6,0.4c-0.2,0.1-0.4,0.2-0.7,0.3c-0.2,0.1-0.4,0-0.6-0.2c0-0.1-0.1-0.1-0.1-0.2c-0.2-0.4-0.3-0.9-0.4-1.3
								c0-0.2,0-0.3,0.1-0.5c0.1-0.4,0.5-0.5,0.8-0.2c0.1,0.1,0.2,0.2,0.3,0.4C263,240.3,263,240.4,263,240.4z"/>
						</g>
						<g>
							<path class="st74" d="M253.4,225.8c0.3-2.7,3.1-4.3,5.6-3.2c1.9,0.9,2.7,3,1.5,4.8c-0.4,0.6-0.4,1.1-0.3,1.7
								c0.5,2,1,4.1,1.4,6.2c0.1,0.2,0.1,0.5,0.1,0.7c0,0.4-0.1,0.7-0.4,1c-0.7,0.7-2.1,0.5-2.6-0.4c-0.3-0.6-0.6-1.2-0.8-1.8
								c-0.5-1.5-1.1-3.1-1.6-4.6c-0.1-0.4-0.3-0.6-0.7-0.7C254.1,229,253.2,227.5,253.4,225.8z"/>
							<path class="st74" d="M275.1,223.7c1.8-2,5-1.7,6.4,0.6c1.1,1.8,0.4,4-1.5,4.8c-0.6,0.3-1,0.6-1.2,1.3
								c-0.8,2-1.6,3.9-2.4,5.9c-0.1,0.2-0.2,0.4-0.3,0.6c-0.2,0.3-0.5,0.5-0.9,0.6c-1,0.1-2-0.8-1.9-1.8c0.1-0.7,0.2-1.3,0.4-2
								c0.4-1.6,0.9-3.1,1.4-4.7c0.1-0.4,0.1-0.6-0.1-1C273.9,226.7,274,225,275.1,223.7z"/>
						</g>
						<path class="st74" d="M181.4,331.6c-0.2,0-0.5-0.1-0.8-0.1c-0.4-0.1-0.6-0.5-0.4-0.8c0.2-0.4,0.5-0.8,0.8-1.1
							c0.7-0.8,1.5-1.4,2.4-2c0.7-0.4,1.5-0.7,2.3-0.8c0.9,0,1.6,0.3,2.1,1.1c0.3,0.5,0.3,1.1,0,1.6c-0.4,0.9-1.1,1.4-2,1.7
							c-1.1,0.4-2.2,0.5-3.3,0.4C182.3,331.6,181.9,331.6,181.4,331.6z"/>
					</g>
					<g>
						<path class="st72" d="M275.5,247.1c-0.2,1.6-1.6,2.7-3.3,2.5c-1.4-0.1-2.1-0.8-2.2-2.2c-0.1-0.6-0.1-1.2,0.2-1.7
							c0.6-0.9,1.5-1.6,2.5-1.6C274.1,244,275.8,245,275.5,247.1z"/>
						<g>
							<path class="st72" d="M275.7,263c1.7,2.7,4.4,4.5,7.5,4.9c0.7,0.1,0.9-1,0.1-1.1c-2.9-0.4-5.3-2-6.8-4.5
								C276.2,261.7,275.3,262.4,275.7,263L275.7,263z"/>
						</g>
						<path class="st72" d="M287.5,256.3c0.8-0.1,1.6,0.5,1.6,1.2c0.1,1-0.6,1.9-1.5,2c-0.8,0.1-1.6-0.5-1.7-1.3
							C285.8,257.2,286.5,256.4,287.5,256.3z"/>
						<path class="st72" d="M282.7,258.5c0.1,0.9-0.6,1.7-1.4,1.8c-0.8,0.1-1.5-0.5-1.6-1.3c-0.1-0.8,0.5-1.7,1.4-1.8
							C281.9,257.1,282.6,257.6,282.7,258.5z"/>
					</g>
				</g>
			</g>
			<g>
				<g>
					<path class="st75" d="M248.5,218.5c-0.3-0.7-0.6-1.3-0.9-2c-0.3-0.7-0.6-1.3-0.9-2c-0.1-0.2-0.2-0.4-0.2-0.7
						c0-0.9,0.9-1.4,1.7-1c0.2,0.1,0.4,0.3,0.6,0.5c0.3,0.4,0.5,0.8,0.8,1.2c1.1,1.7,2.1,3.4,3.2,5.1c0.1,0.2,0.2,0.3,0.5,0.5
						c0-0.1,0-0.2,0-0.3c-0.1-1.5-0.2-2.9-0.2-4.4c0-0.7,0.1-1.3,0.1-2c0-0.2,0.1-0.5,0.2-0.7c0.2-0.4,0.5-0.7,0.9-0.7
						c0.5,0,0.9,0.2,1,0.6c0.2,0.4,0.3,0.9,0.4,1.3c0.1,1.2,0.2,2.4,0.3,3.5c0.1,3.1,1.1,5.8,2.7,8.4c0.2,0.3,0.5,0.5,0.7,0.8
						c0.7,0.8,1.5,1.6,2.2,2.5c1,1.2,1.6,2.6,2.1,4.1c0.1,0.2,0.1,0.4,0.1,0.6c0,0.9-0.7,1.5-1.6,1.2c-0.5-0.2-0.8-0.5-1-0.9
						c-0.4-0.5-0.8-1-1.1-1.5c-0.5-0.9-1.3-1.3-2.2-1.6c-0.9-0.3-1.8-0.4-2.8-0.4c-0.3,0-0.5,0-0.8,0c-0.2,0-0.5-0.1-0.7-0.2
						c-0.4-0.2-0.7-0.5-0.8-1c0-0.5,0.2-0.9,0.6-1.1c0.3-0.2,0.7-0.3,1-0.4c0.3-0.1,0.6-0.1,0.9-0.2c-0.1-0.1-0.1-0.2-0.2-0.3
						c-1.6-1.5-2.9-3.2-4.1-5c-0.1-0.2-0.3-0.3-0.5-0.4c-1.7-0.7-3.3-1.3-5-1.9c-0.6-0.2-1.2-0.6-1.7-1c-0.6-0.5-0.8-1-0.5-1.5
						c0.2-0.5,0.7-0.7,1.4-0.6c0.7,0.1,1.4,0.3,2.1,0.6C247.3,218.1,247.9,218.3,248.5,218.5C248.4,218.5,248.5,218.5,248.5,218.5z"
						/>
					<path class="st75" d="M282.9,215.6c0.2-0.7,0.3-1.4,0.5-2.2c0.2-0.7,0.4-1.4,0.5-2.1c0.1-0.2,0.1-0.5,0.1-0.7
						c-0.2-0.9-1.2-1.2-1.8-0.6c-0.2,0.2-0.3,0.4-0.5,0.6c-0.2,0.4-0.3,0.9-0.5,1.3c-0.7,1.9-1.4,3.7-2.1,5.6
						c-0.1,0.2-0.2,0.4-0.3,0.5c0-0.1,0-0.2-0.1-0.3c-0.2-1.5-0.4-2.9-0.7-4.4c-0.1-0.7-0.4-1.3-0.6-1.9c-0.1-0.2-0.2-0.4-0.3-0.6
						c-0.3-0.4-0.6-0.5-1.1-0.5c-0.5,0.1-0.8,0.4-0.9,0.8c-0.1,0.4-0.1,0.9-0.1,1.4c0.1,1.2,0.2,2.4,0.4,3.5c0.5,3,0.1,5.9-0.9,8.8
						c-0.1,0.3-0.3,0.6-0.5,0.9c-0.5,1-1.2,1.9-1.6,2.9c-0.7,1.4-1,2.9-1.2,4.4c0,0.2,0,0.4,0,0.6c0.1,0.9,1,1.3,1.8,0.8
						c0.4-0.3,0.7-0.6,0.8-1.1c0.3-0.6,0.5-1.1,0.7-1.7c0.3-1,1-1.5,1.8-2c0.8-0.5,1.7-0.8,2.6-0.9c0.3,0,0.5-0.1,0.8-0.2
						c0.2-0.1,0.5-0.2,0.7-0.3c0.4-0.3,0.6-0.7,0.5-1.1c-0.1-0.5-0.4-0.8-0.8-0.9c-0.3-0.1-0.7-0.1-1-0.1c-0.3,0-0.6,0-1,0
						c0.1-0.1,0.1-0.2,0.1-0.3c1.2-1.8,2.2-3.7,3-5.7c0.1-0.2,0.3-0.4,0.4-0.5c1.5-1,3-2,4.5-2.9c0.6-0.4,1.1-0.8,1.5-1.3
						c0.5-0.6,0.5-1.2,0.2-1.6c-0.3-0.4-0.9-0.5-1.5-0.3c-0.7,0.2-1.4,0.6-2,1c-0.5,0.4-1,0.7-1.5,1.1
						C282.9,215.6,282.9,215.6,282.9,215.6z"/>
				</g>
				<path class="st38" d="M286.1,243c0.1,1.1-0.9,1.9-1.9,1.5c-0.6-0.2-1.1-0.6-1.5-1.1c-0.3-0.3-0.5-0.7-0.8-1
					c-2.7-3.2-6.1-5.2-10.2-6c-2.4-0.5-4.8-0.6-7.2-0.2c-3.9,0.6-7.3,2.3-10,5.3c-0.9,1-1.7,2.2-2.3,3.5c-0.2,0.4-0.5,0.9-0.7,1.3
					c-0.2,0.3-0.4,0.5-0.7,0.7c-0.5,0.4-1.1,0.2-1.5-0.3c-0.2-0.3-0.3-0.7-0.3-1.2c0.1-1.2,0.5-2.3,1-3.4c1.5-3.3,4-5.7,7.2-7.4
					c2.8-1.5,5.8-2.3,8.9-2.3c2-0.1,4,0,6,0.4c2.8,0.6,5.3,1.8,7.7,3.4c2.2,1.4,4,3.2,5.6,5.3C285.7,241.8,286,242.6,286.1,243z"/>
			</g>
		</g>
	</g>
</g>
</svg>
