<?xml version="1.0" encoding="utf-8"?>
<!-- Generator: Adobe Illustrator 22.0.0, SVG Export Plug-In . SVG Version: 6.00 Build 0)  -->
<svg version="1.1" id="Calque_1" xmlns="http://www.w3.org/2000/svg" xmlns:xlink="http://www.w3.org/1999/xlink" x="0px" y="0px"
	 viewBox="0 0 432 432" style="enable-background:new 0 0 432 432;" xml:space="preserve">
<style type="text/css">
	.st0{fill:#020203;}
	.st1{fill:#F3D4AA;}
	.st2{fill:#C1292E;}
	.st3{fill:#E7E6E6;}
	.st4{fill:#A81922;}
	.st5{fill:#D6A14D;}
	.st6{fill:#E580A9;}
	.st7{fill:#FFF0BA;}
	.st8{fill:#972021;}
	.st9{fill:#D06C5D;}
	.st10{fill:#36502D;}
	.st11{fill:#79986F;}
	.st12{fill:#EB5B28;}
	.st13{fill:#A67D52;}
	.st14{fill:#F2F2F2;}
	.st15{fill:#066938;}
	.st16{fill:#009245;}
	.st17{fill:#CDCCCC;}
	.st18{fill:#AE8864;}
	.st19{fill:#412413;}
	.st20{fill:#8C633A;}
	.st21{fill:#F39323;}
	.st22{fill:#F9B03D;}
	.st23{fill:#C69C6C;}
	.st24{fill:#2FBAD7;}
	.st25{fill:#DAA405;}
	.st26{fill:#808181;}
	.st27{fill:#8E3089;}
	.st28{fill:#1861A9;}
	.st29{fill:#D4175B;}
	.st30{fill:#E3D65E;}
	.st31{fill:#C7B29A;}
	.st32{fill:#603914;}
	.st33{fill:#998675;}
	.st34{fill:#746458;}
	.st35{fill:#EAA35C;}
	.st36{fill:#A3282E;}
	.st37{fill:#DC7B18;}
	.st38{fill:#B88E5C;}
	.st39{fill:#C67B3E;}
	.st40{fill:#C74A54;}
	.st41{fill:#48AE4D;}
	.st42{fill:#9A9999;}
	.st43{fill:#6F1131;}
	.st44{fill:#EFAE5D;}
	.st45{fill:#BB7E28;}
	.st46{fill:#C8904C;}
	.st47{fill:#BB7926;}
	.st48{fill:#C68448;}
	.st49{fill:#D79A5D;}
	.st50{fill:#82171C;}
	.st51{fill:#754D24;}
	.st52{fill:#EAD797;}
	.st53{fill:#B4B4B4;}
	.st54{fill:#4E4D4D;}
	.st55{fill:#014837;}
	.st56{fill:#28285B;}
	.st57{fill:#8EC045;}
	.st58{fill:#6BC4CD;}
	.st59{fill:#699CBB;}
	.st60{fill:#6D8E5F;}
</style>
<g>
	<path class="st10" d="M253.6,203.9c-0.5,0-0.9,0-1.3,0c-2.8-0.2-4.9-3.3-4-5.9c0.5-1.5,1.6-2.4,3-2.9c0.9-0.3,1.9-0.1,2.7,0.4
		c1.1,0.8,1.8,1.8,2.1,3.1c0.1,0.3,0.1,0.6,0.2,1c0.3-0.2,0.6-0.4,0.8-0.6c4.6-3.4,8.8-7.1,13.2-10.8c2-1.7,4.1-3.3,6.2-4.8
		c0.9-0.7,1.9-1.2,2.9-1.6c1.9-0.8,3.6,0,4.3,2c0.4,1.4,0.3,2.9,0.1,4.3c-0.4,2.5-1.3,5-2.2,7.4c-2.1,5.6-4.3,11.3-6.5,16.9
		c-0.8,2.1-1.6,4.2-2.4,6.4c-2.4,6.6-4.9,13.1-7.2,19.7c-1,2.7-1.6,5.5-2.4,8.2c-0.2,0.6-0.2,1.2-0.3,1.7c0,0.4-0.1,0.9,0.3,1.4
		c0.5-0.2,1-0.4,1.5-0.7c1.6-0.8,3-1.9,4.3-3.2c3-2.9,6.1-5.8,9.1-8.7c1.2-1.2,2.4-2.3,3.6-3.5c0.3-0.3,0.5-0.6,0.6-1.1
		c0.5-6.4,1.7-12.7,3.2-19c0.6-2.5,1.3-5.1,2.1-7.6c0.4-1.2,0.9-2.3,1.5-3.4c0.4-0.9,1.1-1.7,2-2.2c1.5-0.9,3.1-0.4,3.4,1.4
		c0.2,1.3,0.3,2.8,0.1,4.1c-0.2,2.3-0.6,4.6-0.9,6.9c-0.4,3.4-1,6.9-1.3,10.3c-0.3,3.6-0.6,7.1-0.7,10.7c-0.1,1.7,0.1,3.5,0.3,5.2
		c0.1,0.7,0.4,1.5,0.8,2.1c0.6,1,1.4,1.3,2.5,0.8c2.2-0.9,4.1-2.2,5.7-3.9c2.1-2.1,4.1-4.4,6.1-6.6c0.6-0.6,1-1.3,1.6-1.9
		c0.6-0.7,1-1.4,1.1-2.4c1-5.9,2.1-11.9,3.1-17.8c0.7-4.2,1.2-8.5,1.7-12.8c0.7-5.4,1.5-10.8,3-16.1c0.3-1.2,0.7-2.3,1.2-3.4
		c0.4-0.8,0.9-1.6,1.5-2.3c1.6-1.7,3.7-1.4,4.9,0.6c0.6,0.9,0.8,1.9,0.9,3c0,1.8,0,3.6-0.1,5.4c-0.3,4.7-1.4,9.3-2.4,14
		c-1.2,5.9-2.5,11.9-3.7,17.8c-0.8,3.9-1.4,7.8-2.1,11.6c-1.7,8.9-3.9,17.7-6.9,26.4c-1.6,4.5-3.5,8.8-6.1,12.8
		c-1.4,2.1-2.9,4-4.6,5.8c-4.3,4.6-9.5,7.3-15.7,8.4c-5.1,0.9-10.3,0.7-15.4-0.1c-8.7-1.3-17-4-25.1-7.1c-7.7-2.9-15.7-4.9-23.9-6.1
		c-3.6-0.5-7.2-0.8-10.8-0.6c-3.9,0.2-7.7,0.8-11.3,2.3c-3.2,1.4-6,3.3-8.1,6.3c-1.3,1.9-2.2,4-2.5,6.2c-0.2,1.5,0,2.9,0.7,4.3
		c0.7,1.4,1.9,2.2,3.3,2.8c0.2,0.1,0.4,0.1,0.7,0.1c0.4,0,0.8,0.1,0.9,0.6c0.2,0.4,0.1,0.8-0.2,1.2c-0.4,0.5-1,0.6-1.5,0.4
		c-4.5-1-7.2-3.7-6.9-9c0.2-4.7,2.5-8.6,5.9-11.8c3.1-2.9,6.8-4.5,10.9-5.4c5.6-1.3,11.3-1.7,17.1-1.1c5.3,0.5,10.5,1.6,15.7,2.8
		c4.5,1,8.9,2.2,13.2,3.6c4.7,1.5,9.6,2.5,14.5,3.4c3.7,0.7,7.4,1.2,11.1,1.7c3.1,0.4,6.2-0.2,9.1-1c1.7-0.5,3.4-1.1,5.1-1.8
		c0.7-0.3,1.2-0.8,1.8-1.1c2.3-1.3,4.3-3,6.1-4.9c2.5-2.6,4.6-5.5,6.2-8.8c2.2-4.7,3.8-9.7,5.2-14.7c0.7-2.7,1.4-5.3,2.1-8
		c0.1-0.2,0.1-0.5,0.1-1c-0.4,0.4-0.6,0.6-0.8,0.9c-1.6,1.8-3.2,3.6-4.9,5.4c-1.4,1.5-3,2.7-4.7,3.8c-2.4,1.5-5,2.1-7.8,1.5
		c-3.8-0.8-6.3-3.4-7-7.4c-0.1-0.5-0.2-1.1-0.3-1.8c-0.3,0.3-0.5,0.5-0.8,0.7c-4.3,4.3-8.5,8.7-12.8,13c-1.1,1.1-2.4,2.1-3.7,2.9
		c-1,0.6-2,0.9-3.2,0.9c-1.6,0-2.6-0.7-3.2-2.2c-0.4-1.2-0.5-2.4-0.5-3.7c0.1-2.3,0.3-4.7,0.9-6.9c1.2-4.5,2.4-8.9,3.7-13.4
		c3.2-10.9,6.4-21.8,9.1-32.8c0.2-0.7,0.2-1.5,0.3-2.2c0-0.2,0-0.5-0.1-0.7c-0.2-0.5-0.5-0.7-1-0.4c-0.5,0.3-0.9,0.6-1.3,1
		c-3.4,2.8-6.8,5.7-10.2,8.5c-1.1,0.9-2.2,1.6-3.4,2.4c-0.4,0.2-0.6,0.5-0.6,0.9c-0.5,3.7-1.7,7.2-2.8,10.7
		c-3.8,11.3-9.3,21.7-15.4,31.8c-1.7,2.9-3.6,5.7-5.8,8.2c-1.5,1.7-3.1,3.3-5.1,4.5c-2.6,1.6-5.3,0.8-6.7-2
		c-1.4-2.8-2.1-5.7-2.1-8.8c0-5.2,0.9-10.2,2.2-15.1c2.3-8.5,5.3-16.8,8.4-25c0.7-1.8,1.2-3.7,1.8-5.6c0.1-0.4,0.1-0.9,0.1-1.4
		c0-0.5-0.3-0.7-0.7-0.6c-0.5,0.1-1,0.2-1.4,0.5c-0.8,0.5-1.5,1.1-2.2,1.6c-1.5,1.1-3,2.2-4.6,3.3c-0.3,0.2-0.6,0.5-0.6,0.9
		c-0.6,5-1.9,9.8-3.7,14.4c-2.8,7.1-6.3,13.9-10.5,20.3c-1.8,2.8-4.1,5.3-6.9,7.2c-1.5,1-3,1.8-4.8,2.2c-4.1,0.9-8-1.1-9.6-5
		c-0.2-0.6-0.4-1.2-0.7-2c-0.2,0.5-0.4,0.8-0.5,1.1c-3.9,9-8,17.9-12.5,26.7c-1.2,2.3-2.5,4.6-3.8,6.8c-0.8,1.3-1.7,2.5-2.7,3.7
		c-0.5,0.7-1.2,1.2-1.9,1.7c-1.7,1.1-3.3,0.8-4.6-0.8c-1.3-1.5-1.9-3.4-2.3-5.3c-0.5-2.7-0.7-5.5-0.8-8.3
		c-0.3-5.6,0.1-11.2,0.4-16.7c0.1-2.5,0.2-5,0.4-7.5c0.3-4.2,0.7-8.3,1.1-12.4c0.3-2.8,0.5-5.7,0.9-8.5c0.4-3.7,0.9-7.3,1.3-10.9
		c0.4-3.1,0.7-6.1,1-9.2c0.2-2.1,0-4.1-0.5-6.2c-0.1-0.4-0.3-0.9-0.5-1.3c-0.5-0.7-1.2-0.8-1.9-0.2c-0.6,0.6-1.2,1.2-1.7,1.9
		c-2,2.5-3.7,5.2-5.2,8c-3.6,6.5-6.5,13.3-9,20.2c-2.5,6.7-4.9,13.4-7.3,20.1c-0.8,2.3-1.6,4.6-2.4,6.9c-0.1,0.3-0.2,0.6-0.4,0.9
		c-0.4,0.7-1.1,1-1.8,0.8c-0.7-0.2-1.1-0.8-1.1-1.6c0.2-2.5,0.5-5,0.6-7.5c0.5-6.9,2.1-13.6,3.3-20.4c0.7-3.9,1.3-7.9,1.9-11.9
		c0.6-3.8,1.1-7.6,1.5-11.4c0.4-3.2,0.6-6.3,0.8-9.5c0.1-1.4-0.1-2.8-0.3-4.1c-0.3-1.9-1.5-2.9-3.5-2.9c-1.3,0-2.5,0.3-3.6,0.9
		c-2.7,1.3-5,3.2-6.7,5.7c-2.1,2.9-3.7,6.1-5,9.3c-1.8,4.2-3.3,8.5-4.7,12.8c-0.6,1.9-0.8,3.8-1,5.7c-1.2,8.6-2.6,17.3-4.2,25.8
		c-0.4,1.8-0.7,3.7-1.1,5.5c-0.2,0.9-0.5,1.8-1.1,2.5c-0.3,0.4-0.7,0.7-1.1,0.9c-1.3,0.7-2.6,0-2.6-1.4c0-1.2,0-2.4,0.3-3.6
		c1.8-9.6,3.2-19.3,4.8-29c0.8-5.1,1.5-10.2,2.1-15.3c0.5-3.8,0.8-7.6,1.1-11.4c0.3-4,0.5-8,0.6-12c0.1-1.8-0.1-3.7-0.2-5.5
		c-0.1-0.8-0.4-1.5-0.8-2.2c-0.6-1.2-1.7-1.8-3.1-1.8c-1.8,0-3.4,0.7-4.9,1.6c0.1,1.2,0.3,2.3,0.4,3.5c0.2,2.7,0.1,5.4-0.7,8
		c-0.7,2.2-1.9,4-3.6,5.6c-1.1,1-2.3,1.5-3.8,1.4c-2,0-3.4-1.1-4.1-3c-0.5-1.6-0.5-3.2-0.1-4.8c0.9-3.5,2.8-6.4,5.2-9
		c1.3-1.3,2.7-2.4,4.1-3.7c0-0.1-0.1-0.4-0.1-0.6c-0.8-2.5-2-4.8-3.8-6.8c-0.1-0.2-0.3-0.3-0.4-0.5c-0.1-0.2-0.1-0.5,0-0.6
		c0.1-0.1,0.4-0.2,0.6-0.1c0.4,0.2,0.9,0.4,1.2,0.8c0.8,0.9,1.5,1.7,2.1,2.7c0.7,1.1,1.2,2.3,1.7,3.4c0.1,0.3,0.2,0.5,0.4,0.9
		c0.3-0.2,0.6-0.3,0.9-0.4c2-0.9,4-1.7,6.2-1.9c1.3-0.2,2.7-0.1,4,0.3c1.9,0.6,3.3,1.8,4,3.8c0.7,2,0.9,4,0.8,6
		c-0.2,6.4-0.8,12.7-1.8,19c-0.1,0.9-0.2,1.8-0.2,2.8c0.1-0.3,0.3-0.6,0.4-0.8c1.3-3.1,2.9-6,4.8-8.8c2.7-3.8,6-6.9,10.2-9.1
		c1.3-0.7,2.7-1.2,4.1-1.5c3.8-0.8,7.2,1,8.7,4.5c0.7,1.6,1,3.4,1.2,5.2c0.3,2.9,0,5.7-0.3,8.5c-1.1,9.6-3.2,19.1-5.5,28.5
		c-0.1,0.4-0.2,0.8-0.2,1.2c0.1-0.4,0.3-0.7,0.4-1.1c2.7-7.2,5.5-14.3,9.1-21c1.8-3.5,3.8-6.8,6.2-9.9c1.2-1.5,2.6-3,4.2-4.1
		c1.2-0.9,2.5-1.6,4.1-1.9c1.9-0.4,4.4,0.5,5.4,3c0.6,1.6,0.9,3.2,0.9,4.9c0,2.6,0.1,5.2-0.1,7.8c-0.2,3.5-0.4,6.9-0.7,10.4
		c-0.3,3.7-0.8,7.4-1.3,11c-1.2,8.3-2.5,16.6-3.7,24.9c-0.5,3.5-1,6.9-1.4,10.4c-0.6,5-0.9,10.1-0.7,15.1c0,0.8,0.2,1.6,0.4,2.3
		c0.1,0.3,0.2,0.5,0.3,0.9c0.7-0.2,1.1-0.6,1.5-1c1.2-1.2,2.2-2.5,3.1-4c2.6-4.2,5-8.6,7.1-13.1c3.5-7.5,7-15,10.5-22.5
		c0.1-0.3,0.3-0.7,0.2-1c-0.4-3.2-0.2-6.4,0-9.6c0.3-4.4,1-8.8,2.3-13.1c0.8-2.6,1.8-5.1,3.3-7.3c1-1.5,2.3-2.9,3.9-3.9
		c1.2-0.7,2.5-1.1,3.9-1.1c1.5,0,2.8,0.6,3.7,1.7c1.9,2.1,2.4,4.7,2,7.4c-0.5,3.1-1.9,5.7-4,8c-1.6,1.7-3.6,2.8-6,3.1
		c-0.2,0-0.4,0.1-0.8,0.1c-0.1,1.5-0.3,3-0.4,4.5c-0.2,2.7-0.3,5.4,0.2,8.2c0.3,1.6,0.6,3.1,1.2,4.5c0.5,1.1,1.2,2,2.5,2.3
		c0.6,0.1,1.2,0.2,1.7,0.1c0.7-0.2,1.4-0.5,2.1-0.9c1.6-1,3.1-2.1,4.3-3.6c2.7-3.4,5-7.1,7-10.9c2.9-5.6,5.2-11.4,6.7-17.5
		c0.3-1.3,0.6-2.6,0.8-3.9c0.1-0.3,0-0.6,0.1-0.9c-0.5,0.1-1,0.3-1.5,0.4c-3.1,0.7-6.3-1-7.2-3.8c-0.8-2.3,0.1-5.1,2.1-6.5
		c1.7-1.2,3.6-1.2,5.4-0.2c2,1.1,3,2.9,3.4,5.1c0,0.2,0.1,0.4,0.1,0.7c0,0,0,0,0.1,0.1c0.2-0.2,0.5-0.3,0.8-0.5
		c2.3-1.7,4.6-3.4,6.9-5.1c1.5-1.1,3.1-2.2,4.9-2.9c0.7-0.3,1.4-0.5,2.1-0.4c1.6,0.1,2.8,1.3,2.9,3.1c0.1,1.6-0.2,3.1-0.7,4.6
		c-1.1,3.3-2.2,6.6-3.5,9.8c-3.1,8-6.3,16-8.9,24.2c-1.4,4.5-2.5,9-3,13.7c-0.2,1.5,0,3.1,0.1,4.6c0,0.5,0.3,1.1,0.6,1.6
		c0.5,0.8,0.9,1,1.8,0.5c1.7-0.9,3.2-2.1,4.5-3.5c2.6-2.9,4.7-6,6.7-9.4c5.3-9,10-18.2,13.8-27.9c1.4-3.6,2.5-7.2,3.1-11
		C253.5,204.3,253.5,204.2,253.6,203.9z M193.1,224c0.5-0.1,0.9-0.1,1.3-0.2c1.8-0.5,3.3-1.5,4.4-3c1.4-1.8,2.3-3.8,2.8-6
		c0.4-2,0.2-3.9-0.9-5.6c-1.3-1.8-1.7-1.7-2.9-0.2c-0.9,1.1-1.5,2.3-2,3.6c-1.1,2.7-1.7,5.6-2.2,8.5
		C193.4,222,193.3,222.9,193.1,224z M100.5,175.9c-0.3,0.2-0.4,0.2-0.5,0.3c-1.9,1.5-3.5,3.1-4.9,5.1c-1.2,1.6-2.1,3.4-2.5,5.4
		c-0.2,1.1-0.3,2.2,0.1,3.2c0.3,1,1,1.4,2,1.4c1.1,0,1.9-0.4,2.6-1.1c1.5-1.4,2.5-3.2,3-5.2C101.1,182.1,101.1,179.1,100.5,175.9z
		 M219.4,204.4c0-1.3-0.3-2.5-0.8-3.6c-0.3-0.8-0.9-1.4-1.6-1.8c-1.2-0.8-2.5-0.5-3.4,0.7c-0.8,1.2-1,2.9-0.3,4
		c0.8,1.2,2.4,1.9,3.9,1.5C217.9,205,218.6,204.7,219.4,204.4z M253.9,201.1c0-0.6,0-1.1-0.1-1.7c-0.1-0.8-0.4-1.4-1.1-1.9
		c-0.2-0.1-0.4-0.2-0.6-0.2c-0.7,0.1-1.5,1.4-1.4,2.1C251,201,252.3,201.7,253.9,201.1z"/>
	<path class="st5" d="M201.6,153.2c0.2,0.6,0.4,1.1,0.5,1.7c0.3,1.5,0.1,2.9-0.7,4.3c-0.4,0.7-1,1.3-1.7,1.6
		c-1.7,0.8-3.4-0.2-3.4-2.1c0-0.5,0.1-0.9,0.2-1.4c0.4-1.6,1.3-3,2.6-4.1c0.2-0.2,0.4-0.3,0.6-0.6c-0.9-1-2-1.5-3.3-1.7
		c-0.9-0.1-1.8,0-2.6,0.3c-2.2,0.9-3.9,2.4-4.7,4.7c-0.1,0.2-0.2,0.5-0.5,0.4c-0.3-0.1-0.3-0.3-0.3-0.6c0.1-0.4,0.1-0.7,0.3-1.1
		c1.4-2.6,3.6-4.4,6.5-4.9c1.9-0.4,3.6,0.3,5,1.6c0.1,0.1,0.2,0.2,0.3,0.3c0.1,0.1,0.1,0.2,0.2,0.3c0.3-0.1,0.5-0.2,0.8-0.4
		c2.1-1.1,4.4-1.3,6.7-0.8c2.3,0.5,4,2,4.9,4.2c0.8,2,0.9,4.1,0.9,6.2c-0.2,5.5-0.4,10.9-0.5,16.4c0,1.2,0.1,2.4,0.1,3.6
		c0,0.3,0.1,0.7,0.2,1c0.2,0.6,0.5,0.7,1,0.4c1.1-0.6,1.8-1.6,2.1-3c-0.3,0.1-0.4,0.2-0.5,0.2c-0.5,0.2-0.9,0.1-1.2-0.3
		c-0.3-0.3-0.5-0.8-0.3-1.2c0.2-0.7,0.6-1.1,1.3-1.2c0.7-0.1,1.3,0.1,1.7,0.7c0.4,0.6,0.6,1.2,0.5,1.9c-0.2,1.7-1,3.1-2.4,4.1
		c-1.8,1.3-3.7,0.7-4.6-1.4c-0.1-0.2-0.1-0.3-0.2-0.6c-0.2,0.1-0.3,0.2-0.4,0.3c-2.5,2.3-5.5,3.1-8.8,2.7c-1-0.1-1.9-0.3-2.9-0.6
		c-3.4-1.1-5.7-4.2-5.5-7.6c0-0.7,0.2-1.4,0.4-2.1c0.8-2.7,2.3-5,4.5-6.7c1.6-1.2,3.4-2.3,5.2-3.3c1.5-0.8,2.9-1.6,4.4-2.4
		c1.4-0.9,2.5-2.1,3.2-3.7c0.2-0.5,0.3-1,0.2-1.5c-0.5-2.6-2-4.1-4.6-4.5C205.1,152.1,202.7,152.5,201.6,153.2z M211.1,162.9
		c-0.2,0.2-0.3,0.3-0.4,0.5c-0.9,0.9-1.7,1.8-2.6,2.7c-0.9,0.8-1.8,1.5-2.7,2.2c-2.4,1.7-3.8,4.2-4.6,6.9c-0.2,0.7-0.3,1.6-0.3,2.3
		c0,2,2.2,3.4,3.9,3.2c1.1-0.1,2-0.5,3-1c1.1-0.6,2-1.3,2.8-2.2c0.4-0.4,0.6-0.8,0.6-1.4c0.1-3.4,0.2-6.7,0.3-10.1
		C211,165.1,211.1,164.1,211.1,162.9z M200.5,153.9c-0.2,0.1-0.3,0.1-0.3,0.2c-1.3,1-2,2.4-2.4,4c-0.1,0.3-0.1,0.6,0,0.9
		c0.1,0.6,0.6,0.9,1.2,0.7c0.6-0.2,1.1-0.6,1.4-1.2C201.3,157.1,201.2,155.5,200.5,153.9z"/>
	<g>
		<path class="st8" d="M151.9,147.2c-0.8-1.1-1.7-1.7-2.8-1.8c-1.7-0.2-3,0.4-4.1,1.7c-2.2,2.6-3.1,5.5-2.5,8.9
			c0.5,2.6,1.7,4.8,3.4,6.8c0.8,0.9,1.7,1.5,2.9,1.9c2.3,0.7,4.6,0.7,6.8-0.3c2.3-1,4.4-2.3,6-4.2c3.5-3.8,6.3-8.1,8.7-12.5
			c-5.7-9.2-10.4-18.8-14.7-28.7c-0.3,0.1-0.5,0.2-0.8,0.4c-0.4,0.2-0.7,0.4-1.1,0.5c-0.6,0.2-1,0.2-1.2-0.2
			c-0.3-0.5,0.1-0.8,0.4-1.1c0.4-0.3,0.8-0.5,1.1-0.8c2.6-1.8,5.1-3.6,7.7-5.4c0.8-0.5,1.5-1,2.3-1.5c0.2-0.2,0.5-0.3,0.8-0.4
			c0.5-0.2,0.9,0,1.1,0.3c0.2,0.4,0.2,0.8-0.2,1.1c-0.2,0.2-0.5,0.4-0.7,0.6c-0.7,0.6-1.5,1.1-2.2,1.7c0,0.1,0,0.2,0,0.2
			c2.3,3.8,4,8,6,11.9c1.8,3.6,3.5,7.1,5.7,10.5c0.2,0.3,0.4,0.6,0.8,1.1c3-7.4,5.4-14.8,8.1-22.2c-1.3-0.7-2.4-1.4-3.6-2.1
			c-0.4-0.3-0.8-0.5-1.2-0.8c-0.3-0.2-0.5-0.5-0.2-0.9c0.2-0.4,0.6-0.4,1-0.2c0.6,0.2,1.2,0.4,1.8,0.8c2.4,1.4,4.7,2.8,7,4.2
			c0.2,0.1,0.4,0.3,0.5,0.4c0.3,0.2,0.4,0.5,0.2,0.9c-0.2,0.4-0.6,0.5-0.9,0.3c-0.3-0.1-0.5-0.2-0.8-0.4c-0.6-0.3-1.3-0.7-2-1.1
			c-0.1,0.4-0.2,0.6-0.3,0.9c-2.1,6.6-4.1,13.3-6.7,19.7c-2.8,6.9-6.3,13.5-10.8,19.5c-1.3,1.8-2.7,3.4-4.3,5c-2.5,2.6-5.5,4.3-9,5
			c-4.1,0.9-8.4-0.8-10.7-4.3c-1.4-2-2.4-4.2-2.8-6.7c-0.5-3.6,0.3-6.9,2.5-9.8c1.3-1.6,2.9-2.6,5-2.8c2.4-0.2,4.4,0.7,5.6,2.7
			c1.3,2.1,1.3,4.2,0,6.3c-1,1.6-2.9,2.4-4.7,1.9c-1.2-0.3-2-1.1-2.3-2.3c-0.3-1.1-0.2-2.1,0.3-3.1c0.7-1.5,2.2-2.2,3.9-1.9
			C151.3,147.1,151.5,147.1,151.9,147.2z"/>
		<path class="st8" d="M258.6,131.7c-0.1,0.1-0.1,0.3-0.2,0.4c-0.5,0.8-1.3,1.2-2,1c-0.9-0.2-1.5-1-1.5-2c0-1.1,0.8-2.4,1.9-2.8
			c1.1-0.4,2.1-0.2,2.9,0.8c1.2,1.4,1.6,3,1.4,4.8c-0.8,6.6-7.9,10.2-13.7,7.1c-1.7-0.9-2.8-2.4-3.6-4.1c-0.2-0.3-0.3-0.7-0.6-1.2
			c-0.3,0.4-0.5,0.8-0.6,1.1c-1.1,1.8-2.3,3.4-4.2,4.4c-1.8,0.9-3.6,1.4-5.6,1c-3.1-0.7-5-2.7-5.8-5.7c-0.5-1.9-0.8-3.9-1-5.8
			c-0.3-3.2-0.5-6.5-0.6-9.7c-0.1-3.2-0.1-6.4-0.2-9.6c0-1.2,0.2-1.6,1.4-1.9c1.3-0.4,2.7-0.6,4.1-0.9c0.5-0.1,1.1-0.1,1.7-0.1
			c0.8,0,1.4,0.3,1.7,1.1c0.2,0.7,0.4,1.5,0.4,2.2c0.1,1.8,0.2,3.6,0.3,5.4c0.1,3.2,0.1,6.4,0.2,9.6c0.2,3.4,0.4,6.8,0.7,10.2
			c0,0.5,0.4,1.1,0.8,1.5c0.7,0.8,1.5,0.8,2.2,0.1c0.7-0.7,1.4-1.4,1.9-2.2c0.7-1,1.2-2.1,1.7-3.2c0.1-0.2,0.2-0.6,0.1-0.8
			c-0.9-4.6-0.9-9.2-0.6-13.8c0.2-2.7,0.3-5.4,1-8c0.2-0.8,0.5-1.6,1-2.2c1-1.5,2.4-1.5,3.4,0c0.9,1.4,1.2,3,1.4,4.7
			c0.2,2.8-0.1,5.5-0.5,8.2c-0.6,3.6-1.5,7.2-2.9,10.6c-0.1,0.3-0.2,0.6-0.1,0.8c0.6,1.9,1.2,3.8,2.7,5.3c1.8,1.7,3.9,2.3,6.3,1.7
			c2.7-0.7,5.1-3.8,5.2-6.7c0-0.5-0.1-0.9-0.2-1.4C258.8,131.7,258.7,131.7,258.6,131.7z M244.2,128c0.1-0.2,0.2-0.4,0.2-0.5
			c0.4-1.6,0.9-3.3,1.2-5c0.6-3.2,1.1-6.3,0.9-9.6c-0.1-0.9-0.3-1.9-0.5-2.8c-0.1-0.3-0.3-0.6-0.5-1
			C244,111.8,243.3,123.2,244.2,128z"/>
		<path class="st8" d="M194.1,128.2c0.2-6.2,2-11,5.5-15.3c0.9-1.1,1.9-2.2,3.2-2.8c2.8-1.4,5.6-1.3,8.3,0.2
			c3.1,1.7,5.1,4.2,6.1,7.6c1.5,5.4,1.2,10.7-0.8,15.9c-1.1,2.9-3.1,5.1-5.6,6.8c-1.5,1-3.2,1.3-5,1.2c-3.6-0.2-6.7-1.5-8.9-4.4
			c-1.1-1.4-1.7-3.1-2.1-4.9C194.5,130.9,194.3,129.2,194.1,128.2z M202.1,123.5c0.1,3,0.7,8.4,1.5,11.8c0.3,1.2,0.7,2.3,1.1,3.4
			c0.3,0.9,1,1.2,2,1.2c2.5-0.2,4.5-1.5,6-3.4c1-1.3,1.8-2.8,2.3-4.3c1.1-3,1.3-6.1,1.1-9.2c-0.2-2.8-1-5.6-2.5-8
			c-1.3-2.1-3.3-3.3-5.6-3.9c-1.9-0.5-2.7-0.2-3.8,1.4c-0.8,1.1-1.3,2.4-1.4,3.7C202.5,118.7,202.3,121.1,202.1,123.5z"/>
	</g>
	<g>
		<path class="st5" d="M201.7,94.9c0.2-0.4,0.4-0.8,0.5-1.2c1.7-4.1,3.1-8.2,4.3-12.4c0.6-2,1.1-3.9,1.7-5.9c0-0.1,0.1-0.2,0.1-0.3
			c0.2-0.6,0.4-1.1,1.2-1.2c0.7,0,1.1,0.4,1.3,1c0.3,0.6,0.5,1.1,0.7,1.7c1.4,4,2.7,8.1,4.2,12.1c0.7,2,1.7,3.9,2.5,5.8
			c0.1,0.3,0.3,0.6,0.6,1c0.3-1.2,0.6-2.1,0.9-3.1c1.1-4.3,2.2-8.6,3.2-12.9c0.5-2,0.7-4.1,1.1-6.2c0.2-1.3-0.2-2.4-1.2-3.2
			c-0.4-0.3-0.9-0.6-0.8-1.3c0.2-0.7,0.8-0.8,1.3-0.9c0.7-0.1,1.4-0.2,2.1-0.2c1.2-0.1,2.4-0.1,3.6-0.2c0.4,0,0.9,0,1.1,0.5
			c0.2,0.5,0,0.9-0.4,1.2c-2.3,1.7-3.3,4.1-4,6.8c-0.8,3.4-1.6,6.8-2.4,10.1c-0.7,2.9-1.3,5.7-2,8.6c-0.2,0.8-0.5,1.5-0.8,2.2
			c-0.7,1.4-1.9,1.5-2.9,0.2c-0.5-0.6-0.8-1.3-1.2-2c-2.2-4.5-3.8-9.3-5.4-14c-0.4-1.2-0.8-2.4-1.3-3.8c-0.2,0.4-0.2,0.7-0.3,0.9
			c-0.6,2.3-1.3,4.6-1.9,6.9c-1,3.7-2.3,7.4-3.9,10.9c-0.2,0.4-0.4,0.7-0.6,1c-0.3,0.5-0.7,0.9-1.4,0.8c-0.6-0.1-0.9-0.5-1.1-1
			c-0.4-1.1-0.8-2.2-1.1-3.4c-0.3-1.1-0.5-2.2-0.9-3.3c-0.3-1.2-0.8-2.3-1.1-3.5c-0.9-3.5-1.6-7.1-2.5-10.6
			c-0.3-1.2-0.7-2.4-1.1-3.6c-0.4-1.2-1.2-1.8-2.5-1.9c-0.4,0-0.9-0.2-1.3-0.4c-0.2-0.1-0.4-0.4-0.3-0.5c0.1-0.2,0.3-0.5,0.5-0.5
			c0.5-0.1,1.1-0.2,1.7-0.2c2.2-0.2,4.4-0.4,6.7-0.6c0.2,0,0.5,0,0.7,0c0.6,0.2,0.8,0.7,0.5,1.2c-0.1,0.1-0.1,0.2-0.2,0.2
			c-1.6,1.3-2,3.2-2.3,5.1c-0.2,1.1-0.1,2.2,0.2,3.3c1.3,5,2.5,10,3.7,15c0.1,0.5,0.3,1.1,0.4,1.6C201.6,94.9,201.6,94.9,201.7,94.9
			z"/>
		<path class="st5" d="M125,94.9c0.2-0.4,0.4-0.8,0.5-1.2c1.7-4.1,3.1-8.2,4.3-12.4c0.6-2,1.1-3.9,1.7-5.9c0-0.1,0.1-0.2,0.1-0.3
			c0.2-0.6,0.4-1.1,1.2-1.2c0.7,0,1.1,0.4,1.3,1c0.3,0.6,0.5,1.1,0.7,1.7c1.4,4,2.7,8.1,4.2,12.1c0.7,2,1.7,3.9,2.5,5.8
			c0.1,0.3,0.3,0.6,0.6,1c0.3-1.2,0.6-2.1,0.9-3.1c1.1-4.3,2.2-8.6,3.2-12.9c0.5-2,0.7-4.1,1.1-6.2c0.2-1.3-0.2-2.4-1.2-3.2
			c-0.4-0.3-0.9-0.6-0.8-1.3c0.2-0.7,0.8-0.8,1.3-0.9c0.7-0.1,1.4-0.2,2.1-0.2c1.2-0.1,2.4-0.1,3.6-0.2c0.4,0,0.9,0,1.1,0.5
			c0.2,0.5,0,0.9-0.4,1.2c-2.3,1.7-3.3,4.1-4,6.8c-0.8,3.4-1.6,6.8-2.4,10.1c-0.7,2.9-1.3,5.7-2,8.6c-0.2,0.8-0.5,1.5-0.8,2.2
			c-0.7,1.4-1.9,1.5-2.9,0.2c-0.5-0.6-0.8-1.3-1.2-2c-2.2-4.5-3.8-9.3-5.4-14c-0.4-1.2-0.8-2.4-1.3-3.8c-0.2,0.4-0.2,0.7-0.3,0.9
			c-0.6,2.3-1.3,4.6-1.9,6.9c-1,3.7-2.3,7.4-3.9,10.9c-0.2,0.4-0.4,0.7-0.6,1c-0.3,0.5-0.7,0.9-1.4,0.8c-0.6-0.1-0.9-0.5-1.1-1
			c-0.4-1.1-0.8-2.2-1.1-3.4c-0.3-1.1-0.5-2.2-0.9-3.3c-0.3-1.2-0.8-2.3-1.1-3.5c-0.9-3.5-1.6-7.1-2.5-10.6
			c-0.3-1.2-0.7-2.4-1.1-3.6c-0.4-1.2-1.2-1.8-2.5-1.9c-0.4,0-0.9-0.2-1.3-0.4c-0.2-0.1-0.4-0.4-0.3-0.5c0.1-0.2,0.3-0.5,0.5-0.5
			c0.5-0.1,1.1-0.2,1.7-0.2c2.2-0.2,4.4-0.4,6.7-0.6c0.2,0,0.5,0,0.7,0c0.6,0.2,0.8,0.7,0.5,1.2c-0.1,0.1-0.1,0.2-0.2,0.2
			c-1.6,1.3-2,3.2-2.3,5.1c-0.2,1.1-0.1,2.2,0.2,3.3c1.3,5,2.5,10,3.7,15c0.1,0.5,0.3,1.1,0.4,1.6C124.9,94.9,124.9,94.9,125,94.9z"
			/>
		<path class="st5" d="M288.5,82.3c-3.8,0.2-7.5,0.3-11.2,0.5c-0.1,0.2-0.1,0.4-0.1,0.5c-0.1,3.3-0.3,6.6,0,9.9
			c0.1,1.3,0.6,2.1,1.8,2.6c0.3,0.1,0.5,0.2,0.8,0.4c0.7,0.4,0.7,1.1,0,1.5c-0.3,0.2-0.8,0.3-1.1,0.4c-1.7,0.2-3.4,0.3-5.1,0.4
			c-0.2,0-0.5,0-0.7-0.1c-0.2-0.1-0.5-0.4-0.6-0.6c-0.1-0.2,0.2-0.5,0.3-0.7c0.1-0.1,0.2-0.2,0.4-0.2c1.1-0.4,1.7-1.3,2-2.4
			c0.5-1.3,0.5-2.7,0.6-4.1c0.1-2.5,0.1-5.1,0.2-7.6c0.1-3.5,0.3-7,0.4-10.5c0-1-0.1-2-0.3-3c-0.2-1.3-0.9-2.2-2.2-2.6
			c-0.1,0-0.3-0.1-0.4-0.2c-0.3-0.2-0.5-0.5-0.4-0.9c0.1-0.4,0.4-0.6,0.7-0.6c0.3,0,0.6,0,0.8,0.1c1.1,0.5,2.2,0.6,3.4,0.6
			c0.7,0,1.4,0.1,2,0.2c0.4,0,0.7,0.1,0.7,0.6c0,0.4-0.3,0.5-0.6,0.6c-0.8,0.2-1.2,0.8-1.3,1.5c-0.3,1.1-0.6,2.3-0.7,3.5
			c-0.2,2.7-0.3,5.4-0.4,8.1c0,0.5,0,1,0,1.5c3.7-0.2,7.4-0.4,11.2-0.6c0-0.2,0.1-0.5,0.1-0.7c0.2-2.8,0.4-5.5,0.5-8.3
			c0.1-1.2-0.2-2.4-0.2-3.6c0-0.6-0.3-0.8-0.8-1c-0.3-0.1-0.5-0.2-0.8-0.4c-0.2-0.2-0.5-0.5-0.4-0.6c0-0.3,0.3-0.5,0.5-0.7
			c0.2-0.1,0.5-0.2,0.8-0.2c1.3-0.1,2.7-0.1,4-0.2c0.2,0,0.4,0,0.6,0.1c0.6,0.2,0.7,0.7,0.3,1.2c-0.1,0.1-0.1,0.1-0.2,0.2
			c-1.5,1-2.1,2.5-2.2,4.2c-0.2,3.2-0.5,6.3-0.6,9.5c-0.1,3.6-0.1,7.2-0.1,10.7c0,0.8,0,1.7,0,2.5c0,1,0.2,1.9,0.6,2.7
			c0.3,0.5,0.8,0.9,1.2,1.4c0.1,0.1,0.4,0.2,0.5,0.3c0.2,0.2,0.4,0.6,0.3,0.8c-0.1,0.2-0.4,0.4-0.6,0.6c-0.1,0.1-0.3,0-0.5,0.1
			c-1.3,0-2.6,0.1-3.9,0.1c-0.2,0-0.5,0-0.7-0.1c-0.3-0.1-0.7-0.3-0.7-0.7c0-0.3,0.2-0.7,0.4-0.8c1.4-0.6,1.5-1.7,1.5-3
			c0.1-3.9,0.2-7.7,0.3-11.6C288.6,83.1,288.5,82.8,288.5,82.3z"/>
		<path class="st5" d="M163.4,83.7c-0.2,4.2-0.3,8.3-0.5,12.4c0.2,0,0.3,0.1,0.5,0c2.6-0.1,5.2-0.3,7.9-0.4c1.1-0.1,2.2-0.1,3.2-0.1
			c1.5,0,2.6-0.7,3.4-2c0.1-0.2,0.2-0.4,0.4-0.6c0.3-0.3,0.6-0.5,1.1-0.3c0.4,0.1,0.7,0.4,0.7,0.9c-0.1,1-0.3,2-0.6,3
			c-0.1,0.3-0.6,0.7-1,0.8c-1.1,0.3-2.2,0.6-3.3,0.6c-3.6,0.1-7.3,0.1-10.9,0.2c-1.7,0-3.3,0.2-5,0.3c-0.5,0-0.9,0-1.1-0.5
			c-0.2-0.4,0.1-0.8,0.6-1.1c0.1-0.1,0.3-0.1,0.5-0.2c1-0.3,1.5-1.1,1.7-2.1c0.1-0.5,0.1-1,0.2-1.6c0.3-5.6,0.3-11.2,0.2-16.8
			c0-1.4-0.2-2.8-0.4-4.1c-0.2-1.3-0.7-1.8-2-2c-0.5-0.1-1.1-0.1-1.1-0.7c0-0.7,0.7-0.7,1.1-0.7c0.9-0.1,1.8-0.2,2.6-0.2
			c3.1-0.2,6.2-0.4,9.3-0.6c1.8-0.1,3.5-0.1,5.3-0.1c0.8,0,1.4,0.3,1.7,1.1c0.5,0.9,0.8,1.8,0.8,2.8c0.1,0.7-0.5,1.1-1.1,0.8
			c-0.1,0-0.1-0.1-0.2-0.1c-1.9-1.5-4.1-1.9-6.5-2.1c-2.6-0.2-5.1-0.1-7.7,0.1c-0.1,0-0.1,0.1-0.2,0.1c0.1,3.9,0.2,7.7,0.3,11.7
			c0.4,0,0.8-0.1,1.1-0.1c2.5,0,5.1,0,7.6,0c0.3,0,0.7,0.1,1,0.2c0.4,0.1,0.7,0.3,0.6,0.8c0,0.4-0.3,0.7-0.7,0.7
			c-0.5,0.1-1,0.1-1.5,0.1c-2.3,0-4.7-0.1-7-0.1C164.2,83.7,163.8,83.7,163.4,83.7z"/>
		<path class="st5" d="M250.2,95.5c0.1-0.8,0.1-1.6,0.2-2.4c0.2-1.1,1.1-1.3,1.9-0.6c0.3,0.3,0.5,0.6,0.7,0.9c0.3,0.5,0.6,1,1,1.5
			c0.5,0.7,1.1,1.3,1.7,1.9c2.3,1.9,5,1.6,6.8-0.8c1.3-1.6,1.7-3.5,1.2-5.6c-0.5-1.9-1.4-3.5-2.7-5c-1.6-1.8-3.2-3.5-4.8-5.2
			c-0.8-0.9-1.6-1.9-2.3-2.9c-0.3-0.4-0.6-0.9-0.8-1.4c-1.1-2.3-0.9-4.4,1-6.5c1.6-1.8,3.7-2.7,6.2-2.7c1.2,0,2.4-0.1,3.6-0.3
			c1-0.1,1.6,0.3,1.6,1.3c-0.1,1.5-0.2,3-0.3,4.5c0,0.1-0.1,0.3-0.1,0.4c-0.1,0.4-0.4,0.7-0.8,0.7c-0.4,0-0.7-0.2-0.9-0.5
			c-0.1-0.2-0.2-0.4-0.3-0.6c-0.2-0.4-0.4-0.8-0.7-1.2c-1.3-2.1-4.2-3.1-6.6-1c-1.4,1.2-1.8,2.7-1.1,4.4c0.3,0.6,0.6,1.1,0.9,1.6
			c0.7,0.9,1.4,1.7,2.1,2.6c1.7,2,3.5,3.9,5.1,5.8c1.4,1.7,2.3,3.7,2.8,5.9c1,4.3-1.5,8.4-5.6,9.4c-0.9,0.2-1.7,0.2-2.6,0
			c-1-0.2-2-0.5-3.1-0.6c-0.5-0.1-1,0.2-1.5,0.3c-0.2,0.1-0.4,0.3-0.6,0.4c-0.7,0.4-1.4,0.2-1.6-0.6c-0.2-0.6-0.3-1.3-0.4-2
			C250.3,96.7,250.3,96.1,250.2,95.5C250.3,95.5,250.3,95.5,250.2,95.5z"/>
		<path class="st5" d="M238.1,77.7c0-2,0-3.3,0-4.7c0-1.6-0.7-2.2-2.4-2.8c-0.1,0-0.3,0-0.4-0.1c-0.4-0.1-0.8-0.2-0.8-0.7
			c0-0.5,0.4-0.7,0.8-0.8c0.6-0.2,1.2-0.3,1.8-0.4c2-0.2,3.9-0.3,5.9,0c0.2,0,0.3,0,0.5,0.1c0.6,0.2,0.7,0.7,0.2,1.1
			c-0.1,0.1-0.3,0.2-0.5,0.3c-1.1,0.5-1.7,1.4-1.9,2.6c-0.2,0.9-0.3,1.8-0.4,2.7c-0.2,3.9-0.3,7.9-0.5,11.8
			c-0.1,2.8-0.1,5.5-0.2,8.3c0,1.5,0,1.5,1.4,1.9c0.2,0.1,0.5,0.1,0.6,0.2c0.2,0.2,0.5,0.5,0.5,0.7c0,0.3-0.3,0.6-0.5,0.7
			c-0.3,0.2-0.6,0.2-1,0.2c-1,0-1.9,0-2.9,0c-1,0-2,0.2-2.9,0.2c-0.4,0-0.7,0.1-1.1-0.1c-0.7-0.3-0.8-1.2-0.1-1.6
			c0.3-0.2,0.6-0.3,0.9-0.3c1.2-0.3,1.9-0.9,2-2.1c0.1-1.4,0.2-2.7,0.3-4.1C237.7,86.3,237.9,81.7,238.1,77.7z"/>
	</g>
	<g>
		<path class="st10" d="M286.8,123.3c-3.4,0-6.8,0-10.1,0c-0.8,0-1.5-0.1-2.3-0.1c-0.2,0-0.3,0-0.5-0.1c-0.6-0.1-1.1-0.5-1-0.9
			c0-0.6,0.5-0.8,0.9-0.9c0.9-0.2,1.9-0.3,2.8-0.4c4.8-0.2,9.7-0.4,14.5-0.4c4,0,8.1,0.1,12.1,0.2c2.3,0.1,4.6,0.4,7,0.6
			c0.4,0,0.7,0.1,1,0.3c0.5,0.2,0.8,0.7,0.7,1.2c0,0.5-0.4,0.9-0.9,1c-0.3,0.1-0.5,0.1-0.8,0.1c-2.8-0.1-5.6-0.2-8.4-0.3
			c-3.1-0.1-6.2-0.2-9.2-0.3C290.7,123.3,288.7,123.3,286.8,123.3C286.8,123.3,286.8,123.3,286.8,123.3z"/>
		<path class="st10" d="M120.1,124.5c4.3,0.1,8.7,0.2,13,0.3c0.6,0,1.2,0,1.8,0c0.3,0,0.7,0.1,0.9,0.2c0.4,0.2,0.6,0.5,0.6,1
			c0,0.5-0.2,0.8-0.6,1c-0.4,0.1-0.8,0.2-1.1,0.2c-3.9,0.3-7.9,0.1-11.8,0c-3.9-0.1-7.9-0.2-11.8-0.4c-1.4-0.1-2.8-0.3-4.2-0.5
			c-0.3,0-0.5-0.1-0.8-0.2c-0.4-0.2-0.7-0.5-0.7-0.9c0-0.4,0.4-0.7,0.9-0.8c0.3-0.1,0.6-0.1,0.9-0.1c3.3,0,6.7,0,10,0.1
			C118.2,124.4,119.2,124.5,120.1,124.5C120.1,124.5,120.1,124.5,120.1,124.5z"/>
	</g>
	<g>
		<path class="st8" d="M352.5,345.2c-0.3-3.5-1.3-6.8-2.5-10c-3.1-8.5-7.8-16.1-13.6-23c-2.1-2.5-4.3-5-6.5-7.4
			c-0.4-0.4-0.6-0.9-0.5-1.5c0.1-1.2,0.2-2.5,0.2-3.7c-0.1-3.9-0.2-7.9-0.2-11.8c-0.1-3.2-0.1-6.4-0.1-9.6c0-0.3,0-0.7,0-1.2
			c0.6,0.1,1.1,0,1.6,0.2c1.6,0.4,2.8,1.3,3.8,2.6c1.1,1.5,1.9,3.1,2.2,5c0.3,1.7,0.3,1.7-0.7,3.1c-0.4,0.6-0.9,1.2-1.3,1.8
			c-0.2,0.3-0.3,0.5-0.5,0.8c-0.2,0.4-0.2,0.7,0.2,1c0.3,0.3,0.7,0.3,1.1,0.1c0.2-0.1,0.3-0.2,0.5-0.4c2.8-2.6,4.8-5.7,6.8-8.8
			c0.3-0.5,0.2-0.9-0.1-1.2c-0.4-0.3-0.8-0.4-1.2-0.1c-0.3,0.2-0.6,0.5-0.8,0.8c-0.7,0.8-1.3,1.6-2.1,2.6c-0.1-0.6-0.2-1.1-0.3-1.5
			c-0.7-2.7-2-5.1-4.5-6.8c-1.6-1.1-3.4-1.7-5.4-1.3c-1.9,0.4-3.6,1.1-5.1,2.4c-4.7,3.9-6.2,8.9-5,14.8c0.8,3.7,2.5,7,4.8,9.9
			c1.8,2.3,3.7,4.5,5.6,6.7c4.3,4.8,8.5,9.7,11.8,15.3c3.2,5.2,5.8,10.7,7.4,16.6c1.6,5.6,1.4,11.2-0.5,16.7
			c-1.2,3.6-3.6,5.8-7.2,6.7c-0.1,0-0.1,0-0.2,0.1c-3.2,0.8-5.9,0-8.1-2.4c-1.2-1.3-1.9-2.8-2.3-4.6c-0.4-1.9-0.5-3.9-0.4-5.9
			c0-0.6,0-1.2,0-1.8c0-0.4-0.3-0.7-0.7-0.8c-0.4-0.1-0.8,0.1-1,0.4c-0.1,0.2-0.2,0.5-0.2,0.8c-0.6,2.6-0.6,5.2-0.2,7.8
			c0.7,5,5.6,11,13.3,9.5c4.2-0.8,7.6-2.8,9.5-6.8C352.2,355.4,353,350.4,352.5,345.2z M326.9,277.7c0,2.3,0,4.4,0,6.7
			c-1.5-0.9-2.9-1.7-4.4-2.6C323.6,280.1,324.9,278.6,326.9,277.7z M327.1,301.3c-2.1-2.4-3.9-5.1-5.1-8.3c0.4,0.1,0.6,0.2,0.8,0.3
			c1.2,0.6,2.5,1.2,3.7,1.8c0.3,0.2,0.6,0.3,0.6,0.7c0.1,1.8,0.1,3.6,0.2,5.4C327.3,301.3,327.2,301.3,327.1,301.3z"/>
		<path class="st8" d="M114.7,344.2c-0.1-0.2-0.3-0.3-0.6-0.4c-2.5-1.2-5-2.4-7.5-3.5c-0.3-0.1-0.6-0.2-0.9-0.2
			c-0.4-0.1-0.8,0.1-1,0.5c-0.2,0.5,0,0.9,0.4,1.1c0.6,0.3,1.2,0.6,1.7,0.9c0.4,0.2,0.8,0.4,1.2,0.6c-0.2,1.1-0.4,2.1-0.6,3.1
			c-0.7,4-2.3,7.7-4.6,11c-0.9,1.2-1.9,2.2-3.2,3c-0.7,0.4-1.3,0.7-2.2,0.7c-0.2-1-0.5-2.1-0.6-3.1c-0.4-3.9-0.7-7.8-0.9-11.7
			c-0.2-4.2-0.3-8.4-0.4-12.6c-0.1-4.9-0.1-9.8-0.1-14.7c-0.1-7.7-0.1-15.5-0.1-23.2c0-2.5,0.1-4.9,0.2-7.4c0.1-2.6,0.5-5.2,1.4-7.6
			c0.3-0.9,0.9-1.6,1.6-2.2c0.6-0.5,1.2-0.7,1.9-0.3c0.9,0.6,1.8,1.2,2.6,1.9c2.2,1.9,3.4,4.5,4.1,7.2c0.6,2.1,0.9,4.2,1,6.4
			c0,0.5,0.1,1,0.1,1.6c0,0.2,0.2,0.4,0.3,0.4c0.1,0,0.4-0.1,0.5-0.2c0.1-0.3,0.2-0.6,0.2-0.9c0-0.7,0-1.4,0-2.2
			c-0.1-3.5-0.8-6.9-2.4-10.1c-1.2-2.3-2.9-4.1-5-5.4c-1.9-1.2-4-1.8-6.3-1.4c-1.8,0.3-3.5,1-4.9,2.2c-1.8,1.4-3.2,3.1-4.3,5.1
			c-1.1,2-2,4.1-2.7,6.3c-2,6.1-3,12.3-3.5,18.6c-0.3,4.8-0.6,9.6-0.8,14.4c-0.1,5.1-0.2,10.3,0.1,15.5c0.2,3.6,0.6,7.3,1.5,10.8
			c0.7,3.2,1.8,6.2,3.7,8.8c1.9,2.6,4.3,4.7,7.4,5.8c4.7,1.7,9.4,0.5,12.5-3.5c3.1-3.9,4.7-8.5,5.4-13.4c0.1-0.6,0.1-1.3,0.2-2
			c1.1,0.4,2.1,0.9,3,1.2c0.3,0.1,0.6,0.3,0.9,0.2c0.3,0,0.6-0.3,0.7-0.5C115,344.8,114.8,344.4,114.7,344.2z M86.4,288.5
			c0.7-2.1,1.6-4.1,2.8-5.9c0,0,0.1-0.1,0.2-0.1c0.3,0.5,0.6,1.1,0.9,1.6c0.8,1.3,1.7,2.6,2.6,4c0.2,0.3,0.3,0.6,0.3,0.9
			c-0.1,2.4-0.2,4.7-0.4,7.1c0,0.1-0.1,0.2-0.1,0.3c-0.2-0.1-0.3-0.2-0.4-0.3c-1.9-2.2-3.8-4.4-5.7-6.7
			C86.4,289,86.3,288.8,86.4,288.5z M82.7,311.3c0.3-2.7,0.5-5.3,0.7-8c0-0.3,0.1-0.7,0.2-1.1c0.2,0.1,0.3,0.2,0.3,0.2
			c2.4,3.1,5.2,5.9,8,8.6c0.5,0.5,0.8,1.1,0.7,1.8c0,2.2,0,4.3,0,6.5c0,0.2,0,0.3-0.1,0.6c-0.3-0.2-0.5-0.3-0.6-0.4
			c-2.7-2.5-5.8-4.6-8.7-6.9C82.8,312.2,82.6,311.9,82.7,311.3z M82,325.1c0.3,0.3,0.5,0.4,0.7,0.6c2.6,2.2,5.1,4.5,7.7,6.7
			c0.6,0.5,1.2,0.9,1.8,1.3c0.3,0.2,0.5,0.4,0.5,0.8c0,2.1,0.1,4.1,0.2,6.2c0,0.1,0,0.2-0.1,0.5c-3.7-2.4-7.3-4.8-10.9-7.2
			C82,331.1,82,328.2,82,325.1z M93.7,360.8c-2.2-0.6-3.9-1.9-5.5-3.5c-1.9-2-3.1-4.3-4-7.1c3.3,1.8,6.3,3.5,9.5,5.2
			c0.3,1.8,0.6,3.6,0.9,5.6C94.3,360.9,94,360.9,93.7,360.8z"/>
		<path class="st8" d="M287.7,364.4c-0.3-0.1-0.6-0.2-0.8-0.2c-0.9-0.1-1.9-0.1-3-0.2c0-0.8,0-1.6,0-2.3c-0.1-1.6-0.2-3.2-0.2-4.8
			c-0.2-12.3-0.4-24.7-1-37c-0.2-5-0.2-10-0.3-15.1c-0.1-3-0.1-6-0.2-9.1c0-1.1-0.2-2.2-0.5-3.2c-0.2-0.7-0.7-1.2-1.5-1.3
			c-0.8-0.1-1.3,0.3-1.7,1c-0.3,0.6-0.6,1.2-0.9,1.9c-1.3,3.5-2.7,7-3.9,10.5c-2.3,6.9-4.6,13.9-7.1,20.8c-0.1,0.3-0.3,0.7-0.4,1.2
			c-0.2-0.4-0.3-0.6-0.4-0.8c-1.4-3.2-2.8-6.5-4.2-9.7c-1.1-2.5-2.2-5-3.3-7.5c-0.2-0.4-0.4-0.8-0.9-1c-2.2-0.9-4.5-1-6.8-0.9
			c-1,0.1-1.5,0.5-1.7,1.5c-0.2,1-0.3,2.1-0.4,3.1c-0.2,4.6-0.3,9.3-0.4,13.9c-0.1,12-0.1,24,0.6,35.9c0.1,1.2,0.1,2.4,0.3,3.6
			c0.1,1,0.8,1.5,1.8,1.6c0.6,0,1.2,0,1.8-0.1c2.1-0.4,4.2-0.7,6.3-1.1c0.9-0.2,1.4-0.7,1.5-1.6c0.1-0.5,0.1-1,0-1.6
			c-0.2-4-0.4-7.9-0.6-11.9c-0.2-4.5-0.4-9-0.6-13.6c-0.2-4.1-0.4-8.3-0.6-12.4c-0.1-2.6-0.3-5.2-0.4-7.9c0-0.5-0.1-1.1,0.1-1.6
			c0.2,0.2,0.3,0.4,0.4,0.6c1,2.6,2,5.1,3.1,7.7c0.9,2.2,2,4.3,3,6.4c0.3,0.6,0.7,1,1.4,1c0.7,0,1.1-0.4,1.4-1
			c0.2-0.4,0.4-0.8,0.6-1.3c1.6-4.4,3.3-8.7,4.9-13.1c1.8-5,3.5-10.1,5.3-15.1c0.1-0.3,0.3-0.6,0.4-1c0.1,0,0.1,0,0.2,0
			c0,0.4,0,0.8,0,1.1c0.1,6.2,0.2,12.3,0.4,18.5c0.2,6.1,0.4,12.1,0.6,18.2c0.2,5.7,0.2,11.4,0.4,17.1c0.1,3.2,0.2,6.5,0.7,9.7
			c0,0.2,0,0.3,0,0.6c-0.4,0-0.8,0-1.2,0c-0.9,0-1.8,0.1-2.7,0.1c-0.4,0-0.9,0.2-0.9,0.7c0,0.5,0.4,0.7,0.8,0.8
			c0.5,0.1,1,0.2,1.6,0.2c2.6,0,5.3,0,7.9,0c0.3,0,0.7-0.1,0.9-0.2C288.4,365.5,288.4,364.7,287.7,364.4z M250.8,319.4
			c0-0.7,0-1.3,0-2.1c0.3,0.2,0.5,0.3,0.6,0.4c1.3,1.1,2.5,2.3,3.8,3.4c0.6,0.5,0.8,1.1,0.9,1.9c0.1,2.6,0.2,5.1,0.3,7.7
			c0.1,1.4,0.2,2.8,0.2,4.2c-0.1,0-0.2,0.1-0.2,0.1c-0.5-0.5-1.1-1-1.6-1.4c-1.2-1.1-2.4-2.2-3.6-3.2c-0.4-0.3-0.4-0.7-0.4-1
			C250.8,326,250.8,322.7,250.8,319.4z M257.9,362.5c-2,0.3-4,0.6-6.1,0.9c-0.2-5.3-0.5-10.5-0.6-15.8c0.1,0,0.1,0,0.2-0.1
			c1,0.8,2.1,1.7,3.1,2.5c0.9,0.7,1.8,1.4,2.6,2.1c0.2,0.2,0.4,0.5,0.4,0.7c0.2,3.1,0.3,6.2,0.4,9.3
			C257.9,362.3,257.9,362.4,257.9,362.5z"/>
		<path class="st8" d="M148.1,361.9c-0.3-0.1-0.6-0.1-0.9-0.1c-1.2-0.1-2.4-0.1-3.7-0.2c0-0.8,0-1.5,0-2.3c-0.1-1.9-0.4-3.8-0.5-5.7
			c-0.3-6-0.6-12-0.8-18c-0.2-4.4-0.3-8.7-0.4-13.1c-0.2-4.7-0.4-9.4-0.6-14.1c-0.1-2.7-0.2-5.3-0.3-8c0-0.7-0.2-1.4-0.3-2.1
			c-0.1-0.4-0.5-0.7-1-0.7c-0.4,0-0.9,0.3-1,0.8c-0.1,0.4-0.2,0.8-0.2,1.3c-0.1,1.7-0.2,3.5-0.1,5.2c0.1,3.3,0.2,6.6,0.3,9.9
			c0.1,3.5,0.3,7.1,0.4,10.6c0,0.5,0,1.1,0,1.6c-3.4,0.1-6.7,0.2-10.1,0.2c0-0.2-0.1-0.4-0.1-0.6c-0.2-4-0.4-8-0.6-12
			c-0.2-5.4-0.4-10.9-0.6-16.3c-0.1-1.4-0.3-2.8-0.6-4.2c-0.3-1.4-1.1-1.9-2.6-1.9c-1.2,0-2.5-0.1-3.7,0c-1.2,0.1-2.4,0.2-3.5,0.4
			c-1,0.2-1.2,0.5-1.2,1.5c0,1.1,0.1,2.2,0.1,3.3c0.3,5.5,0.7,10.9,1,16.4c0.4,5.4,0.8,10.8,1.2,16.2c0.3,3.2,0.5,6.5,0.8,9.7
			c0.3,3.7,0.7,7.4,1.1,11.1c0.4,3.9,0.8,7.8,1.3,11.7c0.1,0.8,0.3,1.6,0.5,2.4c0.3,0.9,0.9,1.4,1.7,1.3c1-0.1,2-0.1,2.9-0.1
			c1.2-0.1,2.4-0.2,3.5-0.4c1.3-0.2,2.1-1.2,1.9-2.7c-0.7-5.7-1.2-11.4-1.8-17.1c-0.5-5.5-0.9-10.9-1.4-16.4c0-0.1,0.1-0.3,0.1-0.5
			c3.3,0,6.6,0,9.9,0c0,0.3,0,0.5,0.1,0.8c0.2,6.4,0.3,12.7,0.6,19.1c0.1,3.1,0.5,6.3,0.7,9.4c0.1,1.1,0.3,2.1,0.5,3.2
			c-0.4,0-0.7,0-1.1,0.1c-0.6,0.1-1.1,0.1-1.6,0.3c-0.4,0.1-0.8,0.4-0.8,0.9c0,0.5,0.4,0.7,0.8,0.8c0.4,0.1,0.8,0.1,1.2,0.1
			c2.5,0,4.9-0.1,7.4-0.1c0.5,0,1-0.1,1.5-0.3c0.4-0.1,0.6-0.5,0.6-0.9C148.8,362.2,148.5,362,148.1,361.9z M119,302.6
			c-0.1-1.4-0.3-2.9-0.4-4.3c0-0.1,0-0.3,0-0.5c0.2,0.1,0.3,0.2,0.4,0.3c1.9,1.9,3.8,3.8,5.6,5.8c0.3,0.3,0.5,0.5,0.5,0.9
			c0,3,0.1,5.9,0.2,8.9c-0.1,0-0.1,0.1-0.2,0.1c-0.4-0.4-0.8-0.8-1.2-1.1c-1.3-1.2-2.7-2.4-4-3.6c-0.3-0.3-0.5-0.6-0.6-1.1
			C119.3,306.2,119.1,304.4,119,302.6z M122.2,339.3c-0.3-4-0.7-8-1-12.1c0-0.3-0.1-0.6-0.1-1.2c0.3,0.2,0.4,0.3,0.5,0.4
			c1.3,1.2,2.5,2.4,3.8,3.6c0.5,0.5,0.7,1,0.8,1.6c0.1,1.9,0.2,3.9,0.4,5.8c0.2,1.8,0.4,3.7,0.5,5.5c0,0.2,0,0.4,0,0.7
			c-0.3-0.2-0.5-0.3-0.6-0.4c-1.2-1-2.5-2-3.7-2.9C122.3,340.1,122.2,339.8,122.2,339.3z M129.3,363.5c-1.7,0.1-3.2,0.2-4.8,0.2
			c-0.4-2.5-0.5-5-0.8-7.7c0.3,0.2,0.5,0.3,0.7,0.4c1.2,0.9,2.5,1.7,3.7,2.6c0.2,0.2,0.5,0.4,0.6,0.7
			C129,360.9,129.1,362.1,129.3,363.5z"/>
		<path class="st8" d="M325.9,365.3c-0.2-0.1-0.5-0.1-0.8-0.1c-1.9-0.1-3.8-0.1-5.7-0.2c-0.1-0.4-0.2-0.7-0.3-1.1
			c-1.1-4.6-2.3-9.3-3.4-14c-1.4-6.1-2.6-12.2-3.6-18.3c-1-6-2.2-12.1-3.3-18.1c-0.9-4.7-2-9.4-3.5-14c-0.5-1.5-1.1-3-1.9-4.4
			c-0.3-0.5-0.6-0.9-1.2-0.8c-0.6,0.1-1,0.5-1.1,1.1c-0.1,0.7-0.3,1.3-0.4,2c-0.8,5.9-1.6,11.9-2.4,17.8c-0.6,4.5-1.4,8.9-2.1,13.4
			c-0.4,2.9-0.9,5.7-1.3,8.6c-0.5,3.6-1,7.1-1.5,10.7c-0.3,2.4-0.5,4.8-0.7,7.2c-0.2,3.1-0.4,6.2-0.5,9.2c-0.1,1.3,0.5,1.9,1.7,2.3
			c0.4,0.1,0.8,0.2,1.2,0.1c1.4-0.1,2.7-0.1,4.1-0.2c1.1-0.1,1.8-0.7,2-1.7c0.2-0.8,0.3-1.5,0.4-2.3c0.7-6.3,1.3-12.7,2-19
			c0.2-1.6,0.4-3.1,0.6-4.7c1.7,0,3.4,0,5.1,0c1.5,5.8,2.9,11.6,4.3,17.4c0.5,2.1,1.2,4.2,1.8,6.3c0.2,0.8,0.6,1.6,0.9,2.4
			c-1.4,0.2-2.8,0.3-4.2,0.4c-0.4,0.1-0.8,0.2-1.2,0.3c-0.3,0.1-0.7,0.4-0.6,0.8c0.1,0.2,0.4,0.5,0.7,0.6c0.4,0.1,0.8,0.1,1.3,0.1
			c1.5,0,3.1-0.1,4.6-0.1c2.8,0,5.6,0,8.5-0.1c0.3,0,0.5,0,0.8-0.1c0.4-0.1,0.6-0.4,0.6-0.8C326.5,365.7,326.2,365.4,325.9,365.3z
			 M301.5,308.3c0.3-2.1,0.6-4.3,0.8-6.4c0.1-0.4,0.1-0.8,0.2-1.3c1.5,4.7,2.3,9.6,3,14.5c-0.2-0.2-0.3-0.4-0.5-0.6
			c-1.1-1.7-2.2-3.4-3.3-5.1C301.5,309.1,301.4,308.6,301.5,308.3z M298.6,363.5c0,0.2-0.1,0.4-0.2,0.7c-1.2,0-2.4,0-3.7,0
			c0.1-3.2,0.4-6.2,0.8-9.4c1.3,1.1,2.4,2,3.5,3c0.1,0.1,0.3,0.4,0.2,0.6C299,360.1,298.8,361.8,298.6,363.5z M300.9,341.2
			c-1.2-1.1-2.2-2.1-3.5-3.2c0.6-4.3,1.2-8.8,1.9-13.4c0.3,0.2,0.4,0.3,0.6,0.5c0.7,0.8,1.3,1.5,2,2.3c0.3,0.4,0.6,0.8,1,1.4
			C302.2,332.6,301.5,336.9,300.9,341.2z M304.4,336.9c0.6-4.3,1.4-8.6,2.5-12.8c0.6,4.2,1.3,8.4,1.9,12.8
			C307.3,336.9,305.9,336.9,304.4,336.9z"/>
		<path class="st8" d="M260.1,294.1c0-0.2,0-0.4,0-0.6c0-0.2-0.1-0.4-0.2-0.6c-0.2-0.4-0.5-0.6-0.9-0.6c-0.4,0-0.7,0.2-0.9,0.6
			c-0.1,0.2-0.1,0.5-0.2,0.8c-0.1,0.6-0.1,1.3-0.2,2c-0.4,0-0.8,0-1.1,0c-3-0.1-6-0.3-8.9-0.3c-5.2,0-10.4-0.2-15.6,0.4
			c-1.9,0.2-3.7,0.4-5.6,0.6c-0.3,0-0.7,0.1-1,0.3c-0.4,0.3-0.4,0.8,0,1c0.2,0.2,0.5,0.3,0.8,0.3c0.6,0,1.2,0,1.9,0
			c1.4,0,2.9-0.1,4.4-0.2c-0.1,0.6-0.1,1-0.1,1.5c-0.2,4.3-0.4,8.6-0.6,12.9c-0.1,3.7-0.2,7.5-0.2,11.2c0,9.2,0,18.4,0.1,27.7
			c0.1,4.2,0.4,8.5,0.5,12.7c0,1.1,0.6,1.8,1.7,2.2c0.6,0.2,1.2,0.3,1.7,0.3c1.9,0,3.9-0.1,5.8-0.1c1,0,1.5-0.5,1.6-1.5
			c0.1-0.9,0.1-1.8,0.1-2.8c-0.1-5.5-0.1-11-0.2-16.5c-0.1-7.4-0.2-14.9-0.2-22.3c-0.1-5.8-0.1-11.6-0.1-17.3c0-1.8,0-3.6,0-5.4
			c0-0.8,0-1.6,0-2.5c5.1,0.1,10.1,0.2,15.2,0.3c0,0.2,0.1,0.5,0.1,0.8c0.1,0.9,0.2,1.8,0.3,2.7c0,0.4,0.1,0.9,0.2,1.3
			c0.1,0.4,0.5,0.7,1,0.6c0.4,0,0.7-0.3,0.8-0.7c0.1-0.2,0.1-0.5,0.1-0.8C260.2,299.3,260.1,296.7,260.1,294.1z M234.1,307.8
			c0-1.2,0.1-2.4,0.1-3.8c0.3,0.2,0.5,0.4,0.7,0.5c1.4,1.1,2.8,2.1,4.2,3.2c0.4,0.3,0.6,0.5,0.6,1c0.1,3.6,0.2,7.1,0.3,10.7
			c0,0.3,0,0.5,0,1c-0.3-0.3-0.6-0.4-0.8-0.6c-1.6-1.3-3.2-2.6-4.9-3.9c-0.3-0.3-0.4-0.5-0.4-0.9
			C234.1,312.6,234.1,310.2,234.1,307.8z M234.2,340.7c0-2.5-0.1-4.9-0.1-7.4c0-0.1,0-0.3,0-0.6c1.1,0.9,2.1,1.8,3,2.6
			c0.8,0.7,1.7,1.4,2.5,2.1c0.3,0.2,0.5,0.5,0.5,0.9c0,3.9,0.1,7.7,0.1,11.6c0,0.1,0,0.2-0.1,0.4c-0.3-0.1-0.5-0.2-0.7-0.3
			c-1.5-0.8-3-1.6-4.5-2.4c-0.5-0.3-0.7-0.6-0.7-1.1C234.3,344.5,234.2,342.6,234.2,340.7z"/>
		<path class="st8" d="M179.4,363.1c-0.8-0.1-1.6-0.2-2.3-0.2c-0.5,0-0.7-0.2-0.9-0.6c-0.6-1.1-1.2-2.2-1.9-3.2
			c-2.6-4.2-5.2-8.4-7.4-12.8c-2.1-4.3-4.2-8.5-6.3-12.8c0-0.1,0-0.2-0.1-0.3c0.2-0.2,0.5-0.4,0.7-0.6c1.5-1.2,3.1-2.4,4.2-4
			c3.2-4.3,3.6-9,2-14c-1.7-5.3-7.8-9.1-13.3-7.7c-0.8,0.2-1.6,0.5-2.4,0.8c-0.5,0.2-0.9,0.6-0.9,1.2c0,2.3-0.1,4.5-0.1,6.8
			c0,7.4,0.4,14.7,0.9,22c0.3,4.2,0.4,8.3,0.6,12.5c0.2,4.5,0.5,9,0.8,13.6c0.1,1.6,0.7,2.3,2.3,2.6c1.4,0.3,2.9,0.4,4.4,0.3
			c1.4-0.1,1.9-0.6,2-2c0.1-1.2,0.2-2.4,0.1-3.5c-0.2-3.2-0.4-6.5-0.7-9.7c-0.3-3.5-0.5-7-0.8-10.5c0-0.3,0-0.7,0-1
			c0.1,0,0.1,0,0.2-0.1c3.6,8.1,7.9,15.9,13.2,23.2c-1.2,0.1-2.3,0.2-3.3,0.3c-0.4,0-0.9,0.1-1.2,0.3c-0.6,0.3-0.5,1,0,1.2
			c0.3,0.2,0.8,0.2,1.1,0.2c2.5,0,5,0,7.5,0c0.5,0,1-0.1,1.5-0.1c0.5-0.1,0.8-0.3,0.8-0.8C180.3,363.5,180,363.2,179.4,363.1z
			 M153.5,330.2c-0.2-4.2-0.4-8.4-0.6-12.7c0-0.1,0-0.1,0.1-0.3c0.2,0.2,0.5,0.3,0.7,0.5c1.1,0.8,2.1,1.7,3.2,2.5
			c0.3,0.3,0.5,0.5,0.5,1c0,3.9,0.1,7.8,0.2,11.7c0,0.1,0,0.1-0.1,0.3c-0.3-0.2-0.5-0.3-0.7-0.4c-0.9-0.6-1.8-1.2-2.7-1.8
			C153.8,330.8,153.5,330.6,153.5,330.2z M154.6,347.3c-0.1-0.8-0.1-1.7-0.2-2.7c1.3,0.7,2.5,1.3,3.6,1.9c0.4,0.2,0.4,0.5,0.4,0.8
			c0.1,1.3,0.2,2.5,0.3,3.8c0.1,1.7,0.2,3.4,0.4,5.3c-0.4-0.2-0.7-0.4-0.9-0.5c-0.9-0.5-1.7-1.1-2.6-1.6c-0.4-0.2-0.6-0.5-0.6-0.9
			C154.9,351.4,154.8,349.4,154.6,347.3z M160,330.3c-0.1-7.1-0.2-14-0.3-21c1.8,0.8,3.2,1.9,4.3,3.5c0.9,1.3,1.3,2.7,1.6,4.2
			C166.7,322.3,164.6,327.3,160,330.3z"/>
		<path class="st8" d="M221.3,339c-1.8-3.2-4-6.3-6.5-9c-2.5-2.8-5.1-5.5-7.7-8.2c-0.4-0.5-0.7-0.9-0.6-1.6c0-0.6,0.1-1.1,0-1.7
			c0-4.1-0.1-8.3-0.1-12.4c0-2.8-0.1-5.5-0.1-8.3c0-0.2,0-0.4,0.1-0.6c3,0.2,5.9,2.5,7.4,6.2c-0.3,0.3-0.6,0.7-0.9,1
			c-0.9,1-1.7,2-2.6,3c-0.3,0.3-0.5,0.7-0.7,1.1c-0.1,0.2-0.1,0.6,0.1,0.7c0.2,0.2,0.5,0.2,0.8,0.2c0.3,0,0.5-0.2,0.8-0.4
			c0.6-0.5,1.2-1,1.7-1.5c2.8-2.6,4.9-5.7,7-8.8c0.1-0.1,0.1-0.2,0.2-0.3c0.2-0.4,0.1-0.7-0.2-1c-0.3-0.3-0.7-0.3-1,0
			c-0.3,0.2-0.5,0.4-0.7,0.7c-1,1.2-2,2.4-3,3.5c-0.7-1.1-1.3-2.1-2-3c-2.3-2.7-5.2-3.8-8.7-3.6c-2.4,0.2-4.3,1.3-6.1,2.8
			c-3.3,3-4.8,6.6-3.9,11c0.4,2.2,1.3,4.2,2.6,6c1.2,1.7,2.4,3.5,3.8,5c2.2,2.5,4.6,4.9,7,7.4c3.7,3.9,7.3,7.9,10,12.5
			c1.4,2.4,2.5,4.9,2.8,7.7c0.6,6.3-2,11.1-7.2,14.5c-0.5,0.3-1,0.6-1.6,0.8c-0.7,0.2-1.3,0.4-2,0.4c-3.4-0.1-6.1-2.4-6.9-4.9
			c-0.4-1.4-0.7-2.8-1-4.2c-0.3-1.6-0.4-3.3-0.6-4.9c-0.1-0.6-0.3-0.9-0.8-1c-0.5-0.1-0.9,0.2-1.2,0.7c-0.1,0.2-0.1,0.4-0.1,0.7
			c-0.1,2.5-0.2,5,0.2,7.5c0.4,2.1,1.1,4,2.5,5.6c3.6,3.9,9.3,4.6,13.7,1.7c5-3.4,7.7-8.2,8.1-14.1
			C224.5,346.1,223.3,342.5,221.3,339z M198.2,302.1c2,1.3,4,2.5,6,3.8c0,1.5,0,3,0,4.7c-2.6-1-4.5-2.7-6.9-3.6
			C197.1,305.2,197.4,303.7,198.2,302.1z"/>
		<path class="st8" d="M192.6,359.4c-0.1-2-0.2-3.9-0.3-5.9c-0.3-4.4-0.5-8.8-0.8-13.3c-0.1-1.8-0.2-3.7-0.3-5.5
			c-0.2-3.6-0.4-7.1-0.5-10.7c-0.2-3.6-0.3-7.2-0.4-10.8c0-1-0.5-1.7-1.4-2c-1.7-0.7-3.5-0.7-5.3-0.4c-0.7,0.1-1.1,0.5-1.2,1.2
			c-0.1,0.5-0.2,1.1-0.2,1.7c0,4.2-0.1,8.4,0,12.6c0.1,4.6,0.3,9.2,0.4,13.8c0.1,2.4,0.1,4.7,0.3,7.1c0.2,3.3,0.3,6.7,0.5,10
			c0.1,2.1,0.2,4.1,0.4,6.2c0.1,1.3,0.6,1.8,1.9,2c1.9,0.3,3.7,0,5.6,0c0.7,0,1.1-0.5,1.2-1.1c0.1-0.4,0.2-0.8,0.2-1.3
			C192.7,361.7,192.7,360.6,192.6,359.4C192.6,359.4,192.6,359.4,192.6,359.4z M184.2,319.5c0-0.1,0-0.2,0.1-0.5
			c1.3,1.1,2.5,2.1,3.7,3.1c0.2,0.2,0.3,0.6,0.4,0.9c0.1,0.7,0.1,1.5,0.1,2.3c0.1,3.3,0.2,6.5,0.3,9.8c0,0.1,0,0.1-0.1,0.2
			c-0.1-0.1-0.3-0.2-0.4-0.3c-1.1-0.9-2.2-1.9-3.3-2.8c-0.3-0.2-0.5-0.4-0.5-0.9C184.5,327.4,184.4,323.4,184.2,319.5z M190.4,363.2
			c-1.4-0.1-2.8-0.1-4.3-0.2c-0.4-4.3-0.3-8.4-0.6-12.7c0.4,0.2,0.6,0.3,0.8,0.5c1,0.6,2.1,1.3,3.1,1.9c0.3,0.2,0.6,0.4,0.6,0.8
			c0.2,3.1,0.4,6.3,0.5,9.4C190.5,362.9,190.4,363,190.4,363.2z"/>
	</g>
</g>
</svg>
