<?xml version="1.0" encoding="iso-8859-1"?>
<!-- Generator: Adobe Illustrator 19.0.0, SVG Export Plug-In . SVG Version: 6.00 Build 0)  -->
<svg version="1.1" id="Capa_1" xmlns="http://www.w3.org/2000/svg" xmlns:xlink="http://www.w3.org/1999/xlink" x="0px" y="0px"
	 viewBox="0 0 503.911 503.911" style="enable-background:new 0 0 503.911 503.911;" xml:space="preserve">
<g>
	<g>
		<g>
			<path d="M443.956,215.911v-10.667c0-5.891-4.776-10.667-10.667-10.667h-0.687c-3.753-30.071-23.138-55.268-49.778-67.214
				l38.668-77.338l-19.081-9.54L362.104,121.1c-0.244-0.041-0.484-0.091-0.729-0.13L390.282,5.167L369.584,0l-30.036,120.328
				c-0.956,0.094-1.902,0.221-2.849,0.346c-4.911-42.459-40.967-75.429-84.743-75.429s-79.832,32.97-84.743,75.429
				c-0.197-0.026-0.393-0.05-0.59-0.075V66.578c-0.035-29.441-23.893-53.298-53.333-53.333H70.622v21.333h42.667
				c17.673,0,32,14.327,32,32v54.021c-4.603,0.574-9.091,1.51-13.436,2.788l-0.352-0.352l-0.63,0.63
				c-31.601,9.705-55.363,37.268-59.561,70.913h-0.687c-5.891,0-10.667,4.776-10.667,10.667v10.667
				c0.111,95.083,69.251,173.976,160,189.296v38.141l-99.968,39.987c-4.064,1.619-6.728,5.555-6.719,9.93
				c0.011,5.891,4.796,10.657,10.687,10.646h256c4.375,0.008,8.311-2.655,9.93-6.719c2.18-5.473-0.489-11.677-5.962-13.857
				l-99.968-39.987v-38.141C374.705,389.887,443.845,310.994,443.956,215.911z M326.622,269.245
				c-5.891,0-10.667,4.776-10.667,10.667s-4.776,10.667-10.667,10.667c-5.891,0-10.667-4.776-10.667-10.667v-21.333
				c0-5.891-4.776-10.667-10.667-10.667H84.297c-1.967-10.367-3.008-21.061-3.008-32h341.333c0,10.939-1.042,21.633-3.008,32
				h-50.325c-5.891,0-10.667,4.776-10.667,10.667v32c0,5.891-4.776,10.667-10.667,10.667c-5.891,0-10.667-4.776-10.667-10.667
				v-10.667C337.289,274.02,332.513,269.245,326.622,269.245z M411.054,194.578H284.857c5.08-30.266,31.388-53.333,63.098-53.333
				S405.974,164.312,411.054,194.578z M251.956,66.578c27.712,0,51.304,17.615,60.205,42.257c-3.579-0.869-6.021-3.155-9.997-7.132
				c-1.648-2.04-3.508-3.9-5.548-5.548c-15.947-12.883-39.318-10.399-52.202,5.548c-5.259,5.227-7.797,7.541-13.792,7.541
				c-5.995,0-8.565-2.315-13.792-7.541c-4.044-4.893-9.195-8.63-14.937-10.973C213.619,76.018,231.68,66.578,251.956,66.578z
				 M191.492,109.599c3.711,0.821,6.162,3.118,10.256,7.187c1.648,2.04,3.508,3.9,5.548,5.548
				c15.947,12.883,39.318,10.399,52.202-5.548c5.259-5.227,7.797-7.541,13.792-7.541c5.995,0,8.533,2.315,13.792,7.541
				c5.467,6.615,12.96,11.114,21.202,12.911c-24.151,12.709-41.45,36.649-44.973,64.881h-22.708
				c-3.879-31.079-24.454-56.957-52.481-68.375C188.512,120.424,189.668,114.857,191.492,109.599z M155.956,141.245
				c31.71,0,58.018,23.067,63.098,53.333h-16.009l-53.047-53.047C151.96,141.349,153.946,141.245,155.956,141.245z M126.651,148.354
				l46.224,46.224h-33.83l-31.346-31.346C112.997,157.152,119.421,152.086,126.651,148.354z M96.319,182.022l12.556,12.556H92.857
				C93.588,190.227,94.758,186.028,96.319,182.022z M89.8,269.245h183.489v10.667c0.002,5.497,1.42,10.901,4.117,15.69
				c8.672,15.399,28.185,20.853,43.584,12.182c5.874,9.211,16.041,14.789,26.965,14.795c17.673,0,32-14.327,32-32v-21.333h34.156
				c-22.397,68.135-86.526,117.333-162.156,117.333S112.197,337.379,89.8,269.245z M179.337,482.578l53.359-21.333h38.519
				l53.359,21.333H179.337z M262.622,407.911v32h-21.333v-32H262.622z"/>
			<rect x="315.956" y="237.245" width="21.333" height="21.333"/>
			<rect x="134.622" y="290.578" width="21.333" height="21.333"/>
			<rect x="177.289" y="290.578" width="21.333" height="21.333"/>
			<rect x="177.289" y="333.245" width="21.333" height="21.333"/>
			<rect x="315.956" y="162.578" width="21.333" height="21.333"/>
			<rect x="358.622" y="162.578" width="21.333" height="21.333"/>
		</g>
	</g>
</g>
<g>
</g>
<g>
</g>
<g>
</g>
<g>
</g>
<g>
</g>
<g>
</g>
<g>
</g>
<g>
</g>
<g>
</g>
<g>
</g>
<g>
</g>
<g>
</g>
<g>
</g>
<g>
</g>
<g>
</g>
</svg>
