<?xml version="1.0" encoding="iso-8859-1"?>
<!-- Generator: Adobe Illustrator 19.0.0, SVG Export Plug-In . SVG Version: 6.00 Build 0)  -->
<svg version="1.1" id="Capa_1" xmlns="http://www.w3.org/2000/svg" xmlns:xlink="http://www.w3.org/1999/xlink" x="0px" y="0px"
	 viewBox="0 0 512 512" style="enable-background:new 0 0 512 512;" xml:space="preserve">
<g>
	<g>
		<g>
			<rect x="42.667" y="362.667" width="21.333" height="21.333"/>
			<rect x="42.667" y="277.333" width="21.333" height="21.333"/>
			<rect x="42.667" y="448" width="21.333" height="21.333"/>
			<rect x="448" y="277.333" width="21.333" height="21.333"/>
			<rect x="448" y="448" width="21.333" height="21.333"/>
			<path d="M512,266.667c0-17.673-14.327-32-32-32h-3.478c1.793-14.162,2.959-28.397,3.478-42.667
				c0-45.099-31.102-82.928-73.025-93.226l37.9-37.9l-15.083-15.083l-35.125,35.125V21.333h10.667V0h-42.667v21.333h10.667v38.243
				l-24.45-24.45l-15.085,15.085l39.535,39.535v6.846c-8.703,0.962-17.055,3.084-24.898,6.214
				c-5.833-13.403-18.099-23.42-33.14-26.007c-7.19-14.379-21.886-23.464-37.963-23.467c-5.148-0.006-10.253,0.934-15.061,2.773
				c-5.448-11.338-15.633-19.685-27.82-22.8c-22.773-5.821-45.953,7.92-51.775,30.693c-0.189-0.004-0.378-0.007-0.567-0.009
				c-23.781-0.212-43.232,18.894-43.444,42.675c0.041,10.334,3.831,20.303,10.667,28.053v15.204
				c-14.459,1.599-27.949,6.407-39.744,13.699l17.87-53.58l-20.237-6.749l-32.016,95.996l0.454,0.151
				c-0.338,0.62-0.668,1.245-0.993,1.874V85.333H53.333v100.37l-10.838-59.608l-20.989,3.816l19.047,104.755H32
				c-17.673,0-32,14.327-32,32v42.667c0,8.197,3.086,15.672,8.155,21.333C3.086,336.328,0,343.803,0,352v42.667
				c0,8.197,3.086,15.672,8.155,21.333C3.086,421.662,0,429.136,0,437.333V480c0,17.673,14.327,32,32,32h448
				c17.673,0,32-14.327,32-32v-42.667c0-8.197-3.086-15.672-8.155-21.333c5.069-5.662,8.155-13.136,8.155-21.333V352
				c0-8.197-3.086-15.672-8.155-21.333c5.069-5.662,8.155-13.136,8.155-21.333V266.667z M445.261,149.333H416v21.333h39.557
				c2.013,6.762,3.11,13.918,3.11,21.333c-0.567,14.272-1.796,28.509-3.662,42.667H312.996c-0.935-7.093-1.71-14.206-2.319-21.333
				H352V192h-42.667c0-41.237,33.429-74.667,74.667-74.667C409.368,117.333,431.767,129.996,445.261,149.333z M189.079,176.525
				c-15.535,15.109-25.97,35.429-28.485,58.141H86.116c5.211-36.161,36.29-63.957,73.885-64
				C170.062,170.626,179.944,172.657,189.079,176.525z M191.337,208.002c19.789-34.275,62.643-46.906,97.632-29.641
				c-0.539,3.79-0.86,7.65-0.943,11.568c-9.611-5.555-20.629-8.596-32.026-8.596c-31.71,0-58.018,23.067-63.098,53.333h-10.793
				C183.461,225.305,186.575,216.25,191.337,208.002z M230.4,211.2c18.696-14.022,45.149-10.371,59.375,8.08
				c0.482,5.138,1.055,10.266,1.703,15.386h-76.774C217.101,225.39,222.568,217.074,230.4,211.2z M181.333,85.333
				c2.469,0.025,4.914,0.487,7.221,1.365c1.372,0.499,2.831,0.711,4.289,0.623c5.88-0.355,10.36-5.409,10.005-11.29
				c-0.011-0.299-0.181-1.099-0.181-1.365c-0.039-11.248,8.689-20.58,19.914-21.291c11.717-0.742,21.818,8.155,22.56,19.872
				c0.166,2.414,1.148,4.7,2.785,6.483c3.984,4.339,10.732,4.627,15.071,0.642c2.307-2.155,5.068-3.765,8.08-4.71
				c11.102-3.481,22.924,2.696,26.405,13.798c1.238,3.776,4.474,6.551,8.395,7.2c16.256,2.669,21.852,10.847,23.78,16.197
				c-15.811,10.878-28.199,26.367-35.223,44.531c-12.084-5.28-25.158-8.041-38.421-8.043c-17.5-0.002-33.904,4.68-48.033,12.858
				c-11.449-6.608-24.149-10.787-37.313-12.259v-19.578c0.002-3.021-1.277-5.901-3.52-7.925c-4.535-3.99-7.138-9.736-7.147-15.776
				C160,94.885,169.551,85.333,181.333,85.333z M21.333,480v-42.667c0-5.891,4.776-10.667,10.667-10.667h96v-21.333H32
				c-5.891,0-10.667-4.776-10.667-10.667V352c0-5.891,4.776-10.667,10.667-10.667h298.667V320H32
				c-5.891,0-10.667-4.776-10.667-10.667v-42.667C21.333,260.776,26.109,256,32,256h448c5.891,0,10.667,4.776,10.667,10.667v42.667
				c0,5.891-4.776,10.667-10.667,10.667H352v21.333h128c5.891,0,10.667,4.776,10.667,10.667v42.667
				c0,5.891-4.776,10.667-10.667,10.667h-71.195c-11.984-25.224-37.688-42.667-67.471-42.667s-55.487,17.443-67.472,42.667H149.333
				v21.333h74.676c-6.885,9.178-10.676,20.392-10.676,31.999c0,12.007,3.97,23.087,10.666,32.001H32
				C26.109,490.667,21.333,485.891,21.333,480z M341.333,490.667c-29.455,0-53.333-23.878-53.333-53.333S311.878,384,341.333,384
				c29.441,0.035,53.298,23.893,53.333,53.333C394.667,466.789,370.789,490.667,341.333,490.667z M266.97,443.89l-17.23-17.224
				h17.697c-0.499,3.485-0.771,7.044-0.771,10.667C266.667,439.545,266.782,441.728,266.97,443.89z M237.781,444.864l42.667,42.667
				c-8.722,4.166-18.86,4.166-27.582,0C236.919,479.914,230.165,460.812,237.781,444.864z M490.667,480
				c0,5.891-4.776,10.667-10.667,10.667h-86.483c13.848-13.551,22.459-32.432,22.483-53.333c0-3.623-0.272-7.182-0.771-10.667H480
				c5.891,0,10.667,4.776,10.667,10.667V480z"/>
			<rect x="373.333" y="192" width="21.333" height="21.333"/>
			<rect x="373.333" y="149.333" width="21.333" height="21.333"/>
			<rect x="341.333" y="394.667" width="21.333" height="21.333"/>
			<rect x="362.667" y="426.667" width="21.333" height="21.333"/>
			<rect x="192" y="117.333" width="21.333" height="21.333"/>
			<rect x="234.667" y="117.333" width="21.333" height="21.333"/>
			<rect x="213.333" y="74.667" width="21.333" height="21.333"/>
		</g>
	</g>
</g>
<g>
</g>
<g>
</g>
<g>
</g>
<g>
</g>
<g>
</g>
<g>
</g>
<g>
</g>
<g>
</g>
<g>
</g>
<g>
</g>
<g>
</g>
<g>
</g>
<g>
</g>
<g>
</g>
<g>
</g>
</svg>
