<?xml version="1.0" encoding="iso-8859-1"?>
<!-- Generator: Adobe Illustrator 19.0.0, SVG Export Plug-In . SVG Version: 6.00 Build 0)  -->
<svg version="1.1" id="Capa_1" xmlns="http://www.w3.org/2000/svg" xmlns:xlink="http://www.w3.org/1999/xlink" x="0px" y="0px"
	 viewBox="0 0 512 512" style="enable-background:new 0 0 512 512;" xml:space="preserve">
<g>
	<g>
		<path d="M488,152h-16V72c-0.044-39.746-32.254-71.956-72-72h-88c-4.418,0-8,3.582-8,8v48c0,4.418-3.582,8-8,8h-80
			c-4.418,0-8-3.582-8-8V8c0-4.418-3.582-8-8-8h-88C72.254,0.044,40.044,32.254,40,72v80H24c-13.255,0-24,10.745-24,24v80
			c0,13.255,10.745,24,24,24h16v80c0.044,39.746,32.254,71.956,72,72h16v-16h-16c-30.911-0.04-55.96-25.089-56-56v-88
			c0-4.418-3.582-8-8-8H24c-4.418,0-8-3.582-8-8v-80c0-4.418,3.582-8,8-8h16v40h16v-48V72c0.035-30.913,25.087-55.965,56-56h80v40
			c0,13.255,10.745,24,24,24h80c13.255,0,24-10.745,24-24V16h80c30.913,0.035,55.965,25.087,56,56v88c0,4.418,3.582,8,8,8h24
			c4.418,0,8,3.582,8,8v80c0,4.418-3.582,8-8,8h-16v-40h-16v48v88c-0.04,30.911-25.089,55.96-56,56h-16v16h16
			c39.746-0.044,71.956-32.254,72-72v-80h16c13.255,0,24-10.745,24-24v-80C512,162.745,501.255,152,488,152z"/>
	</g>
</g>
<g>
	<g>
		<path d="M359.2,388.424l-8-16c-0.852-1.685-2.267-3.018-4-3.768l-53.12-22.976l-4.274-13.254C303.644,321.24,312,302.684,312,280
			v-16v-48c0-2.122-0.844-4.156-2.344-5.656C294.713,197.702,275.555,191.152,256,192c-19.555-0.848-38.712,5.702-53.656,18.344
			c-1.5,1.5-2.344,3.534-2.344,5.656v48v16c0,22.678,8.351,41.229,22.182,52.416l-4.278,13.264l-53.064,22.976
			c-1.733,0.75-3.148,2.083-4,3.768l-8,16c-0.554,1.111-0.841,2.335-0.84,3.576v120h16V393.888l5.84-11.712l48.17-20.854
			l25.99,25.99V416h16v-28.688l25.987-25.987l48.165,20.851L344,393.888V512h16V392C360.014,390.762,359.74,389.538,359.2,388.424z
			 M216,219.728c11.731-8.097,25.754-12.209,40-11.728c14.245-0.483,28.268,3.625,40,11.72v35.125c-4-1.052-8-3.053-8-6.845
			c0-4.418-3.582-8-8-8h-48c-4.418,0-8,3.582-8,8c0,3.792-4,5.792-8,6.845V219.728z M256,372.688l-22.695-22.695l3.05-9.463
			c6.011,2.259,12.599,3.47,19.645,3.47c7.042,0,13.626-1.21,19.634-3.466l3.055,9.466L256,372.688z M256,328
			c-29.52,0-40-25.856-40-48v-8.752c9.619-0.917,18.113-6.661,22.544-15.248h34.912c4.431,8.587,12.925,14.331,22.544,15.248V280
			C296,302.144,285.52,328,256,328z"/>
	</g>
</g>
<g>
	<g>
		<rect x="192" y="464" width="16" height="48"/>
	</g>
</g>
<g>
	<g>
		<rect x="304" y="464" width="16" height="48"/>
	</g>
</g>
<g>
	<g>
		<path d="M120,40c-0.973-0.037-1.947-0.037-2.919,0C95.795,40.806,79.194,58.715,80,80h16c-0.043-0.816-0.042-1.634,0.002-2.45
			c0.69-12.591,11.455-22.239,24.046-21.55L120,40z"/>
	</g>
</g>
<g>
	<g>
		<path d="M432,352h-16c0.043,0.816,0.042,1.634-0.002,2.45c-0.69,12.591-11.455,22.239-24.046,21.55L392,392
			c0.973,0.037,1.947,0.037,2.919,0C416.204,391.194,432.806,373.285,432,352z"/>
	</g>
</g>
<g>
</g>
<g>
</g>
<g>
</g>
<g>
</g>
<g>
</g>
<g>
</g>
<g>
</g>
<g>
</g>
<g>
</g>
<g>
</g>
<g>
</g>
<g>
</g>
<g>
</g>
<g>
</g>
<g>
</g>
</svg>
