<?xml version="1.0" encoding="iso-8859-1"?>
<!-- Generator: Adobe Illustrator 19.0.0, SVG Export Plug-In . SVG Version: 6.00 Build 0)  -->
<svg version="1.1" id="Capa_1" xmlns="http://www.w3.org/2000/svg" xmlns:xlink="http://www.w3.org/1999/xlink" x="0px" y="0px"
	 viewBox="0 0 512.024 512.024" style="enable-background:new 0 0 512.024 512.024;" xml:space="preserve">
<g>
	<g>
		<g>
			<rect x="362.667" y="341.345" width="21.333" height="21.333"/>
			<rect x="213.333" y="117.345" width="21.333" height="21.333"/>
			<rect x="213.333" y="74.679" width="21.333" height="21.333"/>
			<path d="M330.667,416.012v21.333c29.441-0.035,53.298-23.893,53.333-53.333h-21.333
				C362.667,401.685,348.34,416.012,330.667,416.012z"/>
			<path d="M506.336,219.49c-6.692-5.192-15.22-7.413-23.595-6.144h-56.075v-42.667c-0.024-19.753-10.779-36.979-26.742-46.197
				c3.415-5.09,5.409-11.213,5.409-17.803c0-14.76-9.997-27.179-23.586-30.874c1.448-3.65,2.253-7.626,2.253-11.792
				c0-17.673-14.327-32-32-32H181.333c-17.673,0-32,14.327-32,32c0,4.166,0.805,8.142,2.253,11.792
				C137.997,79.5,128,91.919,128,106.679c0,6.59,1.994,12.713,5.409,17.803c-15.962,9.218-26.718,26.444-26.742,46.197v117.333H32
				c-17.673,0-32,14.327-32,32c0,8.197,3.086,15.672,8.155,21.333C3.086,347.007,0,354.482,0,362.679c0,17.673,14.327,32,32,32
				h1.828c-1.18,3.337-1.828,6.925-1.828,10.667c0,3.741,0.648,7.33,1.828,10.667H32c-17.673,0-32,14.327-32,32s14.327,32,32,32
				h170.667h128c52.995-0.059,95.941-43.005,96-96v-10.667h10.667c41.218-0.047,74.62-33.449,74.667-74.667v-64
				C512.274,229.053,510.226,223.562,506.336,219.49z M405.333,181.345H288v-42.667h85.333c17.673,0,32,14.327,32,32V181.345z
				 M149.333,106.679c0-5.891,4.776-10.667,10.667-10.667h21.333V74.679c-5.891,0-10.667-4.776-10.667-10.667
				s4.776-10.667,10.667-10.667H352c5.891,0,10.667,4.776,10.667,10.667S357.891,74.679,352,74.679v21.333h21.333
				c5.891,0,10.667,4.776,10.667,10.667s-4.776,10.667-10.667,10.667h-96v10.667h-10.667v57.387
				c0.316,7.644-4.567,14.539-11.883,16.779c-4.867,1.261-10.044,0.185-14.005-2.912c-3.869-3.029-6.124-7.673-6.112-12.587
				c0-5.891-4.776-10.667-10.667-10.667s-10.667,4.776-10.667,10.667v32c0.065,5.309-2.281,10.362-6.379,13.739
				c-3.518,2.768-8.134,3.717-12.459,2.56c-7.687-2.454-12.972-9.512-13.163-17.579v-89.387h-10.667v-10.667H160
				C154.109,117.345,149.333,112.57,149.333,106.679z M160,138.679v42.667h-32v-10.667C128,153.006,142.327,138.679,160,138.679z
				 M32,309.345h170.667c5.891,0,10.667,4.776,10.667,10.667s-4.776,10.667-10.667,10.667H32c-5.891,0-10.667-4.776-10.667-10.667
				S26.109,309.345,32,309.345z M21.333,362.679c0-5.891,4.776-10.667,10.667-10.667h170.667c5.891,0,10.667,4.776,10.667,10.667
				s-4.776,10.667-10.667,10.667H64H32C26.109,373.346,21.333,368.57,21.333,362.679z M53.333,405.346
				c0-5.891,4.776-10.667,10.667-10.667h138.667h32c5.891,0,10.667,4.776,10.667,10.667c0,5.891-4.776,10.667-10.667,10.667h-32H64
				C58.109,416.012,53.333,411.237,53.333,405.346z M32,458.679c-5.891,0-10.667-4.776-10.667-10.667
				c0-5.891,4.776-10.667,10.667-10.667h32h138.667c5.891,0,10.667,4.776,10.667,10.667c0,5.891-4.776,10.667-10.667,10.667H32z
				 M330.667,458.679h-97.828c1.18-3.337,1.828-6.925,1.828-10.667c0-3.741-0.648-7.33-1.828-10.667h1.828c17.673,0,32-14.327,32-32
				s-14.327-32-32-32h-1.828c1.18-3.337,1.828-6.925,1.828-10.667c0-8.197-3.086-15.672-8.155-21.333
				c5.069-5.662,8.155-13.136,8.155-21.333c0-17.673-14.327-32-32-32H128v-85.333h32v14.72
				c0.306,17.898,12.316,33.476,29.547,38.325c2.898,0.708,5.87,1.066,8.853,1.067c7.919,0.018,15.609-2.66,21.803-7.595
				c8.759-7.057,14.034-17.56,14.464-28.8c7.826,3.717,16.696,4.618,25.109,2.549c10.955-2.987,19.688-10.547,24.398-20.267h121.16
				v181.333C405.286,425.23,371.884,458.632,330.667,458.679z M490.667,298.679c-0.035,29.441-23.893,53.298-53.333,53.333h-10.667
				V234.679h56.235c2.59-0.073,5.182-0.012,7.765,0.181V298.679z"/>
		</g>
	</g>
</g>
<g>
</g>
<g>
</g>
<g>
</g>
<g>
</g>
<g>
</g>
<g>
</g>
<g>
</g>
<g>
</g>
<g>
</g>
<g>
</g>
<g>
</g>
<g>
</g>
<g>
</g>
<g>
</g>
<g>
</g>
</svg>
