<?xml version="1.0" encoding="iso-8859-1"?>
<!-- Generator: Adobe Illustrator 19.0.0, SVG Export Plug-In . SVG Version: 6.00 Build 0)  -->
<svg version="1.1" id="Capa_1" xmlns="http://www.w3.org/2000/svg" xmlns:xlink="http://www.w3.org/1999/xlink" x="0px" y="0px"
	 viewBox="0 0 511.999 511.999" style="enable-background:new 0 0 511.999 511.999;" xml:space="preserve">
<g>
	<g>
		<path d="M503.711,266.547c-24.06-12.044-44.458-29.094-58.992-49.307c-5.226-7.268-15.64-8.372-22.271-2.34
			c-14.979,13.624-32.802,24.149-53.109,31.381c-6.944-16.544-9.897-38.918-7.985-62.301c2.35-28.726,11.79-53.913,25.252-67.375
			c9.407-9.406,2.749-25.606-10.606-25.606c-32.519,0-62.699-16.138-80.755-43.176L268.572,6.82c-5.908-9.083-19.238-9.087-25.148,0
			l-26.668,41c-18.055,27.039-48.238,43.178-80.756,43.178c-13.304,0-20.05,16.164-10.606,25.607
			c13.462,13.462,22.902,38.65,25.252,67.375c1.913,23.384-1.042,45.757-7.985,62.301c-20.309-7.232-38.132-17.758-53.109-31.381
			c-6.624-6.025-17.039-4.939-22.272,2.34c-14.529,20.208-34.931,37.264-58.998,49.325c-7.113,3.565-10.206,12.064-7.046,19.366
			c10.939,25.285,15.552,50.521,13.71,75.008c-0.321,4.272,1.2,8.479,4.18,11.557c5.534,5.719,11.349,4.407,18,4.407
			c16.166,0,32.208,2.537,47.872,7.557l-22.413,44.826c-5.948,11.898,5.491,25.162,18.16,20.938l160.255-53.418v100.188
			c0,8.284,6.716,15,15,15c8.284,0,15-6.716,15-15V396.805l160.255,53.418c12.619,4.208,24.133-8.993,18.159-20.938l-22.413-44.828
			c15.661-5.018,31.7-7.554,47.858-7.554c6.6,0,12.46,1.315,17.999-4.406c2.98-3.079,4.502-7.285,4.181-11.559
			c-1.841-24.464,2.777-49.705,13.726-75.025C513.922,278.609,510.826,270.109,503.711,266.547z M466.674,347.085
			c-22.633,1.004-44.949,6.171-66.454,15.399c-7.93,3.403-11.356,12.785-7.501,20.493l13.668,27.337L299.59,374.714l111.979-44.791
			c7.691-3.077,11.433-11.806,8.355-19.498c-3.076-7.691-11.802-11.433-19.498-8.356L270.998,353.84V165.997c0-8.284-6.716-15-15-15
			s-15,6.716-15,15v187.842l-129.427-51.771c-7.693-3.077-16.422,0.665-19.498,8.356c-3.077,7.692,0.665,16.421,8.356,19.498
			l111.979,44.792l-106.797,35.599l13.667-27.334c3.856-7.714,0.423-17.092-7.5-20.492c-21.506-9.23-43.828-14.399-66.467-15.403
			c-0.379-19.967-4.219-40.147-11.476-60.284c18.316-10.77,34.534-24.155,47.85-39.479c18.64,14.107,40.225,24.681,64.367,31.511
			c6.392,1.808,13.214-0.803,16.763-6.419c14.159-22.402,20.622-55.526,17.73-90.879c-1.965-24.029-8.095-45.964-17.456-63.438
			c31.872-6.923,60.157-25.927,78.671-53.701c0.031-0.047,0.063-0.094,0.093-0.141l14.145-21.746l14.145,21.746
			c0.03,0.047,0.062,0.094,0.093,0.141c18.515,27.775,46.799,46.777,78.671,53.701c-9.36,17.474-15.49,39.41-17.455,63.438
			c-2.893,35.354,3.57,68.477,17.729,90.879c3.549,5.615,10.369,8.228,16.764,6.419c24.143-6.831,45.727-17.405,64.367-31.511
			c13.318,15.327,29.537,28.71,47.849,39.47C470.9,306.945,467.056,327.127,466.674,347.085z"/>
	</g>
</g>
<g>
</g>
<g>
</g>
<g>
</g>
<g>
</g>
<g>
</g>
<g>
</g>
<g>
</g>
<g>
</g>
<g>
</g>
<g>
</g>
<g>
</g>
<g>
</g>
<g>
</g>
<g>
</g>
<g>
</g>
</svg>
