<?xml version="1.0" encoding="iso-8859-1"?>
<!-- Generator: Adobe Illustrator 16.0.0, SVG Export Plug-In . SVG Version: 6.00 Build 0)  -->
<!DOCTYPE svg PUBLIC "-//W3C//DTD SVG 1.1//EN" "http://www.w3.org/Graphics/SVG/1.1/DTD/svg11.dtd">
<svg version="1.1" id="Capa_1" xmlns="http://www.w3.org/2000/svg" xmlns:xlink="http://www.w3.org/1999/xlink" x="0px" y="0px"
	 width="933.7px" height="933.7px" viewBox="0 0 933.7 933.7" style="enable-background:new 0 0 933.7 933.7;" xml:space="preserve"
	>
<g>
	<path d="M382.7,47.5v245.6c27,0,57-0.1,86-0.1V176.5c0-13.8,11.2-25,25-25h329c13.8,0,25,11.2,25,25v509c0,13.8-11.2,25-25,25
		h-211.6c-3.301,11.3-7.301,22.5-12,33.5c-15.2,36-36.7,68.4-64,96.5h373.6c13.8,0,25-11.2,25-25v-768c0-13.8-11.2-25-25-25h-501
		C393.9,22.5,382.7,33.7,382.7,47.5z M658.2,809c-19.1,0-34.5-15.4-34.5-34.5s15.4-34.5,34.5-34.5s34.5,15.4,34.5,34.5
		S677.3,809,658.2,809z"/>
	<path d="M289.7,911.2L289.7,911.2c72,0,138.4-26.601,189.1-70.7c39.5-34.3,69.7-79,86.101-130c9-28,13.7-57.9,13.7-88.9l0,0
		c0-52.8-14-102-38.7-144.699L591.5,364.8c7.101-15.5-4.1-33.3-21.2-33.3l0,0c-26,0-63,0.4-101.699,0.5c-29.101,0-59,0.1-86,0.1
		c-51.301,0.1-92,0.1-93,0.1v-0.1C129.6,332.1,0,461.7,0,621.6C0.1,781.5,129.7,911.2,289.7,911.2z M212.6,567.1
		c3-1.8,6.8,0,7.5,3.4c2.5,13.2,12.2,20.2,23.8,20.2c13,0,25-11.5,24.2-24.7c-0.5-7.1-3.4-13.7-6.1-20.1
		c-2.8-6.801-5.1-13.7-6.9-20.801c-5.5-21.8-6.3-45.199-1.5-67.199c2.5-11.7,7-22.801,12.4-33.5c6.4-12.4,16.601-23.7,16.7-23.801
		c5.6-6.5,16.3-3.5,17.6,4.9c6,38.3,48.5,99.1,82.5,148c6.801,9.9,13.301,19.2,19.101,27.8c45.8,68.3,55.7,180.2-19.2,232.7
		c-2.8,2-5.7,3.9-8.8,5.7c-6.2,3.6-13.3-2.2-10.4-8.7c4.7-10.3,7.2-21.7,7.3-33.7c0-0.1,0-0.2,0-0.3
		c0.101-2.1,1.601-30.5-20.199-62.9c-18-26.8-48.601-67.1-54.9-92.6c-1.4-5.6-8.7-7.1-12.3-2.6c-6.2,7.899-12.7,18.5-14.6,30
		c-3.7,22.399,2.4,41.3-19.9,55.899c-25.3,16.5-42.4,41.3-42.4,72.3c0,12.101,2.6,23.601,7.3,33.9c3,6.5-4.5,12.8-10.4,8.7
		c-39.1-27-64.7-72.2-64.7-123.4C138.7,641.3,168.4,593.2,212.6,567.1z"/>
</g>
<g>
</g>
<g>
</g>
<g>
</g>
<g>
</g>
<g>
</g>
<g>
</g>
<g>
</g>
<g>
</g>
<g>
</g>
<g>
</g>
<g>
</g>
<g>
</g>
<g>
</g>
<g>
</g>
<g>
</g>
</svg>
