<?xml version="1.0" encoding="utf-8"?>
<!-- Generator: Adobe Illustrator 21.1.0, SVG Export Plug-In . SVG Version: 6.00 Build 0)  -->
<svg version="1.1" id="Calque_1" xmlns="http://www.w3.org/2000/svg" xmlns:xlink="http://www.w3.org/1999/xlink" x="0px" y="0px"
	 viewBox="0 0 432 432" style="enable-background:new 0 0 432 432;" xml:space="preserve">
<style type="text/css">
	.st0{fill:#333333;}
	.st1{fill:#BF924C;}
	.st2{fill:#E6E6E6;}
	.st3{fill:#801422;}
	.st4{fill:#6F4436;}
	.st5{fill:#BE9B7B;}
	.st6{fill:#FBB03B;}
	.st7{fill:#D37A20;}
	.st8{fill:#1A1A1A;}
	.st9{fill:#EE7EB0;}
	.st10{fill:#FFD744;}
	.st11{fill:#78CFDE;}
	.st12{fill:#AA4B57;}
	.st13{fill:#B3B3B3;}
	.st14{fill:#66472D;}
	.st15{fill:#4C71A8;}
	.st16{fill:#D18FAF;}
	.st17{fill:#578FC8;}
	.st18{fill:#D9B442;}
	.st19{fill:#8C6E54;}
	.st20{fill:#3C2F2F;}
	.st21{fill:#9FAF88;}
	.st22{fill:#7E8D66;}
	.st23{fill:#D6A1AD;}
	.st24{fill:#FCD5D2;}
	.st25{fill:#BA2C38;}
	.st26{fill:#BF926B;}
	.st27{fill:#5B9DC1;}
	.st28{fill:#F4923E;}
	.st29{fill:#282C35;}
	.st30{fill:#EBB2A5;}
	.st31{fill:#CF6557;}
	.st32{fill:#7FB9BC;}
	.st33{fill:#154B67;}
	.st34{fill:#EAD5B6;}
	.st35{fill:#4D9164;}
	.st36{fill:#C59E73;}
	.st37{fill:#EEC7A0;}
	.st38{fill:#EC9294;}
	.st39{fill:#D2523D;}
	.st40{fill:#BEC1A4;}
	.st41{fill:#939176;}
	.st42{fill:#F8CACC;}
	.st43{fill:#F1949B;}
	.st44{fill:#59A5AD;}
	.st45{fill:#11937F;}
	.st46{fill:#406C70;}
	.st47{fill:#6FAFC6;}
	.st48{fill:#EF777F;}
	.st49{fill:#F3C186;}
	.st50{fill:#F6AD4B;}
	.st51{fill:none;}
	.st52{fill:#579B5E;}
	.st53{fill:#C69C6D;}
	.st54{fill:#4B8599;}
	.st55{fill:#D09596;}
	.st56{fill:#91B468;}
	.st57{fill:#F9C9CC;}
	.st58{fill:#2D302A;}
	.st59{fill:#D17475;}
	.st60{fill:#C1272D;}
	.st61{fill:#736357;}
	.st62{fill:#92B4C4;}
	.st63{fill:#A67C52;}
	.st64{fill:#F7931E;}
	.st65{fill:#B2151B;}
	.st66{fill:#D7A356;}
	.st67{fill:#B88D52;}
	.st68{fill:#8B514D;}
	.st69{fill:#727D6D;}
	.st70{fill:#F6A865;}
	.st71{fill:#F885C1;}
	.st72{fill:#4DC497;}
	.st73{fill:#AAA39B;}
	.st74{fill:#564336;}
	.st75{fill:#006837;}
	.st76{fill:#953D3D;}
	.st77{fill:#BEAF98;}
	.st78{fill:#D06C5D;}
	.st79{fill:#CCCCCC;}
	.st80{fill:#961F21;}
	.st81{fill:#C1934D;}
	.st82{fill:#F7CAC9;}
	.st83{fill:#FF8B85;}
	.st84{fill:#EE5977;}
	.st85{fill:#FDC111;}
	.st86{fill:#53BFD3;}
	.st87{fill:#CCCE01;}
	.st88{fill:#FD8C84;}
	.st89{fill:#92C142;}
	.st90{fill:#FFD066;}
	.st91{fill:#DC042B;}
</style>
<g>
	<g>
		<path d="M100.7,239.8c0.2,0.3,0.4,0.6,0.6,0.8c3.2,3.9,6.3,7.9,9.6,11.8c2.5,3,5.4,5.6,8.7,7.6c1.6,1,3.4,1.8,5.1,2.5
			c2.1,0.9,4.2,0.5,6.3-0.6c2.2-1.2,3.9-2.9,5.3-4.9c2.4-3.2,4.3-6.7,6-10.3c1.4-2.9,2.8-5.8,4.3-8.6c0.3-0.6,0.7-1.2,1.1-1.7
			c0.5-0.6,1.2-0.8,2-0.4c0.7,0.4,1.1,1,1,1.9c0,0.4-0.2,0.7-0.3,1c-2.5,7-5.3,13.8-9,20.2c-1.3,2.3-2.9,4.5-4.6,6.6
			c-2.4,2.9-5.4,4.9-9.3,5.5c-2.6,0.4-5.3,0.1-7.8-0.6c-5.4-1.5-10-4.5-14.2-8c-3.4-2.8-6.4-6.1-9.1-9.5c-0.6-0.7-1.2-1.5-1.9-2.4
			c-0.4,0.6-0.6,1-0.9,1.5c-2.7,4.5-5.3,9-8.1,13.4c-1.2,1.9-2.6,3.6-4.2,5.2c-4.4,4.7-9.9,6.4-16.2,5.2c-1.9-0.4-3.7-0.9-5.5-1.5
			c-1.1-0.4-2.1-0.9-3-1.6c-0.7-0.5-1.4-1.3-1.9-2c-0.8-1.1-0.7-2.2-0.1-3c0.7-0.9,1.8-1.1,3.1-0.5c2.6,1.2,5.2,1.9,8,2.4
			c4.2,0.7,7.8-0.4,10.9-3.2c2.3-2.1,4.3-4.5,6-7.1c2.8-4.4,5.5-9,8.3-13.5c-0.3-0.5-0.6-0.9-0.8-1.3c-7-9.8-13.1-20.2-18.1-31.2
			c-0.7-1.4-1.2-3-1.4-4.6c-0.4-2.6,1-4.9,3.2-5.8c2.2-0.9,4.6-0.2,6.2,1.9c0.6,0.7,1.1,1.5,1.5,2.3c1.3,2.4,2.6,4.7,3.8,7.1
			c3.3,6.6,7.1,12.9,11.1,19c0.2,0.3,0.5,0.7,0.9,1.2c0.4-0.6,0.7-1.1,1-1.6c5.6-9.3,11.4-18.5,18.2-27
			c9.9-12.5,21.1-23.6,34.3-32.6c10.1-6.8,20.8-12.4,32.5-15.8c5.1-1.5,10.3-2.5,15.7-2.8c5.8-0.3,11.3,0.8,16.6,3
			c5.5,2.3,9.7,6.1,12.7,11.2c2.7,4.6,4.6,9.5,5.5,14.7c0.1,0.6,0.2,1.2,0.1,1.8c-0.1,1.1-0.6,1.9-1.7,2.3c-1.1,0.4-1.9,0-2.7-0.7
			c-0.4-0.4-0.6-0.8-0.9-1.3c-0.6-1.4-1.2-2.7-1.8-4.1c-0.8-1.8-1.4-3.7-2.2-5.5c-3.4-7.4-9.2-11.6-17-13.3
			c-4.9-1.1-9.9-0.9-14.8-0.2c-13.9,2.2-26.5,7.8-38.2,15.5c-14.1,9.4-26.1,21-36.1,34.6c-6.1,8.3-11.8,16.8-17.1,25.7
			C101,239.2,100.9,239.4,100.7,239.8z"/>
		<path d="M261.6,238.6c1.1,1.4,2.1,2.7,3.2,4.1c2.7,3.3,5.3,6.6,8,9.9c2,2.3,4.3,4.3,6.9,6c1.1,0.7,2.3,1.4,3.5,2
			c2.6,1.4,5,1.1,7.4-0.6c4.4-3.2,8-7.2,11.3-11.5c0.9-1.1,1.8-2.3,2.7-3.4c0.3-0.3,0.5-0.6,0.8-0.9c1.3-1.4,2.7-1.7,3.8-0.8
			c1.1,0.8,1.4,2.7,0.6,4.1c-0.5,0.9-1,1.7-1.5,2.5c-2.7,4.7-5.9,9.1-9.5,13.2c-1.8,2.1-3.9,3.9-6.3,5.3c-5,3-10.3,3.6-16,2
			c-5.1-1.5-9.5-4.3-13.3-8c-3.7-3.6-6.7-7.7-9.6-12c-0.3-0.4-0.5-0.8-0.8-1.1c-0.1-0.1-0.2-0.1-0.3-0.2c-0.3,0.3-0.6,0.6-0.8,0.9
			c-6.1,6.9-12.1,13.8-18.2,20.6c-0.8,0.9-1.8,1.7-2.8,2.5c-1,0.8-2.2,1-3.5,0.5c-1.7-0.7-2.4-2.7-1.5-4.5c0.6-1.3,1.5-2.5,2.4-3.6
			c6.5-7.8,13.1-15.5,19.6-23.2c0.1-0.2,0.2-0.3,0.4-0.6c-0.4-0.7-0.8-1.3-1.2-2c-6.4-10.6-11.3-21.8-15.1-33.6
			c-0.4-1.3-0.7-2.6-0.9-3.9c-0.1-0.8,0-1.8,0.2-2.6c0.5-2,1.9-3.3,3.9-3.8c2.1-0.4,3.9,0.2,5.1,1.9c0.8,1.1,1.4,2.4,2,3.7
			c1.8,4.5,3.5,9.1,5.3,13.6c2.2,5.8,5.6,11.1,8.9,16.3c0.1,0.1,0.2,0.2,0.4,0.5c0.4-0.5,0.8-0.9,1.2-1.4
			c7.3-8.8,14.6-17.6,21.9-26.4c1.7-2,3.5-3.8,5.3-5.6c0.5-0.5,1.2-0.9,1.8-1.1c1.9-0.6,3.8,0.8,3.6,2.8c0,0.7-0.3,1.6-0.6,2.2
			c-0.9,1.5-1.8,3-2.9,4.4c-8.1,10.6-16.5,21.1-25.2,31.3C261.9,238.2,261.8,238.3,261.6,238.6z"/>
	</g>
	<g>
		<path class="st12" d="M190.1,219.3c0.2-0.7,0.4-1.2,0.6-1.8c1.4-4.7,3.5-9.2,6-13.4c1.7-2.8,3.7-5.3,6.2-7.3
			c1.9-1.5,4-2.7,6.4-3.2c2.6-0.6,4.9,0,7,1.5c2.7,2,4.4,4.7,5.3,7.8c0.5,1.8,0.9,3.6,1.2,5.4c0.5,4.2,0.4,8.5-0.3,12.7
			c-3,16.4-9.2,31.6-18.5,45.5c-1.5,2.3-3.4,4.4-5.3,6.4c-1.3,1.3-2.9,2.4-4.5,3.3c-2.2,1.3-4.6,1.1-6.8-0.3c-1-0.7-2.1-1.4-2.9-2.3
			c-7.6-7.5-14.6-15.5-20.9-24.1c-3.8-5.3-6.9-10.9-8.8-17.2c-1.4-4.6-1.8-9.3-0.9-14.1c0.9-5,5.1-10.5,11.9-11.8
			c4.7-1,9.2,0.1,13.3,2.4c4.3,2.4,7.9,5.5,10.4,9.8C189.6,218.8,189.8,218.9,190.1,219.3z M217.7,213.5c0.1-2.6,0-5-0.7-7.4
			c-0.5-1.8-1.5-3.4-2.8-4.7c-1-1-2.1-1.1-3.4-0.5c-1.5,0.7-2.7,1.8-3.7,3c-1.6,1.8-2.9,3.9-4,6.1c-1.3,2.7-2.6,5.4-3.8,8.1
			c-1.6,3.6-3.2,7.2-4.8,10.7c-0.3,0.7-0.6,1.4-1,2.1c-1.1,1.8-3.1,2.3-4.7,0.9c-1-0.8-1.9-1.8-2.7-2.8c-1.3-1.6-2.5-3.3-3.7-5
			c-2.1-2.9-4.6-5.5-7.4-7.7c-1.5-1.1-3.1-1.7-4.8-1.9c-3.3-0.3-5.7,1.3-6.5,4.5c-0.3,1.3-0.4,2.7-0.3,4c0.2,4,1.4,7.8,3.1,11.5
			c2.6,5.8,5.8,11.2,9.6,16.3c3.6,4.8,7.4,9.5,11.1,14.2c0.9,1.1,1.8,2.2,2.7,3.2c1.4,1.5,2.4,1.6,3.9,0.2c3.4-3.3,6.4-7,8.9-11.1
			c1.8-2.9,3.4-5.8,5.1-8.7c3.5-5.7,5.7-11.9,7.7-18.2C217.2,224.7,217.6,219.1,217.7,213.5z"/>
		<path class="st12" d="M344.9,217.2c0.2-0.7,0.4-1.2,0.6-1.8c1.4-4.7,3.5-9.2,6-13.4c1.7-2.8,3.7-5.3,6.2-7.3
			c1.9-1.5,4-2.7,6.4-3.2c2.6-0.6,4.9,0,7,1.5c2.7,2,4.4,4.7,5.3,7.8c0.5,1.8,0.9,3.6,1.2,5.4c0.5,4.2,0.4,8.5-0.3,12.7
			c-3,16.4-9.2,31.6-18.5,45.5c-1.5,2.3-3.4,4.4-5.3,6.4c-1.3,1.3-2.9,2.4-4.5,3.3c-2.2,1.3-4.6,1.1-6.8-0.3c-1-0.7-2.1-1.4-2.9-2.3
			c-7.6-7.5-14.6-15.5-20.9-24.1c-3.8-5.3-6.9-10.9-8.8-17.2c-1.4-4.6-1.8-9.3-0.9-14.1c0.9-5,5.1-10.5,11.9-11.8
			c4.7-1,9.2,0.1,13.3,2.4c4.3,2.4,7.9,5.5,10.4,9.8C344.5,216.7,344.6,216.8,344.9,217.2z M372.5,211.4c0.1-2.6,0-5-0.7-7.4
			c-0.5-1.8-1.5-3.4-2.8-4.7c-1-1-2.1-1.1-3.4-0.5c-1.5,0.7-2.7,1.8-3.7,3c-1.6,1.8-2.9,3.9-4,6.1c-1.3,2.7-2.6,5.4-3.8,8.1
			c-1.6,3.6-3.2,7.2-4.8,10.7c-0.3,0.7-0.6,1.4-1,2.1c-1.1,1.8-3.1,2.3-4.7,0.9c-1-0.8-1.9-1.8-2.7-2.8c-1.3-1.6-2.5-3.3-3.7-5
			c-2.1-2.9-4.6-5.5-7.4-7.7c-1.5-1.1-3.1-1.7-4.8-1.9c-3.3-0.3-5.7,1.3-6.5,4.5c-0.3,1.3-0.4,2.7-0.3,4c0.2,4,1.4,7.8,3.1,11.5
			c2.6,5.8,5.8,11.2,9.6,16.3c3.6,4.8,7.4,9.5,11.1,14.2c0.9,1.1,1.8,2.2,2.7,3.2c1.4,1.5,2.4,1.6,3.9,0.2c3.4-3.3,6.4-7,8.9-11.1
			c1.8-2.9,3.4-5.8,5.1-8.7c3.5-5.7,5.7-11.9,7.7-18.2C372,222.7,372.4,217,372.5,211.4z"/>
	</g>
</g>
</svg>
