<?xml version="1.0" encoding="iso-8859-1"?>
<!-- Generator: Adobe Illustrator 19.0.0, SVG Export Plug-In . SVG Version: 6.00 Build 0)  -->
<svg version="1.1" id="Capa_1" xmlns="http://www.w3.org/2000/svg" xmlns:xlink="http://www.w3.org/1999/xlink" x="0px" y="0px"
	 viewBox="0 0 512.003 512.003" style="enable-background:new 0 0 512.003 512.003;" xml:space="preserve">
<g>
	<g>
		<g>
			<path d="M469.19,85.336c-15.79,0-29.566,8.584-36.944,21.333h-49.234c2.808-27.368-5.004-54.976-22.153-76.928
				c-14.005-18.872-36.18-29.922-59.68-29.739H82.513C59.016-0.192,36.84,10.856,22.844,29.731
				C3.895,54.196-3.694,85.594,1.99,116.013c5.25,24.416,19.784,45.835,40.533,59.733v304.256c0,17.673,14.327,32,32,32H309.19
				c17.673,0,32-14.327,32-32v-160h96h21.333v21.333h-10.667c-5.891,0-10.667,4.776-10.667,10.667v128c0,17.673,14.327,32,32,32
				s32-14.327,32-32v-128c0-5.891-4.776-10.667-10.667-10.667h-10.667v-21.333h21.333c5.891,0,10.667-4.776,10.667-10.667V128.003
				C511.857,104.438,492.755,85.336,469.19,85.336z M479.857,362.669v96h-21.333v-96H479.857z M469.19,490.669
				c-5.891,0-10.667-4.776-10.667-10.667h21.333C479.857,485.894,475.081,490.669,469.19,490.669z M426.524,298.669h-128
				c-11.782,0-21.333-9.551-21.333-21.333c0-11.782,9.551-21.333,21.333-21.333h42.667v-21.333h-42.667h-42.667
				c-11.782,0-21.333-9.551-21.333-21.333c0-11.782,9.551-21.333,21.333-21.333h106.667v-21.333H255.857H213.19
				c-11.782,0-21.333-9.551-21.333-21.333c0-11.782,9.551-21.333,21.333-21.333h213.333V298.669z M319.857,480.003
				c0,5.891-4.776,10.667-10.667,10.667H74.534c-5.891,0-10.667-4.776-10.667-10.667V181.336H85.19v-21.333H57.492
				c-17.743-10.648-30.319-28.161-34.68-48.427c-4.65-24.531,1.676-49.868,17.312-69.333c9.976-13.344,25.73-21.114,42.389-20.907
				h218.688c16.657-0.199,32.406,7.574,42.379,20.917c14.467,18.273,20.853,41.517,17.957,64.416H213.19
				c-23.564,0-42.667,19.102-42.667,42.667s19.102,42.667,42.667,42.667h5.728c-3.743,6.483-5.714,13.836-5.716,21.322
				c-0.006,23.564,19.091,42.672,42.655,42.678h5.728c-3.743,6.483-5.714,13.836-5.716,21.322
				c-0.007,23.564,19.091,42.672,42.655,42.678h21.333V480.003z M490.524,298.669h-42.667V128.003
				c0-11.782,9.551-21.333,21.333-21.333c11.782,0,21.333,9.551,21.333,21.333V298.669z"/>
			<rect x="362.524" y="234.669" width="21.333" height="21.333"/>
			<rect x="383.857" y="170.669" width="21.333" height="21.333"/>
			<rect x="85.19" y="448.003" width="21.333" height="21.333"/>
			<rect x="85.19" y="405.336" width="21.333" height="21.333"/>
			<rect x="127.857" y="448.003" width="21.333" height="21.333"/>
			<rect x="106.524" y="160.003" width="21.333" height="21.333"/>
		</g>
	</g>
</g>
<g>
</g>
<g>
</g>
<g>
</g>
<g>
</g>
<g>
</g>
<g>
</g>
<g>
</g>
<g>
</g>
<g>
</g>
<g>
</g>
<g>
</g>
<g>
</g>
<g>
</g>
<g>
</g>
<g>
</g>
</svg>
