<?xml version="1.0" encoding="utf-8"?>
<!-- Generator: Adobe Illustrator 22.0.0, SVG Export Plug-In . SVG Version: 6.00 Build 0)  -->
<svg version="1.1" id="Calque_1" xmlns="http://www.w3.org/2000/svg" xmlns:xlink="http://www.w3.org/1999/xlink" x="0px" y="0px"
	 viewBox="0 0 432 432" style="enable-background:new 0 0 432 432;" xml:space="preserve">
<style type="text/css">
	.st0{fill:#020203;}
	.st1{fill:#F3D4AA;}
	.st2{fill:#C1292E;}
	.st3{fill:#E7E6E6;}
	.st4{fill:#A81922;}
	.st5{fill:#D6A14D;}
	.st6{fill:#E580A9;}
	.st7{fill:#FFF0BA;}
	.st8{fill:#972021;}
	.st9{fill:#D06C5D;}
	.st10{fill:#36502D;}
	.st11{fill:#79986F;}
	.st12{fill:#EB5B28;}
	.st13{fill:#A67D52;}
	.st14{fill:#F2F2F2;}
	.st15{fill:#066938;}
	.st16{fill:#009245;}
	.st17{fill:#CDCCCC;}
	.st18{fill:#AE8864;}
	.st19{fill:#412413;}
	.st20{fill:#8C633A;}
	.st21{fill:#F39323;}
	.st22{fill:#F9B03D;}
	.st23{fill:#C69C6C;}
	.st24{fill:#2FBAD7;}
	.st25{fill:#DAA405;}
	.st26{fill:#808181;}
	.st27{fill:#8E3089;}
	.st28{fill:#1861A9;}
	.st29{fill:#D4175B;}
	.st30{fill:#E3D65E;}
	.st31{fill:#C7B29A;}
	.st32{fill:#603914;}
	.st33{fill:#998675;}
	.st34{fill:#746458;}
	.st35{fill:#EAA35C;}
	.st36{fill:#A3282E;}
	.st37{fill:#DC7B18;}
	.st38{fill:#B88E5C;}
	.st39{fill:#C67B3E;}
	.st40{fill:#C74A54;}
	.st41{fill:#48AE4D;}
	.st42{fill:#9A9999;}
	.st43{fill:#6F1131;}
	.st44{fill:#EFAE5D;}
	.st45{fill:#BB7E28;}
	.st46{fill:#C8904C;}
	.st47{fill:#BB7926;}
	.st48{fill:#C68448;}
	.st49{fill:#D79A5D;}
	.st50{fill:#82171C;}
	.st51{fill:#754D24;}
	.st52{fill:#EAD797;}
	.st53{fill:#B4B4B4;}
	.st54{fill:#4E4D4D;}
	.st55{fill:#014837;}
	.st56{fill:#28285B;}
	.st57{fill:#8EC045;}
	.st58{fill:#6BC4CD;}
	.st59{fill:#699CBB;}
	.st60{fill:#6D8E5F;}
</style>
<g>
	<g>
		<g>
			<path class="st40" d="M333.6,268.2c0,0.4-0.1,0.5-0.1,0.7c0.1,5.3,0.3,10.6,0.4,15.9c0.1,6.1,0.3,12.2,0.4,18.3
				c0,0.5-0.1,1-0.1,1.5c0.5,0.1,1,0.1,1.6,0.2c1.1,0.1,1.8,0.7,2.3,1.6c0.5,1,0,2.3-1.1,2.7c-0.4,0.1-0.8,0.2-1.1,0.2
				c-3.3-0.1-6.5-0.2-9.8-0.3c-0.9,0-1.8-0.2-2.8-0.4c-0.5-0.1-0.9-0.3-1-0.8c-0.1-0.5,0.1-1,0.6-1.2c0.6-0.3,1.2-0.6,1.9-0.8
				c0.5-0.2,1.1-0.3,1.6-0.4c0-1,0-2,0-2.9c-0.1-2.6-0.2-5.3-0.3-7.9c-0.1-2.7,0-5.4-0.1-8.1c-0.1-3.9-0.2-7.8-0.3-11.7
				c-0.1-5.3-0.2-10.5-0.2-15.8c0-2.8,0.2-5.6,0.9-8.4c0.2-0.7,0.5-1.4,0.8-2c0.9-1.5,2.6-1.5,3.6-0.7c0.6,0.4,1.1,1,1.6,1.6
				c0.4,0.6,0.7,1.3,1,2c3.2,6.8,6.4,13.5,9.7,20.2c1.5,3,3.3,5.9,4.9,8.9c0.6,1.1,1.2,2.1,1.9,3.4c0.3-11,0.5-21.8,0.8-32.7
				c-0.3,0-0.6,0-1,0c-1.4,0-2.9,0-4.3-0.3c-0.6-0.1-1.1-0.3-1.7-0.6c-0.5-0.2-0.9-0.5-0.8-1.1c0.1-0.6,0.6-0.7,1.1-0.8
				c0.2-0.1,0.5-0.1,0.7-0.1c2.3-0.1,4.6-0.2,6.9-0.3c2.6-0.1,5.2,0.3,7.8,0.5c0.2,0,0.4,0.1,0.6,0.2c0.5,0.2,0.7,0.6,0.7,1
				c0,0.5-0.3,0.9-0.9,1c-0.6,0.1-1.1,0.1-1.7,0.1c-0.8,0-1.7,0-2.5,0.1c-0.1,0-0.3,0.1-0.4,0.1c0,0.1-0.1,0.3-0.1,0.4
				c-0.3,7.5-0.4,15-0.1,22.5c0.2,4.8,0.6,9.7,1,14.5c0.3,3.4,0.6,6.9,0.8,10.3c0.2,2.4,0.2,4.7,0.2,7.1c0,1-0.2,2-1.2,2.5
				c-0.8,0.5-1.5,0.4-2-0.5c-0.4-0.6-0.7-1.3-1-2c-1.1-2.7-2.2-5.4-3.4-8c-2-4.8-4.4-9.4-7-13.8c-3-5.1-5.7-10.2-8.6-15.4
				C333.9,268.6,333.8,268.5,333.6,268.2z"/>
			<path class="st40" d="M107.8,306.1c0.7,0,1.3,0.1,1.9,0.1c0.2,0,0.4,0,0.5,0c0.4,0.1,0.7,0.4,0.9,0.8c0.1,0.5,0,0.8-0.4,1.1
				c-0.3,0.2-0.7,0.4-1,0.5c-0.9,0.2-1.7,0.5-2.6,0.6c-2,0.1-3.9,0.1-5.9,0c-0.5,0-1.1-0.2-1.6-0.3c-0.5-0.1-0.9-0.3-0.9-0.8
				c0-0.6,0.1-1.1,0.7-1.4c0.5-0.2,1.1-0.4,1.7-0.5c0.6-0.1,1.2-0.2,1.8-0.3c-0.2-1.3-0.4-2.4-0.6-3.6c-0.3-2.7-0.6-5.5-0.8-8.2
				c-0.2-2.8-0.5-5.6-0.6-8.4c-0.1-2.3-0.2-4.6-0.3-6.9c-0.2-4.8-0.4-9.5-0.7-14.3c-0.1-1.3-0.2-2.7-0.5-4c-0.1,0.2-0.2,0.4-0.2,0.6
				c-1.8,9.6-4.3,19.1-7.2,28.5c-1.3,4.2-2.3,8.5-3.5,12.7c-0.5,1.8-1.2,3.6-1.9,5.4c-0.1,0.4-0.4,0.7-0.6,1
				c-0.6,0.6-1.2,0.6-1.7,0.1c-0.4-0.4-0.7-0.8-0.9-1.3c-1.2-2.8-2.2-5.8-2.9-8.8c-1.5-6.3-3-12.6-4.5-18.9
				c-0.1-0.3-0.1-0.5-0.3-0.8c-0.9,9.2-1.9,18.5-2.8,27.9c0.3,0,0.6,0,0.9,0c0.7,0.1,1.4,0.2,2,0.4c0.6,0.2,0.9,0.6,1,1.3
				c0,0.6-0.3,1.1-0.9,1.3c-0.4,0.2-0.9,0.3-1.4,0.3c-4.3,0-8.6-0.2-12.8-0.9c-0.3,0-0.6-0.1-0.9-0.2c-0.4-0.1-0.7-0.4-0.7-0.8
				c0-0.4,0.2-0.8,0.5-1c0.3-0.2,0.7-0.3,1.1-0.4c1.3-0.1,2.5-0.1,3.8-0.1c0.5,0,0.9,0,1.4,0c0.2-2.3,0.4-4.5,0.7-6.8
				c0.5-3.6,1-7.2,1.5-10.8c0.8-5.1,1.6-10.3,2.1-15.5c0.4-3.8,0.8-7.7,1.2-11.5c0.3-2.9,0.5-5.8,0.8-8.7c0.2-1.7,0.4-3.4,0.6-5.1
				c0.1-0.7,0.4-1.1,0.9-1.2c0.5-0.1,1,0.2,1.3,0.8c0.2,0.4,0.4,0.8,0.5,1.3c0.5,2.3,0.9,4.6,1.3,7c0.8,4.7,1.8,9.3,2.9,14
				c1.7,7.6,3.4,15.2,5,22.8c0.3,1.1,0.4,2.3,0.6,3.4c0,0.2,0.1,0.4,0.3,0.6c0.2-0.7,0.4-1.5,0.7-2.2c2-6.6,4.1-13.2,6-19.9
				c1.6-5.4,2.9-10.9,4-16.5c0.5-2.5,1.2-5,1.8-7.5c0.1-0.6,0.4-1.1,0.7-1.7c0.5-0.8,1.2-0.8,1.7,0c0.2,0.4,0.4,0.8,0.5,1.2
				c0.3,1.8,0.6,3.6,0.9,5.4c0.4,3,0.8,5.9,1.2,8.9c0.3,2.1,0.4,4.2,0.6,6.3c0.4,4.3,0.7,8.5,1.1,12.8c0.3,3.1,0.5,6.3,0.8,9.4
				c0.3,3.2,0.6,6.5,1,9.7C107.3,304.2,107.6,305.1,107.8,306.1z"/>
			<path class="st40" d="M318.7,271.4c0,3.1-0.4,6.1-0.9,9.1c-0.7,4.6-1.6,9.1-2.9,13.6c-0.6,2-1.2,4-2,6c-1.3,3.2-3.3,5.9-6.2,7.9
				c-1.3,0.9-2.7,1.5-4.3,1.6c-0.8,0.1-1.5,0.2-2.3,0.3c-3,0.2-5.5-0.9-7.8-2.8c-3.1-2.5-5.1-5.8-6.2-9.6
				c-1.6-5.2-2.1-10.5-1.8-15.9c0.3-4.6,0.8-9.1,1.7-13.6c0.7-3.6,1.5-7.1,2.9-10.5c1.4-3.5,3.2-6.7,6-9.4c1.5-1.5,3.3-2.6,5.4-3
				c2.8-0.5,5.4,0.1,7.7,1.7c2,1.4,3.5,3.1,4.9,5.1c2.5,3.4,3.9,7.2,4.9,11.3C318.4,266,318.8,268.7,318.7,271.4z M292.8,281.1
				c0.1,4.2,0.4,8.4,0.9,12.6c0.3,2.2,0.6,4.3,1.4,6.4c0.6,1.5,1.3,3,2.5,4.1c0.7,0.7,1.4,1,2.4,1.1c2.4,0.2,4.1-1.1,5.4-2.9
				c1.5-2.2,2.3-4.7,2.9-7.3c0.6-2.9,1-5.9,1.3-8.9c0.3-3.6,0.6-7.3,0.4-10.9c-0.2-4.2-0.7-8.3-1.3-12.5c-0.4-2.5-1-4.9-2-7.2
				c-0.5-1.1-1.2-2.2-1.9-3.1c-0.7-1-1.7-1.4-2.9-1.6c-1-0.1-1.9,0.2-2.5,1c-1.1,1.4-2,2.9-2.6,4.6c-1.6,4.1-2.6,8.3-3,12.6
				C293.2,273.1,293.1,277.1,292.8,281.1z"/>
			<path class="st40" d="M165.8,305.1c0.3,0,0.6,0,0.9,0c4.9-0.1,9.9-0.1,14.8-0.3c1.2,0,2.4-0.3,3.5-0.7c2.2-0.7,3.7-2.1,4.6-4.2
				c1.4-3.1,1.7-6.4,1.3-9.8c-0.2-1.6-0.5-3.2-1.2-4.7c-0.7-1.5-1.8-2.5-3.3-3c-1.4-0.4-2.7,0-3.6,1.2c-1.3,1.7-1.4,3.5-0.3,5.4
				c0.1,0.2,0.3,0.5,0.4,0.7c0.2,0.6-0.1,1.2-0.7,1.3c-0.6,0.1-1.2-0.1-1.6-0.6c-1.2-1.8-2-3.6-1.2-5.8c0.6-1.5,1.3-2.8,2.5-3.9
				c1.8-1.6,3.9-2,6.2-1.4c2.1,0.6,3.9,1.9,5.1,3.7c1.4,2.2,2.1,4.5,2.3,7.1c0.3,3.9-0.3,7.6-1.6,11.2c-1.5,3.9-4.4,6.3-8.4,7.4
				c-1.9,0.5-3.8,0.7-5.7,0.7c-4.6,0-9.2,0-13.7,0c-3.4,0-6.7-0.2-10-0.4c-1.2-0.1-2.5-0.3-3.7-0.6c-3.2-0.9-5.2-2.7-5.6-7.1
				c-0.1-1.7,0.3-3.3,1.3-4.8c0.8-1.1,1.8-2,3.2-2.1c0.9-0.1,1.7,0.1,2.4,0.6c0.2,0.2,0.5,0.4,0.6,0.7c0.1,0.3,0.1,0.7,0,0.9
				c-0.1,0.2-0.5,0.2-0.8,0.2c-0.3,0-0.5-0.2-0.8-0.2c-0.8-0.2-1.4,0-1.9,0.6c-0.6,0.7-1,1.6-1,2.5c-0.1,1.1,0.2,2.1,0.7,3.1
				c0.5,0.9,1.3,1.4,2.2,1.7c1.4,0.4,2.8,0.5,4.2,0.5c0.7,0,1.5,0,2.2,0c0.4-19-0.3-37.9,0.8-56.8c-0.9,0-1.8,0-2.6,0
				c-2,0.1-3.9,0.3-5.9,0.4c-0.4,0-0.9,0-1.2-0.2c-0.7-0.3-0.8-1-0.2-1.5c0.3-0.2,0.6-0.3,0.9-0.4c1.3-0.3,2.7-0.7,4-0.8
				c3.2-0.3,6.3-0.3,9.5-0.1c1.6,0.1,3.2,0.2,4.8,0.6c1.3,0.3,2.5,0.7,3.7,1.4c0.6,0.4,1.3,0.7,2,1.1c0.2,0.1,0.5,0.3,0.7,0.4
				c0.3,0.3,0.4,0.6,0.2,1c-0.1,0.3-0.4,0.5-0.7,0.6c-0.3,0.1-0.7,0-1.1-0.1c-0.9-0.3-1.8-0.6-2.7-1c-1.6-0.6-3.2-0.9-4.9-1.3
				c0,0.2-0.1,0.4-0.1,0.6c-0.1,2.7-0.3,5.4-0.3,8.1c-0.1,2.9-0.2,5.9-0.2,8.8c-0.1,6.9-0.1,13.8-0.1,20.8c0,5.2,0.2,10.5,0.3,15.7
				C165.8,303.3,165.8,304.1,165.8,305.1z"/>
			<path class="st40" d="M217.3,304c2,0,3.9,0,5.8,0c2,0,4,0,5.9-0.1c1.3,0,2.6-0.2,3.9-0.4c1.9-0.3,3.6-1.2,4.9-2.6
				c3-3.1,4.5-6.8,4.5-11c0-2.5-0.8-4.9-2.8-6.7c-1.2-1.2-2.7-1.7-4.3-1c-1.7,0.7-2.6,2-2.9,3.8c-0.1,0.7,0.2,1.4,0.7,1.8
				c0.7,0.6,1.4,1.1,2.1,1.7c0.7,0.5,0.9,1,0.7,1.6c-0.2,0.6-0.9,0.8-1.7,0.6c-0.4-0.1-0.7-0.2-1.1-0.4c-0.7-0.4-1.5-0.9-2.2-1.4
				c-1.6-1.1-2.1-2.7-1.7-4.5c0.8-3.5,3-5.9,6.5-6.7c2.6-0.6,5,0.2,6.9,2.1c1.9,1.8,3,3.9,3.5,6.5c1.1,5.5-0.1,10.4-3.4,14.8
				c-1.6,2.1-3.6,3.8-6,5c-1.5,0.7-3.2,1.2-4.8,1.2c-3.6,0.1-7.2,0.1-10.9,0c-4.1,0-8.3-0.1-12.4-0.3c-1.4,0-2.9-0.2-4.3-0.5
				c-2.9-0.8-4.9-2.6-5.7-5.5c-0.6-2.4,0.5-5.1,2.5-6.5c1-0.6,2-1,3.2-0.7c0.6,0.2,1.2,0.5,1.5,1c0.2,0.3,0.3,0.6,0.3,0.9
				c0,0.6-0.5,0.9-1,0.6c-0.2-0.1-0.4-0.2-0.5-0.3c-0.8-0.5-1.4-0.4-2,0.3c-1.4,1.5-1.4,3.8,0,5.3c0.8,0.8,1.8,1.3,2.9,1.3
				c1.7,0.1,3.4,0.1,5.1,0.1c0.5,0,0.9-0.1,1.4-0.1c-0.1-3.1-0.2-6.1-0.2-9.1c0-4.8,0-9.5,0-14.3c-0.1-8-0.2-16-0.3-24
				c0-2.3,0-4.7,0-7c0-0.3,0-0.6,0-1c-0.4,0-0.7,0-1,0c-2.5,0-5,0-7.5,0c-0.4,0-0.8-0.1-1.2-0.1c-0.4-0.1-0.7-0.3-0.7-0.7
				c0-0.4,0.2-0.7,0.6-0.8c0.6-0.2,1.2-0.3,1.7-0.4c4.7-0.7,9.4-0.8,14.1-0.4c1.2,0.1,2.4,0.2,3.6,0.4c1,0.1,1.9,0.5,2.7,1
				c0.9,0.5,1.8,1,2.7,1.6c0.3,0.2,0.6,0.5,0.8,0.8c0.3,0.6,0,1.3-0.7,1.3c-0.4,0-0.8,0-1.2-0.2c-0.8-0.3-1.7-0.7-2.5-1.1
				c-1.9-0.9-4.2-1.2-6.5-1.1c0,0.6,0,1.3,0,1.9c0.1,5.1,0.2,10.2,0.3,15.4c0.1,4.2,0.1,8.3,0.2,12.5c0.1,4.7,0.3,9.4,0.5,14.1
				c0.1,3.1,0.2,6.3,0.4,9.4C217.8,303.1,217.7,303.1,217.3,304z"/>
			<path class="st40" d="M269.8,305.6c0.9,0,1.8,0.1,2.7,0.1c2.5,0.1,5,0.3,7.5,0.4c0.4,0,0.8,0.1,1.1,0.3c0.6,0.3,0.9,0.8,0.9,1.5
				c0,0.7-0.4,1.1-1,1.4c-0.4,0.1-0.8,0.2-1.1,0.2c-2.6,0-5.1-0.1-7.7-0.2c-3.4-0.1-6.8-0.2-10.1-0.4c-2.1-0.1-4.2-0.3-6.3-1
				c-1-0.4-1.8-0.9-2.5-1.6c-0.4-0.5-0.7-1-0.6-1.7c0.1-0.3,0.3-0.6,0.5-0.7c0.2-0.1,0.7,0,0.8,0.2c0.7,1,1.7,1.2,2.8,1.4
				c1.8,0.3,3.6,0.3,5.4,0.2c0-0.2,0.1-0.3,0.1-0.4c-0.3-3.1-0.1-6.2-0.2-9.2c-0.2-4.5-0.3-9-0.4-13.5c-0.1-3.7-0.2-7.3-0.4-11
				c-0.2-5.7-0.4-11.3-0.5-17c0-1.9,0-3.7,0-5.7c-0.4,0-0.7,0-1,0c-2,0-4.1,0-6.1-0.4c-0.6-0.1-1.2-0.3-1.8-0.5
				c-0.8-0.3-1.1-0.7-1-1.3c0.1-0.5,0.6-0.9,1.4-0.9c1.3-0.1,2.6-0.1,4-0.1c2.8-0.1,5.5-0.2,8.3-0.3c2.7-0.1,5.4,0,8.1,0.4
				c1.2,0.2,2.3,0.8,3,1.8c0.3,0.4,0.6,0.7,0.9,1c0.2,0.3,0.4,0.6,0.5,0.9c0.3,0.6,0.1,1.2-0.3,1.5c-0.4,0.3-1,0.4-1.5,0.1
				c-0.2-0.1-0.3-0.2-0.4-0.3c-1-1-2.2-1.4-3.5-1.5c-0.9-0.1-1.8-0.2-2.8-0.3c0,0.7,0,1.2,0,1.8c0,1.4,0.1,2.8,0.1,4.1
				c0.1,5.7,0.1,11.4,0.2,17.1c0.1,4,0.2,8,0.4,11.9c0.2,4.2,0.3,8.4,0.5,12.6c0.1,1.9,0.2,3.9,0.3,5.8
				C270,303.5,269.9,304.5,269.8,305.6z"/>
			<path class="st40" d="M124.8,248.6c-0.6,0-1.1,0-1.6,0c-2.8,0-5.6,0-8.4-0.1c-0.4,0-0.7-0.1-1-0.2c-0.8-0.4-0.9-1.2-0.1-1.7
				c0.5-0.3,1-0.5,1.5-0.5c1.7-0.2,3.5-0.4,5.2-0.5c2.2-0.2,4.4-0.4,6.6-0.7c3.1-0.3,6.2-0.7,9.4-0.6c1.4,0,2.7,0.3,4,0.7
				c0.9,0.3,1.5,0.9,2.2,1.6c0.3,0.3,0.4,0.7,0.3,1.2c-0.2,0.5-0.5,0.8-1.1,0.8c-0.3,0-0.7,0-1-0.1c-2.5-0.8-5-0.7-7.6-0.6
				c-0.7,0-1.4,0.1-2.1,0.1c0,0.4-0.1,0.7-0.1,1c0,2.3,0,4.6,0.1,6.8c0.1,12,0.2,24,0.3,36c0,3.9,0.1,7.8,0.2,11.8c0,0.5,0,1,0,1.6
				c0.9-0.1,1.9-0.1,2.9-0.2c2.4-0.1,4.7-0.3,7.1,0.1c0.5,0.1,1,0.2,1.5,0.4c0.6,0.3,0.9,0.8,0.9,1.4c0,0.7-0.4,1.2-1,1.4
				c-0.7,0.2-1.3,0.3-2,0.3c-1.9,0.1-3.8,0-5.7,0.1c-2.2,0.1-4.5,0.2-6.7,0.2c-2.1,0-4.2,0-6.3-0.5c-1.3-0.3-2.6-0.8-3.7-1.6
				c-0.7-0.5-1.3-1.1-1.6-1.9c-0.2-0.4-0.3-0.9-0.2-1.4c0.2-0.5,0.5-0.7,0.9-0.3c0.3,0.2,0.5,0.5,0.8,0.7c0.3,0.2,0.5,0.5,0.8,0.7
				c1.9,0.9,3.8,1,5.9,1c-0.1-1.2-0.2-2.2-0.3-3.3c-0.1-1.8-0.2-3.6-0.3-5.5c-0.3-5.7-0.2-11.4-0.1-17.1c0.1-6.8,0.3-13.6,0.4-20.4
				c0-2.4,0-4.7,0-7.1C124.7,251.2,124.8,250,124.8,248.6z"/>
		</g>
		<g>
			<path class="st40" d="M96.2,151.2c0.6,0.1,1,0.3,1.5,0.4c7,1.9,11.7,6.2,14,13.1c1.8,5.5,0.4,10.5-3.5,14.7
				c-1.8,1.9-3.9,3.5-6.3,4.8c-4.2,2.2-8.5,4-13.1,5.1c-1.6,0.4-3.3,0.7-5,0.7c-4.1,0.1-7.4-2.1-8.9-5.9c-0.7-1.9-1.1-3.9-1.4-5.9
				c-0.4-2.8-0.6-5.7-0.9-8.5c-0.2-1.7-0.5-3.4-0.8-5.1c-0.5-3.3-1.1-6.7-1.5-10c-0.5-3.7-1.1-7.3-1.5-11c-0.3-2.1-0.4-4.2-0.1-6.3
				c0.5-3.7,2.3-6.4,5.3-8.5c3.9-2.7,8.2-3.5,12.8-2.8c1,0.2,1.9,0.4,2.9,0.7c5.5,1.9,8.6,5.9,9.8,11.3c1,4.4-0.2,8.5-2.6,12.3
				C96.6,150.5,96.4,150.8,96.2,151.2z M85,181.5c0.2,0,0.3,0,0.4,0c0.6-0.1,1.1-0.2,1.7-0.3c3.6-1,7.1-2.4,10.4-4.2
				c1.5-0.8,2.9-1.8,4.1-3.1c2-2,2.6-4.4,1.7-7.1c-1.3-4-4.7-7.3-10-7.7c-1.9-0.1-3.7,0.1-5.5,0.5c-2.5,0.6-4.9,1.4-7.4,2.1
				C81.5,168.5,83,175,85,181.5z M78.9,153.4c3.4-1.3,6.4-2.9,8.8-5.5c0.8-0.8,1.5-1.7,2.1-2.7c1.1-1.8,1.5-3.8,1-5.9
				c-0.4-1.9-1.3-3.6-3.1-4.5c-2.7-1.4-5.5-1.3-8.2,0.3c-2,1.2-2.8,3-2.5,5.3c0.4,3,0.8,5.9,1.2,8.9
				C78.4,150.6,78.7,151.9,78.9,153.4z M70,142.4c0,0.5,0,1,0.1,1.5c0.3,3,1,6,1.9,8.9c0.1,0.2,0.2,0.5,0.3,0.6
				c0.3,0.5,0.9,0.6,1.4,0.4c0.5-0.2,0.8-0.7,0.8-1.3c0-0.1-0.1-0.3-0.1-0.4c-0.5-2.1-1.1-4.3-1.6-6.5c-0.7-3.2-0.5-6.2,1-9.2
				c0.2-0.3,0.3-0.6,0.4-1c0.2-0.7,0-1.3-0.6-1.6c-0.6-0.3-1.3-0.1-1.7,0.6C70.9,137.1,69.9,139.6,70,142.4z M108.5,170
				c-0.3-1.4-0.4-2.9-0.8-4.3c-0.8-3-2.2-5.7-4.5-7.8c-0.7-0.6-1.6-1.1-2.5-1.6c-0.6-0.4-1.3-0.1-1.6,0.4c-0.4,0.6-0.2,1.3,0.4,1.7
				c0.1,0.1,0.2,0.2,0.4,0.2c1.5,0.7,2.6,1.9,3.4,3.2c1.3,2.1,2.2,4.4,2.4,6.9c0.1,0.5,0.1,1,0.2,1.5c0.1,0.7,0.7,1.2,1.4,1.1
				C107.9,171.2,108.4,170.7,108.5,170z"/>
			<path class="st57" d="M234.8,177.1c0.2-3.3,0.5-6.5,0.7-9.8c0.2-3.2,0.4-6.4,0.7-9.7c0.3-4.4,0.7-8.8,1-13.2
				c0.2-2.8,0.5-5.6,0.8-8.4c0.3-3,0.6-6.1,1.5-9c0.7-2.3,2.3-3.6,4.4-4.3c1.7-0.5,3.4-0.5,5.1-0.1c4.5,1.1,8.1,3.7,11.1,7.2
				c2.3,2.6,3.8,5.7,5.1,8.9c1.5,3.8,2.6,7.7,3.2,11.7c0.6,4,0.7,8.1,0.1,12.2c-0.4,2.7-1,5.3-2.1,7.9c-1.4,3.3-3.4,6-6,8.5
				c-3.7,3.6-8.1,6.1-13,7.7c-2.3,0.8-4.8,1.1-7.3,1.1c-2.7,0-4.7-1.6-5.1-4.3c-0.2-1.1-0.2-2.1-0.2-3.2
				C234.9,179.2,234.9,178.1,234.8,177.1C234.9,177.1,234.9,177.1,234.8,177.1z M244.7,178.9c0.5-0.2,0.9-0.3,1.2-0.4
				c2-0.8,4-1.8,5.8-3.1c3.8-2.6,6.5-6.1,7.7-10.6c0.7-2.9,1-5.8,0.9-8.7c-0.1-2.8-0.5-5.5-1-8.3c-0.7-3.5-1.7-6.8-3.3-10
				c-1.5-3-3.5-5.4-6.3-7.2c-0.3-0.2-0.6-0.3-0.9-0.5c-0.2,1.2-0.4,2.3-0.6,3.4c-0.4,2.7-0.7,5.4-1,8.1c-0.4,3.3-0.8,6.7-0.8,10
				c0,1.6-0.1,3.2-0.2,4.8c-0.2,3.4-0.4,6.9-0.6,10.3c-0.1,2-0.2,4-0.3,6C244.9,174.7,244.8,176.7,244.7,178.9z M241.8,140.3
				c0,0.2,0,0.4,0,0.5c-0.1,0.9-0.1,1.9-0.2,2.8c0,0.7,0.5,1.2,1.2,1.2c0.6,0,1.1-0.4,1.3-1c0.1-0.3,0.1-0.6,0.1-0.9
				c0.2-2.4,0.3-4.9,0.6-7.3c0.2-1.8,0.4-3.6,1.3-5.2c1.1-2.1,2.7-2.9,5-2.4c0.7,0.1,1.3-0.2,1.5-0.8c0.2-0.6-0.1-1.3-0.7-1.6
				c-0.4-0.2-0.7-0.3-1.1-0.3c-2.7-0.3-4.8,0.8-6.4,3c-0.8,1.2-1.3,2.6-1.6,4C242.1,134.9,242,137.6,241.8,140.3z M265.4,162.4
				C265.4,162.4,265.3,162.4,265.4,162.4c-0.1-0.1-0.1-0.1-0.1-0.2c0-0.9-0.5-1.4-1.3-1.4c-0.7,0-1.2,0.5-1.2,1.4
				c0,0.3-0.1,0.7-0.1,1c-0.8,3.8-2.5,7.1-5.3,9.9c-0.3,0.3-0.5,0.5-0.7,0.8c-0.3,0.4-0.2,1,0.1,1.4c0.3,0.4,0.9,0.6,1.4,0.4
				c0.3-0.1,0.5-0.3,0.7-0.5c2.8-2.7,4.7-6,5.9-9.7C265,164.4,265.2,163.4,265.4,162.4z"/>
			<path class="st40" d="M151.4,157.8c0.5,0.4,0.8,0.7,1.2,1c2.6,2.3,4.5,5.1,5.9,8.2c2,4.2,3.2,8.7,3.7,13.3c0.2,1.8,0.2,3.6,0,5.5
				c-0.2,1.6-1,2.6-2.5,3.1c-1.5,0.5-2.9,0.2-4-1c-0.5-0.5-0.8-1.2-1.1-1.8c-0.6-1.4-0.9-3-1.1-4.5c-0.4-3.8-1.4-7.5-2.9-11
				c-0.6-1.4-1.5-2.7-2.4-4c-1.8-2.5-4.3-3.7-7.2-4c-0.5-0.1-1.1-0.1-1.7-0.1c0,0.8-0.1,1.5-0.1,2.2c-0.1,4.8-0.3,9.7-0.4,14.5
				c0,1.5-0.1,2.9-0.3,4.4c-0.3,2.1-2,3.5-4.1,3.6c-2.2,0.1-4-1.2-4.5-3.3c-0.1-0.3-0.1-0.7-0.1-1.1c0-5.6,0-11.3,0.1-16.9
				c0.1-5.9,0.3-11.8,0.5-17.7c0.2-3.6,0.5-7.3,0.8-10.9c0.1-1,0.3-2,0.6-3c0.4-1.7,1.3-3.2,2.5-4.4c1.8-1.7,3.9-2.7,6.4-3.1
				c3.8-0.5,7.3,0.4,10.5,2.5c2.9,1.9,5.2,4.3,6.7,7.4c2.7,5.6,2.2,10.9-1.3,16c-1.1,1.6-2.5,2.9-4,4.1
				C152.2,157.2,151.8,157.4,151.4,157.8z M139.4,153.8c0.1,0,0.2,0,0.3,0c1.6-0.6,3.2-1.1,4.7-1.8c1.8-0.8,3.5-1.9,4.8-3.6
				c1.7-2.2,2.2-4.7,1.2-7.4c-1.1-2.8-3.1-4.7-5.8-5.8c-0.6-0.2-1.3-0.3-1.9-0.3c-1.5,0-2.3,0.7-2.6,2.1c-0.5,2.4-0.6,4.8-0.6,7.2
				c-0.1,2.9,0,5.8,0,8.7C139.4,153.3,139.4,153.5,139.4,153.8z M155.9,143.6c0-1.9-0.1-3.3-0.8-4.5c-0.4-0.7-1.1-1-1.7-0.7
				c-0.7,0.3-0.9,1-0.6,1.7c0.6,1.2,0.7,2.4,0.5,3.7c-0.5,3.6-1.9,6.6-5,8.7c-0.4,0.3-0.9,0.6-1.3,1c-0.6,0.5-0.6,1.3-0.1,1.8
				c0.5,0.5,1.2,0.6,1.8,0.1c0.4-0.3,0.9-0.7,1.4-1C153.9,151.6,155.6,147.7,155.9,143.6z M135.2,172C135.2,172,135.2,172,135.2,172
				c0.1-1.7,0.1-3.4,0.1-5.1c0-0.4,0-0.8-0.1-1.2c-0.1-0.6-0.6-1-1.2-1c-0.5,0-1,0.4-1.2,0.9c0,0.2-0.1,0.4-0.1,0.5
				c0,3.8,0,7.5,0.1,11.3c0,0.2,0,0.5,0.1,0.7c0.1,0.6,0.6,1,1.2,1c0.6,0,1.1-0.4,1.2-1c0.1-0.3,0-0.5,0-0.8
				C135.3,175.6,135.2,173.8,135.2,172z"/>
			<path class="st40" d="M295.9,168.4c-4.7,0.4-9.4,0.7-14.1,1.1c-0.3,1.6-0.5,3.1-0.8,4.6c-0.7,4.1-1.4,8.1-2.2,12.2
				c-0.2,1-0.6,1.9-1,2.7c-1,1.7-2.8,2.5-4.7,2.1c-1.7-0.4-3-1.7-3.3-3.4c-0.1-0.5-0.2-1-0.3-1.5c-0.3-1.2-0.3-2.3-0.1-3.5
				c0.4-2.5,0.7-5,1.2-7.5c1-5,1.9-10,3-15c1.5-6.6,3.2-13.1,4.8-19.7c0.4-1.5,0.9-3,1.5-4.4c0.3-0.9,0.8-1.7,1.3-2.4
				c1.9-2.7,5.2-3.3,8-1.6c1.2,0.7,2.2,1.8,3,2.9c1.6,2.2,2.7,4.6,3.8,7c2.7,6.1,4.7,12.4,6.7,18.8c1.7,5.5,3.5,11,5.2,16.4
				c0.4,1.1,0.7,2.3,1.1,3.4c0.7,2.3-0.4,4.4-2.5,5.2c-2.2,0.8-4.6-0.1-5.6-2.1c-0.5-1.1-0.9-2.3-1.2-3.5c-1.2-3.6-2.3-7.2-3.4-10.8
				C296.1,169.1,296,168.8,295.9,168.4z M293.5,161.6c-0.2-1.9-5.4-15.2-6.4-16.2c-2,5.7-3.2,11.5-4.2,17.4
				C286.5,162.4,290,162,293.5,161.6z M287.9,137c0-0.8-0.6-1.4-1.5-1.3c-0.8,0-1.5,0.4-2,1c-0.7,0.8-1.4,1.7-1.9,2.6
				c-0.7,1.4-1.3,2.8-1.7,4.3c-1.4,4.5-2.3,9.1-3.2,13.7c0,0.2-0.1,0.4,0,0.5c0,0.6,0.4,1,1,1.1c0.5,0.1,1.1-0.1,1.4-0.6
				c0.1-0.2,0.2-0.5,0.2-0.7c0.2-1.2,0.5-2.4,0.7-3.5c0.8-3.6,1.5-7.3,2.7-10.8c0.5-1.5,1.1-3,2.1-4.3c0.3-0.5,0.7-0.9,1.4-0.9
				C287.5,138.2,287.9,137.6,287.9,137z M304.5,179.2c-0.1-0.2-0.2-0.5-0.3-0.8c-1.5-3.8-2.9-7.7-4-11.6c-0.3-0.9-0.6-1.8-0.9-2.7
				c-0.2-0.7-0.8-1-1.5-0.8c-0.6,0.1-1,0.7-1,1.3c0,0.4,0.2,0.7,0.3,1c0.3,0.9,0.6,1.7,0.8,2.6c1.1,3.8,2.5,7.5,3.9,11.2
				c0.1,0.2,0.2,0.5,0.3,0.7c0.3,0.5,0.9,0.6,1.4,0.5C304.1,180.3,304.5,179.9,304.5,179.2z"/>
			<path class="st40" d="M206.7,146.6c4.9-0.6,9.6-1.2,14.5-1.8c0-0.1,0.1-0.4,0-0.7c-0.1-5.9-0.2-11.7-0.3-17.6
				c0-0.7,0.1-1.5,0.3-2.2c0.8-2.2,3.5-2.8,5.2-1.1c0.8,0.8,1.2,1.9,1.3,3c0.2,2.8,0.4,5.6,0.6,8.3c0.3,5.2,0.5,10.3,0.7,15.5
				c0.2,4.3,0.4,8.6,0.7,12.9c0.4,5.1,0.9,10.3,1.3,15.4c0.1,0.9,0.1,1.9-0.1,2.8c-0.3,1.6-1.3,2.7-2.9,3.1c-1.6,0.4-3.1,0-4.2-1.3
				c-0.8-0.8-1.2-1.8-1.3-2.9c-0.3-3-0.7-6.1-0.9-9.1c-0.4-6-0.4-12-0.4-18.1c0-0.3,0-0.5,0-0.8c-4.7,0.2-9.4,0.6-14.1,1.3
				c0,0.4,0,0.8,0,1.2c0.2,5.4,0.4,10.9,0.5,16.3c0.1,2.5,0.1,5,0.1,7.5c0,1.2-0.3,2.3-0.8,3.3c-0.8,1.4-2,2.3-3.7,2.2
				c-1.7-0.1-2.8-1-3.5-2.4c-0.4-0.9-0.7-1.9-0.7-3c0-3.7-0.1-7.4-0.1-11.1c0-5.3,0.1-10.6,0.1-15.9c0.1-6.1,0.1-12.2,0.2-18.2
				c0-1.9,0.2-3.8,0.3-5.7c0.1-1.2,0.4-2.4,1.1-3.5c0.8-1.2,2.2-1.6,3.4-1.2c0.9,0.3,1.4,0.9,1.8,1.8c0.4,1,0.6,2,0.6,3.1
				c0,2.9,0,5.9,0.1,8.8c0.1,3.2,0.2,6.3,0.3,9.5C206.7,146.2,206.7,146.4,206.7,146.6z M226.3,136.9
				C226.3,136.9,226.3,136.9,226.3,136.9c0-1,0-1.9,0-2.9c-0.1-2.3-0.1-4.7-0.2-7c0-0.8-0.6-1.3-1.3-1.3c-0.7,0-1.2,0.5-1.2,1.3
				c0,0.1,0,0.2,0,0.4c0.2,6.4,0.4,12.7,0.6,19.1c0,0.2,0,0.4,0.1,0.6c0.1,0.6,0.7,1,1.2,1c0.6,0,1.1-0.5,1.2-1.1c0-0.3,0-0.6,0-0.9
				C226.5,143,226.4,140,226.3,136.9z M203.5,152.1c1.5-0.2,2.9-0.3,4.2-0.5c0.8-0.1,1.3-0.7,1.2-1.4c-0.1-0.7-0.7-1.1-1.5-1.1
				c-1.7,0.1-3.4,0.3-5.1,0.5c-0.8,0.1-1.2,0.6-1.2,1.3c0,0.7,0.5,1.2,1.3,1.2C202.8,152.1,203.3,152.1,203.5,152.1z"/>
			<path class="st57" d="M324.9,148c0.7-1.1,1.4-2,2.1-3c1.7-2.2,3.3-4.4,5.1-6.5c2.4-2.9,4.6-6,6.8-9.1c0.7-0.9,1.3-1.9,2-2.8
				c1-1.3,2.5-1.9,4.1-1.7c2.5,0.4,4,2.5,3.7,5.1c-0.2,1.2-0.6,2.4-1.4,3.4c-0.9,1.1-1.7,2.1-2.6,3.2c-2.7,3.5-5.5,7.1-8.2,10.6
				c-1.6,2-3.2,4-4.9,6c-0.2,0.3-0.5,0.6-0.7,0.9c-1.3,1.6-2.1,3.4-2.1,5.5c0,1.9-0.2,3.8-0.2,5.7c0,4.6,0.1,9.2,0.2,13.7
				c0,2.3,0.1,4.6,0.3,6.9c0.2,2.8-2.6,5.3-4.5,5.5c-2.2,0.2-4.1-1-4.7-3.1c-0.3-1-0.5-2-0.6-3.1c-0.5-5-0.5-10-0.3-15
				c0.1-3.3,0.2-6.6,0.2-9.9c0-0.8-0.1-1.7-0.2-2.5c0-0.3-0.2-0.6-0.3-0.9c-1.8-3.5-3.6-7-5.5-10.4c-1.1-1.9-2.3-3.8-3.5-5.7
				c-1.4-2.3-2.7-4.5-4-6.8c-0.7-1.2-0.8-2.5-0.6-3.7c0.2-2.3,2.6-3.7,4.9-3.3c1.1,0.2,2,0.6,2.8,1.3c1.6,1.4,3.1,3,4.1,4.9
				c2.5,4.7,5.1,9.4,7.7,14C324.7,147.6,324.8,147.7,324.9,148z M322,175.8C322,175.8,322,175.8,322,175.8c0.1,2.7,0.2,5.4,0.3,8.2
				c0,0.2,0,0.4,0,0.6c0.1,0.6,0.7,1.1,1.3,1c0.6,0,1.1-0.5,1.2-1.1c0-0.4,0-0.7,0-1.1c-0.1-4.9-0.3-9.8-0.4-14.7
				c0-0.4,0-0.9-0.1-1.3c-0.1-0.8-0.6-1.3-1.3-1.3c-0.7,0-1.2,0.6-1.2,1.4C321.9,170.3,322,173,322,175.8z M319.6,147.4
				c-0.1-0.1-0.1-0.4-0.2-0.7c-1.8-3.8-3.7-7.5-5.6-11.3c-0.3-0.7-0.8-1.4-1.2-2c-0.5-0.7-1.2-0.8-1.8-0.4c-0.6,0.4-0.6,1.1-0.2,1.8
				c0.8,1.4,1.6,2.8,2.3,4.3c1.4,2.8,2.8,5.6,4.1,8.5c0.1,0.2,0.2,0.5,0.4,0.7c0.3,0.4,0.9,0.6,1.4,0.4
				C319.3,148.6,319.6,148.1,319.6,147.4z"/>
			<path class="st57" d="M172.6,132.8c-1.5,0.1-3,0.2-4.4,0.3c-1.3,0.1-2.7,0.4-4,0.6c-0.8,0.1-1.6,0.1-2.4,0
				c-0.4,0-0.8-0.2-1.1-0.3c-1.6-0.7-2.1-2.5-1.1-3.9c0.7-0.9,1.6-1.6,2.7-1.9c1.3-0.4,2.5-0.7,3.8-0.9c2.4-0.3,4.8-0.5,7.2-0.7
				c4-0.4,8.1-0.7,12.1-1c1.7-0.1,3.4-0.3,5.1-0.4c0.5,0,1-0.1,1.4-0.2c0.9-0.1,1.8,0,2.6,0.4c1.4,0.7,2.1,1.8,2.1,3.4
				c0,1.5-0.8,2.6-2.1,3.3c-0.8,0.4-1.7,0.5-2.6,0.6c-3.3,0.2-6.6,0.3-10,0.4c-0.8,0-1.5,0.1-2.4,0.2c0.1,1.1,0.2,2.1,0.3,3.1
				c0.3,3.5,0.7,7,1,10.5c0.5,5.5,1,11,1.6,16.4c0.5,5.2,1.2,10.5,1.8,15.7c0.2,1.6,0.4,3.1,0.5,4.7c0.1,1.2,0,2.5-0.2,3.8
				c-0.2,1.6-1.6,2.8-3.3,3c-1.7,0.2-3.4-0.5-4-2.1c-0.5-1.3-1-2.6-1.2-4c-0.5-4.4-1-8.8-1.3-13.2c-0.4-5.3-0.6-10.6-0.9-16
				c-0.3-4.8-0.5-9.6-0.7-14.4C172.9,137.8,172.7,135.4,172.6,132.8z M181,177.7c0-0.1,0-0.3-0.1-0.4c-0.5-3.7-0.9-7.4-1.4-11.1
				c-0.1-0.8-0.2-1.7-0.3-2.5c-0.1-0.7-0.7-1.1-1.4-1c-0.6,0.1-1.1,0.5-1.1,1.2c0,0.2,0,0.5,0.1,0.7c0.5,3.7,0.9,7.5,1.4,11.2
				c0.1,0.7,0.1,1.4,0.2,2.1c0.1,0.8,0.7,1.4,1.4,1.3C180.6,179.2,181,178.6,181,177.7z"/>
			<path class="st57" d="M114.3,156.4c-0.1-5.9-0.2-11.9-0.2-17.8c0-2.8,0-5.6,0.1-8.3c0-0.9,0.3-1.8,0.6-2.7
				c0.5-1.3,1.6-1.9,2.9-1.8c1,0.1,1.8,0.6,2.2,1.5c0.4,0.8,0.6,1.7,0.9,2.5c0.1,0.5,0.2,1.1,0.2,1.6c0.2,3.9,0.4,7.8,0.6,11.7
				c0.4,6.4,0.8,12.8,1.3,19.3c0.4,5.7,1,11.5,1.1,17.2c0,1,0.1,1.9,0.1,2.9c0,0.6-0.1,1.2-0.3,1.8c-0.5,1.8-2,2.9-3.9,3
				c-1.7,0.1-3.4-0.9-4-2.6c-0.3-0.9-0.5-1.9-0.5-2.8c-0.2-4.2-0.3-8.3-0.4-12.5C114.7,165.1,114.5,160.7,114.3,156.4
				C114.4,156.4,114.4,156.4,114.3,156.4z M118.3,147.8c-0.1-1.2-0.3-2.4-0.3-3.7c-0.1-3.2-0.2-6.4-0.3-9.6c0-0.4,0-0.8-0.1-1.2
				c-0.1-0.6-0.6-1-1.2-1c-0.6,0-1.1,0.4-1.3,1.1c0,0.1,0,0.3,0,0.4c0.1,3.6,0.2,7.1,0.3,10.7c0,1.2,0.2,2.3,0.3,3.5
				c0.1,0.8,0.6,1.3,1.4,1.2C117.9,149.2,118.3,148.6,118.3,147.8z"/>
		</g>
	</g>
	<g>
		<path class="st25" d="M151.6,108.4c0,1.1-0.4,1.7-1.2,2c-0.8,0.3-1.5,0.1-2.1-0.6c-0.4-0.5-0.7-1-0.7-1.6c-0.3-3-1-5.9-1.4-8.9
			c-0.1-0.6-0.2-0.8-0.9-0.8c-2,0.2-4,0.4-6,0.6c-0.6,0.1-0.7,0.5-0.7,0.9c-0.1,1-0.2,2-0.3,3c-0.1,1.1-0.2,2.2-0.3,3.4
			c0,0.1,0,0.3,0,0.4c-0.2,1.2-1.1,1.9-2.2,1.7c-1-0.1-1.7-1.1-1.6-2.2c0.1-1.7,0.3-3.5,0.5-5.2c0.5-3.4,0.6-6.9,1-10.4
			c0.8-7.1,1.9-14.2,3.7-21.2c0.2-0.7,0.4-1.3,0.8-1.9c1-1.3,2.6-1.3,3.6-0.1c0.5,0.6,0.8,1.3,1,2.1c1,2.9,1.6,6,2.1,9
			c1.3,8.5,2.6,16.9,4,25.4c0.2,1.2,0.4,2.3,0.6,3.5C151.5,107.9,151.5,108.3,151.6,108.4z M142,75c-1.4,6.5-2.3,13-2.9,19.5
			c-0.1,0.8,0.1,0.9,0.9,0.9c1.3-0.1,2.7-0.2,4-0.3c1.4-0.1,1.5-0.2,1.2-1.7c-0.1-0.4-0.1-0.9-0.2-1.3c-0.9-5.4-1.5-10.8-2.6-16.2
			C142.4,75.6,142.4,75.2,142,75z"/>
		<path class="st25" d="M156.9,80.9c0.2,2.1,0.4,4.1,0.6,6.1c0.5,5.8,1.7,11.5,2.4,17.3c0,0.3,0.1,0.7,0.1,1c-0.1,1-0.7,1.8-1.7,1.9
			c-0.8,0.1-1.7-0.5-2-1.4c-0.3-0.9-0.3-1.9-0.4-2.8c-0.5-3.4-1-6.7-1.5-10.1c-0.5-3.5-0.8-7.1-1.2-10.6c-0.2-2.4-0.4-4.8-0.6-7.2
			c-0.1-0.9-0.1-1.7,0-2.6c0.1-0.9,0.6-1.5,1.4-1.8c0.9-0.3,1.6,0,2.3,0.6c0.6,0.6,0.9,1.2,1.3,1.9c3,5.5,5.5,11.3,7.6,17.2
			c0.8,2.1,1.6,4.2,2.4,6.3c0.4-0.2,0.3-0.6,0.4-0.8c0.2-4.9,0.4-9.8,0.6-14.7c0.1-1.7,0.2-3.4,0.3-5.1c0-0.3,0.1-0.7,0.2-1
			c0.3-1,1-1.5,2-1.4c0.9,0.1,1.6,0.8,1.6,1.7c0,0.5,0,1,0,1.4c-0.2,4.4-0.5,8.8-0.7,13.2c-0.2,3.9-0.3,7.7-0.6,11.6
			c-0.1,1-0.2,1.9-0.5,2.8c-0.3,0.9-0.9,1.6-2,1.7c-1.1,0.1-1.8-0.5-2.3-1.4c-0.7-1.4-1.2-2.8-1.7-4.2c-2.4-6.2-4.5-12.4-7.3-18.4
			C157.5,81.6,157.4,81.1,156.9,80.9z"/>
		<path class="st25" d="M189.2,73.9c0.7-0.7,1.1-1.5,1.6-2.2c0.6-0.9,1.6-1.1,2.4-0.7c0.8,0.4,1.2,1.3,0.9,2.3
			c-0.1,0.3-0.3,0.6-0.5,0.9c-0.6,1-1.2,1.9-2,2.7c-0.5,0.5-0.7,1-0.5,1.8c0.7,3.2,0.6,6.4,0.3,9.6c-0.2,1.7-0.5,3.4-1,5.1
			c-0.5,1.8-1.2,3.5-2.4,4.9c-1.3,1.6-2.8,2.7-5,2.6c-1.2-0.1-2.2-0.5-3.1-1.2c-0.8-0.7-1.5-1.4-2.1-2.3c-3.6-5.4-4.9-11.3-3.8-17.8
			c0.4-2.3,1.3-4.5,2.8-6.3c1.8-2.1,4.1-3.1,7-2.6C186,71.2,187.8,72.1,189.2,73.9z M177.8,81c-0.1,0.3-0.1,0.4-0.2,0.6
			c0,0.2-0.1,0.4-0.1,0.6c-0.3,4.7,0.8,9,3.3,12.9c0.4,0.6,0.8,1.1,1.4,1.6c0.9,0.7,1.6,0.7,2.4,0c0.7-0.6,1.1-1.4,1.5-2.1
			c0.8-1.7,1.2-3.5,1.4-5.4c0.4-2.9,0.7-5.8,0-8.7c-1.6,0.5-3.1,1.2-4.7,1.4C181.1,81.9,179.4,81.6,177.8,81z M186.3,76.6
			c-1.6-2.6-5.3-2.7-6.7-0.2c-0.5,0.8-0.4,1.1,0.6,1.4C182.4,78.5,184.3,77.7,186.3,76.6z"/>
		<path class="st25" d="M204.7,69.8c2,0,4,0,6,0c0.4,0,0.9,0,1.3,0.2c1,0.3,1.6,1,1.5,2c-0.1,0.9-0.8,1.6-1.9,1.7c-1,0-2.1,0-3.1,0
			c-2.2,0-2.3,0-2.2,2.2c0.1,3.7,0.1,7.4,0.3,11.1c0.3,5.5,0.8,11,1.6,16.5c0.1,0.7,0.2,1.5,0.3,2.2c0.1,1.2-0.6,2.2-1.7,2.3
			c-1,0.1-2-0.8-2.2-2c-0.3-3.2-0.8-6.4-1.1-9.6c-0.4-3.5-0.6-6.9-0.8-10.4c-0.2-3.7-0.1-7.5-0.2-11.2c0-1.2,0-1.2-1.3-1.2
			c-1.3,0.1-2.5,0.2-3.8,0.3c-0.7,0.1-1.3-0.1-1.8-0.6c-1-1-0.5-2.7,1-3.1c0.9-0.2,1.8-0.3,2.7-0.3
			C201.2,69.7,202.9,69.7,204.7,69.8C204.7,69.7,204.7,69.8,204.7,69.8z"/>
		<path class="st25" d="M219.3,94.9c2.1-0.5,4.1-0.9,6.1-1.3c0.9-0.2,1.8-0.4,2.7-0.5c0.6-0.1,0.8-0.4,0.7-1
			c-0.2-1.8-0.4-3.6-0.5-5.5c-0.4-4.9-0.3-9.7-0.4-14.6c0-1.6,0-3.2-0.1-4.8c0-0.4,0-0.8,0.1-1.2c0.3-0.8,0.9-1.2,1.7-1.2
			c0.8,0,1.4,0.4,1.8,1.1c0.2,0.5,0.3,1,0.3,1.5c0,3.2,0.1,6.4,0.1,9.7c0,5.8,0.5,11.5,1.1,17.2c0.2,2,0.5,4.1,0.8,6.1
			c0.2,1.3-0.5,2.3-1.6,2.4c-1.1,0.1-2-0.7-2.2-1.9c-0.2-1.1-0.3-2.2-0.4-3.2c-0.1-0.9-0.2-0.9-1.1-0.8c-1.4,0.3-2.7,0.5-4.1,0.9
			c-1.2,0.3-2.4,0.6-3.7,0.9c-0.6,0.1-0.8,0.3-0.7,1c0.3,2.7,0.8,5.4,1.4,8.1c0.1,0.4,0.2,0.8,0.2,1.3c-0.1,0.8-0.6,1.5-1.4,1.7
			c-0.8,0.2-1.6-0.1-2.1-0.8c-0.3-0.4-0.4-0.9-0.5-1.3c-0.9-3.6-1.3-7.2-1.8-10.8c-0.6-4.7-1.1-9.4-1.3-14.2
			c-0.2-4.9-0.1-9.8,0.7-14.7c0.1-0.4,0.2-0.9,0.4-1.2c0.5-0.7,1.2-1,2-0.8c0.8,0.2,1.3,0.8,1.4,1.7c0,0.5-0.1,1-0.1,1.6
			c-0.8,5.7-0.7,11.4-0.3,17.1c0.2,2.2,0.4,4.4,0.6,6.6C219.2,94.1,219.3,94.5,219.3,94.9z"/>
		<path class="st25" d="M239.1,98.7c0,1.6,0.4,3.1,0.6,4.5c0.1,0.5,0.5,0.7,1,0.7c1.1-0.1,2.2-0.1,3.2-0.5c1.2-0.5,2.4,0,2.7,1.1
			c0.3,1.1-0.2,2.1-1.5,2.5c-2,0.6-4.1,0.7-6.2,0.4c-1.4-0.2-2.3-1.1-2.7-2.5c-0.5-1.9-0.8-3.8-1-5.8c-0.7-7.8-0.6-15.6-0.4-23.3
			c0.1-2.4,0.2-4.8,0.4-7.2c0-0.5,0.1-1,0.2-1.5c0.2-0.9,0.8-1.4,1.6-1.7c0.6-0.2,1.2-0.2,1.8-0.2c2.4,0.1,4.9,0.3,7.2,0.8
			c1.2,0.2,1.9,1.1,1.7,2.2c-0.2,1-1.2,1.7-2.4,1.5c-1.8-0.3-3.5-0.6-5.3-0.6c-1.1,0-1.2,0-1.2,1.1c-0.1,1.8-0.2,3.6-0.3,5.3
			c-0.1,5.9-0.2,11.8,0,17.7c0,1.6-0.1,1.6,1.6,1.6c0.7,0,1.3,0,2,0c1.2,0.1,2.1,0.9,2.1,1.9c0,1.1-0.9,1.8-2.1,1.9
			C241.1,98.7,240.2,98.7,239.1,98.7z"/>
		<path class="st25" d="M256.8,95.7c1.5,1.2,2.9,2.3,4.3,3.4c0.9,0.7,1.7,1.3,2.6,2c0.6,0.4,1,1,1,1.7c0,1.3-1.2,2.2-2.4,1.8
			c-0.5-0.1-0.8-0.4-1.2-0.7c-1.9-1.5-3.9-3-5.8-4.5c-0.3-0.2-0.6-0.4-1.1-0.8c0,1.6,0.1,3.1,0.5,4.4c0.3,0.8,0.3,1.4,0,2.1
			c-0.3,0.9-1.1,1.4-1.9,1.4c-0.8,0-1.6-0.6-1.8-1.5c-0.2-1.1-0.4-2.3-0.5-3.5c-0.8-7-1.1-14.1-1.5-21.2c-0.1-2-0.1-4.1-0.1-6.1
			c0-0.4,0-0.9-0.1-1.3c-0.3-1.4,0.2-2.3,1.6-2.7c1.8-0.5,3.7-0.7,5.6-0.5c2.3,0.2,4.6,0.7,6.8,1.7c3.2,1.5,5.6,3.7,6.6,7.2
			c1.2,4.2,0,7.9-2.8,11.1c-2,2.4-4.7,3.8-7.5,5C258.3,95.1,257.5,95.2,256.8,95.7z M252.7,78.9c0,2.4,0.3,4.7,0.4,7
			c0.1,1.9,0.2,3.8,0.3,5.7c0.1,0.8,0.2,0.9,1,0.7c1.8-0.6,3.6-1.2,5.3-2.1c1.9-1,3.5-2.2,4.7-4c2.7-4,1.6-8.6-2.6-10.9
			c-2.6-1.4-5.4-1.9-8.3-1.8c-0.9,0-0.9,0.1-0.9,1C252.7,76.1,252.7,77.5,252.7,78.9z"/>
	</g>
	<g>
		<path class="st25" d="M80.2,230.2c-0.1-1.2-0.2-2.2-0.3-3.3c-3-0.1-6.1-0.1-9.1-0.1c0,0.3-0.1,0.5-0.1,0.8
			c-0.1,0.9-0.3,1.6-0.4,2.1l-1.9-0.4c0.1-0.5,0.2-1.2,0.3-2.1c2.2-13.8,4-19.1,6.6-19.5c1.8-0.3,2.8,1.8,3.2,2.4
			c2.4,4.6,2.8,10,3.6,19.9L80.2,230.2z M79.8,225c-0.6-6.4-1.2-10.5-2.9-13.9c-0.6-1.2-1.1-1.4-1.1-1.4c-0.1,0-1.2,0.3-2.8,6.7
			c-0.7,2.8-1.3,5.9-1.7,8.5C74.1,224.9,77,224.9,79.8,225z"/>
		<path class="st25" d="M363.8,230.2c-0.1-1.2-0.2-2.2-0.3-3.3c-3-0.1-6.1-0.1-9.1-0.1c0,0.3-0.1,0.5-0.1,0.8
			c-0.1,0.9-0.3,1.6-0.4,2.1l-1.9-0.4c0.1-0.5,0.2-1.2,0.3-2.1c2.2-13.8,4-19.1,6.6-19.5c1.8-0.3,2.8,1.8,3.2,2.4
			c2.4,4.6,2.8,10,3.6,19.9L363.8,230.2z M363.3,225c-0.6-6.4-1.2-10.5-2.9-13.9c-0.6-1.2-1.1-1.4-1.1-1.4c-0.1,0-1.2,0.3-2.8,6.7
			c-0.7,2.8-1.3,5.9-1.7,8.5C357.6,224.9,360.5,224.9,363.3,225z"/>
		<path class="st25" d="M93.6,229.4l-6-14.8l0.7,14l-2,0.1l-1-20.3l1.7-0.4l6.9,17.1L93.5,209l2-0.1l0.7,20.5L93.6,229.4z"/>
		<path class="st25" d="M112.6,224.4c-1.3,2.6-3.6,4.5-6.3,5.1c-0.6,0.1-1.2,0.2-1.7,0.2c-1.4,0-2.7-0.4-3.7-1.2l1.2-1.5
			c0.2,0.1,0.4,0.3,0.6,0.4l-0.9-17.9c-0.4,0.2-0.7,0.6-1.1,1l-1.5-1.3c2.4-2.7,5.8-3.1,9-1C112.7,211.1,115.7,218.1,112.6,224.4z
			 M107.2,209.7c-0.7-0.4-2-1.1-3.4-1l0.9,19c0.4,0,0.8-0.1,1.2-0.1c2.1-0.5,3.9-2,5-4C113.3,218.4,111,212.2,107.2,209.7z"/>
		<path class="st25" d="M136.7,210.5l-5.7,18.5l-1.9-0.6l2.5-8.2l-7.2-9.4l1.6-1.2l6.4,8.3l2.4-8L136.7,210.5z"/>
		<path class="st25" d="M150,225.7c-0.8,2.8-2.2,3.6-3.1,3.9c-0.2,0.1-0.5,0.1-0.7,0.1c-1,0-2.1-0.5-3.1-1.6
			c-2.7-2.8-4.3-9-2.4-15.2c0.6-1.8,1.3-3.2,2.2-4c1-0.9,2.1-1.2,3.2-0.8C150,209.2,152.6,217.2,150,225.7z M148.6,214.6
			c-0.7-2.9-2-4.4-3-4.7c-1.1-0.3-2.2,1-3,3.5c-1.7,5.5-0.2,10.9,2,13.3c0.7,0.7,1.4,1.1,1.9,0.9c0.7-0.2,1.3-1.1,1.7-2.5
			C149.2,221.5,149.4,217.8,148.6,214.6z"/>
		<path class="st25" d="M162,228.9c-0.7,0.5-1.4,0.7-2.1,0.7c-0.6,0-1.1-0.1-1.6-0.5c-3.4-1.9-4.8-9.8-3.8-20.9l1.9,0.2
			c-0.5,5.6-0.4,10.3,0.3,13.8c0.8,3.8,2,4.9,2.5,5.2c0.3,0.2,0.8,0.4,1.6-0.2c2.1-1.5,4.6-8,2.5-19.2l1.9-0.4
			C167.5,219.2,165.1,226.7,162,228.9z"/>
		<path class="st25" d="M181.8,217.2c2.2,2.5,6.8,7.6,3.2,11.2c-0.8,0.8-1.8,1.2-2.8,1.2c-0.6,0-1.1-0.1-1.7-0.4
			c-1.6-0.7-2.5-2.2-2.4-3.9l1.9,0.1c-0.1,1,0.6,1.7,1.2,2c0.6,0.3,1.6,0.3,2.3-0.4c2.3-2.3-1.3-6.4-3.3-8.6c-0.4-0.4-0.7-0.8-1-1.1
			c-1.4-1.8-3.6-5.3-2.1-8.1c0.8-1.5,2.7-2.4,4.6-2.1c2.2,0.2,4,1.7,4.6,3.8l-1.9,0.6c-0.5-1.6-1.8-2.3-3-2.4
			c-1.2-0.1-2.3,0.3-2.7,1.2c-0.7,1.3,0,3.5,1.9,5.9C181.1,216.4,181.4,216.8,181.8,217.2z"/>
		<path class="st25" d="M198,227.9c-0.5,0.5-1.8,1.8-3.2,1.8c-0.3,0-0.6-0.1-0.9-0.2c-2-0.9-2.6-4.6-2.6-11.6l-1.6,0l0-2l1.6,0
			c0-2,0.1-4.2,0.3-6.7l2,0.1c-0.1,2.1-0.2,4.4-0.3,6.6l2.2,0l0,2l-2.2,0c0,1.5,0,2.9,0.1,4.2c0.3,4.9,1.2,5.5,1.3,5.6
			c0.2,0.1,0.9-0.1,2-1.2L198,227.9z"/>
		<path class="st25" d="M204.2,209c-0.1,0.5-0.4,1-0.9,1.2c-0.2,0.1-0.5,0.2-0.7,0.2c-0.2,0-0.3,0-0.4-0.1c-0.7-0.2-1.1-1-1-1.9
			c0.1-0.5,0.4-1,0.9-1.2c0.3-0.1,0.6-0.2,1-0.1c0.2,0,0.4,0.1,0.6,0.2C204.1,207.8,204.3,208.4,204.2,209z M201.9,228.7l-0.3-16.8
			l2,0l0.3,16.8L201.9,228.7z"/>
		<path class="st25" d="M215.2,229.4c-1,0-2.2,0.1-3.4,0.1c-1.2,0-2.4,0.1-3.4,0.1l-1,0l0-1c0-3.2,0-6.7,0-10.2c0-3.4,0-7,0-10.2
			l2,0c0,3.2,0,6.7,0,10.2c0,3.1,0,6.3,0,9.2c0.7,0,1.6-0.1,2.4-0.1c1.2,0,2.4-0.1,3.4-0.1L215.2,229.4z"/>
		<path class="st25" d="M226.2,229.4c-1,0-2.2,0.1-3.4,0.1c-1.2,0-2.4,0.1-3.4,0.1l-1,0l0-1c0-3.2,0-6.7,0-10.2c0-3.4,0-7,0-10.2
			l2,0c0,3.2,0,6.7,0,10.2c0,3.1,0,6.3,0,9.2c0.7,0,1.6-0.1,2.4-0.1c1.2,0,2.4-0.1,3.4-0.1L226.2,229.4z"/>
		<path class="st25" d="M244.7,229.4c-1,0-2.2,0.1-3.4,0.1c-1.2,0-2.4,0.1-3.4,0.1l-1,0l0-1c0-3.2,0-6.7,0-10.2c0-3.4,0-7,0-10.2
			l2,0c0,3.2,0,6.7,0,10.2c0,3.1,0,6.3,0,9.2c0.7,0,1.6-0.1,2.4-0.1c1.2,0,2.4-0.1,3.4-0.1L244.7,229.4z"/>
		<path class="st25" d="M258,225.7c-0.8,2.8-2.2,3.6-3.1,3.9c-0.2,0.1-0.5,0.1-0.7,0.1c-1,0-2.1-0.5-3.1-1.6
			c-2.7-2.8-4.3-9-2.4-15.2c0.6-1.8,1.3-3.2,2.2-4c1-0.9,2.1-1.2,3.2-0.8C258,209.2,260.5,217.2,258,225.7z M256.6,214.6
			c-0.7-2.9-2-4.4-3-4.7c-1.1-0.3-2.2,1-3,3.5c-1.7,5.5-0.2,10.9,2,13.3c0.7,0.7,1.4,1.1,1.9,0.9c0.7-0.2,1.3-1.1,1.7-2.5
			C257.2,221.5,257.4,217.8,256.6,214.6z"/>
		<path class="st25" d="M272.4,225.7c-0.8,2.8-2.2,3.6-3.1,3.9c-0.2,0.1-0.5,0.1-0.7,0.1c-1,0-2.1-0.5-3.1-1.6
			c-2.7-2.8-4.3-9-2.4-15.2c0.6-1.8,1.3-3.2,2.2-4c1-0.9,2.1-1.2,3.2-0.8C272.4,209.2,274.9,217.2,272.4,225.7z M270.9,214.6
			c-0.7-2.9-2-4.4-3-4.7c-1.1-0.3-2.2,1-3,3.5c-1.7,5.5-0.2,10.9,2,13.3c0.7,0.7,1.4,1.1,1.9,0.9c0.7-0.2,1.3-1.1,1.7-2.5
			C271.6,221.5,271.7,217.8,270.9,214.6z"/>
		<path class="st25" d="M289.8,223.6c-0.1,1.5-0.5,2.6-1.2,3.5c-0.8,1-1.9,1.5-3,1.5c-0.3,0-0.6,0-0.8-0.1c-1.3-0.4-2.1-1.4-2.7-2.4
			c-0.2-0.2-0.3-0.4-0.4-0.6c-0.6-0.7-1.3-1.4-2.1-1.8l0.3,4.9l-2,0.1l-1.3-21.3l2-0.1l0.8,13.6c0.7-0.7,1.2-1.6,1.7-2.5
			c2.1-3.6,3.8-7.5,5.2-11.4l1.8,0.7c-1.4,4-3.2,8-5.4,11.7c-0.6,1-1.2,2-2,2.9c0.9,0.6,1.8,1.3,2.4,2.2c0.2,0.2,0.3,0.5,0.5,0.7
			c0.5,0.7,1,1.4,1.7,1.6c0.6,0.2,1.3-0.2,1.8-0.7c0.4-0.6,0.7-1.4,0.8-2.5L289.8,223.6z"/>
		<path class="st25" d="M308.3,229.4c-1,0-2.2,0.1-3.4,0.1c-1.2,0-2.4,0.1-3.4,0.1l-1,0l0-1c0-3.2,0-6.7,0-10.2c0-3.4,0-7,0-10.2
			l2,0c0,3.2,0,6.7,0,10.2c0,3.1,0,6.3,0,9.2c0.7,0,1.6-0.1,2.4-0.1c1.2,0,2.4-0.1,3.4-0.1L308.3,229.4z"/>
		<path class="st25" d="M314.5,209c-0.1,0.5-0.4,1-0.9,1.2c-0.2,0.1-0.5,0.2-0.7,0.2c-0.2,0-0.3,0-0.4-0.1c-0.7-0.2-1.1-1-1-1.9
			c0.1-0.5,0.4-1,0.9-1.2c0.3-0.1,0.6-0.2,1-0.1c0.2,0,0.4,0.1,0.6,0.2C314.4,207.8,314.6,208.4,314.5,209z M312.2,228.7l-0.3-16.8
			l2,0l0.3,16.8L312.2,228.7z"/>
		<path class="st25" d="M331,223.6c-0.1,1.5-0.5,2.6-1.2,3.5c-0.8,1-1.9,1.5-3,1.5c-0.3,0-0.6,0-0.8-0.1c-1.3-0.4-2.1-1.4-2.7-2.4
			c-0.2-0.2-0.3-0.4-0.4-0.6c-0.6-0.7-1.3-1.4-2.1-1.8l0.3,4.9l-2,0.1l-1.3-21.3l2-0.1l0.8,13.6c0.7-0.7,1.2-1.6,1.7-2.5
			c2.1-3.6,3.8-7.5,5.2-11.4l1.8,0.7c-1.4,4-3.2,8-5.4,11.7c-0.6,1-1.2,2-2,2.9c0.9,0.6,1.8,1.3,2.4,2.2c0.2,0.2,0.3,0.5,0.5,0.7
			c0.5,0.7,1,1.4,1.7,1.6c0.6,0.2,1.3-0.2,1.8-0.7c0.4-0.6,0.7-1.4,0.8-2.5L331,223.6z"/>
		<path class="st25" d="M336.1,227.7h5.1v2h-7v-22l7-0.1l0,2l-5.1,0.1v11.9l2.7-0.1l0.1,2l-2.7,0.1V227.7z"/>
	</g>
	<g>
		<path class="st57" d="M320.4,328.5c-2.1,4.1-3.7,9.5-3.7,17.1c0,7.4,1.6,12.8,3.7,17h-2c-1.9-3.5-3.8-8.8-3.8-17
			c0-8.2,2-13.6,3.8-17.1H320.4z"/>
		<path class="st57" d="M368.3,328.5c1.9,3.5,3.8,8.9,3.8,17.1c0,8.2-2,13.5-3.8,17h-2c2.1-4.2,3.7-9.5,3.7-17
			c0-7.6-1.6-13-3.7-17.1H368.3z"/>
		<path class="st57" d="M337.7,344l-3.9-9.6l0.4,9.1l-1.3,0.1l-0.6-13.2l1.1-0.3l4.5,11.1l-0.3-10.5l1.3,0l0.4,13.3L337.7,344z"/>
		<path class="st57" d="M347.9,341.6c-0.5,1.8-1.4,2.3-2,2.5c-0.1,0-0.3,0.1-0.4,0.1c-0.7,0-1.4-0.4-2-1c-1.7-1.8-2.8-5.8-1.6-9.9
			c0.4-1.2,0.9-2.1,1.4-2.6c0.6-0.6,1.4-0.8,2.1-0.5C347.9,330.8,349.6,336,347.9,341.6z M347,334.4c-0.5-1.9-1.3-2.9-1.9-3.1
			c-0.7-0.2-1.5,0.6-2,2.3c-1.1,3.6-0.2,7.1,1.3,8.6c0.4,0.5,0.9,0.7,1.2,0.6c0.4-0.1,0.8-0.7,1.1-1.6
			C347.4,338.8,347.5,336.4,347,334.4z"/>
		<path class="st57" d="M356,343c-0.3,0.3-1.2,1.2-2.1,1.2c-0.2,0-0.4,0-0.6-0.1c-1.3-0.6-1.7-3-1.7-7.5l-1,0l0-1.3l1.1,0
			c0-1.3,0.1-2.7,0.2-4.3l1.3,0.1c-0.1,1.4-0.1,2.8-0.2,4.3l1.4,0l0,1.3l-1.4,0c0,1,0,1.9,0,2.7c0.2,3.2,0.8,3.6,0.9,3.6
			c0.2,0.1,0.6-0.1,1.3-0.8L356,343z"/>
		<path class="st57" d="M328,350.1l-3.7,12l-1.2-0.4l1.6-5.3l-4.7-6.1l1-0.8l4.1,5.4l1.6-5.2L328,350.1z"/>
		<path class="st57" d="M331.3,361.3h3.3v1.3H330v-14.3l4.6-0.1l0,1.3l-3.3,0.1v7.8l1.7,0l0,1.3l-1.8,0V361.3z"/>
		<path class="st57" d="M344.3,362.9c-0.1-0.7-0.1-1.5-0.2-2.1c-2-0.1-4-0.1-5.9,0c0,0.2-0.1,0.3-0.1,0.5c-0.1,0.6-0.2,1.1-0.2,1.4
			l-1.2-0.2c0.1-0.3,0.1-0.8,0.2-1.4c1.5-9,2.6-12.4,4.3-12.7c1.1-0.2,1.8,1.1,2.1,1.6c1.5,3,1.8,6.5,2.3,12.9L344.3,362.9z
			 M344,359.5c-0.4-4.2-0.8-6.8-1.9-9c-0.4-0.8-0.7-0.9-0.7-0.9c0,0-0.8,0.2-1.8,4.3c-0.5,1.8-0.8,3.9-1.1,5.5
			C340.3,359.4,342.1,359.4,344,359.5z"/>
		<path class="st57" d="M356.5,361c-0.5,0.8-1.1,1.1-1.7,1.2c0,0,0,0-0.1,0c-0.9,0-1.5-0.8-2.1-1.5c-0.4-0.5-0.9-1.1-1.4-1.3
			l0.1,2.5l-1.3,0l-0.3-11.8c-0.5,0.2-1,0.4-1.5,0.8l-0.7-1.1c3.4-2.2,5.6-1.2,6.6-0.4c1.8,1.4,2.5,4.2,1.7,6.5
			c-0.5,1.5-1.6,2.5-3,3c0.3,0.3,0.5,0.6,0.8,0.9c0.4,0.5,0.9,1.1,1.2,1.1c0,0,0,0,0,0c0.1,0,0.3-0.1,0.7-0.6L356.5,361z M351,349.8
			l0.2,8.2c2.3-0.1,3.2-1.6,3.5-2.5c0.6-1.8,0.1-4.1-1.3-5.1C352.8,349.9,351.9,349.7,351,349.8z"/>
		<path class="st57" d="M361.8,354.4c1.4,1.6,4.4,5,2.1,7.3c-0.5,0.5-1.2,0.8-1.8,0.8c-0.4,0-0.7-0.1-1.1-0.2
			c-1-0.5-1.6-1.4-1.5-2.5l1.3,0.1c0,0.7,0.4,1.1,0.8,1.3c0.4,0.2,1,0.2,1.5-0.3c1.5-1.5-0.9-4.1-2.1-5.6c-0.3-0.3-0.5-0.5-0.6-0.7
			c-0.9-1.2-2.3-3.4-1.3-5.2c0.5-1,1.7-1.5,3-1.4c1.4,0.2,2.6,1.1,3,2.4l-1.2,0.4c-0.3-1-1.2-1.5-1.9-1.5c-0.8-0.1-1.5,0.2-1.8,0.7
			c-0.5,0.8,0,2.2,1.2,3.8C361.4,353.9,361.6,354.2,361.8,354.4z"/>
	</g>
	<g>
		<ellipse transform="matrix(0.9871 -0.1602 0.1602 0.9871 -56.8025 15.326)" class="st25" cx="66.7" cy="360" rx="5.6" ry="5.6"/>
		<circle class="st25" cx="83.1" cy="360" r="5.6"/>
		<circle class="st25" cx="99.5" cy="360" r="5.6"/>
		<path class="st25" d="M135.4,331.7c-3.8-3.5-7.7-4.6-12.7-4.6c-2,0-7.7-0.3-8,2.5c0,0.1,0,0.1,0,0.2c0.3,6.1,0.6,12.2,0.9,18.3
			c0.2,3.7,0.3,7.4,0.5,11.1c0.1,1.7-0.3,4.9,0.5,6.5c1,2,4.1,1.1,6.1,1.1c4.4,0,7.3-4.1,10.1-7.3
			C139.9,351.7,144.6,340.2,135.4,331.7z M136.3,346.8c-1.5,5.6-5.4,10.4-9.6,14.4c-0.1-4.9-0.6-9.7-0.7-14.6
			c-0.2-5.3,0.1-10.8-0.4-16.1c0.6,0.1,1.2,0.2,1.8,0.3C133.9,333.6,138.2,339.7,136.3,346.8z"/>
		<path class="st25" d="M165,329.3c-6.2-2.6-13.4-1.7-17.5,3.9c-4,5.5-4.9,13.1-3.5,19.6c1.7,7.8,7.3,13.8,15.6,14.1
			c0,0,0.1,0,0.1,0c0.1,0,0.1,0,0.2,0c9-0.4,14.5-8.6,15.7-16.9C176.7,341.3,173.4,332.9,165,329.3z M164.6,362.5
			c-1.7,1-6.9,2.4-8.1,0.3c-1-1.7-0.6-5.4-0.7-7.2c-0.2-8.2,0.3-16.5,0.8-24.7c9.1-0.5,15.4,7.6,15.2,16.4
			C171.7,352.9,169.6,359.5,164.6,362.5z"/>
		<path class="st25" d="M193.8,363.7c-0.1,0-0.2,0-0.3-0.1c-0.1,0-0.2,0-0.3,0c-1.7,0-3.4,0-5.2,0c-0.5-9.4-0.1-18.9-0.3-28.3
			c-0.1-2.1,0.8-6.7-1.8-7.8c-1.8-0.8-5.4-0.6-6.5,1.1c-1.8,3-0.4,9.2-0.5,12.7c-0.1,3.2-0.3,6.4-0.3,9.5c-0.1,4-0.2,8,0.1,12
			c0.1,1.8,0,3.6,1.9,4.1c1.4,0.4,3.5,0.1,4.9,0.1c2.1,0,4.2,0.1,6.3-0.1c0.9-0.1,2.2,0.1,2.9-0.8
			C195.5,365.1,194.9,364.1,193.8,363.7z"/>
		<path class="st25" d="M213,363.7c-0.1,0-0.2,0-0.3-0.1c-0.1,0-0.2,0-0.3,0c-1.7,0-3.4,0-5.2,0c-0.5-9.4-0.1-18.9-0.3-28.3
			c-0.1-2.1,0.8-6.7-1.8-7.8c-1.8-0.8-5.4-0.6-6.5,1.1c-1.8,3-0.4,9.2-0.5,12.7c-0.1,3.2-0.3,6.4-0.3,9.5c-0.1,4-0.2,8,0.1,12
			c0.1,1.8,0,3.6,1.9,4.1c1.4,0.4,3.5,0.1,4.9,0.1c2.1,0,4.2,0.1,6.3-0.1c0.9-0.1,2.2,0.1,2.9-0.8
			C214.8,365.1,214.1,364.1,213,363.7z"/>
		<path class="st25" d="M241.8,351.5c-0.7-5.6-1.7-11.2-2.2-16.8c-0.2-1.8,0.5-6.9-1-8c-1.2-0.9-6.3-0.3-7.5,0.5
			c-1.7,1.1-1.9,3.7-2.4,5.5c-0.7,2.3-1.5,4.7-2.2,7c-2,5.8-4.3,11.6-6.6,17.3c-0.8,1.9-4.4,8.1-2.1,9.6c1.4,0.9,5.5,0.4,7.1,0
			c1.2-0.2,2.1-0.6,2.7-1.6c0,0,0.1-0.1,0.1-0.1c0.6-1.7,1-3.5,1.5-5.3c1,0,2-0.1,3-0.1c1.3,0,2.9-0.3,4.2-0.1
			c0.3,0.1,1.2-0.2,1.5,0c0.8,0.5,0.8,2,0.8,2.8c0.1,1.4-0.3,2.8,1.3,3.1c0.6,0.1,2-0.3,2.4-0.8c0.8-1,0.2-3.4,0.1-4.5
			C242.5,357.1,242.1,354.3,241.8,351.5z M230.2,357.1c2-5.9,4.1-11.7,6-17.6c0.6,5.8,1,11.6,1.9,17.4
			C235.5,356.9,232.8,357,230.2,357.1z"/>
		<path class="st25" d="M274.4,359.3c-0.9-0.3-2.2-0.3-2.9,0.4c-0.9,0.7-0.4,1.5-0.8,2.5c-1.2,2.7-3,1.9-4.2-0.1
			c-1.3-2.1-1.8-4.7-2.6-7c-0.4-1.4-1-2.7-1.5-4c-0.8-2.3-0.1-2,1.9-3.3c6.6-4.1,7.5-12.1,1.6-17.4c-4.6-4.2-9.4-3.5-15-2.8
			c-2,0.3-4.2,0.1-4.8,2.2c-0.7,2.7,0.1,6.7,0.1,9.5c0.1,5.6,0.2,11.3,0.2,16.9c0,2.5,0,5.1,0.1,7.6c0,1.8-0.2,2.6,1.6,2.9
			c3,0.5,6.8-0.1,6.9-3.5c0.1-4.1,0-8.2-0.1-12.4c0.9,0.1,1.8,0,2.7-0.2c2.9,4.5,2.7,12.9,7.6,15.6c4.1,2.3,10.3-2.4,9.4-6.8
			C274.7,359.4,274.6,359.3,274.4,359.3z M254.9,348.3c0,0-0.1-1.5-0.1-1.9c-0.1-5.6,0-10.5-0.4-16.1c5.3-0.3,10.8,2.7,11.6,8
			C266.9,344.1,260.8,348.5,254.9,348.3z"/>
		<path class="st25" d="M289.4,339.4c-0.7-1.9-0.9-5.1-0.2-7c2.4-6.3,4.1,0.5,4.4,2.7c0.2,1.6-0.4,4.3,1.4,5c1,0.4,2.3-0.2,2.7-1
			c0.9-1.8-0.3-6.5-0.9-8.3c-0.9-2.8-2.9-4.8-5.9-5.2c-4.5-0.6-9.8,2.6-10.8,7.1c-1.5,6,5.3,8.6,8.6,12.3c2.6,2.9,2.7,8.3,2.2,11.9
			c-0.3,2.7-1.4,8.3-6.3,6c-2.4-1.1-3.1-3.7-3.1-6.1c0-1.8,1.8-5.9,0.6-7.3c-0.8-1-2.6-0.5-3.2,0.3c-1.4,1.6-1.4,6.5-1.3,8.5
			c0.2,3.2,1.6,5.5,4.2,7.2c0.1,0.1,0.1,0.1,0.2,0.1c0.1,0,0.1,0.1,0.2,0.1c4.9,2.2,11.5,1.7,15.2-2.7c3.4-4.1,2.4-10.7-0.4-14.8
			C294.8,345,290.6,343,289.4,339.4z"/>
		<polygon class="st25" points="309.1,354.8 309.8,332.7 305.3,332.7 306,354.8 		"/>
		<path class="st25" d="M307.6,358.6c-1.6,0-2.7,1.2-2.7,2.9c0,1.6,1.1,2.9,2.7,2.9c1.7,0,2.7-1.2,2.7-2.9
			C310.3,359.8,309.2,358.6,307.6,358.6z"/>
	</g>
</g>
</svg>
