<?xml version="1.0" encoding="utf-8"?>
<!-- Generator: Adobe Illustrator 22.0.1, SVG Export Plug-In . SVG Version: 6.00 Build 0)  -->
<svg version="1.1" id="Calque_1" xmlns="http://www.w3.org/2000/svg" xmlns:xlink="http://www.w3.org/1999/xlink" x="0px" y="0px"
	 viewBox="0 0 432 432" style="enable-background:new 0 0 432 432;" xml:space="preserve">
<style type="text/css">
	.st0{fill:#957452;}
	.st1{fill:#88573C;}
	.st2{fill:#D6C49A;}
	.st3{fill:#E52627;}
	.st4{fill:#CDCCCC;}
	.st5{fill:#264395;}
	.st6{fill:#1E274A;}
	.st7{fill:#EC6625;}
	.st8{fill:#020203;}
	.st9{fill:#E52521;}
	.st10{fill:#808181;}
	.st11{fill:#FFE324;}
	.st12{fill:#3F4244;}
	.st13{fill:#009F4A;}
	.st14{fill:#343434;}
	.st15{fill:#78170E;}
	.st16{fill:#F0E9D5;}
	.st17{fill:#272531;}
	.st18{fill:#222B56;}
	.st19{fill:#9BD2CC;}
	.st20{fill:#83B143;}
	.st21{fill:#1B1B1B;}
	.st22{fill:#FFFFFF;}
	.st23{fill:#DDD6C3;}
	.st24{fill:#997F64;}
	.st25{fill:#77684B;}
	.st26{fill:#A89877;}
	.st27{fill:#B4B4B4;}
	.st28{fill:#DDCEBB;}
	.st29{fill:#9A2A1A;}
	.st30{fill:#5E1C0C;}
	.st31{fill:#F1CA43;}
	.st32{fill:#A57B46;}
	.st33{fill:#F18538;}
	.st34{fill:#F2AC64;}
	.st35{fill:#FAB42D;}
	.st36{fill:#46494E;}
	.st37{fill:#CF875E;}
	.st38{fill:#E7E6E6;}
	.st39{fill:#1A181D;}
	.st40{fill:#637644;}
	.st41{fill:#9F1E29;}
	.st42{fill:#F9B03D;}
	.st43{fill:#0D71B9;}
	.st44{fill:#E52629;}
	.st45{fill:#676767;}
	.st46{fill:#30358C;}
	.st47{fill:#9A9999;}
	.st48{fill:#3F4798;}
	.st49{fill:#2DABE3;}
	.st50{fill:#C1292E;}
	.st51{fill:#F2F2F2;}
	.st52{fill:#AA7C4C;}
	.st53{fill:#D6A573;}
	.st54{fill:#29ACE1;}
	.st55{fill:#88C05E;}
	.st56{fill:#F39323;}
	.st57{fill:#EB5B28;}
	.st58{fill:#B85965;}
	.st59{fill:#A67D52;}
	.st60{fill:#8C633A;}
	.st61{fill:#009245;}
	.st62{fill:#066938;}
	.st63{fill:#7D252D;}
	.st64{fill:#95D3E3;}
	.st65{fill:#603914;}
	.st66{fill:#EFC9AF;}
	.st67{fill:#D987B8;}
	.st68{fill:#8FC14D;}
	.st69{fill:#C69C6C;}
	.st70{fill:#2BADE1;}
	.st71{fill:#A4C958;}
	.st72{fill:#754D24;}
	.st73{fill:#35AE73;}
	.st74{fill:#E0B99E;}
	.st75{fill:#BDCCD4;}
	.st76{fill:#0C0D0D;}
	.st77{fill:#F4E152;}
	.st78{fill:#1E1911;}
	.st79{fill:#A1BD4F;}
	.st80{fill:#CBE6DC;}
	.st81{fill:#B5DCCE;}
	.st82{fill:#1F1D1B;}
	.st83{fill:#746458;}
	.st84{fill:#C7B29A;}
	.st85{fill:#998675;}
	.st86{fill:#428540;}
	.st87{fill:#E3E5E3;}
	.st88{fill:#161617;}
	.st89{fill:#1E1F1E;}
	.st90{fill:#474847;}
	.st91{fill:#191A19;}
	.st92{fill:#4B2C15;}
	.st93{fill:#92552A;}
	.st94{fill:#7EA847;}
	.st95{fill:#D59E2B;}
	.st96{fill:#807E79;}
	.st97{fill:#E5B744;}
	.st98{fill:#8EC045;}
	.st99{fill:#3B569A;}
	.st100{fill:#A1B7E0;}
	.st101{fill:#8FC9CC;}
	.st102{fill:#9ED1CA;}
	.st103{fill:#81AAA9;}
	.st104{fill:#E1783D;}
	.st105{fill:#64328A;}
	.st106{fill:#DEDEA5;}
	.st107{fill:#754997;}
	.st108{fill:#EE6F43;}
	.st109{fill:#A6CB67;}
	.st110{fill:#8FB7C0;}
	.st111{fill:#E2E1DF;}
	.st112{fill:#2C3E70;}
	.st113{fill:#D9BF96;}
	.st114{fill:#9C6941;}
	.st115{fill:#61605E;}
	.st116{fill:#9C9A99;}
	.st117{fill:#245F3D;}
	.st118{fill:#191713;}
	.st119{fill:#C39A62;}
	.st120{fill:#A17C4F;}
	.st121{fill:#F39200;}
	.st122{fill:#432918;}
	.st123{fill:#B17F4A;}
	.st124{fill:#FFCE1E;}
	.st125{fill:#BE1622;}
	.st126{fill:#3AAA35;}
	.st127{fill:#911825;}
	.st128{fill:#009FE3;}
	.st129{fill:#E94E1B;}
	.st130{fill:#FFCC03;}
	.st131{fill:#95C11F;}
	.st132{fill:#00A19A;}
	.st133{fill:#683C11;}
	.st134{fill:#878787;}
	.st135{fill:#634E42;}
	.st136{fill:#CBBBA0;}
	.st137{fill:#7B5B41;}
	.st138{fill:#493E36;}
	.st139{fill:#78A62C;}
	.st140{fill:#2C8535;}
	.st141{fill:#F9B233;}
	.st142{fill:none;}
	.st143{fill:#CA9E67;}
	.st144{fill:#E30613;}
	.st145{fill:#C6C6C6;}
	.st146{fill:#575756;}
	.st147{fill:#7B6A58;}
	.st148{fill:#A3C5D7;}
	.st149{fill:#332C25;}
	.st150{fill:#29235C;}
	.st151{fill:#E6332A;}
	.st152{fill:#738D93;}
	.st153{fill:#C87B31;}
	.st154{fill:#5BBCA7;}
	.st155{fill:#EF786F;}
	.st156{fill:#EE8D9E;}
	.st157{fill:#A74B56;}
	.st158{fill:#E72D7B;}
	.st159{fill:#E84138;}
	.st160{fill:#3B2315;}
	.st161{fill:#8EC044;}
	.st162{fill:#A1C74B;}
	.st163{fill:#231F20;}
	.st164{fill:#F6D9A7;}
	.st165{fill:#F4A5A6;}
	.st166{fill:#6E6F70;}
	.st167{fill:#F8AF41;}
	.st168{fill:#B79C19;}
	.st169{fill:#EFD101;}
	.st170{fill:#207A97;}
	.st171{fill:#20ACE3;}
	.st172{fill:#C51618;}
	.st173{fill:#C19446;}
	.st174{fill:#9E599F;}
	.st175{fill:#CD95C2;}
	.st176{fill:#F29A26;}
	.st177{fill:#FCCE8D;}
	.st178{fill:#F39B85;}
	.st179{fill:#E52628;}
	.st180{fill:#6BB52D;}
</style>
<g>
	<g>
		<g>
			<path d="M297.6,282.2c-2.1,0.6-4.1,1.2-6,1.8c-8.4,2.7-16.8,5.4-25.2,8c-10.7,3.3-21.3,6.6-32.1,9.4c-5.9,1.5-12,2.5-18,3.1
				c-6.1,0.6-12.2,0.1-18.2-1.4c-3.2-0.8-6.2-1.8-8.9-3.7c-1.5-1.1-2.7-2.4-3.7-3.9c-0.5-0.8-0.8-1.7-0.9-2.6
				c-0.2-1.6,0.4-2.9,1.8-3.7c0.9-0.6,2-0.9,3-1c0.9-0.1,1.7,0.2,2.4,0.8c0.5,0.4,1,0.8,1.4,1.2c3.2,3.1,7,4.8,11.2,5.7
				c5.8,1.3,11.6,1.2,17.4-0.1c6-1.4,12-2.6,17.9-4.2c5.2-1.3,10.4-3,15.5-4.6c7.7-2.3,15.5-4.6,23.2-6.9c5.3-1.6,10.7-3.1,16-4.7
				c1.1-0.3,2.3-0.6,3.5-0.9c0.2-1,0.3-2,0.5-3c1-7,2.6-13.9,4-20.8c1.4-6.8,2.7-13.7,3.9-20.6c0.4-2.3,0.5-4.6,0.7-6.9
				c0-0.3,0-0.6,0-1.1c-0.3,0.1-0.5,0.1-0.7,0.3c-1.3,0.8-2.4,1.8-3.4,2.9c-2.8,3.3-5.1,7-6.8,11c-1,2.2-1.9,4.4-2.9,6.6
				c-1.2,2.6-2,5.4-2.9,8.1c-1.5,4.2-3.1,8.3-4.7,12.4c-0.5,1.2-1.1,2.3-1.7,3.4c-0.4,0.7-0.9,1.4-1.5,2c-1.3,1.4-3,2-4.9,1.6
				c-1.2-0.3-2.3-0.5-3.4-1c-2.3-1-3.4-2.8-3.3-5.3c0.1-2,0.4-4,0.7-6c0.7-4.6,1.6-9.1,2.3-13.7c0.7-4.1,1.3-8.3,1.9-12.5
				c0-0.1,0-0.2-0.1-0.4c-0.2,0.3-0.4,0.5-0.5,0.8c-2.1,3.8-4.2,7.6-6.4,11.3c-1.8,3.1-3.7,6.2-6,8.9c-1.8,2.1-3.9,3.9-6.5,5.2
				c-1.9,0.9-3.9,1.4-6,1.2c-2.5-0.3-4.6-1.5-6.2-3.5c-1.1-1.4-1.9-3-2.5-4.7c-0.1-0.3-0.2-0.6-0.4-1.1c-0.2,0.4-0.3,0.7-0.4,1
				c-1.1,2.6-2.2,5.2-3.4,7.7c-1.1,2.3-2.6,4.3-4.5,5.9c-2.4,2.1-5.2,3.3-8.5,2.9c-2.3-0.3-4.3-1.3-6-2.8c-1.8-1.6-3.2-3.5-4.4-5.6
				c-0.1-0.3-0.3-0.6-0.5-1c-0.3,1.1-0.5,2-0.7,2.9c-0.5,1.9-1.1,3.9-2,5.7c-0.7,1.5-1.6,2.8-2.8,3.9c-3.1,2.8-7.1,3-10.3,0.4
				c-1.4-1.1-2.5-2.5-3.4-3.9c-2.1-3.2-3.5-6.7-4.6-10.3c-0.5-1.7-1-3.4-1.6-5.1c-0.1,0.3-0.1,0.5-0.1,0.8c-0.7,3.9-1.2,7.8-2,11.7
				c-0.6,3.2-1.8,6.3-3.4,9.3c-0.6,1.1-1.3,2-2,3c-0.7,0.9-1.6,1.6-2.6,2.1c-2.6,1.4-5.2,1.3-7.8-0.2c-1.6-0.9-2.8-2.3-3.9-3.8
				c-1.8-2.5-2.9-5.3-3.7-8.3c-1.2-4.1-1.8-8.4-2.1-12.7c-0.4-5.7-0.3-11.4,0.1-17.2c0.1-1.7,0.5-3.5,0.8-5.2
				c0.5-2.4,2.1-3.9,4.2-4.9c1.3-0.6,2.7-0.9,4.1-0.9c3.1,0,5.2,1.5,6.6,4.2c0.7,1.5,1.1,3.1,1.2,4.8c0,1.7,0,3.5-0.1,5.2
				c-0.2,4.3-0.5,8.7-0.8,13c-0.2,3.3-0.5,6.6-0.7,10c-0.1,2.1-0.2,4.1,0.2,6.2c0.1,0.3,0.2,0.7,0.2,1.1c0.4-0.1,0.6-0.4,0.7-0.7
				c0.6-1.2,1.2-2.4,1.6-3.7c1.8-5.1,3.1-10.4,3.9-15.7c0.7-4.8,1.4-9.6,1.4-14.5c0-2.5,0-4.9,0.1-7.4c0-0.6,0.1-1.2,0.2-1.8
				c0.3-2.1,1.4-3.6,3.1-4.7c2-1.3,4.2-1.9,6.6-1.5c2.5,0.4,4.4,1.7,5.3,4.2c0.8,2.1,1.1,4.3,1.3,6.5c0.3,4.6,0.5,9.1,0.7,13.7
				c0.2,4.6,0.4,9.2,1.5,13.7c0.3,1.3,0.8,2.7,1.2,4c0.2,0.5,0.5,1,0.8,1.5c0.6-0.3,0.8-0.8,1-1.3c1.4-2.9,2.3-5.9,2.8-9.1
				c0.5-3,0.8-6,1.3-9c0.7-3.9,1.3-7.9,2.5-11.6c1.1-3.4,2.7-6.5,5.1-9.2c1.5-1.6,3.3-3,5.3-4.1c1.9-0.9,3.8-1.4,5.9-0.8
				c2.5,0.7,4.2,2.3,5.1,4.6c0.7,1.7,0.9,3.5,0.8,5.3c-0.1,2.2-0.6,4.3-1.6,6.3c-1.4,3-3.4,5.4-6.2,7c-0.9,0.5-1.3,1.1-1.4,2.1
				c-0.5,4.4-0.4,8.7,1.1,12.9c0.3,0.9,0.6,1.8,1.3,2.5c0.7,0.8,1.1,0.9,1.9,0.3c0.6-0.3,1.1-0.8,1.6-1.2c2.2-2.1,4-4.6,5.5-7.2
				c1.4-2.6,2.5-5.3,3.5-8.1c0.2-0.6,0.2-1.2,0.3-1.8c0.2-5.1,1.3-9.9,3.5-14.5c1.3-2.7,2.9-5.1,5.1-7.1c1.6-1.4,3.3-2.4,5.5-2.8
				c4.8-0.8,8.7,1.9,9.5,6.7c0.5,2.7,0.1,5.2-1.1,7.7c-0.9,2-2.3,3.7-3.9,5.2c-1.1,1-2.5,1.8-3.9,2.3c-0.3,0.1-0.6,0.2-0.9,0.4
				c0,0.3-0.1,0.6-0.1,0.9c-0.3,2.8-0.4,5.6-0.2,8.4c0,0.3,0,0.6,0.1,0.9c0.2,0.6,0.9,0.9,1.4,0.5c0.4-0.3,0.8-0.6,1.3-0.9
				c1.9-1.5,3.5-3.3,4.8-5.3c1.6-2.4,3.1-4.8,4.6-7.2c2.3-3.7,4.5-7.3,6.7-11c1.3-2.2,2.4-4.6,3.7-6.8c0.4-0.8,0.8-1.6,1.3-2.4
				c0.9-1.6,2.4-2.4,4.3-2.5c1.3,0,2.6,0,3.9,0.1c2.2,0.2,3.8,1.4,4.6,3.5c0.7,1.6,0.9,3.3,1,5c0.1,2,0,3.9,0,5.9c0,0.4,0,0.8,0,1.4
				c0.3-0.3,0.4-0.5,0.6-0.7c1.9-2.9,4-5.6,6.3-8.2c1.9-2.2,4-4,6.5-5.4c2.3-1.3,4.7-2,7.3-1.8c3.7,0.2,6.3,2.1,7.9,5.4
				c0.8,1.7,1.2,3.5,1.3,5.3c0.3,2.8,0,5.6-0.4,8.4c-1.2,10-3.6,19.8-5.9,29.6c-0.8,3.2-1.4,6.5-2.1,9.8c-0.1,0.3-0.1,0.6-0.1,1
				c0.8-0.1,1.5-0.1,2.3-0.2c2.5-0.1,4.9-0.2,7.3,0.3c2.8,0.5,5.2,1.7,7.3,3.6c3.4,3,4.3,6.8,2.9,11.1c-0.6,1.8-1.5,3.4-2.7,4.9
				c-3.4,4.2-7.6,7.1-12.7,8.7c-9.1,2.8-16.4-3.1-18.5-9.8c-0.7-2.4-1.1-4.9-1.1-7.5C297.6,283.1,297.6,282.8,297.6,282.2z
				 M312.3,279.3c0,1.9,0.1,3.8,0.7,5.6c0.9,2.7,2.7,4.3,5.3,5.1c2.2,0.7,3.9,0.1,5.3-1.8c0.8-1.1,1.3-2.4,1.6-3.7
				c0.4-2.2-0.5-3.9-2.6-4.7c-0.4-0.2-0.8-0.3-1.3-0.4C318.4,278.5,315.4,278.7,312.3,279.3z M230,227.1c-2.2,3.3-3,6.9-3.8,10.6
				C229.9,235.5,231.4,229.5,230,227.1z M255,233.2c0.3-0.1,0.3-0.1,0.4-0.1c1.8-1.8,3.1-3.9,3.6-6.5c0.2-0.8,0.2-1.7-0.3-2.5
				c-0.7,0.4-1,0.7-1.4,1.5C256.1,228,255.7,230.6,255,233.2z"/>
			<path d="M144.8,301.8c-0.3,0.6-0.6,1.1-0.9,1.7c-1.4,2.9-2.2,6-3.1,9.1c-0.2,0.7-0.4,1.3-0.6,1.9c-0.7,1.7-2.1,2.5-3.9,2.2
				c-0.8-0.2-1.6-0.4-2.3-0.8c-1.2-0.6-1.7-1.7-1.4-2.9c0.3-1.2,0.6-2.4,1.1-3.5c1.6-3.9,3.6-7.5,6.1-10.9c0.2-0.2,0.4-0.5,0.6-0.8
				c-2.9-3.2-5.3-6.8-7.5-10.7c-0.3,0.3-0.5,0.5-0.7,0.7c-2.7,2.7-5.8,4.9-9.4,6.3c-4.4,1.7-8.9,1.9-13.5,0.9
				c-8.1-1.9-14.7-6.3-20.1-12.6c-4.1-4.8-6.8-10.3-8.9-16.2c-2.2-6.3-3.5-12.8-4-19.5c-0.4-4.1-0.5-8.2-0.3-12.2
				c0.2-4.9,1-9.8,2-14.6c1.8-8.3,4.5-16.3,8.2-23.9c3.1-6.2,6.9-12,11.8-17c6.4-6.6,14-11.2,22.9-13.7c3.2-0.9,6.4-1.3,9.6-1
				c3.5,0.3,6.7,1.3,9.7,3c3.5,2.1,5.9,5.2,7.4,8.9c1.9,4.9,2.6,9.9,2.2,15.1c-0.5,6.2-1.9,12.2-4.2,18c-0.6,1.5-1.4,3-2.1,4.5
				c-0.2,0.5-0.3,0.8,0,1.3c3,5.6,4.4,11.6,5.2,17.8c0.5,3.8,0.9,7.7,1,11.6c0.1,3.7-0.3,7.4-1.1,11.1c-1.3,6.2-3.3,12.1-6,17.8
				c-0.6,1.2-1.3,2.4-2,3.6c-0.2,0.3-0.3,0.6-0.1,1c1.9,3.6,3.8,7.3,6.1,10.7c0.7,1,1.4,1.9,2.2,2.8c0.4-0.2,0.8-0.4,1.1-0.6
				c2.6-1.4,5.4-2.5,8.4-2.9c1.5-0.2,2.9-0.1,4.3,0.2c4.3,1,6.3,4.5,5.2,8.7c-1.6,5.9-7.2,9.5-13.3,8.6c-3.3-0.5-6.4-1.6-9.2-3.5
				c-0.1-0.1-0.2-0.1-0.3-0.2C145,301.8,144.9,301.8,144.8,301.8z M140.2,209.2c0.1-0.1,0.2-0.1,0.2-0.2c0.2-0.5,0.5-1.1,0.7-1.6
				c1.5-3.8,2.3-7.7,2.8-11.7c0.5-3.3,0.7-6.6,0.3-10c-0.4-3.4-1.4-6.6-3.2-9.5c-1.1-1.8-2.6-3.4-4.6-4.4c-0.9-0.5-1.8-0.8-2.8-0.7
				c-2.5,0.1-4.9,0.7-7,2.4c-4.2,3.4-7.7,7.5-10.5,12.1c-3.4,5.6-6.1,11.5-8.1,17.8c-3.1,9.4-5.6,18.9-6.9,28.7
				c-0.6,4-1,8.1-1.3,12.2c-0.3,5.2-0.3,10.5,0,15.7c0.3,4.3,0.9,8.6,2.2,12.7c0.8,2.7,1.8,5.3,3.4,7.6c2,3,4.6,5.1,8,6.1
				c5,1.4,11.3-0.1,15.6-5.5c0,0,0-0.1,0-0.2c-2.2-3.9-4.5-7.8-7.5-11.2c-1.3-1.5-2.8-2.8-4.4-3.9c-1.4-1-2.8-1.6-4.5-1.9
				c-0.9-0.1-1.9-0.3-2.8-0.6c-1.7-0.6-2.2-1.5-2-3c0-0.3,0.1-0.7,0.2-1c0.8-2.3,2.5-3.6,4.8-4.2c1.7-0.5,3.3-0.3,5,0.1
				c2.7,0.6,5,1.9,7.2,3.6c4,3.1,7.4,6.7,10.3,10.9c0.2,0.3,0.4,0.5,0.6,0.9c0.2-0.4,0.3-0.6,0.5-0.8c3.5-7.1,5.5-14.6,6.3-22.5
				c0.3-3.4,0.3-6.7-0.2-10.1c-0.7-4.7-2-9.2-3.7-13.7c-0.2-0.5-0.4-0.9-0.6-1.4c-0.2,0.3-0.4,0.5-0.6,0.7c-2.4,2.6-5,5-7.7,7.2
				c-0.7,0.5-1.4,1-2.2,1.3c-0.9,0.4-1.8,0.1-2.5-0.5c-1.2-1.1-1.1-2.7,0.1-3.7c0.5-0.5,1.2-0.8,1.7-1.3c1.7-1.6,3.5-3.2,5.2-4.8
				c1.2-1.2,2.3-2.4,3.4-3.6c-0.1-0.2-0.1-0.3-0.2-0.4c-1.4-2.2-2.8-4.3-4.2-6.5c-0.8-1.3-1.8-2.5-2.6-3.8c-0.4-0.7-0.8-1.5-1.1-2.2
				c-0.4-0.9-0.2-1.7,0.4-2.4c1.1-1.3,3-1.7,4.6-1c1,0.4,1.8,1.1,2.5,1.9c1.3,1.6,2.5,3.3,3.8,4.9
				C139.4,207.8,139.8,208.5,140.2,209.2z M153.3,294.8c0,0.1,0,0.1,0.1,0.1c1.9,1.3,4,2,6.3,2.1c1,0,1.9-0.5,2.7-1.2
				c0.6-0.6,0.7-1.4,0.4-2.2c-0.2-0.7-0.9-0.7-1.5-0.9c-0.2,0-0.4,0-0.6,0C158,292.7,155.6,293.7,153.3,294.8z"/>
			<path d="M225.7,199.4c8.5,0.2,15.6,0.3,22.8,0.5c5.7,0.1,11.3-0.1,17-0.5c3.1-0.2,6.3-0.4,9.4-0.7c3.8-0.4,7.4-1.4,10.9-2.7
				c5.8-2.1,11.2-4.8,16.1-8.7c2.2-1.7,4.2-3.7,6.2-5.5c0.7-0.7,1.4-1.4,2.1-2.1c1.2-1.2,2.7-1.7,4.3-1.5c1.1,0.1,2.2,0.4,3.2,1
				c2.3,1.3,3.2,3.5,2.4,6.1c-0.5,1.7-1.4,3.2-2.5,4.5c-2.2,2.8-4.8,5.2-7.7,7.1c-2.9,1.9-6.2,3.2-9.5,4.4c-6.2,2.2-12.6,3.5-19,4.4
				c-5.2,0.7-10.4,1.2-15.7,1.3c-6.1,0.1-12.2,0.1-18.3,0c-7.7-0.1-15.4-0.4-23.1-0.7c-5.4-0.2-10.9-0.1-16.3,0.2
				c-3.6,0.2-7.2,0.3-10.9,0.5c-4.6,0.2-9.2,0.7-13.7,1.5c-2.6,0.5-5,1.4-7.5,2.4c-2.6,1.1-5.1,2.1-7.7,3.2
				c-0.7,0.3-1.5,0.5-2.2,0.7c-2.1,0.5-3.8-0.7-4.1-2.9c-0.3-2,0.2-3.8,1.7-5.3c1.4-1.4,3-2.5,4.8-3.3c3.5-1.6,7.2-2.6,10.9-3.3
				c5-1,10.1-1.5,15.2-1.5c3.4,0,6.8-0.1,10.2-0.1c2.3,0,4.5,0.2,6.8,0.3c2.2,0.1,4.3,0.2,6.5,0.3C221,199.2,224,199.3,225.7,199.4z
				"/>
		</g>
		<g>
			<path class="st8" d="M183,149.4c-2.5,3-7.1,6.7-15.1,8.2c4.2,2.5,6,4.8,5.5,7.2c-1,5.7-14.3,6.9-14.6,7c0,0,0,0,0,0l-1.3,0.1
				l-4.2-45.7l1.4-0.1c9.2-0.7,30.6-2.5,32.1,12C187.2,141.9,185.8,146,183,149.4z M181.6,138.8c-0.9-8.1-11.1-8.7-22.4-7.9
				l1.8,22.3c8.6-0.9,15.5-3.7,18.6-7.5C181.3,143.7,181.9,141.4,181.6,138.8z M161.6,160.1l0.5,6.6c2.7-0.5,6.1-1.9,6.2-2.8
				C168.3,164,168.2,162.5,161.6,160.1z"/>
			<path class="st8" d="M194.5,125.7l0.8,46.2h-5.2l-0.8-46.2H194.5z"/>
			<path class="st8" d="M225.1,133.1c2.4,3.6,2.5,8.1,0.3,12.5c-3.1,6.1-9.8,10.5-17.6,11.6c1.2,1.1,2.5,2.3,3.9,3.6
				c2.7,2.5,5.5,5,7.5,7.1l0.9,1l-3.7,3.7l-1-1c-1.9-1.9-4.6-4.4-7.2-6.8c-1.6-1.4-3.2-2.9-4.6-4.3l0,0.3c0.1,3.7,0.2,7.2,0.2,9.9
				v1.4h-5.2v-1.4c0-5.6-0.2-12.4-0.4-19.6c-0.2-7.9-0.4-16.1-0.4-23.7v-1.2l1.2-0.1C211.9,124.8,221.2,127.3,225.1,133.1z
				 M220.9,136.3c-1.3-2.1-5.4-5.5-18-4.9c0,6.1,0.3,16.1,0.4,20.8c0.1,0,0.1,0,0.2,0c7.9,0,14.2-4.4,16.8-8.6
				C221.3,142.1,222.6,139.1,220.9,136.3z"/>
			<path class="st8" d="M229.4,125.8l22.7-0.1v5.6h-8.9l0.7,40.6h-5.1l-0.8-40.6h-8.6V125.8z"/>
			<path class="st8" d="M284.8,147.9c0.2,7.5,0.4,15.3,0.4,22.7v1.4H280v-1.4c0-2,0-6.4,0-9.1l-19.6,0v9.9h-5.2V170
				c0-5.8-0.2-14-0.4-21.9c-0.2-7.8-0.4-15.9-0.4-21.7v-1.4h5.2v1.4c0,6.2,0.2,13.9,0.4,20.6c0.1,3.4,0.2,6.5,0.2,9.2l19.5,0
				l-0.7-30.6h5.2v1.4C284.5,133.5,284.6,140.5,284.8,147.9z"/>
			<path class="st8" d="M316.5,149.7c0.1,4.6-1.7,9-5.4,12.8c-5.3,5.5-14.4,9.4-22,9.4h-1.4v-46.2l1.4,0c0,0,0,0,0,0
				C301.8,125.7,316.2,138.3,316.5,149.7z M311.3,149.9c-0.1-3.6-3-8.2-7.5-12.2c-3.7-3.3-7.9-5.5-11-5.9v34.8
				C302.6,165.4,311.5,156.4,311.3,149.9z"/>
			<path class="st8" d="M350.1,171.9h-4.9l-0.3-1c-0.6-2.1-1.3-4.6-1.7-5.9l-17-0.3l-0.3,0.8c-0.5,1.6-1.2,3.8-1.7,5.4l-0.3,0.9h-5
				l0.6-1.8c3.2-9.7,11.9-43.1,12-43.4l0.3-1h4.6l0.3,1c0.1,0.4,11,36.5,12.9,43.6L350.1,171.9z M342,159.9l-7.8-25.5
				c-0.3,1.3-0.8,3-1.3,5.1c-1.9,7.3-4.4,16.6-5.4,20.4L342,159.9z"/>
			<path class="st8" d="M377.2,127.8c-10.3,17.8-13.3,22.9-14.3,24.5l0.2,20h-5.3l-0.2-19.7l-16.4-25.5l4.5-2.7l0.7,1.1
				c0.1,0.2,9.4,15.1,13.8,20.9c10.1-16.3,12.3-20.9,12.4-20.9l0.6-1.1l4.9,2.1L377.2,127.8z"/>
		</g>
	</g>
	<g>
		<g>
			<path class="st153" d="M343.4,242c0.4-0.3,0.7-0.5,1-0.7c2.5-1.7,5.1-3.1,8-3.8c1.6-0.4,3.2-0.4,4.8,0c4,1.2,6.1,4.8,4.9,8.8
				c-0.5,1.7-1.3,3.3-2.3,4.8c-1.2,1.9-2.7,3.5-4.3,5.1c-4.1,4-8.5,7.5-13.6,10c-1.5,0.7-3,1.4-4.7,1.6c-3.2,0.5-5.9-0.7-8-3.1
				c-1.8-2-2.9-4.4-3.5-7.1c-1.5-6.7-1.3-13.4,0.8-19.9c0.7-2.3,2-4.3,3.9-5.8c3.8-3,8.9-1.9,11.1,2.4c1,1.9,1.4,3.9,1.6,6
				C343.3,240.9,343.4,241.4,343.4,242z"/>
			<path class="st153" d="M330.6,198c0.2-0.8,0.4-1.5,0.6-2.2c0.6-1.9,1.6-3.7,3.1-5.1c0.6-0.6,1.4-1.1,2.1-1.5
				c1.7-0.8,3.6-0.3,4.7,1.2c0.9,1.2,1.3,2.6,1.3,4.1c0.1,2.2-0.4,4.4-1,6.5c-0.9,2.9-2.2,5.7-3.8,8.4c-0.3,0.5-0.6,1-1,1.4
				c-1.3,1.6-3,2.2-4.9,1.8c-0.9-0.2-1.9-0.4-2.8-0.9c-4.5-2.1-7.2-5.7-8.7-10.4c-0.5-1.7-0.3-3.3,0.7-4.7c1.2-1.7,2.9-2.4,4.9-1.9
				c1.6,0.4,2.8,1.2,4,2.3C330,197.4,330.3,197.7,330.6,198z"/>
			<path class="st153" d="M352.3,216.1c0.5-1.1,1-2.1,1.6-3.2c0.3-0.6,0.7-1.2,1.2-1.7c0.8-0.9,1.7-1.3,2.9-1
				c1.1,0.3,1.8,1.1,1.9,2.2c0.2,1.4,0.2,2.9,0.1,4.3c-0.1,1.4-0.4,2.8-0.7,4.2c-0.6,2.3-2.1,3.5-4.5,3.5c-4.3,0-8.1-1.5-11.3-4.5
				c-0.9-0.8-1.4-1.8-1.2-3c0.2-1.5,1.5-2.6,3.1-2.7c1.3-0.1,2.5,0.1,3.7,0.5C350.1,215.2,351.2,215.7,352.3,216.1z"/>
		</g>
		<g>
			<path class="st153" d="M130.1,115.7c-4.9,5.6-9.7,11.3-14.2,17.1c-2.7-5.2-5.3-10.4-8-15.6c0,0,0,0,0,0c0,0,0,0,0,0
				c-0.1-0.3-1.2,0.4-1.2,0.8c0,0,0,0,0,0c-0.2,5.2-0.3,10.4-0.3,15.6c-6.4-6.1-12.9-12.1-19.5-18c-0.5-0.4-1.4,0.5-1.4,1
				c0.6,9.9,1.4,19.7,2.4,29.5c-5.1-4-10.2-7.9-15.5-11.8c0,0,0,0,0,0c-0.3-0.2-0.8,0.1-1,0.5c0,0,0,0,0,0c0,0,0,0,0,0
				c-0.1,0.2-0.1,0.4,0,0.5c2.3,5.1,4.7,10.2,7,15.3c-7.6-0.6-15.4-0.9-23.2-1.1c-0.4,0-1.3,0.8-0.9,1.2
				c7.7,7.7,15.2,15.6,22.6,23.6c0,0,0,0,0.1,0c0,0.1,0.1,0.1,0.3,0c0.1,0,0.3-0.1,0.4-0.2c16.4-9.5,33.4-18,50.9-25.2
				c2.5-1,5.1-2.1,7.6-3.1c0.3-0.1,0.8-0.5,0.7-0.9c-1.9-9.8-3.7-19.7-5.4-29.6C131.2,114.8,130.3,115.5,130.1,115.7z M84.3,166.6
				c0.1,0.6,0,1.2-0.4,1.6c-0.3,0.4-0.8,0.7-1.2,1c-0.5,0.2-0.9,0.4-1.4,0.4c-0.8,0-1.5-0.2-2.1-1c-0.6-0.8-0.8-1.7-0.3-2.6
				c0.6-1.1,1.9-1.7,3-1.4C83.2,164.9,84.1,165.5,84.3,166.6z M88.5,164.3c-0.2,0.6-0.5,1-1,1.2c-0.3,0.1-0.6,0.1-0.8,0
				c-0.2-0.1-0.4-0.3-0.6-0.5c-0.1-0.2-0.2-0.4-0.3-0.7c0-0.4,0.1-0.8,0.6-1.1c0.5-0.3,1-0.4,1.5-0.2
				C88.5,163.2,88.7,163.8,88.5,164.3z M95.1,162.7c-0.6,0.9-1.6,1.4-2.6,1.2c-1.2-0.3-2.2-0.7-2.6-1.8c-0.2-0.6-0.1-1.2,0.2-1.7
				c0.3-0.5,0.8-0.8,1.4-1.1c0.5-0.2,1.1-0.4,1.7-0.4c0.9,0,1.6,0.4,2,1.3C95.6,161,95.6,161.9,95.1,162.7z M99.7,158.8
				c-0.2,0.6-0.5,1-1,1.2c-0.3,0.1-0.6,0.1-0.8,0c-0.2-0.1-0.4-0.3-0.6-0.5c-0.1-0.2-0.2-0.4-0.3-0.7c0-0.4,0.1-0.8,0.6-1.1
				c0.5-0.3,1-0.4,1.5-0.2C99.7,157.8,99.9,158.3,99.7,158.8z M106.7,156.3c-0.1,0.8-0.5,1.4-1.3,1.9c-0.9,0.5-1.8,0.7-2.6,0.3
				c-1-0.4-1.7-1.4-1.3-2.5c0.4-1.2,1-2.2,2.4-2.6c0.7-0.2,1.4-0.1,1.8,0.2c0.5,0.3,0.7,0.8,0.9,1.2
				C106.7,155.3,106.8,155.7,106.7,156.3z M110.9,153.4c-0.2,0.6-0.5,1-1,1.2c-0.3,0.1-0.6,0.1-0.8,0c-0.2-0.1-0.4-0.3-0.6-0.5
				c-0.1-0.2-0.2-0.4-0.3-0.7c0-0.4,0.1-0.8,0.6-1.1c0.5-0.3,1-0.4,1.5-0.2C110.9,152.3,111.1,152.9,110.9,153.4z M117.7,150.8
				c-0.5,1.2-1,2-2.1,2.4c-0.6,0.2-1.2,0.2-1.7-0.1c-0.5-0.3-0.8-0.6-1.1-1.1c-0.2-0.4-0.4-0.9-0.4-1.4c0-0.8,0.4-1.6,1.4-2.1
				c1.1-0.6,2.1-0.7,3-0.3C117.8,148.7,118.1,149.8,117.7,150.8z M122.2,147.4c0.2,0.5,0,1.1-0.5,1.3c-0.5,0.3-1,0.5-1.5,0.3
				c-0.3-0.1-0.5-0.3-0.6-0.5c-0.1-0.3-0.1-0.5,0-0.8c0.1-0.3,0.2-0.5,0.4-0.7c0.3-0.3,0.7-0.5,1.2-0.4
				C121.7,146.7,122.1,146.9,122.2,147.4z M129.3,144.8c0.1,0.6,0,1.2-0.4,1.6c-0.3,0.4-0.8,0.7-1.2,1c-0.5,0.2-0.9,0.4-1.4,0.4
				c-0.8,0-1.5-0.2-2.1-1c-0.6-0.8-0.8-1.7-0.3-2.6c0.6-1.1,1.9-1.7,3-1.4C128.2,143,129,143.6,129.3,144.8z"/>
		</g>
	</g>
</g>
</svg>
