<?xml version="1.0" encoding="utf-8"?>
<!-- Generator: Adobe Illustrator 21.1.0, SVG Export Plug-In . SVG Version: 6.00 Build 0)  -->
<svg version="1.1" id="Calque_1" xmlns="http://www.w3.org/2000/svg" xmlns:xlink="http://www.w3.org/1999/xlink" x="0px" y="0px"
	 viewBox="0 0 432 432" style="enable-background:new 0 0 432 432;" xml:space="preserve">
<style type="text/css">
	.st0{fill:#E03B13;}
	.st1{fill:#652A19;}
	.st2{fill:#007F7B;}
	.st3{fill:#D07314;}
	.st4{fill:#BA3E18;}
	.st5{fill:#DE9801;}
	.st6{fill:#C17116;}
	.st7{fill:#6D4923;}
	.st8{fill:#7C1621;}
	.st9{fill:#EBA300;}
	.st10{fill:#A7192C;}
</style>
<g>
	<g>
		<g>
			<path class="st0" d="M106.5,97.9c0,2.5-1.8,3.9-5.1,4c-4.7,0.2-4.6,0.2-4.8,4.9c-0.3,10-0.9,20-0.6,30
				c0.3,10.8,1.1,21.6,3.8,32.2c0.2,0.7,0.3,1.3,0.4,2c0.3,2.5-0.8,4.2-2.8,4.7c-2.1,0.5-4.2-0.9-4.7-3.4c-0.9-4.2-1.8-8.5-2.5-12.7
				c-1.8-11.4-2-22.9-1.7-34.4c0.1-6.8,0.1-13.5,0.5-20.3c0.2-2.9,0.1-3-2.8-3c-1.4,0-2.7,0.1-4.1,0c-2.3-0.1-3.5-1.2-3.8-2.9
				c-0.3-1.8,1-3.8,3-4.2c1.7-0.4,3.5-0.4,5.2-0.3c2,0.1,2.9-0.6,3-2.7c0.3-6.4,0.8-12.7,1.2-19c0.1-1.5,0.1-3,0.5-4.4
				c0.5-2.3,2.5-3.7,4.4-3.4c2,0.3,3.2,1.9,3,4.6c-0.4,6.9-0.8,13.8-1.2,20.7c0,0.1,0,0.3,0,0.4c-0.1,4.1-0.1,4.1,3.8,4
				C104.9,94.4,106.5,95.4,106.5,97.9z"/>
			<path class="st0" d="M147.2,170.9c0,2.9-1.5,4.8-3.8,4.9c-2.2,0.1-3.9-1.7-4-4.6c-0.1-3.8-0.1-7.6-0.1-11.4
				c-0.1-3.8-0.8-7.5-1.9-11.2c-0.4-1.4-1-2.8-1.8-4.1c-1.1-1.9-2.2-2.1-4-1c-2.4,1.4-4.1,3.6-5.3,6c-3.1,5.8-4.8,12-5,18.6
				c0,1.4,0.1,2.7-0.1,4.1c-0.2,1.9-1.4,3.2-3.3,3.5c-1.7,0.3-3.3-0.8-4-2.7c-0.3-0.7-0.4-1.6-0.5-2.4c-0.6-11.6-2-23.2-1.8-34.9
				c0.2-17.3-0.8-34.7-0.3-52c0.1-3.5,0.2-7,0.3-10.6c0-1.6,0.2-3.3,0.8-4.8c0.7-1.9,2.3-2.8,4.1-2.5c1.9,0.3,2.8,1.6,3,3.3
				c0.1,0.5,0.1,1.1,0,1.6c-1.3,12.6-0.7,25.2-0.7,37.7c0,10.6,0.3,21.1,0.5,31.7c0,1.3-0.2,2.7,0.7,4.3c2.2-2.8,4.1-5.2,6.7-7.1
				c6.1-4.3,12.1-2.9,15.7,3.5c2.4,4.2,3.3,8.8,4,13.5C147.3,160.1,147.2,165.5,147.2,170.9z"/>
			<path class="st0" d="M191.4,143.5c0,8.7,0,17.3,0,26c0,1.1,0,2.2-0.2,3.2c-0.4,1.9-1.5,3.1-3.6,3.2c-2,0-3.6-1.3-3.8-3.5
				c-0.2-1.7-0.1-3.5-0.1-5.3c0-3.1-0.1-6.2,0-9.3c0.1-2-0.7-2.7-2.6-2.3c-2.6,0.5-5.3,1.1-8,1.5c-3.5,0.6-6.9,1.2-10.4,1.6
				c-1.8,0.2-2.6,0.8-2.6,2.7c-0.1,3.1-0.4,6.2-0.8,9.3c-0.2,1.9-1.1,3.3-3.2,3.7c-2.1,0.4-3.7-0.8-4.1-2.9c-0.1-0.7-0.1-1.3-0.1-2
				c1.4-24.9,3.8-49.6,9.8-73.8c1.5-5.9,3.3-11.7,5.9-17.3c1.1-2.2,2.2-4.3,4-6.1c2.7-2.7,6.1-2.9,9.1-0.4c2.2,1.8,3.3,4.2,4.3,6.8
				c2.1,5.8,2.8,11.9,3.4,17.9C189.8,112.1,190.9,127.7,191.4,143.5z M183.4,144.6c-0.4-18.7-1.1-37.4-3.7-55.9
				c-0.5-3.4-1.2-6.7-3.3-10.7c-6.1,11.9-8.6,23.9-10.7,35.9c-2.1,12.2-3.7,24.5-4.7,36.9c7.3-0.3,13.7-2.2,20.2-3.2
				C183,147.4,183.4,146.4,183.4,144.6z"/>
			<path class="st0" d="M232.6,170.5c0,0.8,0,1.6-0.1,2.4c-0.3,1.5-1.1,2.5-2.6,2.8c-1.6,0.3-3,0.1-4-1.3c-0.8-1.1-1.4-2.4-1.3-3.8
				c0.3-11.6-0.4-23.3-0.7-34.9c-0.3-13.3-0.8-26.5-2-39.7c-0.4-4.6-1.3-9.1-3.1-13.4c-1.1-2.6-2.2-3.1-4.3-1.4
				c-5.4,4.4-10,9.4-10.4,17.1c-1,23-0.5,46,2.8,68.9c0.2,1.6,0.5,3.2,0.4,4.8c0,2.2-1.2,3.5-3,3.7c-2,0.3-3.7-0.7-4.4-2.8
				c-0.2-0.8-0.3-1.6-0.4-2.4c-3.1-22.9-4.4-45.8-3.2-68.9c0.5-10.1,1-20.3,1.9-30.4c0.1-0.9,0.2-1.9,0.5-2.8
				c0.7-2.2,2.3-3.2,4.3-2.8c1.8,0.3,2.9,1.6,3,3.8c0,0.8-0.1,1.6-0.2,2.4c-0.1,1.9-0.5,3.8-0.1,6.3c1.9-1.4,3.3-2.6,4.9-3.6
				c6.5-4.2,12.1-2.5,15.1,4.6c2.7,6.4,3.7,13.3,4.2,20.2C231.6,123.1,231.5,146.8,232.6,170.5z"/>
			<path class="st0" d="M269.1,170.5c-1.7,1.2-3.6,0.9-5.4-1.1c-0.6-0.6-1-1.3-1.5-1.9c-4.6-5.8-9.9-11.1-15.4-16
				c-1.3,0.8-0.8,1.8-0.7,2.6c0.3,5.3,0.6,10.6,0.9,15.8c0.1,0.9,0.2,1.9,0,2.8c-0.4,1.8-1.6,2.9-3.4,3c-1.8,0.2-3.2-0.8-3.8-2.5
				c-0.4-1.1-0.4-2.4-0.5-3.6c-1.6-22.7-2.6-45.5-1.6-68.2c0.3-7.2,0.2-14.4,0.4-21.5c0-1.6-0.2-3.3,0.5-4.8
				c0.8-1.8,2.5-2.7,4.3-2.3c1.8,0.4,2.7,1.7,2.8,3.5c0,1.1-0.1,2.2-0.1,3.2c-0.2,16.7-0.3,33.3-0.4,50c0,1.4-0.3,3,0.7,5
				c3.6-4.7,6.9-9,10.2-13.3c0.7-1,1.4-2,2.2-2.9c1.9-2,4-2.4,5.7-1.1c1.5,1.2,1.7,3.3,0.3,5.5c-0.5,0.8-1.1,1.5-1.7,2.3
				c-4,5.3-7.9,10.7-12.3,15.6c-1.5,1.7-1.2,2.5,0.3,3.9c6.1,5.6,12.1,11.3,17.2,17.8c0.7,0.8,1.4,1.7,1.9,2.6
				C271.1,167.3,270.8,169.3,269.1,170.5z"/>
			<path class="st0" d="M295.8,82.6c-0.4,2-1.9,3.1-3.7,3.2c-1.9,0-3.2-1-3.6-3.2c-0.4-2.3-0.8-4.5-2-6.5c-2.5-4.1-4.8-4.1-7,0
				c-1.7,3.1-2.6,6.6-3,10.1c-0.4,3.8-0.7,7.6-0.5,11.4c0.4,6.1,0.9,12.2,1.3,18.2c0.1,2,0.9,3,3,2.7c1.2-0.1,2.4-0.2,3.7-0.2
				c2.9,0,4.6,1.1,4.8,3.3c0.3,2.2-0.9,3.6-3.9,4.2c-1.3,0.3-2.7,0.5-4,0.5c-1.8,0-2.3,0.7-2.1,2.5c0.8,7.3,1.4,14.6,2.2,21.8
				c0.7,6.5,1.5,12.9,2.3,19.4c0,0.1,0.1,0.3,0.1,0.4c0.3,3.4-0.9,5.4-3.2,5.6c-2.2,0.2-3.9-1.6-4.3-4.9c-2.4-17.4-4.1-35-5.7-52.5
				c-0.8-8.4-1.6-16.7-1.6-25.1c0.1-5.6,0.6-11.1,2.4-16.4c0.9-2.7,2.1-5.3,4-7.5c4.4-5.3,11.1-5.5,15.9-0.5
				c2.8,2.9,4.3,6.5,5.2,10.4C296.1,80.4,296,81.5,295.8,82.6z"/>
			<path class="st0" d="M335.8,88c-0.2,7.6-0.6,15.2-0.8,22.7c-0.7,13.3-0.6,26.6-2.3,39.8c-0.7,5.2-1.5,10.4-3.3,15.5
				c-0.9,2.7-2.2,5.3-4.3,7.3c-3.7,3.5-8.4,3.5-11.9-0.2c-3.2-3.3-5-7.3-6.4-11.6c-2-6.5-3.2-13.2-4-19.9
				c-2.6-21.2-2.7-42.4-1.3-63.7c0-0.7,0.1-1.4,0.2-2c0.5-2.3,1.8-3.5,3.8-3.4c2,0.1,3.4,1.3,3.5,3.7c0.1,2.2,0,4.3-0.1,6.5
				c-1.4,22-0.9,43.9,2.7,65.6c0.6,3.6,1.5,7.1,2.4,10.7c0.5,2.1,1.4,4.1,2.5,6c0.7,1.1,1.1,2.9,2.7,2.8c1.7-0.1,2.2-1.9,2.7-3.3
				c2.1-5.6,2.9-11.5,3.6-17.5c1.3-12.4,1.5-24.9,2-37.3c0.3-9.2,0.6-18.4,0.9-27.6c0.1-2,0.1-4.1,0.4-6.1c0.3-2.3,1.8-3.5,3.8-3.4
				c2,0.1,3.4,1.4,3.5,3.8C336.1,80.2,336,84.1,335.8,88z"/>
			<path class="st0" d="M357.1,175.6c-3.4,0.3-6.8,0.3-10.1,0.1c-2.7-0.1-4.2-1.9-4.6-4.8c-0.4-2.7-0.6-5.4-0.8-8.1
				c-1.3-19.8-0.9-39.5-0.4-59.3c0.2-7.9,0.2-15.7,0.4-23.6c0-1.6,0.2-3.2,0.5-4.8c0.4-2,1.7-3.1,3.7-3.2c1.8-0.1,3.4,1.5,3.7,3.7
				c0.1,0.9,0,1.9,0,2.8c-0.5,27.1-1.7,54.2-0.3,81.2c0.1,2.7,0.4,5.4,0.6,8.3c2.3,0,4.2-0.1,6.1,0c1.6,0.1,3.2,0.6,4.1,2.2
				C361.3,172.5,359.9,175.4,357.1,175.6z"/>
		</g>
		<g>
			<path class="st2" d="M205.3,235.2c0,5.8,0,11.5,0,17.3c0,0.7,0,1.4-0.1,2.1c-0.3,1.3-1,2.1-2.4,2.1c-1.3,0-2.4-0.8-2.5-2.3
				c-0.1-1.2,0-2.3,0-3.5c0-2.1-0.1-4.1,0-6.2c0-1.3-0.4-1.8-1.7-1.6c-1.8,0.4-3.5,0.7-5.3,1c-2.3,0.4-4.6,0.8-6.9,1.1
				c-1.2,0.1-1.7,0.5-1.8,1.8c-0.1,2.1-0.3,4.1-0.5,6.2c-0.1,1.3-0.7,2.2-2.1,2.4c-1.4,0.2-2.5-0.5-2.7-1.9c-0.1-0.4-0.1-0.9,0-1.3
				c0.9-16.5,2.5-32.9,6.5-49c1-3.9,2.2-7.8,3.9-11.5c0.7-1.5,1.5-2.9,2.6-4c1.8-1.8,4.1-1.9,6.1-0.3c1.5,1.2,2.2,2.8,2.8,4.5
				c1.4,3.8,1.9,7.9,2.2,11.9C204.2,214.3,205,224.7,205.3,235.2z M200,236c-0.3-12.4-0.8-24.8-2.5-37.1c-0.3-2.2-0.8-4.4-2.2-7.1
				c-4,7.9-5.7,15.8-7.1,23.9c-1.4,8.1-2.5,16.2-3.1,24.5c4.8-0.2,9.1-1.5,13.4-2.1C199.7,237.8,200,237.1,200,236z"/>
			<path class="st2" d="M232.6,253.1c0,0.5,0,1.1-0.1,1.6c-0.2,1-0.7,1.6-1.7,1.9c-1,0.2-2,0-2.6-0.9c-0.5-0.7-0.9-1.6-0.9-2.5
				c0.2-7.7-0.3-15.4-0.5-23.2c-0.2-8.8-0.5-17.6-1.4-26.4c-0.3-3.1-0.8-6.1-2-8.9c-0.7-1.7-1.4-2-2.8-0.9
				c-3.6,2.9-6.7,6.2-6.9,11.3c-0.6,15.3-0.3,30.6,1.9,45.7c0.2,1.1,0.3,2.1,0.3,3.2c0,1.5-0.8,2.3-2,2.5c-1.3,0.2-2.5-0.5-2.9-1.8
				c-0.2-0.5-0.2-1.1-0.2-1.6c-2.1-15.2-2.9-30.4-2.2-45.7c0.3-6.7,0.7-13.5,1.2-20.2c0.1-0.6,0.1-1.3,0.3-1.8
				c0.5-1.5,1.5-2.1,2.9-1.9c1.2,0.2,1.9,1.1,2,2.5c0,0.5-0.1,1.1-0.1,1.6c-0.1,1.3-0.4,2.5-0.1,4.2c1.3-0.9,2.2-1.7,3.2-2.4
				c4.3-2.8,8-1.7,10,3c1.8,4.3,2.4,8.8,2.8,13.4C232,221.7,231.9,237.4,232.6,253.1z"/>
			<path class="st2" d="M257.5,256.7c-1.5,0.2-2.5-1-2.9-3.2c-0.1-0.3-0.1-0.7-0.1-1.3c-7.6,3.2-13.7,0.7-16.9-6.6
				c-1.3-2.9-1.9-6-1.7-9.2c0.6-7.2,7.2-14.2,16.2-11.4c0.7-0.5,0.4-1.3,0.3-2c-0.4-11.8-0.8-23.5-0.5-35.3c0-0.9-0.1-1.8,0.3-2.7
				c0.4-1,1.1-1.6,2.2-1.6c1.1,0,1.9,0.5,2.3,1.5c0.4,0.9,0.4,1.9,0.4,2.9c-0.5,13-0.1,26.1,0.7,39.1c0.5,8.4,1.2,16.9,1.8,25.3
				c0,0.2,0,0.4,0.1,0.5C259.9,255,259.1,256.5,257.5,256.7z M253.9,243.1c-0.1-2.3-0.3-4.6-0.5-7c-0.1-1.6-0.6-3.2-1.5-4.5
				c-1.7-2.3-3.8-2.9-6.3-1.7c-3.3,1.6-4.6,4.4-4.6,8c0,0.5,0,1.3,0.2,2c0.7,3.4,1.8,6.6,5.3,8.3C250,249.9,254.1,247,253.9,243.1z"
				/>
		</g>
		<g>
			<g>
				<path class="st1" d="M102.8,233.6c5.9-0.4,57.1-3.7,71.4-4.7c0.1-2,0.2-4,0.3-6c-12.9,0.9-66.1,4.3-72.1,4.7
					c1.9-3.1,3.7-6.2,5.3-9.4c0.8-1.6,2-3.5,0.6-5.2c-2.6-3.1-9.7,1.9-12,2.9c-7.3,3.3-14.6,6.8-21.7,10.6c-2.4,1.2-13.1,5-8,9.1
					c0,0,0,0,0,0c0,0,0.1,0.1,0.2,0.1c6.7,2.7,13.4,5.2,20.2,7.5c3.5,1.2,7.1,2.4,10.7,3.5c2.7,0.8,5.7,2.2,8.5,2.5
					c1.9,0.2,4.3-0.6,4.7-2.8c0.4-2.2-1.8-4.4-2.9-6C106.3,238,104.6,235.8,102.8,233.6z"/>
				<path class="st1" d="M366.3,198.4c1.1-2.1,0.2-4.4-2.4-4.5c-2.9-0.1-4.7,3.1-6.2,4.9c-3.4,4-7.5,7.8-10.4,12.1
					c-2.8,0.2-5.5,0.4-8.3,0.6c3.3-3.6,14.7-15.3,6.7-15.7c-2.6-0.1-4.2,2.6-5.6,4.3c-3.2,4-6.8,7.8-10,11.9c-4,0.3-8,0.6-12,0.8
					c4-4.5,8.2-9,11.7-13.8c1.6-2.2,1.3-5.2-2-5.2c-3.4,0-5.7,4.6-7.5,6.7c-3.5,4.3-7.8,8.3-10.9,12.9c-4.7,0.3-33.3,2.2-43.6,2.9
					c0.4,2,0.7,3.9,0.8,5.9c10.1-0.7,35.3-2.3,38.6-2.6c4.5-0.3,6.3,3.1,9.1,6.3c2.2,2.4,4.1,5,6.2,7.6c1.3,1.6,2.9,4.6,4.9,5.5
					c1.4,0.7,3.4,0.2,4.6-0.8c3-2.5-0.8-5.5-2.5-7.5c-3.3-4-6.8-7.9-10.1-12c2.7-0.3,5.6-0.7,8.2-0.5c3.5,0.2,3.8,1.2,5.9,3.9
					c2,2.6,3.9,5.4,5.8,8.1c1.1,1.6,2,3.5,4.1,3.8c1.9,0.2,4.3-1.2,4.6-3.2c0.2-1.8-2.2-3.9-3.1-5.2c-1.9-2.6-4.5-5.3-5.9-8.2
					c2.8-0.3,5.8-0.8,8.4-0.5c3.4,0.4,5.3,4.5,7.1,7.1c1.8,2.7,3.5,6.2,5.8,8.5c0.9,0.9,1.4,1.3,2.8,1.2c1.9-0.1,4.3-1.6,4-3.7
					c-0.4-2.7-3.7-5.8-5.2-8c-1.4-2-2.9-3.9-4.3-5.9c1.5-0.2,2.9-0.8,3.4-2.3c1-2.7-1.2-3.5-3.2-3.6c1.6-1.8,3.3-3.6,4.9-5.4
					C362.5,203,365.2,200.8,366.3,198.4z"/>
			</g>
			<g>
				<g>
					<path class="st2" d="M123.3,222.9c-4.1,0.3-7.7-3.2-7.8-7.6c-0.1-4.2,2.7-7.5,6.7-7.8c4.2-0.3,7.6,3.1,7.7,7.6
						C130,219.3,127.2,222.7,123.3,222.9z"/>
					<path class="st2" d="M144.9,221.6c-4.1,0.3-7.7-3.2-7.8-7.6c-0.1-4.2,2.7-7.5,6.7-7.8c4.2-0.3,7.6,3.1,7.7,7.6
						C151.7,218.1,148.9,221.4,144.9,221.6z"/>
					<path class="st2" d="M166.6,220.3c-4.1,0.3-7.7-3.2-7.8-7.6c-0.1-4.2,2.7-7.5,6.7-7.8c4.2-0.3,7.6,3.1,7.7,7.6
						C173.3,216.8,170.5,220.1,166.6,220.3z"/>
				</g>
				<path class="st2" d="M278.8,213.7c-4.1,0.3-7.7-3.2-7.8-7.6c-0.1-4.2,2.7-7.5,6.7-7.8c4.2-0.3,7.6,3.1,7.7,7.6
					C285.5,210.1,282.7,213.4,278.8,213.7z"/>
				<path class="st2" d="M300.4,212.4c-4.1,0.3-7.7-3.2-7.8-7.6c-0.1-4.2,2.7-7.5,6.7-7.8c4.2-0.3,7.6,3.1,7.7,7.6
					C307.2,208.8,304.4,212.1,300.4,212.4z"/>
			</g>
		</g>
		<g>
			<path class="st4" d="M128.3,349c-4.4,11.3-13.3,15.4-25,11.2c-0.1,0.9-0.1,1.4-0.1,1.9c-0.3,3.3-1.8,5.2-4.1,5.1
				c-2.5-0.1-3.8-2.2-3.7-5.8c0-0.3,0-0.5,0-0.8c0.3-12.7,0.8-25.5,0.8-38.2c0.1-19.6-0.2-39.3-1.9-58.9c-0.1-1.5-0.2-3,0.3-4.4
				c0.6-1.6,1.6-2.4,3.3-2.5c1.7-0.1,2.8,0.8,3.5,2.3c0.6,1.3,0.5,2.6,0.6,4c1.3,17.7,1.7,35.4,2,53.2c0,1-0.5,2.2,0.7,2.9
				c13.4-4.8,23.8,5.2,25.3,16C130.8,339.8,130.1,344.5,128.3,349z M122.7,337.8c-0.4-5.5-2.6-9.6-7.6-11.8c-3.9-1.7-7.1-0.6-9.4,3
				c-1.3,2.1-2,4.4-2,6.9c0,3.5-0.1,7-0.2,10.5c0,6,6.4,10,11.7,7.1c5-2.7,6.5-7.7,7.3-12.8C122.7,339.7,122.6,338.6,122.7,337.8z"
				/>
			<path class="st4" d="M151.4,367c-3.4,0.3-6.8,0.3-10.1,0.1c-2.7-0.1-4.2-1.9-4.6-4.8c-0.4-2.7-0.6-5.4-0.8-8.1
				c-1.3-19.8-0.9-39.5-0.4-59.3c0.2-7.9,0.2-15.7,0.4-23.6c0-1.6,0.2-3.2,0.5-4.8c0.4-2,1.7-3.1,3.7-3.2c1.8-0.1,3.4,1.5,3.7,3.7
				c0.1,0.9,0,1.9,0,2.8c-0.5,27.1-1.7,54.2-0.3,81.2c0.1,2.7,0.4,5.4,0.6,8.3c2.3,0,4.2-0.1,6.1,0c1.6,0.1,3.2,0.6,4.1,2.2
				C155.6,363.9,154.2,366.7,151.4,367z"/>
			<path class="st4" d="M194.2,341.1c-0.7,7-1.5,14.1-5,20.4c-3.9,7.1-11.5,7.7-16.7,1.5c-3.7-4.4-5.9-9.7-7.4-15.2
				c-4.8-17.5-6.9-35.3-5-53.5c0.6-5.3,1.9-10.4,4.2-15.2c1.5-3.3,3.7-6,6.9-7.8c4.5-2.6,8.4-2.3,12.4,0.9c4,3.2,6.1,7.5,7.4,12.3
				c1.2,4.5,1.7,9,1.5,13.7c-0.3,5.4-2.4,7.6-7.8,7.8c-2.4,0.1-4.9,0-7.3,0c0,0,0,0.1,0,0.1c-2.4,0-4.9,0-7.3,0
				c-2.8,0.1-2.9,0.1-2.9,3c0.1,9.2,1.2,18.4,3,27.4c1,5,2.2,10,4.3,14.8c1,2.4,2.2,4.7,3.8,6.7c1.7,2.1,2.9,2,4.3-0.4
				c0.9-1.5,1.4-3.2,1.8-4.9c0.9-4,1.7-7.9,2.2-12c0.3-2.8,1.5-4,3.7-3.9C192.7,336.8,194.5,338.5,194.2,341.1z M167.5,296.7
				c-0.2,1.4,0.4,2,1.8,1.9c2-0.1,4.1,0,6.1,0c0,0,0-0.1,0-0.1c2.4,0,4.9,0,7.3,0c1.2,0,2.1-0.6,2.1-2c0-5.7-0.5-11.4-3.9-16.3
				c-2.6-3.9-5.6-3.8-8.4-0.1c-0.4,0.5-0.7,1.1-1,1.7C169.2,286.5,168.2,291.6,167.5,296.7z"/>
			<path class="st4" d="M229.1,287.7c-0.1,2-1.7,3.3-3.5,3.4c-1.9,0.1-3.6-1.4-3.7-3.6c-0.2-2.7-0.4-5.4-1-8
				c-0.5-2.4-1.4-4.7-3.2-6.4c-2-1.8-4-1.6-5.4,0.6c-2.1,3.3-2.6,7.1-2.5,10.9c0.1,4.2,1.1,8.3,2.7,12.2c2,5,4.2,10,6.4,14.9
				c4.4,10,7.4,20.3,8.5,31.2c0.7,6.6,0,13-4.3,18.5c-2.3,2.9-5,5.3-9,5.7c-5,0.5-8.6-2-11.3-5.9c-2.9-4.3-3.2-9.4-3.8-14.4
				c-0.2-1.8,1-3.1,2.8-3.3c1.9-0.3,3.5,0.3,4.4,2.1c0.7,1.5,0.8,3.1,1,4.7c0.2,2.3,0.7,4.6,1.9,6.6c2.1,3.3,4.6,3.5,7.2,0.7
				c2.4-2.6,3.7-6.4,3.6-9.8c-0.5-12.3-3.6-22.7-8-32.8c-2.3-5.2-4.6-10.4-6.7-15.7c-2.5-6.2-3.5-12.8-2.8-19.5
				c0.4-4,1.5-7.7,3.9-11c4.1-5.7,11.1-6.4,16.2-1.7C228.5,272.8,229.6,280.1,229.1,287.7z"/>
			<path class="st4" d="M264.1,287.7c-0.1,2-1.7,3.3-3.5,3.4c-1.9,0.1-3.6-1.4-3.7-3.6c-0.2-2.7-0.4-5.4-1-8
				c-0.5-2.4-1.4-4.7-3.2-6.4c-2-1.8-4-1.6-5.4,0.6c-2.1,3.3-2.6,7.1-2.5,10.9c0.1,4.2,1.1,8.3,2.7,12.2c2,5,4.2,10,6.4,14.9
				c4.4,10,7.4,20.3,8.5,31.2c0.7,6.6,0,13-4.3,18.5c-2.3,2.9-5,5.3-9,5.7c-5,0.5-8.6-2-11.3-5.9c-2.9-4.3-3.2-9.4-3.8-14.4
				c-0.2-1.8,1-3.1,2.8-3.3c1.9-0.3,3.5,0.3,4.4,2.1c0.7,1.5,0.8,3.1,1,4.7c0.2,2.3,0.7,4.6,1.9,6.6c2.1,3.3,4.6,3.5,7.2,0.7
				c2.4-2.6,3.7-6.4,3.6-9.8c-0.5-12.3-3.6-22.7-8-32.8c-2.3-5.2-4.6-10.4-6.7-15.7c-2.5-6.2-3.5-12.8-2.8-19.5
				c0.4-4,1.5-7.7,3.9-11c4.1-5.7,11.1-6.4,16.2-1.7C263.5,272.8,264.5,280.1,264.1,287.7z"/>
			<path class="st4" d="M303.7,341.1c-0.7,7-1.5,14.1-5,20.4c-3.9,7.1-11.5,7.7-16.7,1.5c-3.7-4.4-5.9-9.7-7.4-15.2
				c-4.8-17.5-6.9-35.3-5-53.5c0.6-5.3,1.9-10.4,4.2-15.2c1.5-3.3,3.7-6,6.9-7.8c4.5-2.6,8.4-2.3,12.4,0.9c4,3.2,6.1,7.5,7.4,12.3
				c1.2,4.5,1.7,9,1.5,13.7c-0.3,5.4-2.4,7.6-7.8,7.8c-2.4,0.1-4.9,0-7.3,0c0,0,0,0.1,0,0.1c-2.4,0-4.9,0-7.3,0
				c-2.8,0.1-2.9,0.1-2.9,3c0.1,9.2,1.2,18.4,3,27.4c1,5,2.2,10,4.3,14.8c1,2.4,2.2,4.7,3.8,6.7c1.7,2.1,2.9,2,4.3-0.4
				c0.9-1.5,1.4-3.2,1.8-4.9c0.9-4,1.7-7.9,2.2-12c0.3-2.8,1.5-4,3.7-3.9C302.1,336.8,303.9,338.5,303.7,341.1z M277,296.7
				c-0.2,1.4,0.4,2,1.8,1.9c2-0.1,4.1,0,6.1,0c0,0,0-0.1,0-0.1c2.4,0,4.9,0,7.3,0c1.2,0,2.1-0.6,2.1-2c0-5.7-0.5-11.4-3.9-16.3
				c-2.6-3.9-5.6-3.8-8.4-0.1c-0.4,0.5-0.7,1.1-1,1.7C278.6,286.5,277.7,291.6,277,296.7z"/>
			<path class="st4" d="M341,367.2c-2.2,0.2-3.8-1.5-4.3-4.9c-0.1-0.5-0.1-1.1-0.2-1.9c-11.4,4.8-20.6,1.1-25.5-10
				c-1.9-4.4-2.9-9-2.5-13.8c0.9-10.9,10.8-21.4,24.4-17.2c1.1-0.8,0.6-1.9,0.5-2.9c-0.7-17.7-1.1-35.5-0.7-53.2
				c0-1.3-0.1-2.7,0.4-4c0.6-1.5,1.7-2.4,3.4-2.4c1.7,0,2.8,0.8,3.4,2.3c0.6,1.4,0.6,2.9,0.6,4.4c-0.8,19.6-0.1,39.3,1,58.9
				c0.7,12.7,1.8,25.4,2.8,38.1c0,0.3,0.1,0.5,0.1,0.8C344.7,364.7,343.4,366.9,341,367.2z M335.6,346.7c-0.2-3.5-0.5-7-0.7-10.5
				c-0.2-2.5-0.9-4.8-2.3-6.8c-2.5-3.5-5.7-4.4-9.6-2.5c-4.9,2.4-6.9,6.6-7,12.1c0.1,0.8,0,1.9,0.2,2.9c1.1,5.1,2.8,10,7.9,12.5
				C329.7,357,335.9,352.7,335.6,346.7z"/>
		</g>
	</g>
</g>
</svg>
