<?xml version="1.0" encoding="utf-8"?>
<!-- Generator: Adobe Illustrator 21.1.0, SVG Export Plug-In . SVG Version: 6.00 Build 0)  -->
<svg version="1.1" id="Calque_1" xmlns="http://www.w3.org/2000/svg" xmlns:xlink="http://www.w3.org/1999/xlink" x="0px" y="0px"
	 viewBox="0 0 432 432" style="enable-background:new 0 0 432 432;" xml:space="preserve">
<style type="text/css">
	.st0{fill:#FBB03B;}
	.st1{fill:#AC5247;}
	.st2{fill:#F5967C;}
	.st3{fill:#962942;}
	.st4{fill:#E2896B;}
	.st5{fill:#D5ACAA;}
	.st6{fill:#DDCCC4;}
	.st7{fill:#F7C0AE;}
	.st8{fill:#1A1A1A;}
	.st9{fill:#0071BC;}
	.st10{fill:#7490A5;}
	.st11{fill:#D0876F;}
	.st12{fill:#E2AE74;}
	.st13{fill:#D14758;}
	.st14{fill:#D88460;}
	.st15{fill:#84422C;}
	.st16{fill:#3B4F84;}
	.st17{fill:#3F5584;}
	.st18{fill:#5796B4;}
	.st19{fill:#333333;}
	.st20{fill:#EB8390;}
	.st21{fill:#8A8DB4;}
	.st22{fill:#C4D0F0;}
	.st23{fill:#009245;}
	.st24{fill:#F7931E;}
	.st25{fill:#534741;}
	.st26{fill:#BF8271;}
	.st27{fill:#202749;}
	.st28{fill:#57678A;}
	.st29{fill:#F3A186;}
	.st30{fill:#C6966D;}
	.st31{fill:#516184;}
	.st32{fill:#5B8451;}
	.st33{fill:#C6836D;}
	.st34{fill:#C69C6D;}
	.st35{fill:#9B849C;}
	.st36{fill:#8CA562;}
	.st37{fill:#F5957C;}
	.st38{fill:#BC9688;}
	.st39{fill:#6E8DAF;}
	.st40{fill:#E28F74;}
	.st41{fill:#AF735E;}
	.st42{fill:#8193BB;}
	.st43{fill:#6F9147;}
	.st44{fill:#DD9F4E;}
	.st45{fill:#4F5F82;}
	.st46{fill:#52874F;}
	.st47{fill:#7A5D41;}
	.st48{fill:#808080;}
	.st49{fill:#98B58B;}
	.st50{fill:#E07F65;}
	.st51{fill:#736357;}
	.st52{fill:#E29774;}
	.st53{fill:#95543E;}
	.st54{fill:#66853E;}
	.st55{fill:#6B6871;}
	.st56{fill:#689B62;}
	.st57{fill:#A1BDBE;}
	.st58{fill:#999999;}
	.st59{fill:#A67C52;}
	.st60{fill:#E0D2BE;}
	.st61{fill:#A9B792;}
	.st62{fill:#7E8D66;}
	.st63{fill:#394587;}
	.st64{fill:#3E6D55;}
	.st65{fill:#3A735C;}
	.st66{fill:#C66B4C;}
	.st67{fill:#456C8C;}
	.st68{fill:#BF8E71;}
	.st69{fill:#6D9B65;}
	.st70{fill:#BF987D;}
	.st71{fill:#8F95B2;}
	.st72{fill:#5799A0;}
	.st73{fill:#857A71;}
	.st74{fill:#84686F;}
	.st75{fill:#E2B4A3;}
	.st76{fill:#718E9F;}
	.st77{fill:#B5748A;}
	.st78{fill:#A8766C;}
	.st79{fill:#9B657D;}
	.st80{fill:#9F6754;}
	.st81{fill:#11937F;}
	.st82{fill:#9A4B5E;}
	.st83{fill:#9AB580;}
	.st84{fill:#BD8579;}
	.st85{fill:#86A4B7;}
	.st86{fill:#6F9FB2;}
	.st87{fill:#B57E83;}
	.st88{fill:#B28C78;}
	.st89{fill:#254165;}
	.st90{fill:#79412E;}
	.st91{fill:#BA5A61;}
	.st92{fill:#4D4D4D;}
	.st93{fill:#96AF86;}
	.st94{fill:#EAAE60;}
	.st95{fill:#684033;}
	.st96{fill:#B57C6A;}
	.st97{fill:#C1272D;}
	.st98{fill:#447F7A;}
	.st99{fill:#7CBEB8;}
	.st100{fill:#76A3A1;}
	.st101{fill:#ECD580;}
	.st102{fill:#EB423D;}
	.st103{fill:#EE7A32;}
	.st104{fill:#9E8065;}
	.st105{fill:#231F20;}
	.st106{fill:#725740;}
	.st107{fill:#504657;}
	.st108{fill:#6A5B75;}
	.st109{fill:#BC842C;}
	.st110{fill:#673E46;}
	.st111{fill:#BB808C;}
	.st112{fill:#8E2C40;}
	.st113{fill:#75967E;}
	.st114{fill:#B9AA85;}
	.st115{fill:#9898AF;}
	.st116{fill:#9EC7C8;}
	.st117{fill:#BBBDBF;}
	.st118{fill:#CEACB4;}
	.st119{fill:#DC986F;}
	.st120{fill:#B01E69;}
	.st121{fill:#FFFFFF;}
	.st122{fill:#C19CAF;}
	.st123{fill:#B59736;}
	.st124{fill:#1E8C92;}
	.st125{fill:#9F4868;}
	.st126{fill:#A9B0CF;}
	.st127{fill:#B7768E;}
	.st128{fill:#617C68;}
	.st129{fill:#BB5666;}
	.st130{fill:#C3AEB5;}
</style>
<g>
	<g>
		<path class="st8" d="M69.6,164.9c0.7,5.5,1.7,11,3.2,16.5c1.1,3.8,2.6,7.5,4.5,11.1c1.3,2.4,2.8,4.5,5,6.2
			c3.6,2.9,7.5,2.7,10.7-0.5c1.2-1.2,2.2-2.6,3-4c1.7-3.3,3.2-6.7,4.8-10c0.4-0.9,0.7-1.9,1.2-2.9c1.4-3,2.3-6.2,2.5-9.6
			c0-0.8,0.2-1.7,0.4-2.5c-0.3-0.2-0.6-0.5-0.9-0.6c-8.4-5.2-12.1-17.2-8-26.6c1.7-3.9,4.1-7.4,7.5-10c6.8-5.1,14.1-5.8,21.9-2.7
			c6.1,2.4,11.1,6.4,15.2,11.5c4.8,5.8,8,12.3,9.5,19.7c0.1,0.4,0.2,0.7,0.3,1.1c0,0,0.1,0.1,0.2,0.2c2.1-1.3,4.3-2.6,6.6-3.9
			c-0.1-1.3-0.1-2.5-0.2-3.8c-0.2-3.9-0.3-7.8,0.7-11.6c0.3-1.1,0.7-2.3,1.3-3.2c0.6-1,1.4-1.9,2.3-2.6c2.1-1.6,4.6-1.3,6.5,0.5
			c1.6,1.5,2.4,3.5,2.8,5.6c0.3,1.4,0.4,2.8,0.5,4.2c0.4,6.5,1.2,12.9,2.2,19.3c0.6,3.8,1,7.7,1.5,11.6c0.4,2.9,0.9,5.7,1.8,8.5
			c0.2,0.7,0.6,1.4,0.9,2.2c1.1-0.1,1.8-0.6,2.3-1.3c0.8-1.1,1.6-2.2,2.2-3.4c2.2-4.5,3.7-9.2,4.7-14.1c1.6-7.3,2.7-14.6,3.5-22.1
			c0.2-1.6,0.3-3.2,0.5-4.8c0.1-0.5,0.1-0.9,0.3-1.4c0.7-2.5,3.1-3.4,5.3-1.9c0.7,0.5,1.2,1.2,1.8,1.8c1.6,1.9,3.2,3.9,4.9,5.8
			c1.1,1.2,2.3,2.2,3.5,3.2c0.3,0.3,0.8,0.5,1.2,0.8c0.4-1.6,0.7-3,1.1-4.5c1-3.6,2.4-7,4.8-9.9c3-3.6,6.8-5.7,11.5-6
			c5.4-0.3,10.3,4.3,11.2,9.2c0.8,4.6-0.6,8.3-4,11.4c-2.7,2.3-5.6,4.2-9.1,5.2c-0.4,0.1-0.7,0.3-1.2,0.4c0.1,1.5,0.2,3.1,0.3,4.6
			c0.2,1.3,0.4,2.6,0.7,3.9c1.1,4.1,2.4,8.1,4.2,11.9c1.1,2.2,2.6,4,4.7,5.3c3.1,2.1,6.3,2,9.2-0.3c1.1-0.9,2.2-1.8,3-2.9
			c1.9-2.4,3.5-4.9,5.3-7.4c0.5-0.7,0.7-1.5,0.6-2.4c-0.7-7.6-0.8-15.2-0.6-22.8c0.3-13.2,1.9-26.2,5.7-38.8c1.3-4.5,3.1-8.9,5.6-13
			c2.4-4,5.5-7.2,9.7-9.4c3.4-1.7,6.8-2.3,10.5-1c2.8,0.9,4.9,2.7,6.6,5.1c2.1,2.9,3.2,6.2,3.7,9.8c0.9,6.4,0,12.6-1.8,18.8
			c-1.1,3.8-2.6,7.5-4.4,11.1c-4,8-9.2,15.3-15.5,21.6c-1.3,1.3-2.8,2.5-4.2,3.7c-0.6,0.5-0.8,1-0.8,1.8c0.1,8.4,0.8,16.8,2.5,25
			c0.7,3.6,1.5,7.2,2.4,10.7c0.8,3,2,5.9,3.6,8.7c0.4,0.6,0.8,1.3,1.3,1.8c1.4,1.6,2.4,1.7,3.9,0.2c1.2-1.3,2.4-2.7,3.2-4.2
			c1-1.9,1.9-3.9,2.6-5.9c1.7-5.4,3.3-10.8,4.9-16.3c0.1-0.4,0.1-0.9,0-1.2c-2.7-6-3.3-12.4-3.2-18.8c0-2.7,0.2-5.4,0.9-8.1
			c0.5-1.8,1.2-3.5,2.5-5c1.9-2.1,4.6-2.8,6.9-1.8c1.8,0.8,3,2.2,3.5,4c0.4,1.5,0.6,3,0.6,4.6c0.1,2.7,0.1,5.3,0.2,8
			c0.2,5.3,1.4,10.3,3.8,15c0.4,0.8,0.9,1.5,1.5,2.2c1.3,1.6,3.2,2.1,5.2,1.4c2.9-1,5-3,6.8-5.5c1.8-2.5,3.1-5.2,4.2-8.1
			c2.8-6.9,4.7-14,6.2-21.3c0.3-1.6,0.7-3.2,1.1-4.8c0.2-0.6,0.4-1.3,0.6-1.9c1.3-3,4.3-4.2,7.4-2.9c1.3,0.6,2.4,1.5,3.3,2.6
			c1.4,1.7,2.3,3.6,3.1,5.6c1.6,4.1,2.5,8.3,3.1,12.7c0.9,6.8,1.4,13.6,1.8,20.4c0.1,2.5,0.3,5.1,0.4,7.6c0,0.2,0.1,0.4,0.1,0.6
			c0.1,0,0.2,0,0.2,0c4.6-3.5,9.1-7.1,12.2-12.1c1.2-1.9,2.3-3.9,3.4-5.8c0.3-0.6,0.7-1.1,1.1-1.6c0.8-1.1,1.9-1.3,2.8-0.8
			c0.9,0.6,1.1,1.5,0.6,2.7c-3.5,9-9.2,16.3-16.9,22c-0.8,0.6-1.6,1.3-2.5,1.9c-0.6,0.4-0.8,0.9-0.7,1.5c0,2.3,0,4.5,0,6.8
			c-0.1,5.9-0.4,11.8-1.4,17.6c-0.9,5-2.1,10-4.3,14.7c-1.7,3.6-3.8,6.9-6.9,9.4c-3,2.5-6.5,4.1-10.5,4.2c-3.7,0.1-7-1.1-9.8-3.5
			c-3.3-2.8-5.1-6.5-6.1-10.5c-1.9-7.2-0.6-13.9,3.1-20.3c2.1-3.6,4.9-6.6,8.2-9.1c3.6-2.7,7.4-4.9,11.4-7c1.1-0.6,1.5-1.2,1.4-2.4
			c-0.3-5.5-0.5-11-0.8-16.4c-0.2-3.7-0.4-7.3-0.7-10.9c-0.4-5.6-0.9-11.2-1.5-16.9c-0.1,0.3-0.3,0.6-0.4,0.9c-1,3.3-2.1,6.6-3,9.9
			c-1.5,5.1-3.2,10.1-5.4,14.9c-1.5,3.3-3.5,6.4-6.1,9.1c-1.7,1.8-3.8,3.2-6.1,4.3c-5.1,2.3-9.9,1.6-14.4-1.5
			c-1.3-0.9-2.5-2.1-3.9-3.2c-0.1,0.3-0.2,0.6-0.3,0.8c-1.2,4.5-2.4,9-3.6,13.4c-0.9,3.3-2.3,6.5-4,9.4c-0.8,1.4-1.7,2.8-2.8,4
			c-2.6,3-5.9,4.1-9.9,3c-3.2-0.9-5.8-2.5-8.2-4.8c-3.1-2.9-5.3-6.4-7-10.3c-2.4-5.4-3.8-11.1-4.7-17c-0.1-0.4-0.2-0.8-0.3-1.5
			c-0.3,0.6-0.6,0.9-0.8,1.2c-1.6,2.8-3.3,5.6-5.6,7.9c-5.4,5.4-11.8,6.5-18.9,4.2c-2.3-0.8-4.4-2.1-6.3-3.7
			c-5.7-4.9-9.3-11-10.9-18.4c-0.7-3.4-1.3-6.8-1.2-10.3c0-0.7,0-1.5,0-2.3c-4.9-2.1-9.2-4.8-12.9-9c-0.3,0.9-0.5,1.5-0.6,2.1
			c-1,5-2.1,10-3.1,15c-1.2,6.3-2.5,12.6-4.8,18.6c-1,2.6-2.1,5.1-3.7,7.4c-0.5,0.7-1,1.3-1.6,1.9c-2.4,2.2-5.1,2.6-8,1
			c-3-1.6-5.4-3.9-7.2-6.7c-3.7-5.7-5.9-11.9-7-18.5c-0.4-2.3-0.7-4.5-1-6.9c-0.4,0.2-0.7,0.3-0.9,0.4c-1.6,0.9-3.1,1.9-4.7,2.8
			c-0.7,0.4-0.9,0.9-0.8,1.7c1,10.2-0.5,19.9-5.1,29.1c-1.9,3.7-4.3,6.9-7.7,9.4c-6.7,4.9-13.9,5.3-21.2,1.3
			c-7.2-3.9-11.2-10.1-12.6-18c-0.1-0.6-0.2-1.2-0.4-2.1c-0.3,0.7-0.5,1.2-0.7,1.7c-1,2.7-2,5.4-3.1,8.1c-0.9,2.2-2.1,4.2-3.5,6.1
			c-4.6,5.9-11.7,7.8-18.6,4.8c-4.6-2-8.5-5-11.7-8.8c-4.2-5-7-10.8-8.9-17.1c-1.6-5.3-2.7-10.6-2.9-16.2c-0.2-4.4-0.4-8.8-0.2-13.2
			c0.7-12.9,3.3-25.4,8.9-37.2c1.9-4,4.3-7.8,7.4-11.1c1.6-1.8,3.5-3.3,5.6-4.5c3-1.8,6.3-2.6,9.8-2.2c3.4,0.4,5.9,2.1,7.7,5.1
			c1.8,3.1,2.7,6.6,3.1,10.2c0.8,7.3-0.7,14.2-3.2,20.9c-3.3,8.8-8.1,16.7-14,23.9c-2.6,3.2-5.7,6-9.1,8.3c-0.2,0.2-0.5,0.3-0.7,0.5
			C69.8,164.6,69.7,164.7,69.6,164.9z M120.6,166.4c9.1,2,17.8,1,26.1-2.9c0-0.4,0-0.5,0-0.6c-1.5-6.9-4.3-13.3-9-18.6
			c-3.6-4-7.8-7.1-13-8.7c-5.9-1.9-12,0.1-15.5,4.8c-2.3,3.2-3.6,6.7-3.2,10.7c0.2,2.5,1.1,4.8,2.4,7.1c0.3-0.4,0.5-0.7,0.6-0.9
			c0.9-1.1,1.6-2.3,2.6-3.3c1.3-1.4,2.8-2.4,4.6-2.8c3.5-0.9,6.6,1.4,6.6,5c0,0.7,0,1.5-0.2,2.2C122,160.9,121.3,163.5,120.6,166.4z
			 M69.3,160.2c0.3-0.2,0.5-0.3,0.7-0.5c1.2-1,2.5-2,3.6-3.2c7-7.1,12.3-15.5,16-24.7c1.9-4.7,3.1-9.6,3-14.8
			c0-3.7-0.6-7.4-2.3-10.8c-0.4-0.9-1.1-1.7-1.7-2.4c-0.7-0.9-1.6-1-2.7-0.6c-1.2,0.5-2.2,1.3-3,2.2c-1.9,2.2-3.4,4.6-4.4,7.3
			c-1.4,3.5-2.8,7.1-4,10.7c-2.8,8.4-4.6,17.1-5.2,26C69.1,153,69.3,156.5,69.3,160.2z M147.2,166.7c-8.6,5.4-18,7.2-28.1,6.7
			c-0.1,1.9-0.3,3.6-0.3,5.3c-0.1,5,0.9,9.8,2.8,14.4c1.1,2.6,3,4.6,5.4,6.1c1.3,0.8,2.8,1.2,4.3,1.2c3.4,0,6.2-1.4,8.6-3.8
			c1.6-1.6,2.8-3.5,3.8-5.6c3.5-7.4,4.4-15.2,3.9-23.3C147.4,167.4,147.3,167.2,147.2,166.7z M264.5,150.6c0.3-0.3,0.5-0.4,0.6-0.6
			c7.8-8.5,13.7-18.1,17.5-29c1.9-5.5,3-11.2,2.7-17.1c-0.1-2.5-0.6-4.9-1.7-7.2c-0.6-1.2-1.3-2.2-2.4-2.9c-0.8-0.5-1.6-0.7-2.5-0.3
			c-1.1,0.5-2,1.1-2.6,2.1c-0.7,1.2-1.5,2.4-2.1,3.7c-2,4.1-3.6,8.4-4.8,12.9c-2.9,10.7-4.3,21.6-4.8,32.6
			C264.5,146.6,264.5,148.5,264.5,150.6z M334.1,198.6c-0.5,0.3-0.8,0.4-1.1,0.6c-1.9,1.5-3.8,2.9-5.6,4.4c-2.3,2-4.2,4.3-5.8,6.8
			c-2.6,4.1-3.9,8.5-3.3,13.4c0.3,2.3,1.1,4.5,2.9,6.1c1.6,1.5,3.3,1.6,5.1,0.4c0.6-0.4,1.2-0.9,1.5-1.4c0.9-1.4,1.8-2.8,2.3-4.3
			c0.9-2.8,1.7-5.7,2.2-8.5c0.6-3.8,1-7.6,1.4-11.4C333.9,202.7,333.9,200.8,334.1,198.6z M222.4,154c2.8-0.7,5.2-1.8,7.1-3.6
			c1.5-1.4,2.6-3.1,2.9-5.2c0.3-1.9-0.2-3.6-1.6-5c-1.3-1.2-2.6-1.2-3.7,0.2c-0.4,0.5-0.8,1.2-1.1,1.8c-1.2,2.5-2.2,5.1-2.8,7.8
			C222.9,151.2,222.7,152.5,222.4,154z"/>
		<path class="st8" d="M158.1,219.9c-0.7,0.6-1.3,1-1.8,1.5c-2,1.9-3.5,4.2-4.8,6.5c-3.1,5.6-5.2,11.6-7,17.7
			c-1.7,5.8-3.1,11.6-3.8,17.6c-0.4,2.7-0.5,5.4-0.7,8.1c-0.3,3.7-3.4,5.8-6.9,4.5c-0.7-0.3-1.5-0.7-2.1-1.2
			c-0.8-0.7-1.6-1.6-2.3-2.5c-2.6-3.5-4-7.5-4.8-11.8c-1.1-5.8-2.2-11.7-3.4-17.5c-0.5-2.4-1.2-4.8-1.8-7.5c-0.5,0.6-0.9,1-1.3,1.4
			c-1.7,2.3-2.7,5-3.6,7.7c-1.5,5.1-2.5,10.3-2.9,15.6c-0.4,5-0.6,9.9-0.9,14.9c-0.2,3.4-0.5,6.8-0.8,10.2c-0.1,1-0.3,2-0.6,2.9
			c-1,3.1-3.9,4.6-7.1,3.6c-1.2-0.4-2.2-1-3.1-1.9c-2.8-2.9-4.7-6.4-5.6-10.4c-1.7-7.3-2.2-14.7-2.9-22.1c-0.5-6-1-12-1.7-18.1
			c-0.3-2.7-0.9-5.4-1.3-8c-0.1-0.4-0.2-0.8-0.4-1.2c-1.4,0.5-2.5,1.3-3.4,2.3c-1.4,1.7-2.9,3.4-4.1,5.2c-1.2,1.8-2.2,3.7-3.3,5.6
			c-0.2,0.4-0.4,0.7-0.6,1.1c-0.3,0.5-0.7,1-1.4,1c-0.8-0.1-1.2-0.7-1.4-1.4c-0.4-1.2-0.2-2.4,0.1-3.6c1.4-5.9,4.1-11.2,8.3-15.8
			c0.9-1,2-1.9,3.1-2.7c4.6-3.1,10.2-2.4,13.9,1.8c1.7,1.9,2.9,4.2,3.6,6.6c1,3.3,1.6,6.6,2,10.1c0.7,7.1,1.4,14.3,2,21.4
			c0.1,1.1,0.2,2.2,0.6,3.4c0.1-0.3,0.2-0.5,0.2-0.8c1.1-7.9,2.4-15.6,4.8-23.2c1.1-3.4,2.5-6.7,4.2-9.8c0.8-1.6,2-3,3.4-4
			c2-1.5,4.2-1.9,6.7-1c2.2,0.7,3.9,2.1,5.2,3.9c1.7,2.2,2.7,4.8,3.6,7.4c1.6,4.7,2.4,9.6,3.4,14.5c0.1,0.7,0.3,1.4,0.4,2.4
			c0.2-0.5,0.4-0.8,0.4-1.1c2-8.3,4.4-16.4,7.6-24.3c1.4-3.5,3-6.9,5-10.1c1.4-2.2,2.9-4.3,5-5.9c3.8-3,8-3,11.6,0.2
			c2.9,2.6,4.2,6,4.9,9.7c0.7,3.9,0.8,7.8,0.5,11.8c-0.4,6.2-0.9,12.3-1.3,18.5c-0.3,3.8-0.5,7.7-0.7,11.5c-0.2,4-0.4,8.1-0.5,12.1
			c-0.1,5.3,0,10.5,0.8,15.7c0.2,1.5,0.6,2.9,1.6,4.3c0.5-0.3,0.9-0.5,1.2-0.9c0.7-0.8,1.4-1.7,1.9-2.6c1-2,1.9-4.1,2.6-6.2
			c2.7-8.1,5.4-16.3,8-24.4c0.2-0.5,0.2-1,0.1-1.5c-0.7-4.2-0.9-8.4-0.3-12.6c0.1-0.6-0.2-1-0.5-1.3c-3.8-3.9-6.1-8.5-7-13.8
			c-0.9-5.4-0.3-10.6,2.4-15.4c4.7-8.4,13.8-12.1,23.1-9.3c6.8,2.1,12.2,6.3,16.5,11.8c4.2,5.4,6.6,11.6,8,18.3
			c0.1,0.6,0.2,1.2,0.4,2c1-0.5,2-1,2.9-1.5c0.9-0.5,2-0.7,2.5-1.5c0.5-0.7,0.4-1.9,0.6-2.8c0.5-2.1,0.9-4.3,1.5-6.4
			c0.4-1.4,1.1-2.7,2.2-3.7c3.2-3.5,8.1-2.7,10,1.6c0.6,1.4,0.9,3,0.9,4.5c-0.1,3.4-0.2,6.8-0.3,10.3c-0.1,3.8-0.2,7.6-0.2,11.4
			c0,2.7,0.3,5.4,0.7,8.2c0.2-0.9,0.4-1.7,0.6-2.6c1.2-5.6,2.8-11,4.8-16.3c1.3-3.4,2.9-6.7,5.3-9.6c1.1-1.3,2.3-2.6,3.7-3.6
			c3.4-2.5,7.2-2.3,10.5,0.3c2.5,2,4.1,4.6,5.3,7.5c1.2,3,1.9,6.2,2.2,9.4c0.4,4,0.7,8,1.1,12c0,0.3,0.1,0.5,0.3,0.9
			c0.2-0.5,0.4-0.9,0.6-1.4c1.6-4.4,3.5-8.7,6-12.7c1.3-2.1,2.8-4.1,4.7-5.7c1-0.9,2.2-1.7,3.4-2.3c3.7-1.9,7.3-1.2,10.2,1.7
			c1.9,1.9,3.2,4.1,3.9,6.6c0.6,2.3,1.1,4.7,1.4,7c0.3,2.8,0.3,5.6,0.4,8.4c0.2,3.9,0.3,7.8,0.4,11.7c0.1,2.5,0.1,5,0.4,7.4
			c0.3,3,0.5,6,1.4,8.9c0.6,1.7,1.2,3.3,2.1,4.9c1.4,2.4,3.3,2.8,5.8,1.6c0.7-0.3,1.3-0.8,1.9-1.3c2.5-2.1,4.6-4.4,6.2-7.2
			c1.5-2.6,2.8-5.2,4.2-7.8c2-3.9,6.7-13.7,7.1-14.7c0.2-0.5,0.4-1,0.7-1.4c0.7-1,1.9-1.3,3-0.9c1.2,0.4,1.9,1.5,1.8,2.7
			c0,0.5-0.2,1-0.3,1.5c-1.3,4.1-9.3,17.6-11,20.8c-2.4,4.3-5.3,8.2-8.9,11.6c-1.1,1.1-2.4,2.1-3.8,2.9c-2.7,1.7-5.6,1.9-8.7,0.9
			c-3.1-1.1-5.8-2.9-7.9-5.4c-3.7-4.4-6.1-9.5-7.4-15c-1.1-4.6-1.6-9.3-1.7-14.1c-0.1-6.1-0.2-12.2-0.3-18.3c0-1.3,0.1-2.6,0.1-3.9
			c0-0.6-0.1-1.2-0.1-2.1c-0.7,0.4-1.3,0.6-1.8,1c-1.7,1.2-3.1,2.8-4.3,4.6c-3,4.5-4.9,9.5-6.3,14.7c-1.2,4.5-2,9.1-2.3,13.7
			c-0.3,3.6-3.6,5.6-6.9,4.1c-1-0.4-1.8-1.1-2.6-1.9c-3.5-3.6-5-8.1-5.7-12.9c-0.5-3.1-0.7-6.3-0.9-9.5c-0.5-5.7-0.9-11.4-1.3-17.1
			c-0.1-1.1-0.2-2.2-0.3-3.2c-0.1-0.5-0.2-1-0.4-1.5c-1.1,0.2-1.9,0.9-2.6,1.6c-1.6,1.5-2.8,3.2-3.8,5c-2.6,4.4-4.2,9.2-5.4,14.1
			c-1.3,5.3-2.4,10.6-3.6,15.9c-0.2,0.9-0.5,1.8-0.8,2.7c-1.2,2.9-4,4-6.9,2.8c-1.3-0.5-2.3-1.4-3.2-2.5c-2.2-2.7-3.7-5.6-4.5-9
			c-0.8-3.5-1-7.1-1.2-10.7c-0.2-3.9-0.1-7.8,0.1-11.7c0-0.2,0-0.4-0.1-0.9c-1.6,1-3.2,1.9-4.7,2.8c0,2.3,0.1,4.5,0,6.7
			c-0.2,4.9-1.3,9.7-2.7,14.5c-0.9,3.1-1.9,6.2-3.5,9c-1.1,1.9-2.2,3.8-3.6,5.5c-4.2,5-10.6,6.4-16.7,4.1c-4.5-1.7-7.8-4.9-10.6-8.7
			c-1.6-2.3-2.9-4.7-3.8-7.3c-0.1-0.3-0.2-0.5-0.5-1.1c-0.2,0.7-0.4,1.2-0.5,1.7c-1.6,5.5-3.1,11.1-4.8,16.6c-1,3.1-2.1,6.1-3.4,9.1
			c-0.6,1.5-1.5,2.8-2.5,4.1c-2.7,3.4-6.4,3.8-10,1.5c-1.6-1-2.8-2.4-3.9-4c-2.3-3.5-3.9-7.3-5-11.3c-1.5-5.3-2.2-10.7-2.3-16.2
			c-0.1-6.9,0.5-13.7,1.1-20.5c0.5-5.9,0.9-11.8,1.2-17.7c0.2-3.3,0-6.6,0-9.8C158.2,221,158.1,220.7,158.1,219.9z M193.8,233.3
			c1.1-0.4,2.1-0.9,3.2-1.2c3-0.7,5.6,1,6.2,3.9c0.2,1.2,0.2,2.5,0.1,3.8c-0.1,1.2-0.4,2.4-0.6,3.6c4.4,2.8,14.3,3.2,22.1-0.7
			c0-0.3,0-0.5-0.1-0.8c-0.8-2.8-1.5-5.7-2.5-8.5c-1.6-4.6-4.1-8.5-7.8-11.7c-3.6-3.1-7.8-5.2-12.7-5.5c-4.7-0.3-7.6,1.7-9,6
			c-0.7,2.1-0.8,4.2-0.4,6.4C192.6,230.2,193,231.8,193.8,233.3z M201.1,253.9c-0.1,0.3-0.1,0.4-0.1,0.5c0,0.3,0,0.7,0,1
			c0.7,5.7,2.2,11.1,4.8,16.2c1.1,2.2,2.6,4.2,4.7,5.5c1.6,1,3.2,1.1,4.8,0.1c0.7-0.4,1.4-1,2-1.5c1.4-1.3,2.5-2.8,3.4-4.5
			c3.6-6.8,4.9-14.1,5-21.7c0-0.5-0.1-1-0.2-1.6C217.8,252.3,209.8,254.3,201.1,253.9z"/>
	</g>
	<g>
		<g>
			<path class="st128" d="M121.5,319.3c-0.5-0.4-0.8-0.7-1.2-0.9c-2.5-2-4.5-4.3-6-7.1c-3.8-6.9,0.4-16.7,8.4-18.5
				c0.9-0.2,1.8-0.3,2.7-0.2c2.7,0.1,5.2,1.1,7.5,2.5c1.9,1.1,2.9,3,3.4,5.1c0.1,0.5,0.1,1,0.1,1.5c-0.3,1.9-2.5,2.7-4,1.5
				c-0.3-0.3-0.6-0.6-0.8-0.9c-1.7-2.4-4.1-3.2-6.8-2c-2.8,1.2-5,4.2-3.7,8.1c1.2,3.6,3.7,5.8,7.2,7.1c4.5,1.6,9,2,13.7,0.9
				c8.4-1.9,16.7-3.8,25.1-5.7c6.6-1.5,13.3-2.8,20.1-3.6c7.7-1,15.3-0.5,22.8,1.8c3.1,1,6,2.5,8.5,4.7c2.3,2,4,4.5,4.4,7.6
				c0.1,0.6,0.1,1.2,0,1.8c-0.5,2.7-2.8,4.1-5.4,3.2c-0.8-0.3-1.7-0.7-2.4-1.2c-4.5-3-9.5-4.3-14.8-4.2c-6.3,0.1-12.4,1.4-18,4.6
				c-3.4,1.9-5.9,4.7-7.5,8.4c-1.7,4,0.7,9.6,6.4,10c1.9,0.1,3.8-0.2,5.6-1c2.3-1.1,3.4-3,3.1-5.1c0-0.3,0-0.6,0-1
				c0.1-1.1,0.7-1.9,1.5-2.2c1.1-0.3,2.4-0.1,3,0.8c0.5,0.8,0.9,1.7,1,2.6c0.4,2.7-0.5,5.1-2.5,7c-1.9,1.8-4.1,2.7-6.7,3.2
				c-4.2,0.7-8.2,0.3-12-2c-5.1-3-7.4-8.8-5.7-14.4c0.7-2.3,1.8-4.3,3.2-6.1c0.3-0.3,0.6-0.7,1.1-1.3c-0.7,0.1-1.2,0.2-1.6,0.3
				c-7,1.6-14,3.3-21.1,4.9c-6.2,1.4-12.4,2.6-18.8,3.3c-8.2,0.9-16.5,1.3-24.8,0.6c-9.6-0.8-18.9-3.2-27.5-7.6
				c-8.2-4.2-14.3-10.3-18.3-18.6c-2.1-4.5-3.2-9.3-2.9-14.3c0.4-5.6,2.3-10.5,6.9-14.1c5.7-4.6,12.9-3.5,17.2,0.5
				c1.7,1.6,2.7,3.5,3.3,5.7c0.2,0.5,0.2,1.2,0.1,1.8c-0.1,1.1-0.7,1.9-1.8,2.2c-1,0.3-1.9,0-2.6-0.7c-0.4-0.4-0.6-0.9-0.9-1.4
				c-0.4-0.7-0.8-1.3-1.2-1.9c-2-2.5-5.9-3.6-9.1-0.9c-1.7,1.4-2.7,3.1-3.3,5.2c-1,4-0.5,7.9,1,11.6c2.6,6.5,7.3,11.2,13.6,14.2
				c5,2.4,10.2,3.7,15.6,4.6c7.8,1.2,15.6,1.1,23.4,0.2C120.6,319.6,120.9,319.5,121.5,319.3z"/>
			<path class="st128" d="M359.5,305.2c0.7,0.1,1.3,0.2,1.9,0.4c1.6,0.5,3.2,1.1,4.4,2.3c4.3,4,6,8.9,5,14.6
				c-0.4,2.5-2.1,4.2-4.3,5.3c-1.1,0.6-2.3,0.3-2.9-0.6c-0.7-0.9-0.6-2.1,0.2-3c0.1-0.1,0.1-0.1,0.2-0.2c2-1.6,2-3.7,1.5-6
				c-0.5-2.1-1.4-4-3.2-5.4c-1.3-1-2.7-1.3-4.2-0.7c-1.8,0.8-3.6,1.6-5.2,2.7c-2.3,1.5-4.5,3.2-6.7,4.9c-2.7,2-5.6,3.6-8.6,4.9
				c-3.3,1.4-6.5,2.8-9.9,3.9c-5.6,1.8-11.4,2.3-17.2,1.9c-8.6-0.6-16.7-2.9-24.7-5.9c-4.1-1.6-8.2-3.2-12.5-4.1
				c-3.6-0.8-7.1-1.4-10.8-1.2c-3.8,0.2-7.6,0.8-11.2,2c-1.6,0.5-3.1,1.3-4.4,2.3c-0.6,0.4-1.2,0.9-1.8,1.2c-1.6,0.8-3-0.1-3-1.8
				c0-0.7,0.1-1.5,0.4-2.1c0.6-1.7,1.7-3.2,3-4.5c2.9-2.9,6.5-4.8,10.3-6.3c4.8-1.8,9.7-2.5,14.8-2.3c6.2,0.2,12.1,1.8,18,3.5
				c4.8,1.3,9.6,2.8,14.4,4.1c4.3,1.1,8.7,1.6,13.1,1.7c4.5,0,8.9-0.7,13.2-1.9c10.8-2.8,19.2-9.2,26.1-17.7c2.9-3.5,5.1-7.4,6-11.9
				c1.3-6.5,0.3-12.6-3.6-18c-0.5-0.7-1.2-1.3-1.7-1.9c-0.5-0.6-1-1.2-1.4-1.8c-0.7-1.3-0.2-2.6,1.1-3.3c1-0.5,2-0.6,3-0.3
				c2.3,0.7,4.1,2.1,5.6,3.9c2.9,3.5,4.3,7.6,4.9,12.1c1,8.5-1.4,16.3-5.7,23.5C362.1,301.1,360.8,303.1,359.5,305.2z"/>
		</g>
		<g>
			<path class="st129" d="M138.6,99.9c-4.6-7.7-13.4-4.9-15.8,1.1c-4.5,11.1,17,22.9,19.4,24.7c2.1,1.8,3.1,1.7,4,0.4
				C171,93.6,143,85.8,138.6,99.9z"/>
			<path class="st129" d="M232.3,303.3c-5.2-12.5-19.1-10.2-24.1-1.8c-9.2,15.5,20.6,38,23.8,41.2c2.8,3.1,4.3,3.2,6,1.5
				C282.5,301,242,283.2,232.3,303.3z"/>
			<path class="st129" d="M64.8,253.9c1.7-4.9-2.8-7.8-6.4-6.6c-6.6,2.1-3.9,16.1-3.8,17.8c0,1.6,0.4,2,1.3,2
				C79.6,265.9,72.7,250.6,64.8,253.9z"/>
			<path class="st129" d="M366.5,229.3c-3-5-8.7-3.2-10.3,0.7c-2.9,7.2,11,14.9,12.6,16c1.4,1.2,2,1.1,2.6,0.3
				C387.5,225.2,369.3,220.2,366.5,229.3z"/>
		</g>
	</g>
</g>
</svg>
